%!PS-Adobe-3.0 EPSF-3.0 
%%BoundingBox: 0 0 454 288
%%Pages: 0
%%Creator: LibreOffice 6.0
%%Title: none
%%CreationDate: none
%%LanguageLevel: 2
%%EndComments
%%BeginProlog
%%BeginResource: procset SDRes-Prolog 1.0 0
/b4_inc_state save def
/dict_count countdictstack def
/op_count count 1 sub def
userdict begin
0 setgray 0 setlinecap 1 setlinewidth 0 setlinejoin 10 setmiterlimit[] 0 setdash newpath
/languagelevel where {pop languagelevel 1 ne {false setstrokeadjust false setoverprint} if} if
/bdef {bind def} bind def
/c {setrgbcolor} bdef
/l {neg lineto} bdef
/rl {neg rlineto} bdef
/lc {setlinecap} bdef
/lj {setlinejoin} bdef
/lw {setlinewidth} bdef
/ml {setmiterlimit} bdef
/ld {setdash} bdef
/m {neg moveto} bdef
/ct {6 2 roll neg 6 2 roll neg 6 2 roll neg curveto} bdef
/r {rotate} bdef
/t {neg translate} bdef
/s {scale} bdef
/sw {show} bdef
/gs {gsave} bdef
/gr {grestore} bdef
/f {findfont dup length dict begin
{1 index /FID ne {def} {pop pop} ifelse} forall /Encoding ISOLatin1Encoding def
currentdict end /NFont exch definefont pop /NFont findfont} bdef
/p {closepath} bdef
/sf {scalefont setfont} bdef
/ef {eofill}bdef
/pc {closepath stroke}bdef
/ps {stroke}bdef
/pum {matrix currentmatrix}bdef
/pom {setmatrix}bdef
/bs {/aString exch def /nXOfs exch def /nWidth exch def currentpoint nXOfs 0 rmoveto pum nWidth aString stringwidth pop div 1 scale aString show pom moveto} bdef
%%EndResource
%%EndProlog
%%BeginSetup
%%EndSetup
%%Page: 1 1
%%BeginPageSetup
%%EndPageSetup
pum
0.02837 0.02834 s 
0 -10160 t
/tm matrix currentmatrix def
gs
0 0 m 16001 0 l 16001 10159 l 0 10159 l 0 0 l eoclip newpath
gs
0 0 m 16001 0 l 16001 10159 l 0 10159 l 0 0 l eoclip newpath
gs
0.933 0.933 0.933 c 4146 3955 m  399 3955 l  399 2126 l  7892 2126 l  7892 3955 l 
4146 3955 l  p ef
gr
gs
0 lw 1 lj 0.003 0.003 0.003 c 4146 3955 m  399 3955 l  399 2126 l  7892 2126 l 
7892 3955 l  4146 3955 l  pc
gr
pum
3477 3203 t
0.003 0.003 0.003 c 227 6 m  191 6 160 -1 133 -14 ct 106 -27 86 -46 71 -70 ct 56 -95 49 -125 49 -159 ct 
49 -438 l  108 -438 l  108 -164 l  108 -124 118 -94 139 -73 ct 159 -52 188 -42 226 -42 ct 
266 -42 296 -53 318 -74 ct 340 -96 351 -127 351 -168 ct 351 -438 l  410 -438 l 
410 -165 l  410 -129 402 -99 387 -73 ct 372 -47 351 -28 324 -14 ct 296 -1 264 6 227 6 ct 
p ef
885 -223 m  885 -178 876 -139 859 -105 ct 841 -71 816 -45 784 -27 ct 752 -9 715 0 672 0 ct 
509 0 l  509 -437 l  654 -437 l  728 -437 785 -419 825 -382 ct 865 -345 885 -292 885 -223 ct 
p
826 -223 m  826 -277 811 -319 781 -347 ct 752 -376 709 -390 652 -390 ct 568 -390 l 
568 -47 l  666 -47 l  698 -47 726 -55 750 -69 ct 774 -83 793 -103 806 -129 ct 
819 -156 826 -187 826 -223 ct p ef
1304 -305 m  1304 -264 1291 -231 1264 -207 ct 1237 -182 1200 -170 1154 -170 ct 
1025 -170 l  1025 1 l  966 1 l  966 -437 l  1150 -437 l  1199 -437 1237 -426 1264 -403 ct 
1291 -380 1304 -347 1304 -305 ct p
1245 -305 m  1245 -361 1211 -390 1143 -390 ct 1025 -390 l  1025 -217 l  1145 -217 l 
1211 -217 1245 -246 1245 -305 ct p ef
pom
gs
0.933 0.933 0.933 c 4146 5895 m  399 5895 l  399 4066 l  7892 4066 l  7892 5895 l 
4146 5895 l  p ef
gr
gs
0 lw 1 lj 4146 5895 m  399 5895 l  399 4066 l  7892 4066 l  7892 5895 l 
4146 5895 l  pc
gr
pum
1694 5143 t
361 -1 m  247 -182 l  111 -182 l  111 -1 l  52 -1 l  52 -437 l  258 -437 l 
307 -437 345 -426 372 -404 ct 398 -382 412 -352 412 -313 ct 412 -280 402 -253 383 -231 ct 
364 -209 338 -195 305 -189 ct 429 -1 l  361 -1 l  p
352 -312 m  352 -337 344 -357 326 -370 ct 309 -383 284 -390 252 -390 ct 111 -390 l 
111 -229 l  254 -229 l  285 -229 310 -236 327 -251 ct 344 -265 352 -286 352 -312 ct 
p ef
847 -305 m  847 -264 834 -231 807 -207 ct 780 -182 743 -170 697 -170 ct 568 -170 l 
568 1 l  509 1 l  509 -437 l  693 -437 l  742 -437 780 -426 807 -403 ct 834 -380 847 -347 847 -305 ct 
p
788 -305 m  788 -361 754 -390 686 -390 ct 568 -390 l  568 -217 l  688 -217 l 
754 -217 788 -246 788 -305 ct p ef
933 0 m  933 -438 l  992 -438 l  992 -48 l  1213 -48 l  1213 0 l  933 0 l 
p ef
1759 4 m  1722 4 1692 -9 1667 -36 ct 1651 -22 1633 -12 1613 -5 ct 1594 2 1573 6 1551 6 ct 
1507 6 1472 -5 1448 -26 ct 1424 -48 1411 -77 1411 -115 ct 1411 -173 1447 -217 1518 -248 ct 
1511 -261 1505 -276 1500 -294 ct 1495 -312 1493 -328 1493 -342 ct 1493 -373 1502 -397 1521 -414 ct 
1540 -431 1567 -440 1601 -440 ct 1633 -440 1658 -432 1677 -416 ct 1696 -401 1706 -379 1706 -352 ct 
1706 -327 1696 -306 1677 -287 ct 1658 -268 1625 -249 1579 -230 ct 1602 -188 1632 -145 1670 -102 ct 
1693 -136 1711 -179 1723 -229 ct 1768 -216 l  1755 -165 1733 -116 1702 -70 ct 
1722 -50 1743 -40 1766 -40 ct 1781 -40 1793 -42 1803 -45 ct 1803 -3 l  1791 1 1776 4 1759 4 ct 
p
1658 -352 m  1658 -367 1653 -379 1643 -388 ct 1633 -398 1619 -402 1601 -402 ct 
1581 -402 1566 -397 1556 -386 ct 1545 -376 1540 -361 1540 -342 ct 1540 -319 1547 -293 1560 -266 ct 
1587 -277 1607 -287 1620 -295 ct 1633 -303 1642 -312 1649 -321 ct 1655 -330 1658 -341 1658 -352 ct 
p
1636 -68 m  1595 -116 1562 -163 1537 -209 ct 1488 -189 1463 -157 1463 -116 ct 
1463 -91 1471 -71 1487 -57 ct 1503 -42 1525 -35 1553 -35 ct 1568 -35 1582 -38 1597 -43 ct 
1612 -49 1625 -57 1636 -68 ct p ef
pom
pum
3684 5143 t
325 -143 m  325 -97 313 -61 288 -34 ct 263 -7 228 6 184 6 ct 135 6 97 -12 71 -49 ct 
45 -86 32 -139 32 -209 ct 32 -284 46 -343 73 -383 ct 100 -424 139 -444 189 -444 ct 
254 -444 296 -414 313 -355 ct 260 -345 l  249 -381 225 -399 188 -399 ct 156 -399 131 -384 114 -354 ct 
96 -324 88 -282 88 -225 ct 98 -244 112 -258 131 -268 ct 149 -278 170 -283 194 -283 ct 
234 -283 266 -270 290 -245 ct 313 -220 325 -186 325 -143 ct p
269 -141 m  269 -173 261 -197 245 -214 ct 230 -231 208 -240 180 -240 ct 154 -240 133 -232 117 -217 ct 
101 -202 93 -181 93 -154 ct 93 -120 102 -93 118 -71 ct 135 -50 156 -39 182 -39 ct 
209 -39 230 -48 246 -66 ct 261 -84 269 -109 269 -141 ct p ef
403 0 m  403 -438 l  462 -438 l  462 -48 l  683 -48 l  683 0 l  403 0 l 
p ef
1029 -168 m  1029 -110 1017 -66 991 -37 ct 965 -8 927 6 878 6 ct 829 6 792 -9 767 -39 ct 
742 -69 730 -112 730 -168 ct 730 -284 780 -342 880 -342 ct 931 -342 969 -328 993 -300 ct 
1017 -272 1029 -228 1029 -168 ct p
971 -168 m  971 -215 964 -248 950 -269 ct 937 -291 913 -301 881 -301 ct 848 -301 825 -290 810 -269 ct 
796 -247 788 -214 788 -168 ct 788 -124 795 -91 810 -69 ct 824 -46 847 -35 878 -35 ct 
911 -35 935 -46 949 -68 ct 964 -89 971 -123 971 -168 ct p ef
1523 0 m  1452 0 l  1376 -278 l  1371 -295 1364 -326 1354 -371 ct 1349 -347 1345 -327 1341 -311 ct 
1337 -295 1309 -191 1256 0 ct 1185 0 l  1057 -438 l  1119 -438 l  1197 -160 l 
1206 -125 1215 -89 1223 -52 ct 1228 -75 1233 -100 1240 -127 ct 1246 -154 1275 -257 1326 -438 ct 
1383 -438 l  1459 -165 l  1470 -121 1479 -83 1486 -52 ct 1489 -63 l  1494 -87 1499 -106 1502 -121 ct 
1506 -136 1535 -242 1589 -438 ct 1651 -438 l  1523 0 l  p ef
2045 -305 m  2045 -264 2032 -231 2005 -207 ct 1978 -182 1941 -170 1895 -170 ct 
1766 -170 l  1766 1 l  1707 1 l  1707 -437 l  1891 -437 l  1940 -437 1978 -426 2005 -403 ct 
2032 -380 2045 -347 2045 -305 ct p
1986 -305 m  1986 -361 1952 -390 1884 -390 ct 1766 -390 l  1766 -217 l  1886 -217 l 
1952 -217 1986 -246 1986 -305 ct p ef
2394 0 m  2344 -128 l  2145 -128 l  2095 0 l  2033 0 l  2212 -438 l  2279 -438 l 
2454 0 l  2394 0 l  p
2244 -393 m  2242 -384 l  2236 -367 2229 -345 2219 -318 ct 2163 -174 l  2326 -174 l 
2270 -319 l  2264 -333 2259 -349 2253 -367 ct 2244 -393 l  p ef
2790 0 m  2557 -373 l  2558 -343 l  2560 -291 l  2560 0 l  2507 0 l  2507 -438 l 
2576 -438 l  2812 -62 l  2810 -103 2808 -132 2808 -151 ct 2808 -438 l  2862 -438 l 
2862 0 l  2790 0 l  p ef
pom
gs
0.933 0.933 0.933 c 4146 9772 m  399 9772 l  399 7943 l  7892 7943 l  7892 9772 l 
4146 9772 l  p ef
gr
gs
0 lw 1 lj 4146 9772 m  399 9772 l  399 7943 l  7892 7943 l  7892 9772 l 
4146 9772 l  pc
gr
pum
2190 9020 t
59 0 m  59 -438 l  118 -438 l  118 0 l  59 0 l  p ef
230 0 m  230 -437 l  562 -437 l  562 -389 l  289 -389 l  289 -249 l  543 -249 l 
543 -201 l  289 -201 l  289 -48 l  574 -48 l  574 0 l  230 0 l  p ef
653 0 m  653 -437 l  985 -437 l  985 -389 l  712 -389 l  712 -249 l  966 -249 l 
966 -201 l  712 -201 l  712 -48 l  997 -48 l  997 0 l  653 0 l  p ef
1076 0 m  1076 -437 l  1408 -437 l  1408 -389 l  1135 -389 l  1135 -249 l 
1389 -249 l  1389 -201 l  1135 -201 l  1135 -48 l  1420 -48 l  1420 0 l 
1076 0 l  p ef
1774 -122 m  1774 -82 1761 -50 1735 -28 ct 1709 -5 1673 6 1625 6 ct 1578 6 1541 -5 1515 -27 ct 
1489 -49 1476 -81 1476 -121 ct 1476 -150 1484 -174 1500 -193 ct 1516 -213 1537 -225 1563 -229 ct 
1563 -230 l  1539 -236 1520 -248 1506 -266 ct 1493 -285 1486 -307 1486 -332 ct 
1486 -365 1498 -392 1523 -413 ct 1548 -434 1582 -444 1624 -444 ct 1666 -444 1700 -434 1725 -414 ct 
1750 -393 1763 -366 1763 -331 ct 1763 -306 1756 -284 1742 -266 ct 1728 -247 1709 -235 1685 -231 ct 
1685 -229 l  1713 -225 1735 -213 1750 -194 ct 1766 -175 1774 -151 1774 -122 ct 
p
1705 -328 m  1705 -378 1678 -402 1624 -402 ct 1597 -402 1577 -396 1563 -384 ct 
1550 -371 1543 -353 1543 -328 ct 1543 -303 1550 -284 1564 -271 ct 1578 -258 1598 -251 1624 -251 ct 
1650 -251 1670 -257 1684 -269 ct 1698 -281 1705 -301 1705 -328 ct p
1716 -127 m  1716 -154 1708 -175 1691 -189 ct 1675 -202 1653 -209 1624 -209 ct 
1595 -209 1573 -202 1557 -187 ct 1541 -172 1533 -152 1533 -126 ct 1533 -66 1564 -36 1625 -36 ct 
1656 -36 1678 -43 1693 -58 ct 1708 -72 1716 -96 1716 -127 ct p ef
2127 -219 m  2127 -146 2114 -90 2089 -52 ct 2063 -13 2025 6 1975 6 ct 1925 6 1887 -13 1862 -51 ct 
1836 -90 1824 -146 1824 -219 ct 1824 -294 1836 -350 1861 -388 ct 1885 -425 1924 -444 1977 -444 ct 
2028 -444 2066 -425 2091 -387 ct 2115 -349 2127 -293 2127 -219 ct p
2071 -219 m  2071 -282 2063 -328 2049 -356 ct 2034 -385 2010 -399 1977 -399 ct 
1942 -399 1918 -385 1903 -357 ct 1888 -329 1880 -283 1880 -219 ct 1880 -157 1888 -112 1903 -83 ct 
1918 -54 1942 -40 1975 -40 ct 2008 -40 2032 -54 2048 -84 ct 2063 -113 2071 -158 2071 -219 ct 
p ef
2183 0 m  2183 -39 l  2193 -64 2206 -85 2222 -104 ct 2237 -122 2253 -139 2269 -154 ct 
2286 -169 2303 -183 2319 -196 ct 2336 -208 2350 -221 2364 -234 ct 2377 -247 2388 -260 2396 -274 ct 
2404 -289 2408 -304 2408 -322 ct 2408 -346 2401 -365 2387 -378 ct 2373 -391 2353 -398 2328 -398 ct 
2305 -398 2285 -392 2270 -379 ct 2254 -366 2245 -348 2242 -324 ct 2185 -329 l 
2190 -364 2204 -392 2230 -413 ct 2255 -434 2288 -444 2328 -444 ct 2372 -444 2406 -434 2430 -413 ct 
2454 -392 2465 -362 2465 -324 ct 2465 -307 2462 -290 2454 -274 ct 2446 -257 2434 -240 2419 -223 ct 
2404 -206 2375 -180 2331 -145 ct 2308 -126 2289 -108 2275 -93 ct 2261 -77 2251 -62 2244 -47 ct 
2472 -47 l  2472 0 l  2183 0 l  p ef
2560 0 m  2560 -68 l  2620 -68 l  2620 0 l  2560 0 l  p ef
2728 0 m  2728 -47 l  2840 -47 l  2840 -384 l  2741 -314 l  2741 -366 l 
2844 -438 l  2896 -438 l  2896 -47 l  3002 -47 l  3002 0 l  2728 0 l  p ef
3357 -143 m  3357 -96 3344 -60 3316 -34 ct 3289 -7 3251 6 3202 6 ct 3162 6 3129 -3 3104 -21 ct 
3079 -38 3063 -64 3056 -98 ct 3113 -104 l  3125 -61 3155 -40 3204 -40 ct 3234 -40 3257 -49 3274 -67 ct 
3291 -85 3300 -110 3300 -141 ct 3300 -169 3291 -191 3274 -208 ct 3257 -225 3234 -233 3205 -233 ct 
3190 -233 3176 -231 3163 -226 ct 3150 -221 3137 -213 3124 -202 ct 3069 -202 l 
3084 -437 l  3332 -437 l  3332 -390 l  3135 -390 l  3126 -251 l  3150 -270 3180 -279 3216 -279 ct 
3259 -279 3294 -266 3319 -241 ct 3345 -216 3357 -183 3357 -143 ct p ef
3440 0 m  3440 -68 l  3500 -68 l  3500 0 l  3440 0 l  p ef
3833 -99 m  3833 0 l  3780 0 l  3780 -99 l  3575 -99 l  3575 -142 l  3775 -438 l 
3833 -438 l  3833 -143 l  3895 -143 l  3895 -99 l  3833 -99 l  p
3780 -374 m  3780 -373 3777 -368 3772 -358 ct 3766 -348 3762 -341 3760 -338 ct 
3648 -172 l  3631 -149 l  3626 -143 l  3780 -143 l  3780 -374 l  p ef
pom
gs
0.933 0.933 0.933 c 4146 2015 m  399 2015 l  399 186 l  7892 186 l  7892 2015 l 
4146 2015 l  p ef
gr
gs
0 lw 1 lj 4146 2015 m  399 2015 l  399 186 l  7892 186 l  7892 2015 l 
4146 2015 l  pc
gr
pum
3318 1263 t
246 -396 m  197 -396 160 -380 133 -349 ct 106 -318 92 -275 92 -221 ct 92 -167 106 -124 134 -92 ct 
162 -59 200 -43 248 -43 ct 309 -43 355 -73 386 -134 ct 434 -109 l  416 -72 391 -43 359 -23 ct 
326 -4 288 6 245 6 ct 201 6 163 -3 131 -21 ct 99 -40 74 -66 58 -100 ct 41 -134 32 -174 32 -221 ct 
32 -291 51 -345 89 -385 ct 126 -424 178 -444 245 -444 ct 291 -444 330 -435 362 -417 ct 
393 -398 416 -371 430 -336 ct 374 -317 l  364 -343 348 -362 325 -375 ct 303 -389 276 -396 246 -396 ct 
p ef
783 -168 m  783 -110 771 -66 745 -37 ct 719 -8 681 6 632 6 ct 583 6 546 -9 521 -39 ct 
496 -69 484 -112 484 -168 ct 484 -284 534 -342 634 -342 ct 685 -342 723 -328 747 -300 ct 
771 -272 783 -228 783 -168 ct p
725 -168 m  725 -215 718 -248 704 -269 ct 691 -291 667 -301 635 -301 ct 602 -301 579 -290 564 -269 ct 
550 -247 542 -214 542 -168 ct 542 -124 549 -91 564 -69 ct 578 -46 601 -35 632 -35 ct 
665 -35 689 -46 703 -68 ct 718 -89 725 -123 725 -168 ct p ef
1171 0 m  1121 -128 l  922 -128 l  872 0 l  810 0 l  989 -438 l  1056 -438 l 
1231 0 l  1171 0 l  p
1021 -393 m  1019 -384 l  1013 -367 1006 -345 996 -318 ct 940 -174 l  1103 -174 l 
1047 -319 l  1041 -333 1036 -349 1030 -367 ct 1021 -393 l  p ef
1622 -305 m  1622 -264 1609 -231 1582 -207 ct 1555 -182 1518 -170 1472 -170 ct 
1343 -170 l  1343 1 l  1284 1 l  1284 -437 l  1468 -437 l  1517 -437 1555 -426 1582 -403 ct 
1609 -380 1622 -347 1622 -305 ct p
1563 -305 m  1563 -361 1529 -390 1461 -390 ct 1343 -390 l  1343 -217 l  1463 -217 l 
1529 -217 1563 -246 1563 -305 ct p ef
pom
gs
0.933 0.933 0.933 c 4146 7834 m  399 7834 l  399 6005 l  7892 6005 l  7892 7834 l 
4146 7834 l  p ef
gr
gs
0 lw 1 lj 4146 7834 m  399 7834 l  399 6005 l  7892 6005 l  7892 7834 l 
4146 7834 l  pc
gr
gs
1.000 1.000 1.000 c 4157 6844 m  601 6844 l  601 6082 l  7713 6082 l  7713 6844 l 
4157 6844 l  p ef
gr
gs
0 lw 1 lj 4157 6844 m  601 6844 l  601 6082 l  7713 6082 l  7713 6844 l 
4157 6844 l  pc
gr
pum
1920 6626 t
325 -143 m  325 -97 313 -61 288 -34 ct 263 -7 228 6 184 6 ct 135 6 97 -12 71 -49 ct 
45 -86 32 -139 32 -209 ct 32 -284 46 -343 73 -383 ct 100 -424 139 -444 189 -444 ct 
254 -444 296 -414 313 -355 ct 260 -345 l  249 -381 225 -399 188 -399 ct 156 -399 131 -384 114 -354 ct 
96 -324 88 -282 88 -225 ct 98 -244 112 -258 131 -268 ct 149 -278 170 -283 194 -283 ct 
234 -283 266 -270 290 -245 ct 313 -220 325 -186 325 -143 ct p
269 -141 m  269 -173 261 -197 245 -214 ct 230 -231 208 -240 180 -240 ct 154 -240 133 -232 117 -217 ct 
101 -202 93 -181 93 -154 ct 93 -120 102 -93 118 -71 ct 135 -50 156 -39 182 -39 ct 
209 -39 230 -48 246 -66 ct 261 -84 269 -109 269 -141 ct p ef
523 -2 m  504 3 486 5 466 5 ct 422 5 399 -20 399 -71 ct 399 -295 l  361 -295 l 
361 -336 l  402 -336 l  418 -411 l  455 -411 l  455 -336 l  517 -336 l 
517 -295 l  455 -295 l  455 -83 l  455 -67 458 -56 463 -49 ct 468 -43 478 -39 491 -39 ct 
498 -39 509 -41 523 -44 ct 523 -2 l  p ef
855 -168 m  855 -110 843 -66 817 -37 ct 791 -8 753 6 704 6 ct 655 6 618 -9 593 -39 ct 
568 -69 556 -112 556 -168 ct 556 -284 606 -342 706 -342 ct 757 -342 795 -328 819 -300 ct 
843 -272 855 -228 855 -168 ct p
797 -168 m  797 -215 790 -248 776 -269 ct 763 -291 739 -301 707 -301 ct 674 -301 651 -290 636 -269 ct 
622 -247 614 -214 614 -168 ct 614 -124 621 -91 636 -69 ct 650 -46 673 -35 704 -35 ct 
737 -35 761 -46 775 -68 ct 790 -89 797 -123 797 -168 ct p ef
1207 -170 m  1207 -52 1166 6 1084 6 ct 1032 6 998 -13 980 -52 ct 978 -52 l  979 -50 980 -33 980 1 ct 
980 132 l  924 132 l  924 -267 l  924 -302 923 -325 922 -336 ct 976 -336 l 
976 -335 976 -332 977 -327 ct 977 -322 978 -314 978 -304 ct 979 -293 979 -286 979 -282 ct 
980 -282 l  990 -303 1003 -318 1020 -328 ct 1036 -337 1057 -342 1084 -342 ct 
1125 -342 1156 -328 1177 -300 ct 1197 -273 1207 -229 1207 -170 ct p
1149 -168 m  1149 -215 1143 -249 1130 -269 ct 1117 -289 1097 -299 1070 -299 ct 
1048 -299 1030 -294 1018 -285 ct 1005 -276 996 -261 989 -241 ct 983 -221 980 -196 980 -164 ct 
980 -120 987 -87 1001 -66 ct 1015 -45 1038 -35 1069 -35 ct 1097 -35 1117 -45 1130 -66 ct 
1143 -86 1149 -120 1149 -168 ct p ef
1455 132 m  1455 -460 l  1581 -460 l  1581 -420 l  1509 -420 l  1509 92 l 
1581 92 l  1581 132 l  1455 132 l  p ef
2090 -143 m  2090 -97 2078 -61 2053 -34 ct 2028 -7 1993 6 1949 6 ct 1900 6 1862 -12 1836 -49 ct 
1810 -86 1797 -139 1797 -209 ct 1797 -284 1811 -343 1838 -383 ct 1865 -424 1904 -444 1954 -444 ct 
2019 -444 2061 -414 2078 -355 ct 2025 -345 l  2014 -381 1990 -399 1953 -399 ct 
1921 -399 1896 -384 1879 -354 ct 1861 -324 1853 -282 1853 -225 ct 1863 -244 1877 -258 1896 -268 ct 
1914 -278 1935 -283 1959 -283 ct 1999 -283 2031 -270 2055 -245 ct 2078 -220 2090 -186 2090 -143 ct 
p
2034 -141 m  2034 -173 2026 -197 2010 -214 ct 1995 -231 1973 -240 1945 -240 ct 
1919 -240 1898 -232 1882 -217 ct 1866 -202 1858 -181 1858 -154 ct 1858 -120 1867 -93 1883 -71 ct 
1900 -50 1921 -39 1947 -39 ct 1974 -39 1995 -48 2011 -66 ct 2026 -84 2034 -109 2034 -141 ct 
p ef
2507 -305 m  2507 -264 2494 -231 2467 -207 ct 2440 -182 2403 -170 2357 -170 ct 
2228 -170 l  2228 1 l  2169 1 l  2169 -437 l  2353 -437 l  2402 -437 2440 -426 2467 -403 ct 
2494 -380 2507 -347 2507 -305 ct p
2448 -305 m  2448 -361 2414 -390 2346 -390 ct 2228 -390 l  2228 -217 l  2348 -217 l 
2414 -217 2448 -246 2448 -305 ct p ef
3075 4 m  3038 4 3008 -9 2983 -36 ct 2967 -22 2949 -12 2929 -5 ct 2910 2 2889 6 2867 6 ct 
2823 6 2788 -5 2764 -26 ct 2740 -48 2727 -77 2727 -115 ct 2727 -173 2763 -217 2834 -248 ct 
2827 -261 2821 -276 2816 -294 ct 2811 -312 2809 -328 2809 -342 ct 2809 -373 2818 -397 2837 -414 ct 
2856 -431 2883 -440 2917 -440 ct 2949 -440 2974 -432 2993 -416 ct 3012 -401 3022 -379 3022 -352 ct 
3022 -327 3012 -306 2993 -287 ct 2974 -268 2941 -249 2895 -230 ct 2918 -188 2948 -145 2986 -102 ct 
3009 -136 3027 -179 3039 -229 ct 3084 -216 l  3071 -165 3049 -116 3018 -70 ct 
3038 -50 3059 -40 3082 -40 ct 3097 -40 3109 -42 3119 -45 ct 3119 -3 l  3107 1 3092 4 3075 4 ct 
p
2974 -352 m  2974 -367 2969 -379 2959 -388 ct 2949 -398 2935 -402 2917 -402 ct 
2897 -402 2882 -397 2872 -386 ct 2861 -376 2856 -361 2856 -342 ct 2856 -319 2863 -293 2876 -266 ct 
2903 -277 2923 -287 2936 -295 ct 2949 -303 2958 -312 2965 -321 ct 2971 -330 2974 -341 2974 -352 ct 
p
2952 -68 m  2911 -116 2878 -163 2853 -209 ct 2804 -189 2779 -157 2779 -116 ct 
2779 -91 2787 -71 2803 -57 ct 2819 -42 2841 -35 2869 -35 ct 2884 -35 2898 -38 2913 -43 ct 
2928 -49 2941 -57 2952 -68 ct p ef
3700 -121 m  3700 -81 3685 -49 3653 -27 ct 3622 -5 3577 6 3520 6 ct 3413 6 3352 -31 3335 -105 ct 
3392 -117 l  3399 -90 3413 -71 3434 -59 ct 3456 -46 3485 -40 3522 -40 ct 3560 -40 3590 -47 3611 -60 ct 
3631 -73 3642 -92 3642 -118 ct 3642 -132 3639 -144 3632 -153 ct 3626 -161 3616 -169 3605 -175 ct 
3593 -180 3579 -185 3562 -189 ct 3546 -193 3528 -197 3508 -202 ct 3474 -210 3447 -217 3430 -225 ct 
3412 -233 3398 -241 3387 -250 ct 3377 -260 3369 -271 3364 -284 ct 3358 -296 3355 -311 3355 -327 ct 
3355 -364 3370 -393 3398 -414 ct 3427 -434 3468 -444 3521 -444 ct 3571 -444 3609 -436 3635 -421 ct 
3661 -406 3680 -380 3690 -343 ct 3632 -333 l  3625 -356 3613 -373 3595 -384 ct 
3577 -394 3552 -399 3521 -399 ct 3486 -399 3459 -394 3441 -382 ct 3422 -370 3413 -353 3413 -330 ct 
3413 -317 3417 -306 3424 -297 ct 3431 -288 3441 -281 3455 -274 ct 3468 -268 3495 -261 3535 -252 ct 
3548 -249 3562 -246 3575 -242 ct 3588 -239 3601 -235 3613 -231 ct 3625 -226 3637 -221 3648 -215 ct 
3658 -209 3667 -202 3675 -193 ct 3683 -185 3689 -174 3694 -163 ct 3698 -151 3700 -137 3700 -121 ct 
p ef
3841 -389 m  3841 -226 l  4085 -226 l  4085 -177 l  3841 -177 l  3841 0 l 
3782 0 l  3782 -437 l  4092 -437 l  4092 -389 l  3841 -389 l  p ef
4302 132 m  4302 92 l  4374 92 l  4374 -420 l  4302 -420 l  4302 -460 l 
4428 -460 l  4428 132 l  4302 132 l  p ef
pom
gs
1.000 1.000 1.000 c 4157 7708 m  601 7708 l  601 6946 l  7713 6946 l  7713 7708 l 
4157 7708 l  p ef
gr
gs
0 lw 1 lj 4157 7708 m  601 7708 l  601 6946 l  7713 6946 l  7713 7708 l 
4157 7708 l  pc
gr
pum
1255 7490 t
59 0 m  59 -438 l  118 -438 l  118 0 l  59 0 l  p ef
230 0 m  230 -437 l  562 -437 l  562 -389 l  289 -389 l  289 -249 l  543 -249 l 
543 -201 l  289 -201 l  289 -48 l  574 -48 l  574 0 l  230 0 l  p ef
653 0 m  653 -437 l  985 -437 l  985 -389 l  712 -389 l  712 -249 l  966 -249 l 
966 -201 l  712 -201 l  712 -48 l  997 -48 l  997 0 l  653 0 l  p ef
1076 0 m  1076 -437 l  1408 -437 l  1408 -389 l  1135 -389 l  1135 -249 l 
1389 -249 l  1389 -201 l  1135 -201 l  1135 -48 l  1420 -48 l  1420 0 l 
1076 0 l  p ef
1774 -122 m  1774 -82 1761 -50 1735 -28 ct 1709 -5 1673 6 1625 6 ct 1578 6 1541 -5 1515 -27 ct 
1489 -49 1476 -81 1476 -121 ct 1476 -150 1484 -174 1500 -193 ct 1516 -213 1537 -225 1563 -229 ct 
1563 -230 l  1539 -236 1520 -248 1506 -266 ct 1493 -285 1486 -307 1486 -332 ct 
1486 -365 1498 -392 1523 -413 ct 1548 -434 1582 -444 1624 -444 ct 1666 -444 1700 -434 1725 -414 ct 
1750 -393 1763 -366 1763 -331 ct 1763 -306 1756 -284 1742 -266 ct 1728 -247 1709 -235 1685 -231 ct 
1685 -229 l  1713 -225 1735 -213 1750 -194 ct 1766 -175 1774 -151 1774 -122 ct 
p
1705 -328 m  1705 -378 1678 -402 1624 -402 ct 1597 -402 1577 -396 1563 -384 ct 
1550 -371 1543 -353 1543 -328 ct 1543 -303 1550 -284 1564 -271 ct 1578 -258 1598 -251 1624 -251 ct 
1650 -251 1670 -257 1684 -269 ct 1698 -281 1705 -301 1705 -328 ct p
1716 -127 m  1716 -154 1708 -175 1691 -189 ct 1675 -202 1653 -209 1624 -209 ct 
1595 -209 1573 -202 1557 -187 ct 1541 -172 1533 -152 1533 -126 ct 1533 -66 1564 -36 1625 -36 ct 
1656 -36 1678 -43 1693 -58 ct 1708 -72 1716 -96 1716 -127 ct p ef
2127 -219 m  2127 -146 2114 -90 2089 -52 ct 2063 -13 2025 6 1975 6 ct 1925 6 1887 -13 1862 -51 ct 
1836 -90 1824 -146 1824 -219 ct 1824 -294 1836 -350 1861 -388 ct 1885 -425 1924 -444 1977 -444 ct 
2028 -444 2066 -425 2091 -387 ct 2115 -349 2127 -293 2127 -219 ct p
2071 -219 m  2071 -282 2063 -328 2049 -356 ct 2034 -385 2010 -399 1977 -399 ct 
1942 -399 1918 -385 1903 -357 ct 1888 -329 1880 -283 1880 -219 ct 1880 -157 1888 -112 1903 -83 ct 
1918 -54 1942 -40 1975 -40 ct 2008 -40 2032 -54 2048 -84 ct 2063 -113 2071 -158 2071 -219 ct 
p ef
2183 0 m  2183 -39 l  2193 -64 2206 -85 2222 -104 ct 2237 -122 2253 -139 2269 -154 ct 
2286 -169 2303 -183 2319 -196 ct 2336 -208 2350 -221 2364 -234 ct 2377 -247 2388 -260 2396 -274 ct 
2404 -289 2408 -304 2408 -322 ct 2408 -346 2401 -365 2387 -378 ct 2373 -391 2353 -398 2328 -398 ct 
2305 -398 2285 -392 2270 -379 ct 2254 -366 2245 -348 2242 -324 ct 2185 -329 l 
2190 -364 2204 -392 2230 -413 ct 2255 -434 2288 -444 2328 -444 ct 2372 -444 2406 -434 2430 -413 ct 
2454 -392 2465 -362 2465 -324 ct 2465 -307 2462 -290 2454 -274 ct 2446 -257 2434 -240 2419 -223 ct 
2404 -206 2375 -180 2331 -145 ct 2308 -126 2289 -108 2275 -93 ct 2261 -77 2251 -62 2244 -47 ct 
2472 -47 l  2472 0 l  2183 0 l  p ef
2560 0 m  2560 -68 l  2620 -68 l  2620 0 l  2560 0 l  p ef
2728 0 m  2728 -47 l  2840 -47 l  2840 -384 l  2741 -314 l  2741 -366 l 
2844 -438 l  2896 -438 l  2896 -47 l  3002 -47 l  3002 0 l  2728 0 l  p ef
3357 -143 m  3357 -96 3344 -60 3316 -34 ct 3289 -7 3251 6 3202 6 ct 3162 6 3129 -3 3104 -21 ct 
3079 -38 3063 -64 3056 -98 ct 3113 -104 l  3125 -61 3155 -40 3204 -40 ct 3234 -40 3257 -49 3274 -67 ct 
3291 -85 3300 -110 3300 -141 ct 3300 -169 3291 -191 3274 -208 ct 3257 -225 3234 -233 3205 -233 ct 
3190 -233 3176 -231 3163 -226 ct 3150 -221 3137 -213 3124 -202 ct 3069 -202 l 
3084 -437 l  3332 -437 l  3332 -390 l  3135 -390 l  3126 -251 l  3150 -270 3180 -279 3216 -279 ct 
3259 -279 3294 -266 3319 -241 ct 3345 -216 3357 -183 3357 -143 ct p ef
3440 0 m  3440 -68 l  3500 -68 l  3500 0 l  3440 0 l  p ef
3833 -99 m  3833 0 l  3780 0 l  3780 -99 l  3575 -99 l  3575 -142 l  3775 -438 l 
3833 -438 l  3833 -143 l  3895 -143 l  3895 -99 l  3833 -99 l  p
3780 -374 m  3780 -373 3777 -368 3772 -358 ct 3766 -348 3762 -341 3760 -338 ct 
3648 -172 l  3631 -149 l  3626 -143 l  3780 -143 l  3780 -374 l  p ef
4300 -389 m  4300 0 l  4241 0 l  4241 -389 l  4091 -389 l  4091 -437 l 
4450 -437 l  4450 -389 l  4300 -389 l  p ef
4860 -121 m  4860 -81 4845 -49 4813 -27 ct 4782 -5 4737 6 4680 6 ct 4573 6 4512 -31 4495 -105 ct 
4552 -117 l  4559 -90 4573 -71 4594 -59 ct 4616 -46 4645 -40 4682 -40 ct 4720 -40 4750 -47 4771 -60 ct 
4791 -73 4802 -92 4802 -118 ct 4802 -132 4799 -144 4792 -153 ct 4786 -161 4776 -169 4765 -175 ct 
4753 -180 4739 -185 4722 -189 ct 4706 -193 4688 -197 4668 -202 ct 4634 -210 4607 -217 4590 -225 ct 
4572 -233 4558 -241 4547 -250 ct 4537 -260 4529 -271 4524 -284 ct 4518 -296 4515 -311 4515 -327 ct 
4515 -364 4530 -393 4558 -414 ct 4587 -434 4628 -444 4681 -444 ct 4731 -444 4769 -436 4795 -421 ct 
4821 -406 4840 -380 4850 -343 ct 4792 -333 l  4785 -356 4773 -373 4755 -384 ct 
4737 -394 4712 -399 4681 -399 ct 4646 -399 4619 -394 4601 -382 ct 4582 -370 4573 -353 4573 -330 ct 
4573 -317 4577 -306 4584 -297 ct 4591 -288 4601 -281 4615 -274 ct 4628 -268 4655 -261 4695 -252 ct 
4708 -249 4722 -246 4735 -242 ct 4748 -239 4761 -235 4773 -231 ct 4785 -226 4797 -221 4808 -215 ct 
4818 -209 4827 -202 4835 -193 ct 4843 -185 4849 -174 4854 -163 ct 4858 -151 4860 -137 4860 -121 ct 
p ef
5136 -396 m  5087 -396 5050 -380 5023 -349 ct 4996 -318 4982 -275 4982 -221 ct 
4982 -167 4996 -124 5024 -92 ct 5052 -59 5090 -43 5138 -43 ct 5199 -43 5245 -73 5276 -134 ct 
5324 -109 l  5306 -72 5281 -43 5249 -23 ct 5216 -4 5178 6 5135 6 ct 5091 6 5053 -3 5021 -21 ct 
4989 -40 4964 -66 4948 -100 ct 4931 -134 4922 -174 4922 -221 ct 4922 -291 4941 -345 4979 -385 ct 
5016 -424 5068 -444 5135 -444 ct 5181 -444 5220 -435 5252 -417 ct 5283 -398 5306 -371 5320 -336 ct 
5264 -317 l  5254 -343 5238 -362 5215 -375 ct 5193 -389 5166 -396 5136 -396 ct 
p ef
5695 -1 m  5695 -203 l  5458 -203 l  5458 -1 l  5399 -1 l  5399 -438 l 
5458 -438 l  5458 -253 l  5695 -253 l  5695 -438 l  5754 -438 l  5754 -1 l 
5695 -1 l  p ef
pom
gs
0.933 0.933 0.933 c 11864 3956 m  8117 3956 l  8117 2127 l  15610 2127 l 
15610 3956 l  11864 3956 l  p ef
gr
gs
0 lw 1 lj 11864 3956 m  8117 3956 l  8117 2127 l  15610 2127 l  15610 3956 l 
11864 3956 l  pc
gr
pum
10520 3204 t
223 -389 m  223 0 l  164 0 l  164 -389 l  14 -389 l  14 -437 l  373 -437 l 
373 -389 l  223 -389 l  p ef
408 0 m  408 -258 l  408 -281 407 -307 406 -336 ct 459 -336 l  461 -298 461 -275 461 -267 ct 
463 -267 l  471 -296 482 -316 493 -326 ct 505 -337 521 -342 542 -342 ct 550 -342 557 -341 565 -339 ct 
565 -288 l  557 -290 548 -291 535 -291 ct 512 -291 494 -281 482 -261 ct 470 -241 464 -212 464 -175 ct 
464 0 l  408 0 l  p ef
704 6 m  671 6 645 -3 628 -21 ct 611 -38 603 -63 603 -94 ct 603 -129 614 -155 637 -174 ct 
660 -192 697 -202 748 -204 ct 823 -205 l  823 -223 l  823 -250 817 -270 806 -282 ct 
794 -294 776 -299 751 -299 ct 726 -299 708 -295 697 -287 ct 685 -278 678 -265 676 -246 ct 
618 -251 l  627 -312 672 -342 752 -342 ct 795 -342 826 -332 848 -313 ct 869 -294 880 -266 880 -229 ct 
880 -85 l  880 -68 882 -55 886 -47 ct 890 -39 899 -35 911 -35 ct 916 -35 922 -35 929 -37 ct 
929 -2 l  915 1 901 3 886 3 ct 865 3 850 -2 841 -13 ct 832 -24 826 -41 825 -64 ct 
823 -64 l  809 -39 792 -21 773 -10 ct 754 1 731 6 704 6 ct p
717 -36 m  738 -36 756 -41 772 -50 ct 788 -59 800 -72 809 -88 ct 819 -104 823 -121 823 -138 ct 
823 -166 l  762 -165 l  736 -164 716 -161 702 -157 ct 689 -152 678 -144 671 -134 ct 
664 -123 660 -110 660 -93 ct 660 -75 665 -61 675 -51 ct 685 -41 699 -36 717 -36 ct 
p ef
1183 0 m  1183 -213 l  1183 -235 1181 -252 1176 -264 ct 1172 -277 1165 -285 1156 -291 ct 
1146 -296 1132 -299 1114 -299 ct 1087 -299 1066 -290 1050 -271 ct 1035 -253 1027 -227 1027 -195 ct 
1027 0 l  971 0 l  971 -264 l  971 -303 970 -327 969 -336 ct 1022 -336 l 
1022 -335 1022 -332 1023 -327 ct 1023 -323 1023 -318 1023 -312 ct 1024 -306 1024 -295 1024 -278 ct 
1025 -278 l  1038 -302 1053 -318 1070 -328 ct 1087 -337 1108 -342 1133 -342 ct 
1169 -342 1196 -333 1213 -315 ct 1230 -296 1239 -266 1239 -224 ct 1239 0 l  1183 0 l 
p ef
1573 -93 m  1573 -61 1561 -37 1537 -20 ct 1513 -3 1479 6 1436 6 ct 1395 6 1363 -1 1340 -15 ct 
1317 -28 1303 -50 1296 -79 ct 1345 -89 l  1350 -71 1360 -57 1374 -49 ct 1389 -41 1410 -37 1436 -37 ct 
1465 -37 1485 -41 1499 -50 ct 1512 -58 1518 -71 1518 -89 ct 1518 -102 1514 -113 1505 -121 ct 
1496 -129 1481 -136 1461 -141 ct 1421 -152 l  1389 -160 1366 -168 1352 -176 ct 
1339 -184 1328 -194 1320 -205 ct 1313 -217 1309 -231 1309 -247 ct 1309 -278 1320 -301 1342 -317 ct 
1364 -333 1395 -341 1437 -341 ct 1474 -341 1503 -335 1525 -322 ct 1547 -309 1561 -288 1567 -259 ct 
1516 -253 l  1513 -268 1505 -279 1491 -287 ct 1478 -295 1460 -299 1437 -299 ct 
1412 -299 1393 -295 1381 -288 ct 1369 -280 1363 -268 1363 -253 ct 1363 -243 1366 -235 1371 -229 ct 
1376 -223 1383 -218 1393 -213 ct 1402 -209 1423 -203 1454 -195 ct 1484 -188 1505 -181 1518 -175 ct 
1531 -168 1541 -161 1549 -154 ct 1556 -146 1562 -137 1566 -127 ct 1571 -117 1573 -106 1573 -93 ct 
p ef
1922 -170 m  1922 -52 1881 6 1799 6 ct 1747 6 1713 -13 1695 -52 ct 1693 -52 l 
1694 -50 1695 -33 1695 1 ct 1695 132 l  1639 132 l  1639 -267 l  1639 -302 1638 -325 1637 -336 ct 
1691 -336 l  1691 -335 1691 -332 1692 -327 ct 1692 -322 1693 -314 1693 -304 ct 
1694 -293 1694 -286 1694 -282 ct 1695 -282 l  1705 -303 1718 -318 1735 -328 ct 
1751 -337 1772 -342 1799 -342 ct 1840 -342 1871 -328 1892 -300 ct 1912 -273 1922 -229 1922 -170 ct 
p
1864 -168 m  1864 -215 1858 -249 1845 -269 ct 1832 -289 1812 -299 1785 -299 ct 
1763 -299 1745 -294 1733 -285 ct 1720 -276 1711 -261 1704 -241 ct 1698 -221 1695 -196 1695 -164 ct 
1695 -120 1702 -87 1716 -66 ct 1730 -45 1753 -35 1784 -35 ct 1812 -35 1832 -45 1845 -66 ct 
1858 -86 1864 -120 1864 -168 ct p ef
2273 -168 m  2273 -110 2261 -66 2235 -37 ct 2209 -8 2171 6 2122 6 ct 2073 6 2036 -9 2011 -39 ct 
1986 -69 1974 -112 1974 -168 ct 1974 -284 2024 -342 2124 -342 ct 2175 -342 2213 -328 2237 -300 ct 
2261 -272 2273 -228 2273 -168 ct p
2215 -168 m  2215 -215 2208 -248 2194 -269 ct 2181 -291 2157 -301 2125 -301 ct 
2092 -301 2069 -290 2054 -269 ct 2040 -247 2032 -214 2032 -168 ct 2032 -124 2039 -91 2054 -69 ct 
2068 -46 2091 -35 2122 -35 ct 2155 -35 2179 -46 2193 -68 ct 2208 -89 2215 -123 2215 -168 ct 
p ef
2343 0 m  2343 -258 l  2343 -281 2342 -307 2341 -336 ct 2394 -336 l  2396 -298 2396 -275 2396 -267 ct 
2398 -267 l  2406 -296 2417 -316 2428 -326 ct 2440 -337 2456 -342 2477 -342 ct 
2485 -342 2492 -341 2500 -339 ct 2500 -288 l  2492 -290 2483 -291 2470 -291 ct 
2447 -291 2429 -281 2417 -261 ct 2405 -241 2399 -212 2399 -175 ct 2399 0 l  2343 0 l 
p ef
2682 -2 m  2663 3 2645 5 2625 5 ct 2581 5 2558 -20 2558 -71 ct 2558 -295 l  2520 -295 l 
2520 -336 l  2561 -336 l  2577 -411 l  2614 -411 l  2614 -336 l  2676 -336 l 
2676 -295 l  2614 -295 l  2614 -83 l  2614 -67 2617 -56 2622 -49 ct 2627 -43 2637 -39 2650 -39 ct 
2657 -39 2668 -41 2682 -44 ct 2682 -2 l  p ef
pom
gs
0.933 0.933 0.933 c 11864 5896 m  8117 5896 l  8117 4067 l  15610 4067 l 
15610 5896 l  11864 5896 l  p ef
gr
gs
0 lw 1 lj 11864 5896 m  8117 5896 l  8117 4067 l  15610 4067 l  15610 5896 l 
11864 5896 l  pc
gr
pum
10702 5144 t
335 0 m  102 -373 l  103 -343 l  105 -291 l  105 0 l  52 0 l  52 -438 l 
121 -438 l  357 -62 l  355 -103 353 -132 353 -151 ct 353 -438 l  407 -438 l 
407 0 l  335 0 l  p ef
543 -156 m  543 -118 551 -88 566 -67 ct 582 -46 606 -36 636 -36 ct 660 -36 680 -41 694 -50 ct 
709 -60 719 -72 724 -87 ct 773 -73 l  753 -20 707 6 636 6 ct 587 6 549 -9 523 -38 ct 
497 -68 484 -112 484 -170 ct 484 -226 497 -268 523 -298 ct 549 -327 586 -342 634 -342 ct 
733 -342 782 -283 782 -164 ct 782 -156 l  543 -156 l  p
724 -199 m  721 -234 712 -260 697 -277 ct 682 -293 661 -301 633 -301 ct 606 -301 585 -292 569 -274 ct 
553 -256 544 -231 543 -199 ct 724 -199 l  p ef
981 -2 m  962 3 944 5 924 5 ct 880 5 857 -20 857 -71 ct 857 -295 l  819 -295 l 
819 -336 l  860 -336 l  876 -411 l  913 -411 l  913 -336 l  975 -336 l 
975 -295 l  913 -295 l  913 -83 l  913 -67 916 -56 921 -49 ct 926 -43 936 -39 949 -39 ct 
956 -39 967 -41 981 -44 ct 981 -2 l  p ef
1350 0 m  1285 0 l  1227 -238 l  1215 -290 l  1214 -281 1211 -267 1207 -250 ct 
1203 -232 1182 -149 1144 0 ct 1079 0 l  985 -336 l  1040 -336 l  1097 -108 l 
1098 -103 1103 -82 1110 -46 ct 1116 -69 l  1186 -336 l  1246 -336 l  1304 -105 l 
1318 -46 l  1328 -89 l  1392 -336 l  1446 -336 l  1350 0 l  p ef
1770 -168 m  1770 -110 1758 -66 1732 -37 ct 1706 -8 1668 6 1619 6 ct 1570 6 1533 -9 1508 -39 ct 
1483 -69 1471 -112 1471 -168 ct 1471 -284 1521 -342 1621 -342 ct 1672 -342 1710 -328 1734 -300 ct 
1758 -272 1770 -228 1770 -168 ct p
1712 -168 m  1712 -215 1705 -248 1691 -269 ct 1678 -291 1654 -301 1622 -301 ct 
1589 -301 1566 -290 1551 -269 ct 1537 -247 1529 -214 1529 -168 ct 1529 -124 1536 -91 1551 -69 ct 
1565 -46 1588 -35 1619 -35 ct 1652 -35 1676 -46 1690 -68 ct 1705 -89 1712 -123 1712 -168 ct 
p ef
1839 0 m  1839 -258 l  1839 -281 1838 -307 1837 -336 ct 1890 -336 l  1892 -298 1892 -275 1892 -267 ct 
1894 -267 l  1902 -296 1913 -316 1924 -326 ct 1936 -337 1952 -342 1973 -342 ct 
1981 -342 1988 -341 1996 -339 ct 1996 -288 l  1988 -290 1979 -291 1966 -291 ct 
1943 -291 1925 -281 1913 -261 ct 1901 -241 1895 -212 1895 -175 ct 1895 0 l  1839 0 l 
p ef
2260 1 m  2147 -153 l  2106 -119 l  2106 1 l  2050 1 l  2050 -460 l  2106 -460 l 
2106 -172 l  2253 -335 l  2318 -335 l  2182 -191 l  2325 1 l  2260 1 l 
p ef
pom
gs
0.933 0.933 0.933 c 11864 9773 m  8117 9773 l  8117 7944 l  15610 7944 l 
15610 9773 l  11864 9773 l  p ef
gr
gs
0 lw 1 lj 11864 9773 m  8117 9773 l  8117 7944 l  15610 7944 l  15610 9773 l 
11864 9773 l  pc
gr
pum
10685 9021 t
390 -305 m  390 -264 377 -231 350 -207 ct 323 -182 286 -170 240 -170 ct 111 -170 l 
111 1 l  52 1 l  52 -437 l  236 -437 l  285 -437 323 -426 350 -403 ct 377 -380 390 -347 390 -305 ct 
p
331 -305 m  331 -361 297 -390 229 -390 ct 111 -390 l  111 -217 l  231 -217 l 
297 -217 331 -246 331 -305 ct p ef
521 -278 m  533 -299 548 -316 565 -326 ct 581 -336 603 -341 629 -341 ct 665 -341 692 -332 709 -314 ct 
726 -296 735 -266 735 -223 ct 735 1 l  679 1 l  679 -212 l  679 -236 677 -253 672 -265 ct 
668 -276 661 -285 651 -290 ct 641 -295 627 -298 610 -298 ct 583 -298 562 -289 547 -271 ct 
531 -253 523 -228 523 -197 ct 523 1 l  467 1 l  467 -460 l  523 -460 l  523 -340 l 
523 -327 522 -314 522 -301 ct 521 -287 521 -280 520 -278 ct 521 -278 l  p ef
834 132 m  819 132 806 131 796 129 ct 796 87 l  804 88 812 89 822 89 ct 857 89 884 63 904 12 ct 
910 -1 l  777 -336 l  836 -336 l  907 -150 l  908 -147 909 -144 911 -140 ct 
912 -135 917 -122 924 -99 ct 932 -76 937 -63 937 -61 ct 959 -122 l  1032 -336 l 
1091 -336 l  962 0 l  948 36 936 63 924 80 ct 912 98 898 111 884 119 ct 869 128 853 132 834 132 ct 
p ef
1387 -93 m  1387 -61 1375 -37 1351 -20 ct 1327 -3 1293 6 1250 6 ct 1209 6 1177 -1 1154 -15 ct 
1131 -28 1117 -50 1110 -79 ct 1159 -89 l  1164 -71 1174 -57 1188 -49 ct 1203 -41 1224 -37 1250 -37 ct 
1279 -37 1299 -41 1313 -50 ct 1326 -58 1332 -71 1332 -89 ct 1332 -102 1328 -113 1319 -121 ct 
1310 -129 1295 -136 1275 -141 ct 1235 -152 l  1203 -160 1180 -168 1166 -176 ct 
1153 -184 1142 -194 1134 -205 ct 1127 -217 1123 -231 1123 -247 ct 1123 -278 1134 -301 1156 -317 ct 
1178 -333 1209 -341 1251 -341 ct 1288 -341 1317 -335 1339 -322 ct 1361 -309 1375 -288 1381 -259 ct 
1330 -253 l  1327 -268 1319 -279 1305 -287 ct 1292 -295 1274 -299 1251 -299 ct 
1226 -299 1207 -295 1195 -288 ct 1183 -280 1177 -268 1177 -253 ct 1177 -243 1180 -235 1185 -229 ct 
1190 -223 1197 -218 1207 -213 ct 1216 -209 1237 -203 1268 -195 ct 1298 -188 1319 -181 1332 -175 ct 
1345 -168 1355 -161 1363 -154 ct 1370 -146 1376 -137 1380 -127 ct 1385 -117 1387 -106 1387 -93 ct 
p ef
1452 -407 m  1452 -460 l  1508 -460 l  1508 -407 l  1452 -407 l  p
1452 1 m  1452 -335 l  1508 -335 l  1508 1 l  1452 1 l  p ef
1634 -170 m  1634 -125 1641 -92 1655 -70 ct 1669 -49 1691 -38 1719 -38 ct 1739 -38 1755 -43 1769 -54 ct 
1782 -65 1790 -81 1793 -104 ct 1850 -100 l  1845 -68 1832 -42 1809 -23 ct 1785 -4 1756 6 1720 6 ct 
1674 6 1638 -9 1613 -39 ct 1588 -68 1576 -111 1576 -168 ct 1576 -225 1588 -268 1613 -297 ct 
1638 -327 1674 -342 1720 -342 ct 1754 -342 1783 -333 1805 -315 ct 1828 -298 1842 -273 1848 -242 ct 
1791 -237 l  1788 -256 1780 -271 1769 -282 ct 1757 -293 1740 -298 1718 -298 ct 
1689 -298 1667 -288 1654 -269 ct 1641 -249 1634 -216 1634 -170 ct p ef
1995 6 m  1962 6 1936 -3 1919 -21 ct 1902 -38 1894 -63 1894 -94 ct 1894 -129 1905 -155 1928 -174 ct 
1951 -192 1988 -202 2039 -204 ct 2114 -205 l  2114 -223 l  2114 -250 2108 -270 2097 -282 ct 
2085 -294 2067 -299 2042 -299 ct 2017 -299 1999 -295 1988 -287 ct 1976 -278 1969 -265 1967 -246 ct 
1909 -251 l  1918 -312 1963 -342 2043 -342 ct 2086 -342 2117 -332 2139 -313 ct 
2160 -294 2171 -266 2171 -229 ct 2171 -85 l  2171 -68 2173 -55 2177 -47 ct 2181 -39 2190 -35 2202 -35 ct 
2207 -35 2213 -35 2220 -37 ct 2220 -2 l  2206 1 2192 3 2177 3 ct 2156 3 2141 -2 2132 -13 ct 
2123 -24 2117 -41 2116 -64 ct 2114 -64 l  2100 -39 2083 -21 2064 -10 ct 2045 1 2022 6 1995 6 ct 
p
2008 -36 m  2029 -36 2047 -41 2063 -50 ct 2079 -59 2091 -72 2100 -88 ct 2110 -104 2114 -121 2114 -138 ct 
2114 -166 l  2053 -165 l  2027 -164 2007 -161 1993 -157 ct 1980 -152 1969 -144 1962 -134 ct 
1955 -123 1951 -110 1951 -93 ct 1951 -75 1956 -61 1966 -51 ct 1976 -41 1990 -36 2008 -36 ct 
p ef
2261 1 m  2261 -460 l  2317 -460 l  2317 1 l  2261 1 l  p ef
pom
gs
0.933 0.933 0.933 c 11864 2016 m  8117 2016 l  8117 187 l  15610 187 l 
15610 2016 l  11864 2016 l  p ef
gr
gs
0 lw 1 lj 11864 2016 m  8117 2016 l  8117 187 l  15610 187 l  15610 2016 l 
11864 2016 l  pc
gr
pum
10316 1264 t
362 0 m  312 -128 l  113 -128 l  63 0 l  1 0 l  180 -438 l  247 -438 l 
422 0 l  362 0 l  p
212 -393 m  210 -384 l  204 -367 197 -345 187 -318 ct 131 -174 l  294 -174 l 
238 -319 l  232 -333 227 -349 221 -367 ct 212 -393 l  p ef
749 -170 m  749 -52 708 6 626 6 ct 574 6 540 -13 522 -52 ct 520 -52 l  521 -50 522 -33 522 1 ct 
522 132 l  466 132 l  466 -267 l  466 -302 465 -325 464 -336 ct 518 -336 l 
518 -335 518 -332 519 -327 ct 519 -322 520 -314 520 -304 ct 521 -293 521 -286 521 -282 ct 
522 -282 l  532 -303 545 -318 562 -328 ct 578 -337 599 -342 626 -342 ct 667 -342 698 -328 719 -300 ct 
739 -273 749 -229 749 -170 ct p
691 -168 m  691 -215 685 -249 672 -269 ct 659 -289 639 -299 612 -299 ct 590 -299 572 -294 560 -285 ct 
547 -276 538 -261 531 -241 ct 525 -221 522 -196 522 -164 ct 522 -120 529 -87 543 -66 ct 
557 -45 580 -35 611 -35 ct 639 -35 659 -45 672 -66 ct 685 -86 691 -120 691 -168 ct 
p ef
1101 -170 m  1101 -52 1060 6 978 6 ct 926 6 892 -13 874 -52 ct 872 -52 l  873 -50 874 -33 874 1 ct 
874 132 l  818 132 l  818 -267 l  818 -302 817 -325 816 -336 ct 870 -336 l 
870 -335 870 -332 871 -327 ct 871 -322 872 -314 872 -304 ct 873 -293 873 -286 873 -282 ct 
874 -282 l  884 -303 897 -318 914 -328 ct 930 -337 951 -342 978 -342 ct 1019 -342 1050 -328 1071 -300 ct 
1091 -273 1101 -229 1101 -170 ct p
1043 -168 m  1043 -215 1037 -249 1024 -269 ct 1011 -289 991 -299 964 -299 ct 
942 -299 924 -294 912 -285 ct 899 -276 890 -261 883 -241 ct 877 -221 874 -196 874 -164 ct 
874 -120 881 -87 895 -66 ct 909 -45 932 -35 963 -35 ct 991 -35 1011 -45 1024 -66 ct 
1037 -86 1043 -120 1043 -168 ct p ef
1169 1 m  1169 -460 l  1225 -460 l  1225 1 l  1169 1 l  p ef
1308 -407 m  1308 -460 l  1364 -460 l  1364 -407 l  1308 -407 l  p
1308 1 m  1308 -335 l  1364 -335 l  1364 1 l  1308 1 l  p ef
1490 -170 m  1490 -125 1497 -92 1511 -70 ct 1525 -49 1547 -38 1575 -38 ct 1595 -38 1611 -43 1625 -54 ct 
1638 -65 1646 -81 1649 -104 ct 1706 -100 l  1701 -68 1688 -42 1665 -23 ct 1641 -4 1612 6 1576 6 ct 
1530 6 1494 -9 1469 -39 ct 1444 -68 1432 -111 1432 -168 ct 1432 -225 1444 -268 1469 -297 ct 
1494 -327 1530 -342 1576 -342 ct 1610 -342 1639 -333 1661 -315 ct 1684 -298 1698 -273 1704 -242 ct 
1647 -237 l  1644 -256 1636 -271 1625 -282 ct 1613 -293 1596 -298 1574 -298 ct 
1545 -298 1523 -288 1510 -269 ct 1497 -249 1490 -216 1490 -170 ct p ef
1851 6 m  1818 6 1792 -3 1775 -21 ct 1758 -38 1750 -63 1750 -94 ct 1750 -129 1761 -155 1784 -174 ct 
1807 -192 1844 -202 1895 -204 ct 1970 -205 l  1970 -223 l  1970 -250 1964 -270 1953 -282 ct 
1941 -294 1923 -299 1898 -299 ct 1873 -299 1855 -295 1844 -287 ct 1832 -278 1825 -265 1823 -246 ct 
1765 -251 l  1774 -312 1819 -342 1899 -342 ct 1942 -342 1973 -332 1995 -313 ct 
2016 -294 2027 -266 2027 -229 ct 2027 -85 l  2027 -68 2029 -55 2033 -47 ct 2037 -39 2046 -35 2058 -35 ct 
2063 -35 2069 -35 2076 -37 ct 2076 -2 l  2062 1 2048 3 2033 3 ct 2012 3 1997 -2 1988 -13 ct 
1979 -24 1973 -41 1972 -64 ct 1970 -64 l  1956 -39 1939 -21 1920 -10 ct 1901 1 1878 6 1851 6 ct 
p
1864 -36 m  1885 -36 1903 -41 1919 -50 ct 1935 -59 1947 -72 1956 -88 ct 1966 -104 1970 -121 1970 -138 ct 
1970 -166 l  1909 -165 l  1883 -164 1863 -161 1849 -157 ct 1836 -152 1825 -144 1818 -134 ct 
1811 -123 1807 -110 1807 -93 ct 1807 -75 1812 -61 1822 -51 ct 1832 -41 1846 -36 1864 -36 ct 
p ef
2246 -2 m  2227 3 2209 5 2189 5 ct 2145 5 2122 -20 2122 -71 ct 2122 -295 l  2084 -295 l 
2084 -336 l  2125 -336 l  2141 -411 l  2178 -411 l  2178 -336 l  2240 -336 l 
2240 -295 l  2178 -295 l  2178 -83 l  2178 -67 2181 -56 2186 -49 ct 2191 -43 2201 -39 2214 -39 ct 
2221 -39 2232 -41 2246 -44 ct 2246 -2 l  p ef
2294 -407 m  2294 -460 l  2350 -460 l  2350 -407 l  2294 -407 l  p
2294 1 m  2294 -335 l  2350 -335 l  2350 1 l  2294 1 l  p ef
2718 -168 m  2718 -110 2706 -66 2680 -37 ct 2654 -8 2616 6 2567 6 ct 2518 6 2481 -9 2456 -39 ct 
2431 -69 2419 -112 2419 -168 ct 2419 -284 2469 -342 2569 -342 ct 2620 -342 2658 -328 2682 -300 ct 
2706 -272 2718 -228 2718 -168 ct p
2660 -168 m  2660 -215 2653 -248 2639 -269 ct 2626 -291 2602 -301 2570 -301 ct 
2537 -301 2514 -290 2499 -269 ct 2485 -247 2477 -214 2477 -168 ct 2477 -124 2484 -91 2499 -69 ct 
2513 -46 2536 -35 2567 -35 ct 2600 -35 2624 -46 2638 -68 ct 2653 -89 2660 -123 2660 -168 ct 
p ef
2999 0 m  2999 -213 l  2999 -235 2997 -252 2992 -264 ct 2988 -277 2981 -285 2972 -291 ct 
2962 -296 2948 -299 2930 -299 ct 2903 -299 2882 -290 2866 -271 ct 2851 -253 2843 -227 2843 -195 ct 
2843 0 l  2787 0 l  2787 -264 l  2787 -303 2786 -327 2785 -336 ct 2838 -336 l 
2838 -335 2838 -332 2839 -327 ct 2839 -323 2839 -318 2839 -312 ct 2840 -306 2840 -295 2840 -278 ct 
2841 -278 l  2854 -302 2869 -318 2886 -328 ct 2903 -337 2924 -342 2949 -342 ct 
2985 -342 3012 -333 3029 -315 ct 3046 -296 3055 -266 3055 -224 ct 3055 0 l  2999 0 l 
p ef
pom
gs
0.933 0.933 0.933 c 11864 7836 m  8117 7836 l  8117 6007 l  15610 6007 l 
15610 7836 l  11864 7836 l  p ef
gr
gs
0 lw 1 lj 11864 7836 m  8117 7836 l  8117 6007 l  15610 6007 l  15610 7836 l 
11864 7836 l  pc
gr
pum
10615 7084 t
428 -223 m  428 -178 419 -139 402 -105 ct 384 -71 359 -45 327 -27 ct 295 -9 258 0 215 0 ct 
52 0 l  52 -437 l  197 -437 l  271 -437 328 -419 368 -382 ct 408 -345 428 -292 428 -223 ct 
p
369 -223 m  369 -277 354 -319 324 -347 ct 295 -376 252 -390 195 -390 ct 111 -390 l 
111 -47 l  209 -47 l  241 -47 269 -55 293 -69 ct 317 -83 336 -103 349 -129 ct 
362 -156 369 -187 369 -223 ct p ef
585 6 m  552 6 526 -3 509 -21 ct 492 -38 484 -63 484 -94 ct 484 -129 495 -155 518 -174 ct 
541 -192 578 -202 629 -204 ct 704 -205 l  704 -223 l  704 -250 698 -270 687 -282 ct 
675 -294 657 -299 632 -299 ct 607 -299 589 -295 578 -287 ct 566 -278 559 -265 557 -246 ct 
499 -251 l  508 -312 553 -342 633 -342 ct 676 -342 707 -332 729 -313 ct 750 -294 761 -266 761 -229 ct 
761 -85 l  761 -68 763 -55 767 -47 ct 771 -39 780 -35 792 -35 ct 797 -35 803 -35 810 -37 ct 
810 -2 l  796 1 782 3 767 3 ct 746 3 731 -2 722 -13 ct 713 -24 707 -41 706 -64 ct 
704 -64 l  690 -39 673 -21 654 -10 ct 635 1 612 6 585 6 ct p
598 -36 m  619 -36 637 -41 653 -50 ct 669 -59 681 -72 690 -88 ct 700 -104 704 -121 704 -138 ct 
704 -166 l  643 -165 l  617 -164 597 -161 583 -157 ct 570 -152 559 -144 552 -134 ct 
545 -123 541 -110 541 -93 ct 541 -75 546 -61 556 -51 ct 566 -41 580 -36 598 -36 ct 
p ef
981 -2 m  962 3 944 5 924 5 ct 880 5 857 -20 857 -71 ct 857 -295 l  819 -295 l 
819 -336 l  860 -336 l  876 -411 l  913 -411 l  913 -336 l  975 -336 l 
975 -295 l  913 -295 l  913 -83 l  913 -67 916 -56 921 -49 ct 926 -43 936 -39 949 -39 ct 
956 -39 967 -41 981 -44 ct 981 -2 l  p ef
1114 6 m  1081 6 1055 -3 1038 -21 ct 1021 -38 1013 -63 1013 -94 ct 1013 -129 1024 -155 1047 -174 ct 
1070 -192 1107 -202 1158 -204 ct 1233 -205 l  1233 -223 l  1233 -250 1227 -270 1216 -282 ct 
1204 -294 1186 -299 1161 -299 ct 1136 -299 1118 -295 1107 -287 ct 1095 -278 1088 -265 1086 -246 ct 
1028 -251 l  1037 -312 1082 -342 1162 -342 ct 1205 -342 1236 -332 1258 -313 ct 
1279 -294 1290 -266 1290 -229 ct 1290 -85 l  1290 -68 1292 -55 1296 -47 ct 1300 -39 1309 -35 1321 -35 ct 
1326 -35 1332 -35 1339 -37 ct 1339 -2 l  1325 1 1311 3 1296 3 ct 1275 3 1260 -2 1251 -13 ct 
1242 -24 1236 -41 1235 -64 ct 1233 -64 l  1219 -39 1202 -21 1183 -10 ct 1164 1 1141 6 1114 6 ct 
p
1127 -36 m  1148 -36 1166 -41 1182 -50 ct 1198 -59 1210 -72 1219 -88 ct 1229 -104 1233 -121 1233 -138 ct 
1233 -166 l  1172 -165 l  1146 -164 1126 -161 1112 -157 ct 1099 -152 1088 -144 1081 -134 ct 
1074 -123 1070 -110 1070 -93 ct 1070 -75 1075 -61 1085 -51 ct 1095 -41 1109 -36 1127 -36 ct 
p ef
1390 0 m  1390 -438 l  1449 -438 l  1449 -48 l  1670 -48 l  1670 0 l  1390 0 l 
p ef
1731 -407 m  1731 -460 l  1787 -460 l  1787 -407 l  1731 -407 l  p
1731 1 m  1731 -335 l  1787 -335 l  1787 1 l  1731 1 l  p ef
2085 0 m  2085 -213 l  2085 -235 2083 -252 2078 -264 ct 2074 -277 2067 -285 2058 -291 ct 
2048 -296 2034 -299 2016 -299 ct 1989 -299 1968 -290 1952 -271 ct 1937 -253 1929 -227 1929 -195 ct 
1929 0 l  1873 0 l  1873 -264 l  1873 -303 1872 -327 1871 -336 ct 1924 -336 l 
1924 -335 1924 -332 1925 -327 ct 1925 -323 1925 -318 1925 -312 ct 1926 -306 1926 -295 1926 -278 ct 
1927 -278 l  1940 -302 1955 -318 1972 -328 ct 1989 -337 2010 -342 2035 -342 ct 
2071 -342 2098 -333 2115 -315 ct 2132 -296 2141 -266 2141 -224 ct 2141 0 l  2085 0 l 
p ef
2433 1 m  2320 -153 l  2279 -119 l  2279 1 l  2223 1 l  2223 -460 l  2279 -460 l 
2279 -172 l  2426 -335 l  2491 -335 l  2355 -191 l  2498 1 l  2433 1 l 
p ef
pom
gs
1.000 1.000 1.000 c 9258 6833 m  8305 6833 l  8305 6071 l  10210 6071 l 
10210 6833 l  9258 6833 l  p ef
gr
gs
0 lw 1 lj 9258 6833 m  8305 6833 l  8305 6071 l  10210 6071 l  10210 6833 l 
9258 6833 l  pc
gr
pum
8678 6615 t
52 0 m  52 -438 l  111 -438 l  111 -48 l  332 -48 l  332 0 l  52 0 l  p ef
403 0 m  403 -438 l  462 -438 l  462 -48 l  683 -48 l  683 0 l  403 0 l 
p ef
949 -396 m  900 -396 863 -380 836 -349 ct 809 -318 795 -275 795 -221 ct 795 -167 809 -124 837 -92 ct 
865 -59 903 -43 951 -43 ct 1012 -43 1058 -73 1089 -134 ct 1137 -109 l  1119 -72 1094 -43 1062 -23 ct 
1029 -4 991 6 948 6 ct 904 6 866 -3 834 -21 ct 802 -40 777 -66 761 -100 ct 744 -134 735 -174 735 -221 ct 
735 -291 754 -345 792 -385 ct 829 -424 881 -444 948 -444 ct 994 -444 1033 -435 1065 -417 ct 
1096 -398 1119 -371 1133 -336 ct 1077 -317 l  1067 -343 1051 -362 1028 -375 ct 
1006 -389 979 -396 949 -396 ct p ef
pom
gs
1.000 1.000 1.000 c 9258 7696 m  8305 7696 l  8305 6934 l  10210 6934 l 
10210 7696 l  9258 7696 l  p ef
gr
gs
0 lw 1 lj 9258 7696 m  8305 7696 l  8305 6934 l  10210 6934 l  10210 7696 l 
9258 7696 l  pc
gr
pum
8552 7478 t
424 0 m  424 -292 l  424 -324 424 -355 426 -385 ct 416 -348 407 -319 399 -298 ct 
286 0 l  245 0 l  130 -298 l  113 -351 l  103 -385 l  104 -351 l  105 -292 l 
105 0 l  52 0 l  52 -438 l  130 -438 l  246 -134 l  250 -122 254 -109 258 -95 ct 
262 -81 264 -71 266 -65 ct 267 -73 271 -85 276 -102 ct 281 -119 285 -130 287 -134 ct 
401 -438 l  477 -438 l  477 0 l  424 0 l  p ef
891 0 m  841 -128 l  642 -128 l  592 0 l  530 0 l  709 -438 l  776 -438 l 
951 0 l  891 0 l  p
741 -393 m  739 -384 l  733 -367 726 -345 716 -318 ct 660 -174 l  823 -174 l 
767 -319 l  761 -333 756 -349 750 -367 ct 741 -393 l  p ef
1199 -396 m  1150 -396 1113 -380 1086 -349 ct 1059 -318 1045 -275 1045 -221 ct 
1045 -167 1059 -124 1087 -92 ct 1115 -59 1153 -43 1201 -43 ct 1262 -43 1308 -73 1339 -134 ct 
1387 -109 l  1369 -72 1344 -43 1312 -23 ct 1279 -4 1241 6 1198 6 ct 1154 6 1116 -3 1084 -21 ct 
1052 -40 1027 -66 1011 -100 ct 994 -134 985 -174 985 -221 ct 985 -291 1004 -345 1042 -385 ct 
1079 -424 1131 -444 1198 -444 ct 1244 -444 1283 -435 1315 -417 ct 1346 -398 1369 -371 1383 -336 ct 
1327 -317 l  1317 -343 1301 -362 1278 -375 ct 1256 -389 1229 -396 1199 -396 ct 
p ef
pom
gr
gs
0 0 m 16001 0 l 16001 10159 l 0 10159 l 0 0 l eoclip newpath
gr
gr
0 10160 t 
pom
count op_count sub {pop} repeat countdictstack dict_count sub {end} repeat b4_inc_state restore
%%PageTrailer
%%Trailer
%%EOF
