%!PS-Adobe-3.0 EPSF-3.0 
%%BoundingBox: 0 0 294 249
%%Pages: 0
%%Creator: LibreOffice 4.3
%%Title: none
%%CreationDate: none
%%LanguageLevel: 2
%%EndComments
%%BeginProlog
%%BeginResource: procset SDRes-Prolog 1.0 0
/b4_inc_state save def
/dict_count countdictstack def
/op_count count 1 sub def
userdict begin
0 setgray 0 setlinecap 1 setlinewidth 0 setlinejoin 10 setmiterlimit[] 0 setdash newpath
/languagelevel where {pop languagelevel 1 ne {false setstrokeadjust false setoverprint} if} if
/bdef {bind def} bind def
/c {setrgbcolor} bdef
/l {neg lineto} bdef
/rl {neg rlineto} bdef
/lc {setlinecap} bdef
/lj {setlinejoin} bdef
/lw {setlinewidth} bdef
/ml {setmiterlimit} bdef
/ld {setdash} bdef
/m {neg moveto} bdef
/ct {6 2 roll neg 6 2 roll neg 6 2 roll neg curveto} bdef
/r {rotate} bdef
/t {neg translate} bdef
/s {scale} bdef
/sw {show} bdef
/gs {gsave} bdef
/gr {grestore} bdef
/f {findfont dup length dict begin
{1 index /FID ne {def} {pop pop} ifelse} forall /Encoding ISOLatin1Encoding def
currentdict end /NFont exch definefont pop /NFont findfont} bdef
/p {closepath} bdef
/sf {scalefont setfont} bdef
/ef {eofill}bdef
/pc {closepath stroke}bdef
/ps {stroke}bdef
/pum {matrix currentmatrix}bdef
/pom {setmatrix}bdef
/bs {/aString exch def /nXOfs exch def /nWidth exch def currentpoint nXOfs 0 rmoveto pum nWidth aString stringwidth pop div 1 scale aString show pom moveto} bdef
%%EndResource
%%EndProlog
%%BeginSetup
%%EndSetup
%%Page: 1 1
%%BeginPageSetup
%%EndPageSetup
pum
0.02838 0.02834 s 
0 -8785 t
/tm matrix currentmatrix def
tm setmatrix
-2834 -3264 t 
1 1 s 
0.812 0.906 0.960 c 5819 7718 m  7439 7718 8675 8323 8675 9115 ct 8675 9907 7439 10512 5819 10512 ct 
4199 10512 2962 9907 2962 9115 ct 2962 8323 4199 7718 5819 7718 ct p
2962 7718 m  2962 7718 l  p
8677 10513 m  8677 10513 l  p ef
pum
4704 9236 t
1.000 1.000 1.000 c 219 -67 m  219 -45 210 -28 193 -15 ct 175 -3 150 3 119 3 ct 
60 3 25 -18 16 -59 ct 48 -65 l  52 -51 59 -40 71 -33 ct 83 -26 99 -23 120 -23 ct 
141 -23 157 -27 169 -34 ct 180 -41 186 -52 186 -66 ct 186 -73 184 -80 181 -85 ct 
177 -90 172 -94 166 -97 ct 159 -100 151 -103 142 -105 ct 133 -107 123 -110 112 -112 ct 
93 -116 78 -121 69 -125 ct 59 -129 51 -134 45 -139 ct 39 -144 35 -150 32 -157 ct 
29 -164 27 -172 27 -181 ct 27 -202 35 -218 51 -229 ct 67 -240 90 -246 119 -246 ct 
147 -246 168 -242 183 -233 ct 197 -225 207 -210 213 -190 ct 181 -184 l  177 -197 170 -207 160 -212 ct 
151 -218 137 -221 119 -221 ct 100 -221 85 -218 75 -211 ct 65 -205 59 -196 59 -183 ct 
59 -176 61 -169 65 -165 ct 69 -160 75 -156 82 -152 ct 90 -149 105 -145 127 -140 ct 
134 -138 142 -136 149 -134 ct 157 -133 164 -131 171 -128 ct 177 -126 184 -123 190 -119 ct 
195 -116 201 -112 205 -107 ct 209 -102 213 -97 215 -90 ct 218 -84 219 -76 219 -67 ct 
p ef
365 0 m  365 -118 l  365 -136 363 -149 358 -156 ct 353 -163 344 -166 331 -166 ct 
318 -166 308 -161 300 -151 ct 292 -141 288 -126 288 -108 ct 288 0 l  257 0 l 
257 -147 l  257 -169 257 -182 256 -187 ct 286 -187 l  286 -186 286 -185 286 -182 ct 
286 -180 286 -177 287 -173 ct 287 -170 287 -164 287 -155 ct 288 -155 l  294 -168 302 -177 311 -182 ct 
319 -187 330 -190 342 -190 ct 356 -190 367 -187 376 -182 ct 384 -176 390 -167 393 -155 ct 
393 -155 l  400 -167 408 -176 417 -182 ct 426 -187 437 -190 450 -190 ct 469 -190 482 -185 491 -175 ct 
499 -164 504 -148 504 -124 ct 504 0 l  473 0 l  473 -118 l  473 -136 471 -149 466 -156 ct 
461 -163 452 -166 439 -166 ct 425 -166 415 -161 407 -151 ct 400 -141 396 -127 396 -108 ct 
396 0 l  365 0 l  p ef
604 3 m  586 3 571 -2 562 -12 ct 553 -22 548 -35 548 -52 ct 548 -72 554 -86 567 -97 ct 
580 -107 600 -113 628 -113 ct 670 -114 l  670 -124 l  670 -140 667 -150 660 -157 ct 
654 -164 644 -167 630 -167 ct 616 -167 606 -165 600 -160 ct 594 -155 590 -147 589 -137 ct 
556 -140 l  562 -173 586 -190 631 -190 ct 654 -190 672 -185 684 -174 ct 696 -163 701 -148 701 -127 ct 
701 -47 l  701 -38 703 -31 705 -26 ct 707 -21 712 -19 719 -19 ct 722 -19 725 -19 729 -20 ct 
729 -1 l  721 1 713 2 705 2 ct 694 2 685 -1 680 -7 ct 675 -13 672 -23 671 -36 ct 
670 -36 l  662 -22 653 -12 642 -6 ct 632 0 619 3 604 3 ct p
611 -20 m  623 -20 633 -23 642 -28 ct 650 -33 657 -40 662 -49 ct 668 -58 670 -67 670 -77 ct 
670 -92 l  636 -91 l  622 -91 611 -90 603 -87 ct 596 -84 590 -80 586 -74 ct 
582 -68 580 -61 580 -52 ct 580 -42 583 -34 588 -28 ct 593 -23 601 -20 611 -20 ct 
p ef
753 0 m  753 -143 l  753 -157 752 -171 752 -187 ct 781 -187 l  782 -166 782 -153 782 -148 ct 
783 -148 l  788 -164 794 -175 800 -181 ct 807 -187 816 -190 827 -190 ct 832 -190 836 -189 840 -188 ct 
840 -160 l  836 -161 830 -162 823 -162 ct 811 -162 801 -156 794 -145 ct 787 -134 784 -118 784 -97 ct 
784 0 l  753 0 l  p ef
942 -1 m  932 2 922 3 911 3 ct 886 3 874 -11 874 -39 ct 874 -164 l  852 -164 l 
852 -187 l  875 -187 l  884 -229 l  905 -229 l  905 -187 l  939 -187 l 
939 -164 l  905 -164 l  905 -46 l  905 -37 906 -31 909 -27 ct 912 -24 917 -22 925 -22 ct 
929 -22 935 -23 942 -24 ct 942 -1 l  p ef
1179 0 m  1179 -162 l  1179 -180 1180 -197 1181 -214 ct 1175 -193 1170 -177 1166 -166 ct 
1103 0 l  1080 0 l  1016 -166 l  1007 -195 l  1001 -214 l  1002 -195 l 
1002 -162 l  1002 0 l  973 0 l  973 -243 l  1016 -243 l  1081 -75 l  1083 -68 1085 -60 1087 -53 ct 
1090 -45 1091 -39 1092 -36 ct 1093 -40 1095 -47 1097 -57 ct 1100 -66 1102 -72 1103 -75 ct 
1167 -243 l  1209 -243 l  1209 0 l  1179 0 l  p ef
1284 -87 m  1284 -66 1288 -49 1297 -37 ct 1306 -26 1319 -20 1335 -20 ct 1349 -20 1360 -23 1368 -28 ct 
1376 -34 1381 -41 1384 -49 ct 1411 -41 l  1400 -12 1375 3 1335 3 ct 1308 3 1287 -5 1273 -22 ct 
1258 -38 1251 -62 1251 -95 ct 1251 -125 1258 -149 1273 -165 ct 1287 -182 1308 -190 1334 -190 ct 
1389 -190 1416 -157 1416 -91 ct 1416 -87 l  1284 -87 l  p
1384 -111 m  1383 -130 1378 -145 1369 -154 ct 1361 -163 1349 -167 1334 -167 ct 
1319 -167 1307 -162 1298 -152 ct 1289 -142 1285 -128 1284 -111 ct 1384 -111 l 
p ef
1595 -52 m  1595 -34 1589 -21 1575 -11 ct 1562 -2 1543 3 1519 3 ct 1496 3 1478 -1 1465 -8 ct 
1453 -16 1445 -28 1441 -44 ct 1468 -50 l  1471 -39 1476 -32 1485 -27 ct 1493 -22 1505 -20 1519 -20 ct 
1535 -20 1547 -22 1554 -27 ct 1561 -32 1565 -40 1565 -49 ct 1565 -57 1562 -63 1557 -67 ct 
1552 -72 1544 -76 1533 -79 ct 1511 -84 l  1493 -89 1480 -93 1472 -98 ct 1465 -102 1459 -108 1455 -114 ct 
1450 -120 1448 -128 1448 -137 ct 1448 -154 1454 -167 1467 -176 ct 1479 -185 1496 -189 1520 -189 ct 
1540 -189 1557 -185 1569 -178 ct 1581 -171 1589 -159 1592 -143 ct 1564 -140 l 
1562 -148 1558 -155 1550 -159 ct 1543 -164 1532 -166 1520 -166 ct 1506 -166 1495 -164 1489 -160 ct 
1482 -155 1478 -149 1478 -140 ct 1478 -135 1480 -130 1483 -127 ct 1485 -124 1489 -121 1495 -118 ct 
1500 -116 1512 -113 1529 -108 ct 1546 -104 1557 -100 1565 -97 ct 1572 -93 1578 -90 1582 -85 ct 
1586 -81 1589 -76 1592 -71 ct 1594 -65 1595 -59 1595 -52 ct p ef
1664 -155 m  1670 -167 1678 -176 1688 -181 ct 1697 -187 1709 -190 1723 -190 ct 
1743 -190 1758 -185 1768 -175 ct 1777 -165 1782 -148 1782 -124 ct 1782 0 l  1751 0 l 
1751 -118 l  1751 -131 1750 -141 1747 -147 ct 1745 -154 1741 -159 1735 -162 ct 
1730 -165 1722 -166 1713 -166 ct 1698 -166 1686 -161 1678 -151 ct 1669 -141 1664 -127 1664 -110 ct 
1664 0 l  1633 0 l  1633 -256 l  1664 -256 l  1664 -189 l  1664 -182 1664 -175 1664 -168 ct 
1663 -160 1663 -156 1663 -155 ct 1664 -155 l  p ef
1934 0 m  1934 -243 l  1966 -243 l  1966 0 l  1934 0 l  p ef
2214 -170 m  2214 -147 2207 -129 2192 -115 ct 2177 -102 2157 -95 2131 -95 ct 
2060 -95 l  2060 0 l  2027 0 l  2027 -243 l  2129 -243 l  2156 -243 2177 -237 2192 -224 ct 
2207 -211 2214 -193 2214 -170 ct p
2181 -170 m  2181 -201 2163 -217 2125 -217 ct 2060 -217 l  2060 -121 l  2126 -121 l 
2163 -121 2181 -137 2181 -170 ct p ef
pom
0.812 0.906 0.960 c 8764 4496 m  8719 4230 8928 3978 9137 3978 ct 9203 3976 9272 4002 9327 4041 ct 
9381 3920 9481 3846 9592 3846 ct 9667 3850 9745 3886 9801 3951 ct 9842 3844 9926 3781 10018 3781 ct 
10095 3781 10166 3827 10210 3897 ct 10262 3825 10339 3781 10419 3781 ct 10550 3781 10661 3894 10684 4052 ct 
10811 4096 10902 4239 10902 4402 ct 10902 4452 10895 4500 10876 4546 ct 10930 4626 10963 4725 10963 4826 ct 
10963 5055 10818 5248 10633 5281 ct 10633 5500 10490 5672 10311 5672 ct 10249 5672 10191 5651 10140 5611 ct 
10093 5804 9944 5940 9778 5940 ct 9654 5940 9536 5859 9466 5731 ct 9400 5780 9435 5809 9246 5809 ct 
9091 5809 8947 5708 8873 5544 ct 8694 5540 8602 5410 8602 5246 ct 8602 5170 8626 5101 8668 5044 ct 
8591 4996 8549 4901 8549 4792 ct 8549 4639 8642 4513 8764 4496 ct 8764 4496 l 
p
8549 3781 m  8549 3781 l  p
10963 5940 m  10963 5940 l  p ef
pum
9077 4934 t
1.000 1.000 1.000 c 33 0 m  33 -243 l  65 -243 l  65 0 l  33 0 l  p ef
239 0 m  239 -118 l  239 -131 238 -140 235 -147 ct 233 -154 229 -159 224 -162 ct 
219 -165 211 -166 201 -166 ct 186 -166 174 -161 165 -151 ct 157 -140 152 -126 152 -108 ct 
152 0 l  121 0 l  121 -147 l  121 -169 121 -182 120 -187 ct 150 -187 l  150 -186 150 -185 150 -182 ct 
150 -180 150 -177 150 -173 ct 151 -170 151 -164 151 -155 ct 152 -155 l  159 -168 167 -177 176 -182 ct 
186 -187 197 -190 211 -190 ct 232 -190 246 -185 256 -175 ct 265 -165 270 -148 270 -124 ct 
270 0 l  239 0 l  p ef
387 -1 m  377 2 367 3 356 3 ct 331 3 319 -11 319 -39 ct 319 -164 l  297 -164 l 
297 -187 l  320 -187 l  329 -229 l  350 -229 l  350 -187 l  384 -187 l 
384 -164 l  350 -164 l  350 -46 l  350 -37 351 -31 354 -27 ct 357 -24 362 -22 370 -22 ct 
374 -22 380 -23 387 -24 ct 387 -1 l  p ef
437 -87 m  437 -66 441 -49 450 -37 ct 459 -26 472 -20 488 -20 ct 502 -20 513 -23 521 -28 ct 
529 -34 534 -41 537 -49 ct 564 -41 l  553 -12 528 3 488 3 ct 461 3 440 -5 426 -22 ct 
411 -38 404 -62 404 -95 ct 404 -125 411 -149 426 -165 ct 440 -182 461 -190 487 -190 ct 
542 -190 569 -157 569 -91 ct 569 -87 l  437 -87 l  p
537 -111 m  536 -130 531 -145 522 -154 ct 514 -163 502 -167 487 -167 ct 472 -167 460 -162 451 -152 ct 
442 -142 438 -128 437 -111 ct 537 -111 l  p ef
609 0 m  609 -143 l  609 -157 608 -171 608 -187 ct 637 -187 l  638 -166 638 -153 638 -148 ct 
639 -148 l  644 -164 650 -175 656 -181 ct 663 -187 672 -190 683 -190 ct 688 -190 692 -189 696 -188 ct 
696 -160 l  692 -161 686 -162 679 -162 ct 667 -162 657 -156 650 -145 ct 643 -134 640 -118 640 -97 ct 
640 0 l  609 0 l  p ef
845 0 m  845 -118 l  845 -131 844 -140 841 -147 ct 839 -154 835 -159 830 -162 ct 
825 -165 817 -166 807 -166 ct 792 -166 780 -161 771 -151 ct 763 -140 758 -126 758 -108 ct 
758 0 l  727 0 l  727 -147 l  727 -169 727 -182 726 -187 ct 756 -187 l  756 -186 756 -185 756 -182 ct 
756 -180 756 -177 756 -173 ct 757 -170 757 -164 757 -155 ct 758 -155 l  765 -168 773 -177 782 -182 ct 
792 -187 803 -190 817 -190 ct 838 -190 852 -185 862 -175 ct 871 -165 876 -148 876 -124 ct 
876 0 l  845 0 l  p ef
945 -87 m  945 -66 949 -49 958 -37 ct 967 -26 980 -20 996 -20 ct 1010 -20 1021 -23 1029 -28 ct 
1037 -34 1042 -41 1045 -49 ct 1072 -41 l  1061 -12 1036 3 996 3 ct 969 3 948 -5 934 -22 ct 
919 -38 912 -62 912 -95 ct 912 -125 919 -149 934 -165 ct 948 -182 969 -190 995 -190 ct 
1050 -190 1077 -157 1077 -91 ct 1077 -87 l  945 -87 l  p
1045 -111 m  1044 -130 1039 -145 1030 -154 ct 1022 -163 1010 -167 995 -167 ct 
980 -167 968 -162 959 -152 ct 950 -142 946 -128 945 -111 ct 1045 -111 l  p ef
1187 -1 m  1177 2 1167 3 1156 3 ct 1131 3 1119 -11 1119 -39 ct 1119 -164 l  1097 -164 l 
1097 -187 l  1120 -187 l  1129 -229 l  1150 -229 l  1150 -187 l  1184 -187 l 
1184 -164 l  1150 -164 l  1150 -46 l  1150 -37 1151 -31 1154 -27 ct 1157 -24 1162 -22 1170 -22 ct 
1174 -22 1180 -23 1187 -24 ct 1187 -1 l  p ef
pom
0.449 0.625 0.812 c 3852 8988 m  3996 8988 4106 9098 4106 9242 ct 4106 9386 3996 9496 3852 9496 ct 
3708 9496 3598 9386 3598 9242 ct 3598 9098 3708 8988 3852 8988 ct p
3598 8988 m  3598 8988 l  p
4107 9497 m  4107 9497 l  p ef
0 lw 1 lj 0.207 0.398 0.644 c 3852 8987 m  3996 8987 4106 9097 4106 9241 ct 
4106 9385 3996 9495 3852 9495 ct 3708 9495 3598 9385 3598 9241 ct 3598 9097 3708 8987 3852 8987 ct 
pc
3598 8987 m  3598 8987 l  pc
4107 9496 m  4107 9496 l  pc
0.449 0.625 0.812 c 4233 8099 m  4377 8099 4487 8209 4487 8353 ct 4487 8497 4377 8607 4233 8607 ct 
4089 8607 3979 8497 3979 8353 ct 3979 8209 4089 8099 4233 8099 ct p
3979 8099 m  3979 8099 l  p
4488 8608 m  4488 8608 l  p ef
0.207 0.398 0.644 c 4233 8099 m  4377 8099 4487 8209 4487 8353 ct 4487 8497 4377 8607 4233 8607 ct 
4089 8607 3979 8497 3979 8353 ct 3979 8209 4089 8099 4233 8099 ct pc
3979 8099 m  3979 8099 l  pc
4488 8608 m  4488 8608 l  pc
0.449 0.625 0.812 c 5249 9623 m  5393 9623 5503 9733 5503 9877 ct 5503 10021 5393 10131 5249 10131 ct 
5105 10131 4995 10021 4995 9877 ct 4995 9733 5105 9623 5249 9623 ct p
4995 9623 m  4995 9623 l  p
5504 10132 m  5504 10132 l  p ef
0.207 0.398 0.644 c 5248 9622 m  5392 9622 5502 9732 5502 9876 ct 5502 10020 5392 10130 5248 10130 ct 
5105 10130 4995 10020 4995 9876 ct 4995 9732 5105 9622 5248 9622 ct pc
4995 9622 m  4995 9622 l  pc
5503 10131 m  5503 10131 l  pc
0.449 0.625 0.812 c 5249 8480 m  5393 8480 5503 8590 5503 8734 ct 5503 8878 5393 8988 5249 8988 ct 
5105 8988 4995 8878 4995 8734 ct 4995 8590 5105 8480 5249 8480 ct p
4995 8480 m  4995 8480 l  p
5504 8989 m  5504 8989 l  p ef
0.207 0.398 0.644 c 5248 8480 m  5392 8480 5502 8590 5502 8734 ct 5502 8877 5392 8987 5248 8987 ct 
5105 8987 4995 8877 4995 8734 ct 4995 8590 5105 8480 5248 8480 ct pc
4995 8480 m  4995 8480 l  pc
5503 8988 m  5503 8988 l  pc
0.449 0.625 0.812 c 6138 7845 m  6282 7845 6392 7955 6392 8099 ct 6392 8243 6282 8353 6138 8353 ct 
5994 8353 5884 8243 5884 8099 ct 5884 7955 5994 7845 6138 7845 ct p
5884 7845 m  5884 7845 l  p
6393 8354 m  6393 8354 l  p ef
0.207 0.398 0.644 c 6137 7845 m  6281 7845 6391 7955 6391 8099 ct 6391 8243 6281 8353 6137 8353 ct 
5993 8353 5883 8243 5883 8099 ct 5883 7955 5993 7845 6137 7845 ct pc
5883 7845 m  5883 7845 l  pc
6392 8354 m  6392 8354 l  pc
0.449 0.625 0.812 c 6519 9369 m  6663 9369 6773 9479 6773 9623 ct 6773 9767 6663 9877 6519 9877 ct 
6375 9877 6265 9767 6265 9623 ct 6265 9479 6375 9369 6519 9369 ct p
6265 9369 m  6265 9369 l  p
6774 9878 m  6774 9878 l  p ef
0.207 0.398 0.644 c 6518 9368 m  6662 9368 6772 9478 6772 9622 ct 6772 9766 6662 9876 6518 9876 ct 
6374 9876 6264 9766 6264 9622 ct 6264 9478 6374 9368 6518 9368 ct pc
6264 9368 m  6264 9368 l  pc
6773 9877 m  6773 9877 l  pc
0.449 0.625 0.812 c 7154 8607 m  7298 8607 7408 8717 7408 8861 ct 7408 9005 7298 9115 7154 9115 ct 
7010 9115 6900 9005 6900 8861 ct 6900 8717 7010 8607 7154 8607 ct p
6900 8607 m  6900 8607 l  p
7409 9116 m  7409 9116 l  p ef
0.207 0.398 0.644 c 7153 8607 m  7297 8607 7407 8717 7407 8860 ct 7407 9004 7297 9114 7153 9114 ct 
7009 9114 6899 9004 6899 8860 ct 6899 8717 7009 8607 7153 8607 ct pc
6899 8607 m  6899 8607 l  pc
7408 9115 m  7408 9115 l  pc
0.449 0.625 0.812 c 7915 8226 m  8059 8226 8169 8336 8169 8480 ct 8169 8624 8059 8734 7915 8734 ct 
7771 8734 7662 8624 7662 8480 ct 7662 8336 7771 8226 7915 8226 ct p
7662 8226 m  7662 8226 l  p
8170 8735 m  8170 8735 l  p ef
0.207 0.398 0.644 c 7915 8226 m  8059 8226 8169 8336 8169 8480 ct 8169 8624 8059 8734 7915 8734 ct 
7771 8734 7661 8624 7661 8480 ct 7661 8336 7771 8226 7915 8226 ct pc
7661 8226 m  7661 8226 l  pc
8170 8735 m  8170 8735 l  pc
0.449 0.625 0.812 c 7344 8098 m  7026 8098 l  7026 7463 l  7661 7463 l 
7661 8098 l  7344 8098 l  p ef
0.207 0.398 0.644 c 7343 8098 m  7025 8098 l  7025 7463 l  7660 7463 l 
7660 8098 l  7343 8098 l  pc
1.000 1.000 1.000 c 8740 6320 m  8422 6320 l  8422 5685 l  9057 5685 l 
9057 6320 l  8740 6320 l  p ef
0.207 0.398 0.644 c 8740 6320 m  8422 6320 l  8422 5685 l  9057 5685 l 
9057 6320 l  8740 6320 l  pc
[ 53.09149 34.2265 ] 0 ld
0.003 0.003 0.003 c 8423 6321 m  7534 7464 l  ps
pum
6262 6487 t
0.402 0.402 0.402 c 6 0 m  55 -256 l  86 -256 l  37 0 l  6 0 l  p ef
261 -118 m  261 -103 259 -88 254 -71 ct 249 -55 243 -42 234 -30 ct 226 -19 215 -11 203 -5 ct 
190 0 176 3 160 3 ct 138 3 120 -4 107 -17 ct 94 -31 88 -49 88 -73 ct 88 -96 92 -117 100 -135 ct 
108 -153 119 -167 134 -176 ct 148 -185 165 -190 186 -190 ct 211 -190 229 -184 242 -171 ct 
254 -159 261 -141 261 -118 ct p
229 -118 m  229 -151 215 -167 186 -167 ct 171 -167 158 -163 149 -155 ct 140 -147 132 -135 127 -119 ct 
122 -103 119 -87 119 -72 ct 119 -55 123 -42 130 -33 ct 138 -24 148 -20 162 -20 ct 
174 -20 184 -22 191 -26 ct 198 -30 204 -36 210 -44 ct 215 -53 219 -64 223 -77 ct 
226 -90 228 -103 229 -118 ct p ef
394 0 m  416 -111 l  418 -121 419 -130 419 -137 ct 419 -156 409 -166 388 -166 ct 
374 -166 361 -160 350 -149 ct 339 -138 332 -123 328 -105 ct 308 0 l  277 0 l 
305 -147 l  308 -158 310 -171 312 -187 ct 341 -187 l  341 -186 341 -181 340 -174 ct 
338 -166 337 -160 337 -155 ct 337 -155 l  347 -168 356 -177 366 -182 ct 375 -187 387 -190 400 -190 ct 
417 -190 430 -186 438 -177 ct 447 -169 451 -157 451 -141 ct 451 -134 450 -124 447 -113 ct 
425 0 l  394 0 l  p ef
534 73 m  495 73 473 58 467 29 ct 495 22 l  499 41 512 50 535 50 ct 551 50 564 46 573 37 ct 
582 29 588 15 592 -5 ct 598 -35 l  597 -35 l  590 -25 584 -17 578 -13 ct 573 -8 567 -5 560 -3 ct 
553 0 545 1 537 1 ct 519 1 505 -5 494 -16 ct 483 -28 478 -43 478 -62 ct 478 -77 480 -94 485 -112 ct 
489 -129 495 -144 502 -156 ct 510 -167 519 -176 529 -182 ct 540 -187 553 -190 567 -190 ct 
581 -190 593 -187 602 -180 ct 612 -174 618 -165 621 -155 ct 621 -155 l  622 -159 623 -165 626 -173 ct 
628 -181 629 -186 630 -187 ct 659 -187 l  656 -173 l  651 -148 l  623 -6 l 
617 22 607 42 593 55 ct 579 67 559 73 534 73 ct p
511 -65 m  511 -51 514 -40 520 -33 ct 526 -26 535 -22 546 -22 ct 559 -22 570 -27 580 -36 ct 
590 -45 598 -57 603 -73 ct 609 -88 612 -105 612 -122 ct 612 -136 608 -147 601 -155 ct 
593 -163 583 -167 570 -167 ct 560 -167 552 -165 545 -161 ct 538 -156 532 -150 527 -141 ct 
523 -132 519 -120 515 -104 ct 512 -89 511 -76 511 -65 ct p ef
678 -80 m  684 -108 l  770 -108 l  765 -80 l  678 -80 l  p ef
903 -162 m  898 -163 893 -164 888 -164 ct 875 -164 864 -158 855 -145 ct 845 -132 838 -116 835 -97 ct 
816 0 l  785 0 l  813 -143 l  817 -167 l  820 -187 l  850 -187 l  843 -148 l 
844 -148 l  852 -164 859 -174 867 -181 ct 874 -187 883 -190 892 -190 ct 898 -190 903 -189 909 -188 ct 
903 -162 l  p ef
1056 1 m  1046 1 1038 -1 1033 -5 ct 1028 -10 1026 -16 1026 -25 ct 1027 -36 l 
1026 -36 l  1016 -21 1006 -11 996 -6 ct 986 0 974 3 959 3 ct 943 3 930 -2 920 -11 ct 
910 -21 905 -33 905 -48 ct 905 -69 913 -85 928 -96 ct 943 -107 967 -113 1000 -113 ct 
1040 -114 l  1042 -125 1044 -132 1044 -136 ct 1044 -146 1041 -154 1034 -159 ct 
1028 -164 1020 -167 1009 -167 ct 996 -167 985 -165 978 -160 ct 971 -155 966 -147 963 -137 ct 
932 -142 l  938 -159 947 -171 959 -179 ct 972 -186 989 -190 1011 -190 ct 1031 -190 1046 -185 1057 -176 ct 
1069 -167 1075 -155 1075 -139 ct 1075 -132 1073 -123 1071 -112 ct 1059 -47 l 
1057 -41 1057 -36 1057 -32 ct 1057 -23 1061 -19 1071 -19 ct 1074 -19 1077 -19 1081 -20 ct 
1079 -1 l  1071 0 1064 1 1056 1 ct p
1036 -92 m  1002 -91 l  988 -91 978 -89 970 -87 ct 962 -85 956 -83 952 -79 ct 
947 -76 944 -72 942 -67 ct 939 -62 938 -56 938 -49 ct 938 -40 941 -33 946 -28 ct 
952 -23 959 -20 968 -20 ct 979 -20 989 -22 998 -27 ct 1007 -32 1014 -38 1020 -46 ct 
1026 -53 1030 -62 1032 -70 ct 1036 -92 l  p ef
1215 0 m  1237 -111 l  1239 -121 1240 -130 1240 -137 ct 1240 -156 1230 -166 1209 -166 ct 
1195 -166 1182 -160 1171 -149 ct 1160 -138 1153 -123 1149 -105 ct 1129 0 l  1098 0 l 
1126 -147 l  1129 -158 1131 -171 1133 -187 ct 1162 -187 l  1162 -186 1162 -181 1161 -174 ct 
1159 -166 1158 -160 1158 -155 ct 1158 -155 l  1168 -168 1177 -177 1187 -182 ct 
1196 -187 1208 -190 1221 -190 ct 1238 -190 1251 -186 1259 -177 ct 1268 -169 1272 -157 1272 -141 ct 
1272 -134 1271 -124 1268 -113 ct 1246 0 l  1215 0 l  p ef
1355 73 m  1316 73 1294 58 1288 29 ct 1316 22 l  1320 41 1333 50 1356 50 ct 
1372 50 1385 46 1394 37 ct 1403 29 1409 15 1413 -5 ct 1419 -35 l  1418 -35 l 
1411 -25 1405 -17 1399 -13 ct 1394 -8 1388 -5 1381 -3 ct 1374 0 1366 1 1358 1 ct 
1340 1 1326 -5 1315 -16 ct 1304 -28 1299 -43 1299 -62 ct 1299 -77 1301 -94 1306 -112 ct 
1310 -129 1316 -144 1323 -156 ct 1331 -167 1340 -176 1350 -182 ct 1361 -187 1374 -190 1388 -190 ct 
1402 -190 1414 -187 1423 -180 ct 1433 -174 1439 -165 1442 -155 ct 1442 -155 l 
1443 -159 1444 -165 1447 -173 ct 1449 -181 1450 -186 1451 -187 ct 1480 -187 l 
1477 -173 l  1472 -148 l  1444 -6 l  1438 22 1428 42 1414 55 ct 1400 67 1380 73 1355 73 ct 
p
1332 -65 m  1332 -51 1335 -40 1341 -33 ct 1347 -26 1356 -22 1367 -22 ct 1380 -22 1391 -27 1401 -36 ct 
1411 -45 1419 -57 1424 -73 ct 1430 -88 1433 -105 1433 -122 ct 1433 -136 1429 -147 1422 -155 ct 
1414 -163 1404 -167 1391 -167 ct 1381 -167 1373 -165 1366 -161 ct 1359 -156 1353 -150 1348 -141 ct 
1344 -132 1340 -120 1336 -104 ct 1333 -89 1332 -76 1332 -65 ct p ef
1526 -87 m  1525 -83 1525 -76 1525 -67 ct 1525 -52 1528 -40 1536 -32 ct 1544 -24 1555 -20 1570 -20 ct 
1582 -20 1592 -23 1601 -28 ct 1610 -34 1617 -41 1622 -51 ct 1646 -40 l  1637 -25 1627 -14 1614 -7 ct 
1601 0 1585 3 1567 3 ct 1544 3 1526 -3 1513 -16 ct 1500 -29 1494 -47 1494 -70 ct 
1494 -93 1498 -114 1506 -132 ct 1514 -150 1526 -165 1541 -175 ct 1555 -185 1572 -190 1590 -190 ct 
1614 -190 1632 -184 1645 -172 ct 1658 -160 1665 -144 1665 -122 ct 1665 -110 1664 -98 1661 -87 ct 
1526 -87 l  p
1633 -111 m  1634 -123 l  1634 -137 1630 -148 1623 -156 ct 1616 -163 1605 -167 1591 -167 ct 
1576 -167 1563 -162 1552 -152 ct 1542 -143 1534 -129 1530 -111 ct 1633 -111 l 
p ef
pom
pum
6613 6881 t
242 0 m  204 0 l  192 -154 l  190 -186 189 -205 189 -210 ct 180 -187 172 -169 166 -154 ct 
93 0 l  55 0 l  31 -243 l  64 -243 l  78 -89 l  79 -71 80 -51 81 -29 ct 90 -51 97 -68 103 -81 ct 
109 -94 135 -148 180 -243 ct 211 -243 l  224 -92 l  226 -74 227 -53 227 -29 ct 
230 -35 l  235 -48 240 -59 243 -67 ct 247 -75 274 -133 326 -243 ct 361 -243 l 
242 0 l  p ef
383 -226 m  389 -256 l  420 -256 l  414 -226 l  383 -226 l  p
340 0 m  376 -187 l  407 -187 l  371 0 l  340 0 l  p ef
497 -216 m  479 -126 l  617 -126 l  611 -99 l  474 -99 l  455 0 l  422 0 l 
469 -243 l  644 -243 l  638 -216 l  497 -216 l  p ef
676 -226 m  682 -256 l  713 -256 l  707 -226 l  676 -226 l  p
633 0 m  669 -187 l  700 -187 l  664 0 l  633 0 l  p ef
806 0 m  855 -256 l  886 -256 l  837 0 l  806 0 l  p ef
925 -226 m  931 -256 l  962 -256 l  956 -226 l  925 -226 l  p
882 0 m  918 -187 l  949 -187 l  913 0 l  882 0 l  p ef
1076 0 m  1098 -111 l  1100 -121 1101 -130 1101 -137 ct 1101 -156 1091 -166 1070 -166 ct 
1056 -166 1043 -160 1032 -149 ct 1021 -138 1014 -123 1010 -105 ct 990 0 l  959 0 l 
987 -147 l  990 -158 992 -171 994 -187 ct 1023 -187 l  1023 -186 1023 -181 1022 -174 ct 
1020 -166 1019 -160 1019 -155 ct 1019 -155 l  1029 -168 1038 -177 1048 -182 ct 
1057 -187 1069 -190 1082 -190 ct 1099 -190 1112 -186 1120 -177 ct 1129 -169 1133 -157 1133 -141 ct 
1133 -134 1132 -124 1129 -113 ct 1107 0 l  1076 0 l  p ef
1272 0 m  1225 -87 l  1196 -65 l  1184 0 l  1153 0 l  1203 -256 l  1234 -256 l 
1203 -98 l  1238 -131 l  1301 -187 l  1339 -187 l  1247 -107 l  1305 0 l 
1272 0 l  p ef
pom
[ ] 0 ld
0.207 0.398 0.644 c 2835 10764 m  2835 10828 2958 10892 3081 10892 ct 5699 10892 l 
5822 10892 5946 10956 5946 11019 ct 5946 10956 6069 10892 6192 10892 ct 8811 10892 l 
8934 10892 9058 10828 9058 10764 ct ps
2835 11019 m  2835 11019 l  pc
9058 10764 m  9058 10764 l  pc
pum
4394 11650 t
0.003 0.003 0.003 c 235 0 m  235 -162 l  235 -180 236 -197 237 -214 ct 231 -193 226 -177 222 -166 ct 
159 0 l  136 0 l  72 -166 l  63 -195 l  57 -214 l  58 -195 l  58 -162 l 
58 0 l  29 0 l  29 -243 l  72 -243 l  137 -75 l  139 -68 141 -60 143 -53 ct 
146 -45 147 -39 148 -36 ct 149 -40 151 -47 153 -57 ct 156 -66 158 -72 159 -75 ct 
223 -243 l  265 -243 l  265 0 l  235 0 l  p ef
340 -87 m  340 -66 344 -49 353 -37 ct 362 -26 375 -20 391 -20 ct 405 -20 416 -23 424 -28 ct 
432 -34 437 -41 440 -49 ct 467 -41 l  456 -12 431 3 391 3 ct 364 3 343 -5 329 -22 ct 
314 -38 307 -62 307 -95 ct 307 -125 314 -149 329 -165 ct 343 -182 364 -190 390 -190 ct 
445 -190 472 -157 472 -91 ct 472 -87 l  340 -87 l  p
440 -111 m  439 -130 434 -145 425 -154 ct 417 -163 405 -167 390 -167 ct 375 -167 363 -162 354 -152 ct 
345 -142 341 -128 340 -111 ct 440 -111 l  p ef
629 0 m  629 -118 l  629 -131 628 -140 625 -147 ct 623 -154 619 -159 614 -162 ct 
609 -165 601 -166 591 -166 ct 576 -166 564 -161 555 -151 ct 547 -140 542 -126 542 -108 ct 
542 0 l  511 0 l  511 -147 l  511 -169 511 -182 510 -187 ct 540 -187 l  540 -186 540 -185 540 -182 ct 
540 -180 540 -177 540 -173 ct 541 -170 541 -164 541 -155 ct 542 -155 l  549 -168 557 -177 566 -182 ct 
576 -187 587 -190 601 -190 ct 622 -190 636 -185 646 -175 ct 655 -165 660 -148 660 -124 ct 
660 0 l  629 0 l  p ef
823 -30 m  818 -18 810 -10 800 -5 ct 791 0 779 3 765 3 ct 742 3 724 -5 713 -21 ct 
702 -37 697 -61 697 -93 ct 697 -158 720 -190 765 -190 ct 779 -190 791 -187 801 -182 ct 
810 -177 818 -169 823 -158 ct 824 -158 l  823 -179 l  823 -256 l  854 -256 l 
854 -38 l  854 -19 855 -6 855 0 ct 826 0 l  825 -2 825 -6 825 -13 ct 824 -20 824 -25 824 -30 ct 
823 -30 l  p
729 -94 m  729 -68 733 -49 740 -38 ct 747 -27 758 -21 773 -21 ct 791 -21 803 -27 811 -39 ct 
819 -51 823 -70 823 -96 ct 823 -120 819 -138 811 -150 ct 803 -161 791 -167 774 -167 ct 
758 -167 747 -161 740 -150 ct 733 -138 729 -120 729 -94 ct p ef
1057 -94 m  1057 -61 1050 -37 1036 -21 ct 1021 -5 1001 3 973 3 ct 946 3 925 -5 912 -22 ct 
898 -38 891 -62 891 -94 ct 891 -158 919 -190 974 -190 ct 1003 -190 1024 -182 1037 -167 ct 
1050 -151 1057 -127 1057 -94 ct p
1025 -94 m  1025 -119 1021 -138 1013 -150 ct 1006 -161 993 -167 975 -167 ct 
957 -167 944 -161 935 -149 ct 927 -137 923 -119 923 -94 ct 923 -69 927 -51 935 -38 ct 
943 -26 956 -20 973 -20 ct 991 -20 1005 -26 1013 -38 ct 1021 -50 1025 -68 1025 -94 ct 
p ef
1085 0 m  1085 -24 l  1190 -163 l  1091 -163 l  1091 -187 l  1227 -187 l 
1227 -163 l  1122 -24 l  1230 -24 l  1230 0 l  1085 0 l  p ef
1311 3 m  1293 3 1278 -2 1269 -12 ct 1260 -22 1255 -35 1255 -52 ct 1255 -72 1261 -86 1274 -97 ct 
1287 -107 1307 -113 1335 -113 ct 1377 -114 l  1377 -124 l  1377 -140 1374 -150 1367 -157 ct 
1361 -164 1351 -167 1337 -167 ct 1323 -167 1313 -165 1307 -160 ct 1301 -155 1297 -147 1296 -137 ct 
1263 -140 l  1269 -173 1293 -190 1338 -190 ct 1361 -190 1379 -185 1391 -174 ct 
1403 -163 1408 -148 1408 -127 ct 1408 -47 l  1408 -38 1410 -31 1412 -26 ct 1414 -21 1419 -19 1426 -19 ct 
1429 -19 1432 -19 1436 -20 ct 1436 -1 l  1428 1 1420 2 1412 2 ct 1401 2 1392 -1 1387 -7 ct 
1382 -13 1379 -23 1378 -36 ct 1377 -36 l  1369 -22 1360 -12 1349 -6 ct 1339 0 1326 3 1311 3 ct 
p
1318 -20 m  1330 -20 1340 -23 1349 -28 ct 1357 -33 1364 -40 1369 -49 ct 1375 -58 1377 -67 1377 -77 ct 
1377 -92 l  1343 -91 l  1329 -91 1318 -90 1310 -87 ct 1303 -84 1297 -80 1293 -74 ct 
1289 -68 1287 -61 1287 -52 ct 1287 -42 1290 -34 1295 -28 ct 1300 -23 1308 -20 1318 -20 ct 
p ef
1501 -38 m  1501 -9 l  1501 3 1500 13 1498 22 ct 1496 30 1492 38 1488 45 ct 
1467 45 l  1477 29 1483 14 1483 0 ct 1468 0 l  1468 -38 l  1501 -38 l  p ef
1810 0 m  1782 -71 l  1672 -71 l  1644 0 l  1610 0 l  1709 -243 l  1746 -243 l 
1843 0 l  1810 0 l  p
1727 -218 m  1725 -213 l  1722 -204 1718 -192 1713 -177 ct 1682 -97 l  1772 -97 l 
1741 -177 l  1738 -185 1735 -194 1731 -204 ct 1727 -218 l  p ef
1867 0 m  1867 -143 l  1867 -157 1866 -171 1866 -187 ct 1895 -187 l  1896 -166 1896 -153 1896 -148 ct 
1897 -148 l  1902 -164 1908 -175 1914 -181 ct 1921 -187 1930 -190 1941 -190 ct 
1946 -190 1950 -189 1954 -188 ct 1954 -160 l  1950 -161 1944 -162 1937 -162 ct 
1925 -162 1915 -156 1908 -145 ct 1901 -134 1898 -118 1898 -97 ct 1898 0 l  1867 0 l 
p ef
2054 73 m  2034 73 2018 69 2006 61 ct 1994 53 1986 42 1983 27 ct 2014 23 l  2016 31 2020 38 2027 43 ct 
2034 48 2044 50 2055 50 ct 2086 50 2101 32 2101 -5 ct 2101 -35 l  2101 -35 l 
2095 -23 2087 -14 2077 -8 ct 2067 -2 2055 1 2041 1 ct 2018 1 2002 -7 1991 -22 ct 
1980 -37 1975 -61 1975 -93 ct 1975 -126 1981 -150 1992 -166 ct 2004 -181 2021 -189 2045 -189 ct 
2058 -189 2069 -186 2079 -180 ct 2089 -174 2096 -165 2101 -154 ct 2102 -154 l 
2102 -158 2102 -164 2102 -173 ct 2103 -181 2103 -186 2104 -187 ct 2133 -187 l 
2133 -181 2132 -168 2132 -148 ct 2132 -6 l  2132 47 2106 73 2054 73 ct p
2101 -93 m  2101 -108 2099 -121 2095 -132 ct 2091 -143 2085 -152 2078 -157 ct 
2070 -163 2062 -166 2052 -166 ct 2036 -166 2025 -160 2018 -149 ct 2010 -137 2007 -119 2007 -93 ct 
2007 -68 2010 -50 2017 -39 ct 2024 -28 2035 -22 2052 -22 ct 2061 -22 2070 -25 2078 -31 ct 
2085 -36 2091 -44 2095 -55 ct 2099 -66 2101 -79 2101 -93 ct p ef
2203 -87 m  2203 -66 2207 -49 2216 -37 ct 2225 -26 2238 -20 2254 -20 ct 2268 -20 2279 -23 2287 -28 ct 
2295 -34 2300 -41 2303 -49 ct 2330 -41 l  2319 -12 2294 3 2254 3 ct 2227 3 2206 -5 2192 -22 ct 
2177 -38 2170 -62 2170 -95 ct 2170 -125 2177 -149 2192 -165 ct 2206 -182 2227 -190 2253 -190 ct 
2308 -190 2335 -157 2335 -91 ct 2335 -87 l  2203 -87 l  p
2303 -111 m  2302 -130 2297 -145 2288 -154 ct 2280 -163 2268 -167 2253 -167 ct 
2238 -167 2226 -162 2217 -152 ct 2208 -142 2204 -128 2203 -111 ct 2303 -111 l 
p ef
2492 0 m  2492 -118 l  2492 -131 2491 -140 2488 -147 ct 2486 -154 2482 -159 2477 -162 ct 
2472 -165 2464 -166 2454 -166 ct 2439 -166 2427 -161 2418 -151 ct 2410 -140 2405 -126 2405 -108 ct 
2405 0 l  2374 0 l  2374 -147 l  2374 -169 2374 -182 2373 -187 ct 2403 -187 l 
2403 -186 2403 -185 2403 -182 ct 2403 -180 2403 -177 2403 -173 ct 2404 -170 2404 -164 2404 -155 ct 
2405 -155 l  2412 -168 2420 -177 2429 -182 ct 2439 -187 2450 -190 2464 -190 ct 
2485 -190 2499 -185 2509 -175 ct 2518 -165 2523 -148 2523 -124 ct 2523 0 l  2492 0 l 
p ef
2639 -1 m  2629 2 2619 3 2608 3 ct 2583 3 2571 -11 2571 -39 ct 2571 -164 l  2549 -164 l 
2549 -187 l  2572 -187 l  2581 -229 l  2602 -229 l  2602 -187 l  2636 -187 l 
2636 -164 l  2602 -164 l  2602 -46 l  2602 -37 2603 -31 2606 -27 ct 2609 -24 2614 -22 2622 -22 ct 
2626 -22 2632 -23 2639 -24 ct 2639 -1 l  p ef
2664 -226 m  2664 -256 l  2696 -256 l  2696 -226 l  2664 -226 l  p
2664 0 m  2664 -187 l  2696 -187 l  2696 0 l  2664 0 l  p ef
2859 0 m  2859 -118 l  2859 -131 2858 -140 2855 -147 ct 2853 -154 2849 -159 2844 -162 ct 
2839 -165 2831 -166 2821 -166 ct 2806 -166 2794 -161 2785 -151 ct 2777 -140 2772 -126 2772 -108 ct 
2772 0 l  2741 0 l  2741 -147 l  2741 -169 2741 -182 2740 -187 ct 2770 -187 l 
2770 -186 2770 -185 2770 -182 ct 2770 -180 2770 -177 2770 -173 ct 2771 -170 2771 -164 2771 -155 ct 
2772 -155 l  2779 -168 2787 -177 2796 -182 ct 2806 -187 2817 -190 2831 -190 ct 
2852 -190 2866 -185 2876 -175 ct 2885 -165 2890 -148 2890 -124 ct 2890 0 l  2859 0 l 
p ef
2983 3 m  2965 3 2950 -2 2941 -12 ct 2932 -22 2927 -35 2927 -52 ct 2927 -72 2933 -86 2946 -97 ct 
2959 -107 2979 -113 3007 -113 ct 3049 -114 l  3049 -124 l  3049 -140 3046 -150 3039 -157 ct 
3033 -164 3023 -167 3009 -167 ct 2995 -167 2985 -165 2979 -160 ct 2973 -155 2969 -147 2968 -137 ct 
2935 -140 l  2941 -173 2965 -190 3010 -190 ct 3033 -190 3051 -185 3063 -174 ct 
3075 -163 3080 -148 3080 -127 ct 3080 -47 l  3080 -38 3082 -31 3084 -26 ct 3086 -21 3091 -19 3098 -19 ct 
3101 -19 3104 -19 3108 -20 ct 3108 -1 l  3100 1 3092 2 3084 2 ct 3073 2 3064 -1 3059 -7 ct 
3054 -13 3051 -23 3050 -36 ct 3049 -36 l  3041 -22 3032 -12 3021 -6 ct 3011 0 2998 3 2983 3 ct 
p
2990 -20 m  3002 -20 3012 -23 3021 -28 ct 3029 -33 3036 -40 3041 -49 ct 3047 -58 3049 -67 3049 -77 ct 
3049 -92 l  3015 -91 l  3001 -91 2990 -90 2982 -87 ct 2975 -84 2969 -80 2965 -74 ct 
2961 -68 2959 -61 2959 -52 ct 2959 -42 2962 -34 2967 -28 ct 2972 -23 2980 -20 2990 -20 ct 
p ef
pom
0.449 0.625 0.812 c 10772 3908 m  10454 3908 l  10454 3273 l  11089 3273 l 
11089 3908 l  10772 3908 l  p ef
0.207 0.398 0.644 c 10771 3907 m  10453 3907 l  10453 3272 l  11088 3272 l 
11088 3907 l  10771 3907 l  pc
pum
7980 7907 t
0.003 0.003 0.003 c 164 -52 m  164 -34 158 -21 144 -11 ct 131 -2 112 3 88 3 ct 65 3 47 -1 34 -8 ct 
22 -16 14 -28 10 -44 ct 37 -50 l  40 -39 45 -32 54 -27 ct 62 -22 74 -20 88 -20 ct 
104 -20 116 -22 123 -27 ct 130 -32 134 -40 134 -49 ct 134 -57 131 -63 126 -67 ct 
121 -72 113 -76 102 -79 ct 80 -84 l  62 -89 49 -93 41 -98 ct 34 -102 28 -108 24 -114 ct 
19 -120 17 -128 17 -137 ct 17 -154 23 -167 36 -176 ct 48 -185 65 -189 89 -189 ct 
109 -189 126 -185 138 -178 ct 150 -171 158 -159 161 -143 ct 133 -140 l  131 -148 127 -155 119 -159 ct 
112 -164 101 -166 89 -166 ct 75 -166 64 -164 58 -160 ct 51 -155 47 -149 47 -140 ct 
47 -135 49 -130 52 -127 ct 54 -124 58 -121 64 -118 ct 69 -116 81 -113 98 -108 ct 
115 -104 126 -100 134 -97 ct 141 -93 147 -90 151 -85 ct 155 -81 158 -76 161 -71 ct 
163 -65 164 -59 164 -52 ct p ef
359 -94 m  359 -61 352 -37 338 -21 ct 323 -5 303 3 275 3 ct 248 3 227 -5 214 -22 ct 
200 -38 193 -62 193 -94 ct 193 -158 221 -190 276 -190 ct 305 -190 326 -182 339 -167 ct 
352 -151 359 -127 359 -94 ct p
327 -94 m  327 -119 323 -138 315 -150 ct 308 -161 295 -167 277 -167 ct 259 -167 246 -161 237 -149 ct 
229 -137 225 -119 225 -94 ct 225 -69 229 -51 237 -38 ct 245 -26 258 -20 275 -20 ct 
293 -20 307 -26 315 -38 ct 323 -50 327 -68 327 -94 ct p ef
397 0 m  397 -256 l  428 -256 l  428 0 l  397 0 l  p ef
581 0 m  581 -118 l  581 -136 579 -149 574 -156 ct 569 -163 560 -166 547 -166 ct 
534 -166 524 -161 516 -151 ct 508 -141 504 -126 504 -108 ct 504 0 l  473 0 l 
473 -147 l  473 -169 473 -182 472 -187 ct 502 -187 l  502 -186 502 -185 502 -182 ct 
502 -180 502 -177 503 -173 ct 503 -170 503 -164 503 -155 ct 504 -155 l  510 -168 518 -177 527 -182 ct 
535 -187 546 -190 558 -190 ct 572 -190 583 -187 592 -182 ct 600 -176 606 -167 609 -155 ct 
609 -155 l  616 -167 624 -176 633 -182 ct 642 -187 653 -190 666 -190 ct 685 -190 698 -185 707 -175 ct 
715 -164 720 -148 720 -124 ct 720 0 l  689 0 l  689 -118 l  689 -136 687 -149 682 -156 ct 
677 -163 668 -166 655 -166 ct 641 -166 631 -161 623 -151 ct 616 -141 612 -127 612 -108 ct 
612 0 l  581 0 l  p ef
820 3 m  802 3 787 -2 778 -12 ct 769 -22 764 -35 764 -52 ct 764 -72 770 -86 783 -97 ct 
796 -107 816 -113 844 -113 ct 886 -114 l  886 -124 l  886 -140 883 -150 876 -157 ct 
870 -164 860 -167 846 -167 ct 832 -167 822 -165 816 -160 ct 810 -155 806 -147 805 -137 ct 
772 -140 l  778 -173 802 -190 847 -190 ct 870 -190 888 -185 900 -174 ct 912 -163 917 -148 917 -127 ct 
917 -47 l  917 -38 919 -31 921 -26 ct 923 -21 928 -19 935 -19 ct 938 -19 941 -19 945 -20 ct 
945 -1 l  937 1 929 2 921 2 ct 910 2 901 -1 896 -7 ct 891 -13 888 -23 887 -36 ct 
886 -36 l  878 -22 869 -12 858 -6 ct 848 0 835 3 820 3 ct p
827 -20 m  839 -20 849 -23 858 -28 ct 866 -33 873 -40 878 -49 ct 884 -58 886 -67 886 -77 ct 
886 -92 l  852 -91 l  838 -91 827 -90 819 -87 ct 812 -84 806 -80 802 -74 ct 
798 -68 796 -61 796 -52 ct 796 -42 799 -34 804 -28 ct 809 -23 817 -20 827 -20 ct 
p ef
1086 0 m  1086 -118 l  1086 -131 1085 -140 1082 -147 ct 1080 -154 1076 -159 1071 -162 ct 
1066 -165 1058 -166 1048 -166 ct 1033 -166 1021 -161 1012 -151 ct 1004 -140 999 -126 999 -108 ct 
999 0 l  968 0 l  968 -147 l  968 -169 968 -182 967 -187 ct 997 -187 l  997 -186 997 -185 997 -182 ct 
997 -180 997 -177 997 -173 ct 998 -170 998 -164 998 -155 ct 999 -155 l  1006 -168 1014 -177 1023 -182 ct 
1033 -187 1044 -190 1058 -190 ct 1079 -190 1093 -185 1103 -175 ct 1112 -165 1117 -148 1117 -124 ct 
1117 0 l  1086 0 l  p ef
1210 3 m  1192 3 1177 -2 1168 -12 ct 1159 -22 1154 -35 1154 -52 ct 1154 -72 1160 -86 1173 -97 ct 
1186 -107 1206 -113 1234 -113 ct 1276 -114 l  1276 -124 l  1276 -140 1273 -150 1266 -157 ct 
1260 -164 1250 -167 1236 -167 ct 1222 -167 1212 -165 1206 -160 ct 1200 -155 1196 -147 1195 -137 ct 
1162 -140 l  1168 -173 1192 -190 1237 -190 ct 1260 -190 1278 -185 1290 -174 ct 
1302 -163 1307 -148 1307 -127 ct 1307 -47 l  1307 -38 1309 -31 1311 -26 ct 1313 -21 1318 -19 1325 -19 ct 
1328 -19 1331 -19 1335 -20 ct 1335 -1 l  1327 1 1319 2 1311 2 ct 1300 2 1291 -1 1286 -7 ct 
1281 -13 1278 -23 1277 -36 ct 1276 -36 l  1268 -22 1259 -12 1248 -6 ct 1238 0 1225 3 1210 3 ct 
p
1217 -20 m  1229 -20 1239 -23 1248 -28 ct 1256 -33 1263 -40 1268 -49 ct 1274 -58 1276 -67 1276 -77 ct 
1276 -92 l  1242 -91 l  1228 -91 1217 -90 1209 -87 ct 1202 -84 1196 -80 1192 -74 ct 
1188 -68 1186 -61 1186 -52 ct 1186 -42 1189 -34 1194 -28 ct 1199 -23 1207 -20 1217 -20 ct 
p ef
1428 73 m  1408 73 1392 69 1380 61 ct 1368 53 1360 42 1357 27 ct 1388 23 l  1390 31 1394 38 1401 43 ct 
1408 48 1418 50 1429 50 ct 1460 50 1475 32 1475 -5 ct 1475 -35 l  1475 -35 l 
1469 -23 1461 -14 1451 -8 ct 1441 -2 1429 1 1415 1 ct 1392 1 1376 -7 1365 -22 ct 
1354 -37 1349 -61 1349 -93 ct 1349 -126 1355 -150 1366 -166 ct 1378 -181 1395 -189 1419 -189 ct 
1432 -189 1443 -186 1453 -180 ct 1463 -174 1470 -165 1475 -154 ct 1476 -154 l 
1476 -158 1476 -164 1476 -173 ct 1477 -181 1477 -186 1478 -187 ct 1507 -187 l 
1507 -181 1506 -168 1506 -148 ct 1506 -6 l  1506 47 1480 73 1428 73 ct p
1475 -93 m  1475 -108 1473 -121 1469 -132 ct 1465 -143 1459 -152 1452 -157 ct 
1444 -163 1436 -166 1426 -166 ct 1410 -166 1399 -160 1392 -149 ct 1384 -137 1381 -119 1381 -93 ct 
1381 -68 1384 -50 1391 -39 ct 1398 -28 1409 -22 1426 -22 ct 1435 -22 1444 -25 1452 -31 ct 
1459 -36 1465 -44 1469 -55 ct 1473 -66 1475 -79 1475 -93 ct p ef
1576 -87 m  1576 -66 1580 -49 1589 -37 ct 1598 -26 1611 -20 1627 -20 ct 1641 -20 1652 -23 1660 -28 ct 
1668 -34 1673 -41 1676 -49 ct 1703 -41 l  1692 -12 1667 3 1627 3 ct 1600 3 1579 -5 1565 -22 ct 
1550 -38 1543 -62 1543 -95 ct 1543 -125 1550 -149 1565 -165 ct 1579 -182 1600 -190 1626 -190 ct 
1681 -190 1708 -157 1708 -91 ct 1708 -87 l  1576 -87 l  p
1676 -111 m  1675 -130 1670 -145 1661 -154 ct 1653 -163 1641 -167 1626 -167 ct 
1611 -167 1599 -162 1590 -152 ct 1581 -142 1577 -128 1576 -111 ct 1676 -111 l 
p ef
1748 0 m  1748 -143 l  1748 -157 1747 -171 1747 -187 ct 1776 -187 l  1777 -166 1777 -153 1777 -148 ct 
1778 -148 l  1783 -164 1789 -175 1795 -181 ct 1802 -187 1811 -190 1822 -190 ct 
1827 -190 1831 -189 1835 -188 ct 1835 -160 l  1831 -161 1825 -162 1818 -162 ct 
1806 -162 1796 -156 1789 -145 ct 1782 -134 1779 -118 1779 -97 ct 1779 0 l  1748 0 l 
p ef
pom
pum
11444 3707 t
164 -52 m  164 -34 158 -21 144 -11 ct 131 -2 112 3 88 3 ct 65 3 47 -1 34 -8 ct 
22 -16 14 -28 10 -44 ct 37 -50 l  40 -39 45 -32 54 -27 ct 62 -22 74 -20 88 -20 ct 
104 -20 116 -22 123 -27 ct 130 -32 134 -40 134 -49 ct 134 -57 131 -63 126 -67 ct 
121 -72 113 -76 102 -79 ct 80 -84 l  62 -89 49 -93 41 -98 ct 34 -102 28 -108 24 -114 ct 
19 -120 17 -128 17 -137 ct 17 -154 23 -167 36 -176 ct 48 -185 65 -189 89 -189 ct 
109 -189 126 -185 138 -178 ct 150 -171 158 -159 161 -143 ct 133 -140 l  131 -148 127 -155 119 -159 ct 
112 -164 101 -166 89 -166 ct 75 -166 64 -164 58 -160 ct 51 -155 47 -149 47 -140 ct 
47 -135 49 -130 52 -127 ct 54 -124 58 -121 64 -118 ct 69 -116 81 -113 98 -108 ct 
115 -104 126 -100 134 -97 ct 141 -93 147 -90 151 -85 ct 155 -81 158 -76 161 -71 ct 
163 -65 164 -59 164 -52 ct p ef
359 -94 m  359 -61 352 -37 338 -21 ct 323 -5 303 3 275 3 ct 248 3 227 -5 214 -22 ct 
200 -38 193 -62 193 -94 ct 193 -158 221 -190 276 -190 ct 305 -190 326 -182 339 -167 ct 
352 -151 359 -127 359 -94 ct p
327 -94 m  327 -119 323 -138 315 -150 ct 308 -161 295 -167 277 -167 ct 259 -167 246 -161 237 -149 ct 
229 -137 225 -119 225 -94 ct 225 -69 229 -51 237 -38 ct 245 -26 258 -20 275 -20 ct 
293 -20 307 -26 315 -38 ct 323 -50 327 -68 327 -94 ct p ef
397 0 m  397 -256 l  428 -256 l  428 0 l  397 0 l  p ef
613 -52 m  613 -34 607 -21 593 -11 ct 580 -2 561 3 537 3 ct 514 3 496 -1 483 -8 ct 
471 -16 463 -28 459 -44 ct 486 -50 l  489 -39 494 -32 503 -27 ct 511 -22 523 -20 537 -20 ct 
553 -20 565 -22 572 -27 ct 579 -32 583 -40 583 -49 ct 583 -57 580 -63 575 -67 ct 
570 -72 562 -76 551 -79 ct 529 -84 l  511 -89 498 -93 490 -98 ct 483 -102 477 -108 473 -114 ct 
468 -120 466 -128 466 -137 ct 466 -154 472 -167 485 -176 ct 497 -185 514 -189 538 -189 ct 
558 -189 575 -185 587 -178 ct 599 -171 607 -159 610 -143 ct 582 -140 l  580 -148 576 -155 568 -159 ct 
561 -164 550 -166 538 -166 ct 524 -166 513 -164 507 -160 ct 500 -155 496 -149 496 -140 ct 
496 -135 498 -130 501 -127 ct 503 -124 507 -121 513 -118 ct 518 -116 530 -113 547 -108 ct 
564 -104 575 -100 583 -97 ct 590 -93 596 -90 600 -85 ct 604 -81 607 -76 610 -71 ct 
612 -65 613 -59 613 -52 ct p ef
675 -87 m  675 -66 679 -49 688 -37 ct 697 -26 710 -20 726 -20 ct 740 -20 751 -23 759 -28 ct 
767 -34 772 -41 775 -49 ct 802 -41 l  791 -12 766 3 726 3 ct 699 3 678 -5 664 -22 ct 
649 -38 642 -62 642 -95 ct 642 -125 649 -149 664 -165 ct 678 -182 699 -190 725 -190 ct 
780 -190 807 -157 807 -91 ct 807 -87 l  675 -87 l  p
775 -111 m  774 -130 769 -145 760 -154 ct 752 -163 740 -167 725 -167 ct 710 -167 698 -162 689 -152 ct 
680 -142 676 -128 675 -111 ct 775 -111 l  p ef
846 0 m  846 -143 l  846 -157 845 -171 845 -187 ct 874 -187 l  875 -166 875 -153 875 -148 ct 
876 -148 l  881 -164 887 -175 893 -181 ct 900 -187 909 -190 920 -190 ct 925 -190 929 -189 933 -188 ct 
933 -160 l  929 -161 923 -162 916 -162 ct 904 -162 894 -156 887 -145 ct 880 -134 877 -118 877 -97 ct 
877 0 l  846 0 l  p ef
1046 0 m  1009 0 l  941 -187 l  974 -187 l  1016 -65 l  1017 -61 1021 -47 1027 -24 ct 
1034 -45 l  1040 -65 l  1083 -187 l  1116 -187 l  1046 0 l  p ef
1161 -87 m  1161 -66 1165 -49 1174 -37 ct 1183 -26 1196 -20 1212 -20 ct 1226 -20 1237 -23 1245 -28 ct 
1253 -34 1258 -41 1261 -49 ct 1288 -41 l  1277 -12 1252 3 1212 3 ct 1185 3 1164 -5 1150 -22 ct 
1135 -38 1128 -62 1128 -95 ct 1128 -125 1135 -149 1150 -165 ct 1164 -182 1185 -190 1211 -190 ct 
1266 -190 1293 -157 1293 -91 ct 1293 -87 l  1161 -87 l  p
1261 -111 m  1260 -130 1255 -145 1246 -154 ct 1238 -163 1226 -167 1211 -167 ct 
1196 -167 1184 -162 1175 -152 ct 1166 -142 1162 -128 1161 -111 ct 1261 -111 l 
p ef
1333 0 m  1333 -143 l  1333 -157 1332 -171 1332 -187 ct 1361 -187 l  1362 -166 1362 -153 1362 -148 ct 
1363 -148 l  1368 -164 1374 -175 1380 -181 ct 1387 -187 1396 -190 1407 -190 ct 
1412 -190 1416 -189 1420 -188 ct 1420 -160 l  1416 -161 1410 -162 1403 -162 ct 
1391 -162 1381 -156 1374 -145 ct 1367 -134 1364 -118 1364 -97 ct 1364 0 l  1333 0 l 
p ef
pom
pum
5526 5748 t
0.402 0.402 0.402 c 242 0 m  204 0 l  192 -154 l  190 -186 189 -205 189 -210 ct 
180 -187 172 -169 166 -154 ct 93 0 l  55 0 l  31 -243 l  64 -243 l  78 -89 l 
79 -71 80 -51 81 -29 ct 90 -51 97 -68 103 -81 ct 109 -94 135 -148 180 -243 ct 211 -243 l 
224 -92 l  226 -74 227 -53 227 -29 ct 230 -35 l  235 -48 240 -59 243 -67 ct 
247 -75 274 -133 326 -243 ct 361 -243 l  242 0 l  p ef
383 -226 m  389 -256 l  420 -256 l  414 -226 l  383 -226 l  p
340 0 m  376 -187 l  407 -187 l  371 0 l  340 0 l  p ef
497 -216 m  479 -126 l  617 -126 l  611 -99 l  474 -99 l  455 0 l  422 0 l 
469 -243 l  644 -243 l  638 -216 l  497 -216 l  p ef
676 -226 m  682 -256 l  713 -256 l  707 -226 l  676 -226 l  p
633 0 m  669 -187 l  700 -187 l  664 0 l  633 0 l  p ef
959 1 m  949 1 941 -1 936 -5 ct 931 -10 929 -16 929 -25 ct 930 -36 l  929 -36 l 
919 -21 909 -11 899 -6 ct 889 0 877 3 862 3 ct 846 3 833 -2 823 -11 ct 813 -21 808 -33 808 -48 ct 
808 -69 816 -85 831 -96 ct 846 -107 870 -113 903 -113 ct 943 -114 l  945 -125 947 -132 947 -136 ct 
947 -146 944 -154 937 -159 ct 931 -164 923 -167 912 -167 ct 899 -167 888 -165 881 -160 ct 
874 -155 869 -147 866 -137 ct 835 -142 l  841 -159 850 -171 862 -179 ct 875 -186 892 -190 914 -190 ct 
934 -190 949 -185 960 -176 ct 972 -167 978 -155 978 -139 ct 978 -132 976 -123 974 -112 ct 
962 -47 l  960 -41 960 -36 960 -32 ct 960 -23 964 -19 974 -19 ct 977 -19 980 -19 984 -20 ct 
982 -1 l  974 0 967 1 959 1 ct p
939 -92 m  905 -91 l  891 -91 881 -89 873 -87 ct 865 -85 859 -83 855 -79 ct 
850 -76 847 -72 845 -67 ct 842 -62 841 -56 841 -49 ct 841 -40 844 -33 849 -28 ct 
855 -23 862 -20 871 -20 ct 882 -20 892 -22 901 -27 ct 910 -32 917 -38 923 -46 ct 
929 -53 933 -62 935 -70 ct 939 -92 l  p ef
1076 -21 m  1100 -21 1116 -34 1126 -61 ct 1153 -53 l  1139 -16 1113 3 1075 3 ct 
1053 3 1036 -3 1024 -16 ct 1013 -28 1007 -46 1007 -68 ct 1007 -91 1011 -113 1019 -132 ct 
1027 -152 1039 -167 1052 -176 ct 1066 -185 1083 -190 1103 -190 ct 1123 -190 1138 -185 1149 -175 ct 
1161 -166 1167 -152 1168 -135 ct 1138 -131 l  1137 -142 1133 -151 1127 -157 ct 
1121 -163 1113 -166 1102 -166 ct 1087 -166 1076 -162 1067 -154 ct 1058 -147 1051 -134 1046 -117 ct 
1041 -100 1038 -84 1038 -67 ct 1038 -36 1051 -21 1076 -21 ct p ef
1254 -21 m  1278 -21 1294 -34 1304 -61 ct 1331 -53 l  1317 -16 1291 3 1253 3 ct 
1231 3 1214 -3 1202 -16 ct 1191 -28 1185 -46 1185 -68 ct 1185 -91 1189 -113 1197 -132 ct 
1205 -152 1217 -167 1230 -176 ct 1244 -185 1261 -190 1281 -190 ct 1301 -190 1316 -185 1327 -175 ct 
1339 -166 1345 -152 1346 -135 ct 1316 -131 l  1315 -142 1311 -151 1305 -157 ct 
1299 -163 1291 -166 1280 -166 ct 1265 -166 1254 -162 1245 -154 ct 1236 -147 1229 -134 1224 -117 ct 
1219 -100 1216 -84 1216 -67 ct 1216 -36 1229 -21 1254 -21 ct p ef
1394 -87 m  1393 -83 1393 -76 1393 -67 ct 1393 -52 1396 -40 1404 -32 ct 1412 -24 1423 -20 1438 -20 ct 
1450 -20 1460 -23 1469 -28 ct 1478 -34 1485 -41 1490 -51 ct 1514 -40 l  1505 -25 1495 -14 1482 -7 ct 
1469 0 1453 3 1435 3 ct 1412 3 1394 -3 1381 -16 ct 1368 -29 1362 -47 1362 -70 ct 
1362 -93 1366 -114 1374 -132 ct 1382 -150 1394 -165 1409 -175 ct 1423 -185 1440 -190 1458 -190 ct 
1482 -190 1500 -184 1513 -172 ct 1526 -160 1533 -144 1533 -122 ct 1533 -110 1532 -98 1529 -87 ct 
1394 -87 l  p
1501 -111 m  1502 -123 l  1502 -137 1498 -148 1491 -156 ct 1484 -163 1473 -167 1459 -167 ct 
1444 -167 1431 -162 1420 -152 ct 1410 -143 1402 -129 1398 -111 ct 1501 -111 l 
p ef
1702 -55 m  1702 -36 1695 -22 1680 -12 ct 1666 -2 1645 3 1618 3 ct 1598 3 1582 0 1571 -7 ct 
1559 -14 1551 -25 1546 -39 ct 1571 -49 l  1575 -39 1581 -32 1589 -27 ct 1597 -22 1608 -20 1621 -20 ct 
1638 -20 1650 -23 1659 -28 ct 1667 -34 1672 -42 1672 -52 ct 1672 -59 1669 -65 1663 -70 ct 
1657 -75 1644 -80 1625 -86 ct 1611 -91 1600 -95 1592 -100 ct 1585 -104 1579 -110 1575 -116 ct 
1571 -122 1569 -129 1569 -137 ct 1569 -154 1576 -167 1589 -176 ct 1603 -185 1622 -189 1646 -189 ct 
1687 -189 1710 -174 1715 -145 ct 1687 -141 l  1684 -150 1679 -156 1672 -160 ct 
1665 -164 1656 -166 1644 -166 ct 1630 -166 1619 -164 1611 -159 ct 1603 -155 1599 -149 1599 -141 ct 
1599 -136 1601 -132 1603 -128 ct 1605 -125 1609 -122 1613 -120 ct 1618 -117 1629 -113 1645 -108 ct 
1660 -103 1671 -99 1678 -94 ct 1686 -89 1691 -84 1696 -77 ct 1700 -71 1702 -64 1702 -55 ct 
p ef
1880 -55 m  1880 -36 1873 -22 1858 -12 ct 1844 -2 1823 3 1796 3 ct 1776 3 1760 0 1749 -7 ct 
1737 -14 1729 -25 1724 -39 ct 1749 -49 l  1753 -39 1759 -32 1767 -27 ct 1775 -22 1786 -20 1799 -20 ct 
1816 -20 1828 -23 1837 -28 ct 1845 -34 1850 -42 1850 -52 ct 1850 -59 1847 -65 1841 -70 ct 
1835 -75 1822 -80 1803 -86 ct 1789 -91 1778 -95 1770 -100 ct 1763 -104 1757 -110 1753 -116 ct 
1749 -122 1747 -129 1747 -137 ct 1747 -154 1754 -167 1767 -176 ct 1781 -185 1800 -189 1824 -189 ct 
1865 -189 1888 -174 1893 -145 ct 1865 -141 l  1862 -150 1857 -156 1850 -160 ct 
1843 -164 1834 -166 1822 -166 ct 1808 -166 1797 -164 1789 -159 ct 1781 -155 1777 -149 1777 -141 ct 
1777 -136 1779 -132 1781 -128 ct 1783 -125 1787 -122 1791 -120 ct 1796 -117 1807 -113 1823 -108 ct 
1838 -103 1849 -99 1856 -94 ct 1864 -89 1869 -84 1874 -77 ct 1878 -71 1880 -64 1880 -55 ct 
p ef
2093 3 m  2079 3 2068 0 2059 -6 ct 2050 -12 2044 -20 2040 -31 ct 2039 -31 l 
2039 -30 2039 -26 2038 -20 ct 2037 -14 2031 17 2020 73 ct 1989 73 l  2032 -149 l 
2035 -162 2037 -174 2038 -187 ct 2067 -187 l  2067 -184 2067 -179 2066 -173 ct 
2065 -166 2064 -162 2064 -159 ct 2065 -159 l  2073 -170 2082 -178 2091 -183 ct 
2100 -188 2112 -190 2126 -190 ct 2144 -190 2158 -185 2168 -174 ct 2178 -163 2183 -148 2183 -129 ct 
2183 -106 2179 -83 2172 -61 ct 2165 -40 2155 -23 2142 -13 ct 2130 -2 2113 3 2093 3 ct 
p
2117 -166 m  2105 -166 2096 -164 2087 -159 ct 2079 -154 2073 -147 2067 -138 ct 
2061 -129 2057 -117 2054 -103 ct 2050 -89 2049 -76 2049 -65 ct 2049 -51 2052 -40 2060 -32 ct 
2067 -24 2077 -20 2090 -20 ct 2104 -20 2116 -24 2124 -33 ct 2132 -42 2138 -55 2143 -74 ct 
2148 -93 2150 -109 2150 -124 ct 2150 -138 2148 -148 2142 -155 ct 2137 -162 2128 -166 2117 -166 ct 
p ef
2378 -118 m  2378 -103 2376 -88 2371 -71 ct 2366 -55 2360 -42 2351 -30 ct 2343 -19 2332 -11 2320 -5 ct 
2307 0 2293 3 2277 3 ct 2255 3 2237 -4 2224 -17 ct 2211 -31 2205 -49 2205 -73 ct 
2205 -96 2209 -117 2217 -135 ct 2225 -153 2236 -167 2251 -176 ct 2265 -185 2282 -190 2303 -190 ct 
2328 -190 2346 -184 2359 -171 ct 2371 -159 2378 -141 2378 -118 ct p
2346 -118 m  2346 -151 2332 -167 2303 -167 ct 2288 -167 2275 -163 2266 -155 ct 
2257 -147 2249 -135 2244 -119 ct 2239 -103 2236 -87 2236 -72 ct 2236 -55 2240 -42 2247 -33 ct 
2255 -24 2265 -20 2279 -20 ct 2291 -20 2301 -22 2308 -26 ct 2315 -30 2321 -36 2327 -44 ct 
2332 -53 2336 -64 2340 -77 ct 2343 -90 2345 -103 2346 -118 ct p ef
2437 -226 m  2443 -256 l  2474 -256 l  2468 -226 l  2437 -226 l  p
2394 0 m  2430 -187 l  2461 -187 l  2425 0 l  2394 0 l  p ef
2587 0 m  2609 -111 l  2611 -121 2612 -130 2612 -137 ct 2612 -156 2602 -166 2581 -166 ct 
2567 -166 2554 -160 2543 -149 ct 2532 -138 2525 -123 2521 -105 ct 2501 0 l  2470 0 l 
2498 -147 l  2501 -158 2503 -171 2505 -187 ct 2534 -187 l  2534 -186 2534 -181 2533 -174 ct 
2531 -166 2530 -160 2530 -155 ct 2530 -155 l  2540 -168 2549 -177 2559 -182 ct 
2568 -187 2580 -190 2593 -190 ct 2610 -190 2623 -186 2631 -177 ct 2640 -169 2644 -157 2644 -141 ct 
2644 -134 2643 -124 2640 -113 ct 2618 0 l  2587 0 l  p ef
2705 3 m  2696 3 2688 0 2682 -6 ct 2677 -12 2674 -19 2674 -29 ct 2674 -35 2675 -43 2677 -51 ct 
2698 -164 l  2677 -164 l  2681 -187 l  2703 -187 l  2721 -229 l  2742 -229 l 
2734 -187 l  2768 -187 l  2764 -164 l  2729 -164 l  2708 -53 l  2706 -47 2706 -41 2706 -37 ct 
2706 -27 2711 -22 2721 -22 ct 2726 -22 2732 -23 2738 -24 ct 2735 -1 l  2724 2 2714 3 2705 3 ct 
p ef
pom
0.207 0.398 0.644 c 10092 10763 m  10092 10827 10153 10891 10214 10891 ct 
11517 10891 l  11578 10891 11640 10955 11640 11018 ct 11640 10955 11701 10891 11762 10891 ct 
13066 10891 l  13127 10891 13189 10827 13189 10763 ct ps
10092 11018 m  10092 11018 l  pc
13189 10763 m  13189 10763 l  pc
pum
10596 11649 t
0.003 0.003 0.003 c 216 -170 m  216 -147 209 -129 194 -115 ct 179 -102 159 -95 133 -95 ct 
62 -95 l  62 0 l  29 0 l  29 -243 l  131 -243 l  158 -243 179 -237 194 -224 ct 
209 -211 216 -193 216 -170 ct p
183 -170 m  183 -201 165 -217 127 -217 ct 62 -217 l  62 -121 l  128 -121 l 
165 -121 183 -137 183 -170 ct p ef
304 3 m  286 3 271 -2 262 -12 ct 253 -22 248 -35 248 -52 ct 248 -72 254 -86 267 -97 ct 
280 -107 300 -113 328 -113 ct 370 -114 l  370 -124 l  370 -140 367 -150 360 -157 ct 
354 -164 344 -167 330 -167 ct 316 -167 306 -165 300 -160 ct 294 -155 290 -147 289 -137 ct 
256 -140 l  262 -173 286 -190 331 -190 ct 354 -190 372 -185 384 -174 ct 396 -163 401 -148 401 -127 ct 
401 -47 l  401 -38 403 -31 405 -26 ct 407 -21 412 -19 419 -19 ct 422 -19 425 -19 429 -20 ct 
429 -1 l  421 1 413 2 405 2 ct 394 2 385 -1 380 -7 ct 375 -13 372 -23 371 -36 ct 
370 -36 l  362 -22 353 -12 342 -6 ct 332 0 319 3 304 3 ct p
311 -20 m  323 -20 333 -23 342 -28 ct 350 -33 357 -40 362 -49 ct 368 -58 370 -67 370 -77 ct 
370 -92 l  336 -91 l  322 -91 311 -90 303 -87 ct 296 -84 290 -80 286 -74 ct 
282 -68 280 -61 280 -52 ct 280 -42 283 -34 288 -28 ct 293 -23 301 -20 311 -20 ct 
p ef
453 0 m  453 -143 l  453 -157 452 -171 452 -187 ct 481 -187 l  482 -166 482 -153 482 -148 ct 
483 -148 l  488 -164 494 -175 500 -181 ct 507 -187 516 -190 527 -190 ct 532 -190 536 -189 540 -188 ct 
540 -160 l  536 -161 530 -162 523 -162 ct 511 -162 501 -156 494 -145 ct 487 -134 484 -118 484 -97 ct 
484 0 l  453 0 l  p ef
569 -226 m  569 -256 l  601 -256 l  601 -226 l  569 -226 l  p
569 0 m  569 -187 l  601 -187 l  601 0 l  569 0 l  p ef
786 -52 m  786 -34 780 -21 766 -11 ct 753 -2 734 3 710 3 ct 687 3 669 -1 656 -8 ct 
644 -16 636 -28 632 -44 ct 659 -50 l  662 -39 667 -32 676 -27 ct 684 -22 696 -20 710 -20 ct 
726 -20 738 -22 745 -27 ct 752 -32 756 -40 756 -49 ct 756 -57 753 -63 748 -67 ct 
743 -72 735 -76 724 -79 ct 702 -84 l  684 -89 671 -93 663 -98 ct 656 -102 650 -108 646 -114 ct 
641 -120 639 -128 639 -137 ct 639 -154 645 -167 658 -176 ct 670 -185 687 -189 711 -189 ct 
731 -189 748 -185 760 -178 ct 772 -171 780 -159 783 -143 ct 755 -140 l  753 -148 749 -155 741 -159 ct 
734 -164 723 -166 711 -166 ct 697 -166 686 -164 680 -160 ct 673 -155 669 -149 669 -140 ct 
669 -135 671 -130 674 -127 ct 676 -124 680 -121 686 -118 ct 691 -116 703 -113 720 -108 ct 
737 -104 748 -100 756 -97 ct 763 -93 769 -90 773 -85 ct 777 -81 780 -76 783 -71 ct 
785 -65 786 -59 786 -52 ct p ef
866 -38 m  866 -9 l  866 3 865 13 863 22 ct 861 30 857 38 853 45 ct 832 45 l 
842 29 848 14 848 0 ct 833 0 l  833 -38 l  866 -38 l  p ef
1057 -216 m  1057 -126 l  1193 -126 l  1193 -99 l  1057 -99 l  1057 0 l 
1024 0 l  1024 -243 l  1197 -243 l  1197 -216 l  1057 -216 l  p ef
1236 0 m  1236 -143 l  1236 -157 1235 -171 1235 -187 ct 1264 -187 l  1265 -166 1265 -153 1265 -148 ct 
1266 -148 l  1271 -164 1277 -175 1283 -181 ct 1290 -187 1299 -190 1310 -190 ct 
1315 -190 1319 -189 1323 -188 ct 1323 -160 l  1319 -161 1313 -162 1306 -162 ct 
1294 -162 1284 -156 1277 -145 ct 1270 -134 1267 -118 1267 -97 ct 1267 0 l  1236 0 l 
p ef
1400 3 m  1382 3 1367 -2 1358 -12 ct 1349 -22 1344 -35 1344 -52 ct 1344 -72 1350 -86 1363 -97 ct 
1376 -107 1396 -113 1424 -113 ct 1466 -114 l  1466 -124 l  1466 -140 1463 -150 1456 -157 ct 
1450 -164 1440 -167 1426 -167 ct 1412 -167 1402 -165 1396 -160 ct 1390 -155 1386 -147 1385 -137 ct 
1352 -140 l  1358 -173 1382 -190 1427 -190 ct 1450 -190 1468 -185 1480 -174 ct 
1492 -163 1497 -148 1497 -127 ct 1497 -47 l  1497 -38 1499 -31 1501 -26 ct 1503 -21 1508 -19 1515 -19 ct 
1518 -19 1521 -19 1525 -20 ct 1525 -1 l  1517 1 1509 2 1501 2 ct 1490 2 1481 -1 1476 -7 ct 
1471 -13 1468 -23 1467 -36 ct 1466 -36 l  1458 -22 1449 -12 1438 -6 ct 1428 0 1415 3 1400 3 ct 
p
1407 -20 m  1419 -20 1429 -23 1438 -28 ct 1446 -33 1453 -40 1458 -49 ct 1464 -58 1466 -67 1466 -77 ct 
1466 -92 l  1432 -91 l  1418 -91 1407 -90 1399 -87 ct 1392 -84 1386 -80 1382 -74 ct 
1378 -68 1376 -61 1376 -52 ct 1376 -42 1379 -34 1384 -28 ct 1389 -23 1397 -20 1407 -20 ct 
p ef
1666 0 m  1666 -118 l  1666 -131 1665 -140 1662 -147 ct 1660 -154 1656 -159 1651 -162 ct 
1646 -165 1638 -166 1628 -166 ct 1613 -166 1601 -161 1592 -151 ct 1584 -140 1579 -126 1579 -108 ct 
1579 0 l  1548 0 l  1548 -147 l  1548 -169 1548 -182 1547 -187 ct 1577 -187 l 
1577 -186 1577 -185 1577 -182 ct 1577 -180 1577 -177 1577 -173 ct 1578 -170 1578 -164 1578 -155 ct 
1579 -155 l  1586 -168 1594 -177 1603 -182 ct 1613 -187 1624 -190 1638 -190 ct 
1659 -190 1673 -185 1683 -175 ct 1692 -165 1697 -148 1697 -124 ct 1697 0 l  1666 0 l 
p ef
1766 -94 m  1766 -69 1770 -51 1778 -39 ct 1786 -27 1798 -21 1814 -21 ct 1825 -21 1834 -24 1842 -30 ct 
1849 -36 1854 -45 1855 -58 ct 1887 -56 l  1884 -38 1877 -24 1864 -13 ct 1851 -2 1834 3 1815 3 ct 
1788 3 1768 -5 1755 -22 ct 1741 -38 1734 -62 1734 -94 ct 1734 -125 1741 -149 1755 -165 ct 
1769 -182 1788 -190 1814 -190 ct 1833 -190 1849 -185 1862 -175 ct 1874 -165 1882 -152 1886 -134 ct 
1854 -132 l  1852 -142 1848 -151 1841 -157 ct 1835 -163 1826 -166 1813 -166 ct 
1797 -166 1785 -161 1778 -150 ct 1770 -139 1766 -120 1766 -94 ct p ef
1945 -87 m  1945 -66 1949 -49 1958 -37 ct 1967 -26 1980 -20 1996 -20 ct 2010 -20 2021 -23 2029 -28 ct 
2037 -34 2042 -41 2045 -49 ct 2072 -41 l  2061 -12 2036 3 1996 3 ct 1969 3 1948 -5 1934 -22 ct 
1919 -38 1912 -62 1912 -95 ct 1912 -125 1919 -149 1934 -165 ct 1948 -182 1969 -190 1995 -190 ct 
2050 -190 2077 -157 2077 -91 ct 2077 -87 l  1945 -87 l  p
2045 -111 m  2044 -130 2039 -145 2030 -154 ct 2022 -163 2010 -167 1995 -167 ct 
1980 -167 1968 -162 1959 -152 ct 1950 -142 1946 -128 1945 -111 ct 2045 -111 l 
p ef
pom
0.449 0.625 0.812 c 7535 9623 m  7679 9623 7788 9733 7788 9877 ct 7788 10021 7679 10131 7535 10131 ct 
7391 10131 7281 10021 7281 9877 ct 7281 9733 7391 9623 7535 9623 ct p
7281 9623 m  7281 9623 l  p
7789 10132 m  7789 10132 l  p ef
0.207 0.398 0.644 c 7534 9622 m  7678 9622 7788 9732 7788 9876 ct 7788 10020 7678 10130 7534 10130 ct 
7390 10130 7280 10020 7280 9876 ct 7280 9732 7390 9622 7534 9622 ct pc
7280 9622 m  7280 9622 l  pc
7789 10131 m  7789 10131 l  pc
0 8785 t 
pom
count op_count sub {pop} repeat countdictstack dict_count sub {end} repeat b4_inc_state restore
%%PageTrailer
%%Trailer
%%EOF
