%!PS-Adobe-3.0 EPSF-3.0 
%%BoundingBox: 0 0 842 379
%%Pages: 0
%%Creator: LibreOffice 6.0
%%Title: none
%%CreationDate: none
%%LanguageLevel: 2
%%EndComments
%%BeginProlog
%%BeginResource: procset SDRes-Prolog 1.0 0
/b4_inc_state save def
/dict_count countdictstack def
/op_count count 1 sub def
userdict begin
0 setgray 0 setlinecap 1 setlinewidth 0 setlinejoin 10 setmiterlimit[] 0 setdash newpath
/languagelevel where {pop languagelevel 1 ne {false setstrokeadjust false setoverprint} if} if
/bdef {bind def} bind def
/c {setrgbcolor} bdef
/l {neg lineto} bdef
/rl {neg rlineto} bdef
/lc {setlinecap} bdef
/lj {setlinejoin} bdef
/lw {setlinewidth} bdef
/ml {setmiterlimit} bdef
/ld {setdash} bdef
/m {neg moveto} bdef
/ct {6 2 roll neg 6 2 roll neg 6 2 roll neg curveto} bdef
/r {rotate} bdef
/t {neg translate} bdef
/s {scale} bdef
/sw {show} bdef
/gs {gsave} bdef
/gr {grestore} bdef
/f {findfont dup length dict begin
{1 index /FID ne {def} {pop pop} ifelse} forall /Encoding ISOLatin1Encoding def
currentdict end /NFont exch definefont pop /NFont findfont} bdef
/p {closepath} bdef
/sf {scalefont setfont} bdef
/ef {eofill}bdef
/pc {closepath stroke}bdef
/ps {stroke}bdef
/pum {matrix currentmatrix}bdef
/pom {setmatrix}bdef
/bs {/aString exch def /nXOfs exch def /nWidth exch def currentpoint nXOfs 0 rmoveto pum nWidth aString stringwidth pop div 1 scale aString show pom moveto} bdef
%%EndResource
%%EndProlog
%%BeginSetup
%%EndSetup
%%Page: 1 1
%%BeginPageSetup
%%EndPageSetup
pum
0.02835 0.02831 s 
0 -13386 t
/tm matrix currentmatrix def
gs
0 0 m 29692 0 l 29692 13385 l 0 13385 l 0 0 l eoclip newpath
gs
0 0 m 29692 0 l 29692 13385 l 0 13385 l 0 0 l eoclip newpath
gs
0.800 0.800 0.800 c 5197 6862 m  5460 6862 5662 7869 5662 9188 ct 5662 10507 5460 11514 5197 11514 ct 
4934 11514 4732 10507 4732 9188 ct 4732 7869 4934 6862 5197 6862 ct p
4732 6862 m  4732 6862 l  p
5663 11515 m  5663 11515 l  p ef
gr
gs
81 lw 1 lj 0.003 0.003 0.003 c 5197 6862 m  5460 6862 5662 7869 5662 9188 ct 
5662 10507 5460 11514 5197 11514 ct 4934 11514 4732 10507 4732 9188 ct 4732 7869 4934 6862 5197 6862 ct 
pc
gr
gs
81 lw 1 lj 0.003 0.003 0.003 c 4732 6862 m  4732 6862 l  pc
gr
gs
81 lw 1 lj 0.003 0.003 0.003 c 5663 11515 m  5663 11515 l  pc
gr
pum
4822 9372 t
0.003 0.003 0.003 c 44 0 m  44 -72 l  165 -72 l  165 -402 l  48 -330 l  48 -406 l 
170 -485 l  261 -485 l  261 -72 l  372 -72 l  372 0 l  44 0 l  p ef
400 0 m  400 -72 l  521 -72 l  521 -402 l  404 -330 l  404 -406 l  526 -485 l 
617 -485 l  617 -72 l  728 -72 l  728 0 l  400 0 l  p ef
pom
gs
0.800 0.800 0.800 c 6671 6862 m  6935 6862 7137 7869 7137 9188 ct 7137 10507 6935 11514 6671 11514 ct 
6407 11514 6206 10507 6206 9188 ct 6206 7869 6407 6862 6671 6862 ct p
6206 6862 m  6206 6862 l  p
7138 11515 m  7138 11515 l  p ef
gr
gs
81 lw 1 lj 6671 6862 m  6935 6862 7137 7869 7137 9188 ct 7137 10507 6935 11514 6671 11514 ct 
6407 11514 6206 10507 6206 9188 ct 6206 7869 6407 6862 6671 6862 ct pc
gr
gs
81 lw 1 lj 6206 6862 m  6206 6862 l  pc
gr
gs
81 lw 1 lj 7138 11515 m  7138 11515 l  pc
gr
pum
6278 9372 t
44 0 m  44 -72 l  165 -72 l  165 -404 l  48 -331 l  48 -407 l  170 -486 l 
262 -486 l  262 -72 l  373 -72 l  373 0 l  44 0 l  p ef
418 0 m  418 -67 l  431 -95 449 -122 472 -149 ct 496 -175 525 -203 561 -231 ct 
595 -259 618 -282 632 -300 ct 646 -318 653 -335 653 -352 ct 653 -395 631 -416 589 -416 ct 
568 -416 552 -410 541 -399 ct 530 -388 523 -371 520 -349 ct 423 -354 l  428 -399 445 -434 473 -457 ct 
501 -481 540 -493 588 -493 ct 640 -493 681 -481 709 -457 ct 737 -433 751 -400 751 -356 ct 
751 -334 746 -313 737 -295 ct 728 -276 717 -259 703 -244 ct 689 -228 673 -214 656 -200 ct 
639 -187 622 -174 606 -161 ct 590 -148 576 -135 562 -122 ct 549 -109 539 -95 533 -80 ct 
758 -80 l  758 0 l  418 0 l  p ef
pom
gs
0.800 0.800 0.800 c 8146 6862 m  8409 6862 8611 7869 8611 9188 ct 8611 10507 8409 11514 8146 11514 ct 
7883 11514 7682 10507 7682 9188 ct 7682 7869 7883 6862 8146 6862 ct p
7682 6862 m  7682 6862 l  p
8612 11515 m  8612 11515 l  p ef
gr
gs
81 lw 1 lj 8146 6862 m  8409 6862 8611 7869 8611 9188 ct 8611 10507 8409 11514 8146 11514 ct 
7883 11514 7682 10507 7682 9188 ct 7682 7869 7883 6862 8146 6862 ct pc
gr
gs
81 lw 1 lj 7682 6862 m  7682 6862 l  pc
gr
gs
81 lw 1 lj 8612 11515 m  8612 11515 l  pc
gr
pum
7753 9372 t
44 0 m  44 -72 l  165 -72 l  165 -404 l  48 -331 l  48 -407 l  170 -486 l 
262 -486 l  262 -72 l  373 -72 l  373 0 l  44 0 l  p ef
761 -135 m  761 -89 746 -54 716 -29 ct 686 -4 644 8 589 8 ct 537 8 495 -4 464 -28 ct 
434 -52 415 -87 410 -132 ct 509 -141 l  515 -94 542 -71 588 -71 ct 612 -71 630 -76 643 -88 ct 
655 -99 662 -117 662 -141 ct 662 -162 654 -179 638 -190 ct 623 -202 600 -208 569 -208 ct 
535 -208 l  535 -286 l  567 -286 l  595 -286 615 -292 629 -303 ct 643 -314 650 -331 650 -352 ct 
650 -372 645 -387 634 -399 ct 623 -410 606 -416 585 -416 ct 565 -416 549 -410 537 -399 ct 
524 -388 517 -373 515 -352 ct 418 -359 l  424 -401 441 -434 471 -458 ct 500 -481 539 -493 587 -493 ct 
638 -493 677 -482 706 -459 ct 734 -436 749 -404 749 -364 ct 749 -334 740 -309 722 -289 ct 
704 -270 679 -257 645 -250 ct 645 -249 l  682 -244 711 -232 731 -212 ct 751 -192 761 -166 761 -135 ct 
p ef
pom
gs
0.800 0.800 0.800 c 9621 6862 m  9885 6862 10087 7869 10087 9188 ct 10087 10507 9885 11514 9621 11514 ct 
9357 11514 9156 10507 9156 9188 ct 9156 7869 9357 6862 9621 6862 ct p
9156 6862 m  9156 6862 l  p
10088 11515 m  10088 11515 l  p ef
gr
gs
81 lw 1 lj 9621 6862 m  9885 6862 10087 7869 10087 9188 ct 10087 10507 9885 11514 9621 11514 ct 
9357 11514 9156 10507 9156 9188 ct 9156 7869 9357 6862 9621 6862 ct pc
gr
gs
81 lw 1 lj 9156 6862 m  9156 6862 l  pc
gr
gs
81 lw 1 lj 10088 11515 m  10088 11515 l  pc
gr
pum
9228 9372 t
44 0 m  44 -72 l  165 -72 l  165 -404 l  48 -331 l  48 -407 l  170 -486 l 
262 -486 l  262 -72 l  373 -72 l  373 0 l  44 0 l  p ef
718 -99 m  718 0 l  626 0 l  626 -99 l  405 -99 l  405 -172 l  610 -486 l 
718 -486 l  718 -171 l  783 -171 l  783 -99 l  718 -99 l  p
626 -330 m  626 -342 626 -356 627 -370 ct 628 -385 628 -394 629 -398 ct 623 -385 612 -367 596 -342 ct 
484 -171 l  626 -171 l  626 -330 l  p ef
pom
gs
0.800 0.800 0.800 c 11096 6862 m  11360 6862 11562 7869 11562 9188 ct 11562 10507 11360 11514 11096 11514 ct 
10832 11514 10631 10507 10631 9188 ct 10631 7869 10832 6862 11096 6862 ct p
10631 6862 m  10631 6862 l  p
11563 11515 m  11563 11515 l  p ef
gr
gs
81 lw 1 lj 11096 6862 m  11360 6862 11562 7869 11562 9188 ct 11562 10507 11360 11514 11096 11514 ct 
10832 11514 10631 10507 10631 9188 ct 10631 7869 10832 6862 11096 6862 ct pc
gr
gs
81 lw 1 lj 10631 6862 m  10631 6862 l  pc
gr
gs
81 lw 1 lj 11563 11515 m  11563 11515 l  pc
gr
pum
10703 9372 t
44 0 m  44 -72 l  165 -72 l  165 -404 l  48 -331 l  48 -407 l  170 -486 l 
262 -486 l  262 -72 l  373 -72 l  373 0 l  44 0 l  p ef
767 -162 m  767 -110 751 -69 719 -39 ct 687 -8 643 7 587 7 ct 538 7 499 -4 470 -26 ct 
441 -48 423 -80 416 -121 ct 513 -129 l  518 -109 527 -93 539 -84 ct 552 -75 569 -70 588 -70 ct 
612 -70 631 -78 646 -93 ct 660 -108 667 -131 667 -160 ct 667 -185 661 -206 647 -221 ct 
633 -236 615 -244 590 -244 ct 563 -244 541 -233 524 -212 ct 430 -212 l  447 -486 l 
739 -486 l  739 -414 l  535 -414 l  527 -291 l  550 -312 579 -322 615 -322 ct 
661 -322 698 -308 725 -279 ct 753 -250 767 -211 767 -162 ct p ef
pom
gs
0.800 0.800 0.800 c 12573 6862 m  12836 6862 13038 7869 13038 9188 ct 13038 10507 12836 11514 12573 11514 ct 
12310 11514 12108 10507 12108 9188 ct 12108 7869 12310 6862 12573 6862 ct p
12108 6862 m  12108 6862 l  p
13039 11515 m  13039 11515 l  p ef
gr
gs
81 lw 1 lj 12573 6862 m  12836 6862 13038 7869 13038 9188 ct 13038 10507 12836 11514 12573 11514 ct 
12310 11514 12108 10507 12108 9188 ct 12108 7869 12310 6862 12573 6862 ct pc
gr
gs
81 lw 1 lj 12108 6862 m  12108 6862 l  pc
gr
gs
81 lw 1 lj 13039 11515 m  13039 11515 l  pc
gr
pum
12179 9372 t
44 0 m  44 -72 l  165 -72 l  165 -404 l  48 -331 l  48 -407 l  170 -486 l 
262 -486 l  262 -72 l  373 -72 l  373 0 l  44 0 l  p ef
761 -159 m  761 -107 747 -66 718 -37 ct 689 -8 649 7 598 7 ct 541 7 497 -13 466 -53 ct 
435 -93 420 -153 420 -232 ct 420 -318 435 -384 467 -427 ct 498 -471 542 -493 600 -493 ct 
641 -493 674 -484 698 -466 ct 721 -448 738 -419 748 -381 ct 657 -368 l  648 -400 628 -416 598 -416 ct 
572 -416 552 -403 537 -377 ct 522 -351 515 -312 515 -259 ct 525 -276 539 -289 558 -299 ct 
576 -308 597 -312 620 -312 ct 664 -312 698 -299 723 -271 ct 749 -243 761 -206 761 -159 ct 
p
664 -156 m  664 -184 658 -205 645 -219 ct 632 -234 615 -241 592 -241 ct 571 -241 554 -234 541 -221 ct 
528 -207 522 -189 522 -166 ct 522 -138 528 -115 542 -96 ct 555 -78 573 -69 595 -69 ct 
616 -69 633 -76 646 -92 ct 658 -107 664 -129 664 -156 ct p ef
pom
gs
0.800 0.800 0.800 c 14047 6862 m  14311 6862 14513 7869 14513 9188 ct 14513 10507 14311 11514 14047 11514 ct 
13783 11514 13582 10507 13582 9188 ct 13582 7869 13783 6862 14047 6862 ct p
13582 6862 m  13582 6862 l  p
14514 11515 m  14514 11515 l  p ef
gr
gs
81 lw 1 lj 14047 6862 m  14311 6862 14513 7869 14513 9188 ct 14513 10507 14311 11514 14047 11514 ct 
13783 11514 13582 10507 13582 9188 ct 13582 7869 13783 6862 14047 6862 ct pc
gr
gs
81 lw 1 lj 13582 6862 m  13582 6862 l  pc
gr
gs
81 lw 1 lj 14514 11515 m  14514 11515 l  pc
gr
pum
13654 9372 t
44 0 m  44 -72 l  165 -72 l  165 -404 l  48 -331 l  48 -407 l  170 -486 l 
262 -486 l  262 -72 l  373 -72 l  373 0 l  44 0 l  p ef
756 -409 m  734 -374 713 -341 694 -308 ct 674 -276 657 -244 643 -211 ct 628 -178 617 -144 609 -110 ct 
600 -75 596 -39 596 0 ct 495 0 l  495 -40 500 -80 511 -117 ct 521 -155 537 -194 557 -233 ct 
577 -272 613 -330 666 -406 ct 424 -406 l  424 -486 l  756 -486 l  756 -409 l 
p ef
pom
gs
0.800 0.800 0.800 c 15522 6862 m  15785 6862 15987 7869 15987 9188 ct 15987 10507 15785 11514 15522 11514 ct 
15259 11514 15058 10507 15058 9188 ct 15058 7869 15259 6862 15522 6862 ct p
15058 6862 m  15058 6862 l  p
15988 11515 m  15988 11515 l  p ef
gr
gs
81 lw 1 lj 15522 6862 m  15785 6862 15987 7869 15987 9188 ct 15987 10507 15785 11514 15522 11514 ct 
15259 11514 15058 10507 15058 9188 ct 15058 7869 15259 6862 15522 6862 ct pc
gr
gs
81 lw 1 lj 15058 6862 m  15058 6862 l  pc
gr
gs
81 lw 1 lj 15988 11515 m  15988 11515 l  pc
gr
pum
15129 9372 t
44 0 m  44 -72 l  165 -72 l  165 -404 l  48 -331 l  48 -407 l  170 -486 l 
262 -486 l  262 -72 l  373 -72 l  373 0 l  44 0 l  p ef
765 -137 m  765 -91 750 -56 720 -31 ct 690 -6 647 7 591 7 ct 535 7 493 -6 462 -31 ct 
432 -56 416 -91 416 -136 ct 416 -167 425 -193 443 -215 ct 461 -236 485 -249 515 -254 ct 
515 -255 l  489 -261 468 -274 452 -294 ct 436 -315 428 -338 428 -364 ct 428 -404 442 -436 470 -459 ct 
498 -482 538 -493 589 -493 ct 642 -493 682 -482 711 -459 ct 739 -437 753 -405 753 -364 ct 
753 -337 745 -314 729 -294 ct 713 -274 692 -261 665 -256 ct 665 -255 l  696 -250 720 -237 738 -216 ct 
756 -196 765 -169 765 -137 ct p
653 -359 m  653 -382 648 -398 637 -409 ct 627 -420 611 -425 589 -425 ct 548 -425 527 -403 527 -359 ct 
527 -312 548 -289 590 -289 ct 611 -289 627 -294 638 -305 ct 648 -316 653 -334 653 -359 ct 
p
665 -145 m  665 -196 639 -221 589 -221 ct 565 -221 547 -214 535 -201 ct 522 -188 516 -168 516 -143 ct 
516 -115 522 -94 535 -81 ct 547 -68 566 -61 592 -61 ct 617 -61 635 -68 647 -81 ct 
659 -94 665 -115 665 -145 ct p ef
pom
gs
0.800 0.800 0.800 c 16999 6862 m  17262 6862 17464 7869 17464 9188 ct 17464 10507 17262 11514 16999 11514 ct 
16736 11514 16534 10507 16534 9188 ct 16534 7869 16736 6862 16999 6862 ct p
16534 6862 m  16534 6862 l  p
17465 11515 m  17465 11515 l  p ef
gr
gs
81 lw 1 lj 16999 6862 m  17262 6862 17464 7869 17464 9188 ct 17464 10507 17262 11514 16999 11514 ct 
16736 11514 16534 10507 16534 9188 ct 16534 7869 16736 6862 16999 6862 ct pc
gr
gs
81 lw 1 lj 16534 6862 m  16534 6862 l  pc
gr
gs
81 lw 1 lj 17465 11515 m  17465 11515 l  pc
gr
pum
16605 9372 t
44 0 m  44 -72 l  165 -72 l  165 -404 l  48 -331 l  48 -407 l  170 -486 l 
262 -486 l  262 -72 l  373 -72 l  373 0 l  44 0 l  p ef
760 -251 m  760 -164 745 -100 713 -57 ct 682 -14 637 7 579 7 ct 536 7 503 -2 479 -20 ct 
454 -39 437 -68 427 -107 ct 518 -120 l  527 -86 548 -69 580 -69 ct 607 -69 628 -82 643 -108 ct 
657 -134 665 -173 665 -224 ct 657 -207 642 -193 622 -184 ct 603 -174 581 -169 558 -169 ct 
515 -169 481 -183 456 -213 ct 431 -242 418 -281 418 -330 ct 418 -381 433 -421 463 -450 ct 
492 -479 534 -493 588 -493 ct 646 -493 689 -473 718 -432 ct 746 -392 760 -332 760 -251 ct 
p
658 -319 m  658 -349 651 -373 638 -390 ct 625 -408 608 -417 586 -417 ct 564 -417 547 -409 535 -394 ct 
523 -378 517 -357 517 -330 ct 517 -303 523 -281 535 -265 ct 547 -249 564 -241 586 -241 ct 
607 -241 624 -248 638 -262 ct 651 -276 658 -295 658 -319 ct p ef
pom
gs
0.800 0.800 0.800 c 18474 6862 m  18738 6862 18940 7869 18940 9188 ct 18940 10507 18738 11514 18474 11514 ct 
18210 11514 18008 10507 18008 9188 ct 18008 7869 18210 6862 18474 6862 ct p
18008 6862 m  18008 6862 l  p
18941 11515 m  18941 11515 l  p ef
gr
gs
81 lw 1 lj 18474 6862 m  18738 6862 18940 7869 18940 9188 ct 18940 10507 18738 11514 18474 11514 ct 
18210 11514 18008 10507 18008 9188 ct 18008 7869 18210 6862 18474 6862 ct pc
gr
gs
81 lw 1 lj 18008 6862 m  18008 6862 l  pc
gr
gs
81 lw 1 lj 18941 11515 m  18941 11515 l  pc
gr
pum
18080 9372 t
24 0 m  24 -67 l  37 -95 55 -122 78 -149 ct 102 -175 131 -203 167 -231 ct 201 -259 224 -282 238 -300 ct 
252 -318 259 -335 259 -352 ct 259 -395 237 -416 195 -416 ct 174 -416 158 -410 147 -399 ct 
136 -388 129 -371 126 -349 ct 29 -354 l  34 -399 51 -434 79 -457 ct 107 -481 146 -493 194 -493 ct 
246 -493 287 -481 315 -457 ct 343 -433 357 -400 357 -356 ct 357 -334 352 -313 343 -295 ct 
334 -276 323 -259 309 -244 ct 295 -228 279 -214 262 -200 ct 245 -187 228 -174 212 -161 ct 
196 -148 182 -135 168 -122 ct 155 -109 145 -95 139 -80 ct 364 -80 l  364 0 l 
24 0 l  p ef
758 -243 m  758 -161 744 -99 715 -56 ct 687 -14 645 7 589 7 ct 478 7 422 -76 422 -243 ct 
422 -301 428 -349 440 -385 ct 452 -422 471 -449 495 -467 ct 519 -484 552 -493 592 -493 ct 
649 -493 691 -472 718 -431 ct 744 -389 758 -326 758 -243 ct p
660 -243 m  660 -288 658 -323 654 -347 ct 650 -372 643 -390 633 -401 ct 623 -412 609 -417 591 -417 ct 
571 -417 557 -412 547 -401 ct 537 -390 529 -372 525 -347 ct 521 -323 519 -288 519 -243 ct 
519 -199 521 -164 526 -139 ct 530 -114 537 -96 547 -85 ct 557 -75 571 -69 589 -69 ct 
608 -69 622 -75 632 -86 ct 642 -98 649 -116 654 -141 ct 658 -166 660 -200 660 -243 ct 
p ef
pom
gs
0.800 0.800 0.800 c 19949 6862 m  20212 6862 20414 7869 20414 9188 ct 20414 10507 20212 11514 19949 11514 ct 
19686 11514 19484 10507 19484 9188 ct 19484 7869 19686 6862 19949 6862 ct p
19484 6862 m  19484 6862 l  p
20415 11515 m  20415 11515 l  p ef
gr
gs
81 lw 1 lj 19949 6862 m  20212 6862 20414 7869 20414 9188 ct 20414 10507 20212 11514 19949 11514 ct 
19686 11514 19484 10507 19484 9188 ct 19484 7869 19686 6862 19949 6862 ct pc
gr
gs
81 lw 1 lj 19484 6862 m  19484 6862 l  pc
gr
gs
81 lw 1 lj 20415 11515 m  20415 11515 l  pc
gr
pum
19555 9372 t
24 0 m  24 -67 l  37 -95 55 -122 78 -149 ct 102 -175 131 -203 167 -231 ct 201 -259 224 -282 238 -300 ct 
252 -318 259 -335 259 -352 ct 259 -395 237 -416 195 -416 ct 174 -416 158 -410 147 -399 ct 
136 -388 129 -371 126 -349 ct 29 -354 l  34 -399 51 -434 79 -457 ct 107 -481 146 -493 194 -493 ct 
246 -493 287 -481 315 -457 ct 343 -433 357 -400 357 -356 ct 357 -334 352 -313 343 -295 ct 
334 -276 323 -259 309 -244 ct 295 -228 279 -214 262 -200 ct 245 -187 228 -174 212 -161 ct 
196 -148 182 -135 168 -122 ct 155 -109 145 -95 139 -80 ct 364 -80 l  364 0 l 
24 0 l  p ef
438 0 m  438 -72 l  559 -72 l  559 -404 l  442 -331 l  442 -407 l  564 -486 l 
656 -486 l  656 -72 l  767 -72 l  767 0 l  438 0 l  p ef
pom
gs
0.800 0.800 0.800 c 21424 6862 m  21687 6862 21889 7869 21889 9188 ct 21889 10507 21687 11514 21424 11514 ct 
21161 11514 20959 10507 20959 9188 ct 20959 7869 21161 6862 21424 6862 ct p
20959 6862 m  20959 6862 l  p
21890 11515 m  21890 11515 l  p ef
gr
gs
81 lw 1 lj 21424 6862 m  21687 6862 21889 7869 21889 9188 ct 21889 10507 21687 11514 21424 11514 ct 
21161 11514 20959 10507 20959 9188 ct 20959 7869 21161 6862 21424 6862 ct pc
gr
gs
81 lw 1 lj 20959 6862 m  20959 6862 l  pc
gr
gs
81 lw 1 lj 21890 11515 m  21890 11515 l  pc
gr
pum
21030 9372 t
24 0 m  24 -67 l  37 -95 55 -122 78 -149 ct 102 -175 131 -203 167 -231 ct 201 -259 224 -282 238 -300 ct 
252 -318 259 -335 259 -352 ct 259 -395 237 -416 195 -416 ct 174 -416 158 -410 147 -399 ct 
136 -388 129 -371 126 -349 ct 29 -354 l  34 -399 51 -434 79 -457 ct 107 -481 146 -493 194 -493 ct 
246 -493 287 -481 315 -457 ct 343 -433 357 -400 357 -356 ct 357 -334 352 -313 343 -295 ct 
334 -276 323 -259 309 -244 ct 295 -228 279 -214 262 -200 ct 245 -187 228 -174 212 -161 ct 
196 -148 182 -135 168 -122 ct 155 -109 145 -95 139 -80 ct 364 -80 l  364 0 l 
24 0 l  p ef
418 0 m  418 -67 l  431 -95 449 -122 472 -149 ct 496 -175 525 -203 561 -231 ct 
595 -259 618 -282 632 -300 ct 646 -318 653 -335 653 -352 ct 653 -395 631 -416 589 -416 ct 
568 -416 552 -410 541 -399 ct 530 -388 523 -371 520 -349 ct 423 -354 l  428 -399 445 -434 473 -457 ct 
501 -481 540 -493 588 -493 ct 640 -493 681 -481 709 -457 ct 737 -433 751 -400 751 -356 ct 
751 -334 746 -313 737 -295 ct 728 -276 717 -259 703 -244 ct 689 -228 673 -214 656 -200 ct 
639 -187 622 -174 606 -161 ct 590 -148 576 -135 562 -122 ct 549 -109 539 -95 533 -80 ct 
758 -80 l  758 0 l  418 0 l  p ef
pom
gs
0.800 0.800 0.800 c 22899 6862 m  23162 6862 23364 7869 23364 9188 ct 23364 10507 23162 11514 22899 11514 ct 
22636 11514 22434 10507 22434 9188 ct 22434 7869 22636 6862 22899 6862 ct p
22434 6862 m  22434 6862 l  p
23365 11515 m  23365 11515 l  p ef
gr
gs
81 lw 1 lj 22899 6862 m  23162 6862 23364 7869 23364 9188 ct 23364 10507 23162 11514 22899 11514 ct 
22636 11514 22434 10507 22434 9188 ct 22434 7869 22636 6862 22899 6862 ct pc
gr
gs
81 lw 1 lj 22434 6862 m  22434 6862 l  pc
gr
gs
81 lw 1 lj 23365 11515 m  23365 11515 l  pc
gr
pum
22505 9372 t
24 0 m  24 -67 l  37 -95 55 -122 78 -149 ct 102 -175 131 -203 167 -231 ct 201 -259 224 -282 238 -300 ct 
252 -318 259 -335 259 -352 ct 259 -395 237 -416 195 -416 ct 174 -416 158 -410 147 -399 ct 
136 -388 129 -371 126 -349 ct 29 -354 l  34 -399 51 -434 79 -457 ct 107 -481 146 -493 194 -493 ct 
246 -493 287 -481 315 -457 ct 343 -433 357 -400 357 -356 ct 357 -334 352 -313 343 -295 ct 
334 -276 323 -259 309 -244 ct 295 -228 279 -214 262 -200 ct 245 -187 228 -174 212 -161 ct 
196 -148 182 -135 168 -122 ct 155 -109 145 -95 139 -80 ct 364 -80 l  364 0 l 
24 0 l  p ef
761 -135 m  761 -89 746 -54 716 -29 ct 686 -4 644 8 589 8 ct 537 8 495 -4 464 -28 ct 
434 -52 415 -87 410 -132 ct 509 -141 l  515 -94 542 -71 588 -71 ct 612 -71 630 -76 643 -88 ct 
655 -99 662 -117 662 -141 ct 662 -162 654 -179 638 -190 ct 623 -202 600 -208 569 -208 ct 
535 -208 l  535 -286 l  567 -286 l  595 -286 615 -292 629 -303 ct 643 -314 650 -331 650 -352 ct 
650 -372 645 -387 634 -399 ct 623 -410 606 -416 585 -416 ct 565 -416 549 -410 537 -399 ct 
524 -388 517 -373 515 -352 ct 418 -359 l  424 -401 441 -434 471 -458 ct 500 -481 539 -493 587 -493 ct 
638 -493 677 -482 706 -459 ct 734 -436 749 -404 749 -364 ct 749 -334 740 -309 722 -289 ct 
704 -270 679 -257 645 -250 ct 645 -249 l  682 -244 711 -232 731 -212 ct 751 -192 761 -166 761 -135 ct 
p ef
pom
gs
0.800 0.800 0.800 c 24375 6862 m  24638 6862 24840 7869 24840 9188 ct 24840 10507 24638 11514 24375 11514 ct 
24112 11514 23910 10507 23910 9188 ct 23910 7869 24112 6862 24375 6862 ct p
23910 6862 m  23910 6862 l  p
24841 11515 m  24841 11515 l  p ef
gr
gs
81 lw 1 lj 24375 6862 m  24638 6862 24840 7869 24840 9188 ct 24840 10507 24638 11514 24375 11514 ct 
24112 11514 23910 10507 23910 9188 ct 23910 7869 24112 6862 24375 6862 ct pc
gr
gs
81 lw 1 lj 23910 6862 m  23910 6862 l  pc
gr
gs
81 lw 1 lj 24841 11515 m  24841 11515 l  pc
gr
pum
23981 9372 t
24 0 m  24 -67 l  37 -95 55 -122 78 -149 ct 102 -175 131 -203 167 -231 ct 201 -259 224 -282 238 -300 ct 
252 -318 259 -335 259 -352 ct 259 -395 237 -416 195 -416 ct 174 -416 158 -410 147 -399 ct 
136 -388 129 -371 126 -349 ct 29 -354 l  34 -399 51 -434 79 -457 ct 107 -481 146 -493 194 -493 ct 
246 -493 287 -481 315 -457 ct 343 -433 357 -400 357 -356 ct 357 -334 352 -313 343 -295 ct 
334 -276 323 -259 309 -244 ct 295 -228 279 -214 262 -200 ct 245 -187 228 -174 212 -161 ct 
196 -148 182 -135 168 -122 ct 155 -109 145 -95 139 -80 ct 364 -80 l  364 0 l 
24 0 l  p ef
718 -99 m  718 0 l  626 0 l  626 -99 l  405 -99 l  405 -172 l  610 -486 l 
718 -486 l  718 -171 l  783 -171 l  783 -99 l  718 -99 l  p
626 -330 m  626 -342 626 -356 627 -370 ct 628 -385 628 -394 629 -398 ct 623 -385 612 -367 596 -342 ct 
484 -171 l  626 -171 l  626 -330 l  p ef
pom
gs
0.800 0.800 0.800 c 25848 6862 m  26112 6862 26314 7869 26314 9188 ct 26314 10507 26112 11514 25848 11514 ct 
25584 11514 25383 10507 25383 9188 ct 25383 7869 25584 6862 25848 6862 ct p
25383 6862 m  25383 6862 l  p
26315 11515 m  26315 11515 l  p ef
gr
gs
81 lw 1 lj 25848 6862 m  26112 6862 26314 7869 26314 9188 ct 26314 10507 26112 11514 25848 11514 ct 
25584 11514 25383 10507 25383 9188 ct 25383 7869 25584 6862 25848 6862 ct pc
gr
gs
81 lw 1 lj 25383 6862 m  25383 6862 l  pc
gr
gs
81 lw 1 lj 26315 11515 m  26315 11515 l  pc
gr
pum
25455 9372 t
24 0 m  24 -67 l  37 -95 55 -122 78 -149 ct 102 -175 131 -203 167 -231 ct 201 -259 224 -282 238 -300 ct 
252 -318 259 -335 259 -352 ct 259 -395 237 -416 195 -416 ct 174 -416 158 -410 147 -399 ct 
136 -388 129 -371 126 -349 ct 29 -354 l  34 -399 51 -434 79 -457 ct 107 -481 146 -493 194 -493 ct 
246 -493 287 -481 315 -457 ct 343 -433 357 -400 357 -356 ct 357 -334 352 -313 343 -295 ct 
334 -276 323 -259 309 -244 ct 295 -228 279 -214 262 -200 ct 245 -187 228 -174 212 -161 ct 
196 -148 182 -135 168 -122 ct 155 -109 145 -95 139 -80 ct 364 -80 l  364 0 l 
24 0 l  p ef
767 -162 m  767 -110 751 -69 719 -39 ct 687 -8 643 7 587 7 ct 538 7 499 -4 470 -26 ct 
441 -48 423 -80 416 -121 ct 513 -129 l  518 -109 527 -93 539 -84 ct 552 -75 569 -70 588 -70 ct 
612 -70 631 -78 646 -93 ct 660 -108 667 -131 667 -160 ct 667 -185 661 -206 647 -221 ct 
633 -236 615 -244 590 -244 ct 563 -244 541 -233 524 -212 ct 430 -212 l  447 -486 l 
739 -486 l  739 -414 l  535 -414 l  527 -291 l  550 -312 579 -322 615 -322 ct 
661 -322 698 -308 725 -279 ct 753 -250 767 -211 767 -162 ct p ef
pom
gs
0.800 0.800 0.800 c 27256 6862 m  27520 6862 27722 7869 27722 9188 ct 27722 10507 27520 11514 27256 11514 ct 
26992 11514 26791 10507 26791 9188 ct 26791 7869 26992 6862 27256 6862 ct p
26791 6862 m  26791 6862 l  p
27723 11515 m  27723 11515 l  p ef
gr
gs
81 lw 1 lj 27256 6862 m  27520 6862 27722 7869 27722 9188 ct 27722 10507 27520 11514 27256 11514 ct 
26992 11514 26791 10507 26791 9188 ct 26791 7869 26992 6862 27256 6862 ct pc
gr
gs
81 lw 1 lj 26791 6862 m  26791 6862 l  pc
gr
gs
81 lw 1 lj 27723 11515 m  27723 11515 l  pc
gr
pum
26863 9372 t
24 0 m  24 -67 l  37 -95 55 -122 78 -149 ct 102 -175 131 -203 167 -231 ct 201 -259 224 -282 238 -300 ct 
252 -318 259 -335 259 -352 ct 259 -395 237 -416 195 -416 ct 174 -416 158 -410 147 -399 ct 
136 -388 129 -371 126 -349 ct 29 -354 l  34 -399 51 -434 79 -457 ct 107 -481 146 -493 194 -493 ct 
246 -493 287 -481 315 -457 ct 343 -433 357 -400 357 -356 ct 357 -334 352 -313 343 -295 ct 
334 -276 323 -259 309 -244 ct 295 -228 279 -214 262 -200 ct 245 -187 228 -174 212 -161 ct 
196 -148 182 -135 168 -122 ct 155 -109 145 -95 139 -80 ct 364 -80 l  364 0 l 
24 0 l  p ef
761 -159 m  761 -107 747 -66 718 -37 ct 689 -8 649 7 598 7 ct 541 7 497 -13 466 -53 ct 
435 -93 420 -153 420 -232 ct 420 -318 435 -384 467 -427 ct 498 -471 542 -493 600 -493 ct 
641 -493 674 -484 698 -466 ct 721 -448 738 -419 748 -381 ct 657 -368 l  648 -400 628 -416 598 -416 ct 
572 -416 552 -403 537 -377 ct 522 -351 515 -312 515 -259 ct 525 -276 539 -289 558 -299 ct 
576 -308 597 -312 620 -312 ct 664 -312 698 -299 723 -271 ct 749 -243 761 -206 761 -159 ct 
p
664 -156 m  664 -184 658 -205 645 -219 ct 632 -234 615 -241 592 -241 ct 571 -241 554 -234 541 -221 ct 
528 -207 522 -189 522 -166 ct 522 -138 528 -115 542 -96 ct 555 -78 573 -69 595 -69 ct 
616 -69 633 -76 646 -92 ct 658 -107 664 -129 664 -156 ct p ef
pom
gs
81 lw 1 lj 7555 2794 m  9156 2794 10380 5479 10380 8996 ct 10380 12513 9156 15199 7555 15199 ct 
5954 15199 4731 12513 4731 8996 ct 4731 5479 5954 2794 7555 2794 ct pc
gr
gs
81 lw 1 lj 4731 2794 m  4731 2794 l  pc
gr
gs
81 lw 1 lj 10381 15200 m  10381 15200 l  pc
gr
gs
81 lw 1 lj 14826 2795 m  16427 2795 17651 5481 17651 8998 ct 17651 12515 16427 15201 14826 15201 ct 
13225 15201 12002 12515 12002 8998 ct 12002 5481 13225 2795 14826 2795 ct pc
gr
gs
81 lw 1 lj 12002 2795 m  12002 2795 l  pc
gr
gs
81 lw 1 lj 17652 15202 m  17652 15202 l  pc
gr
gs
81 lw 1 lj 22112 2796 m  23713 2796 24937 5482 24937 8999 ct 24937 12516 23713 15202 22112 15202 ct 
20511 15202 19288 12516 19288 8999 ct 19288 5482 20511 2796 22112 2796 ct pc
gr
gs
81 lw 1 lj 19288 2796 m  19288 2796 l  pc
gr
gs
81 lw 1 lj 24938 15203 m  24938 15203 l  pc
gr
gs
107 lw 1 lj 8187 1741 m  14291 1741 l  ps
gr
gs
7529 1741 m  8218 1971 l  8218 1512 l  7529 1741 l  p ef
gr
gs
14948 1741 m  14260 1512 l  14260 1971 l  14948 1741 l  p ef
gr
pum
10235 1307 t
22 0 m  22 -61 l  33 -86 50 -110 71 -134 ct 92 -158 118 -182 150 -208 ct 180 -233 202 -254 214 -270 ct 
226 -286 233 -302 233 -317 ct 233 -355 213 -374 175 -374 ct 157 -374 142 -369 133 -359 ct 
123 -349 116 -334 113 -314 ct 26 -319 l  31 -360 46 -391 71 -412 ct 96 -433 131 -444 175 -444 ct 
222 -444 258 -433 283 -412 ct 308 -390 321 -360 321 -321 ct 321 -301 317 -282 309 -265 ct 
301 -249 290 -234 278 -220 ct 265 -206 251 -193 236 -180 ct 220 -168 205 -156 191 -145 ct 
177 -133 163 -121 151 -110 ct 140 -98 131 -85 125 -72 ct 328 -72 l  328 0 l 
22 0 l  p ef
686 -146 m  686 -99 672 -63 643 -35 ct 614 -8 575 6 525 6 ct 481 6 446 -4 419 -24 ct 
393 -43 377 -72 371 -109 ct 458 -117 l  462 -98 470 -84 482 -76 ct 493 -67 508 -63 526 -63 ct 
547 -63 565 -70 578 -84 ct 590 -98 597 -118 597 -144 ct 597 -167 591 -185 579 -199 ct 
566 -213 549 -220 527 -220 ct 503 -220 484 -210 468 -191 ct 383 -191 l  398 -438 l 
661 -438 l  661 -373 l  478 -373 l  470 -262 l  491 -281 518 -290 549 -290 ct 
591 -290 624 -277 649 -251 ct 674 -225 686 -190 686 -146 ct p ef
1108 0 m  1108 -265 l  1108 -271 1108 -277 1108 -283 ct 1109 -289 1109 -315 1111 -360 ct 
1097 -305 1086 -266 1079 -244 ct 1000 0 l  935 0 l  856 -244 l  823 -360 l 
825 -312 827 -281 827 -265 ct 827 0 l  745 0 l  745 -437 l  868 -437 l  946 -193 l 
953 -169 l  968 -110 l  987 -181 l  1068 -437 l  1189 -437 l  1189 0 l 
1108 0 l  p ef
1556 0 m  1556 -187 l  1366 -187 l  1366 0 l  1274 0 l  1274 -437 l  1366 -437 l 
1366 -263 l  1556 -263 l  1556 -437 l  1648 -437 l  1648 0 l  1556 0 l 
p ef
1714 0 m  1714 -62 l  1872 -273 l  1727 -273 l  1727 -336 l  1968 -336 l 
1968 -274 l  1811 -64 l  1984 -64 l  1984 0 l  1714 0 l  p ef
pom
gs
107 lw 1 lj 7529 2795 m  7529 2586 l  ps
7529 2377 m  7529 2168 l  ps
gr
gs
107 lw 1 lj 7529 2795 m  7529 2586 l  ps
7529 2377 m  7529 2168 l  ps
7529 1959 m  7529 1822 l  ps
gr
gs
107 lw 1 lj 14808 2795 m  14812 2586 l  ps
14816 2377 m  14820 2168 l  ps
14824 1959 m  14827 1822 l  ps
gr
gs
1.000 1.000 1.000 c 16494 13573 m  4149 13573 l  4149 9561 l  28838 9561 l 
28838 13573 l  16494 13573 l  p ef
gr
gs
0 lw 1 lj 1.000 1.000 1.000 c 16494 13573 m  4149 13573 l  4149 9561 l 
28838 9561 l  28838 13573 l  16494 13573 l  pc
gr
gs
106 lw 1 lj 4580 11187 m  4579 1118 l  ps
gr
pum
6098 4675 t
247 -66 m  302 -66 340 -94 362 -149 ct 441 -119 l  424 -77 399 -45 366 -25 ct 
333 -4 293 6 247 6 ct 176 6 122 -14 84 -54 ct 45 -94 26 -149 26 -221 ct 26 -293 45 -348 82 -386 ct 
119 -425 172 -444 242 -444 ct 294 -444 335 -434 368 -413 ct 400 -393 423 -362 436 -322 ct 
355 -300 l  348 -322 335 -340 315 -353 ct 295 -366 271 -372 244 -372 ct 203 -372 172 -359 150 -334 ct 
129 -308 118 -270 118 -221 ct 118 -171 129 -132 151 -106 ct 173 -79 205 -66 247 -66 ct 
p ef
587 -269 m  599 -295 614 -314 632 -325 ct 649 -337 671 -342 695 -342 ct 731 -342 758 -332 777 -310 ct 
796 -288 806 -256 806 -213 ct 806 0 l  719 0 l  719 -189 l  719 -248 699 -277 659 -277 ct 
638 -277 621 -268 608 -250 ct 595 -232 588 -209 588 -180 ct 588 0 l  501 0 l 
501 -461 l  588 -461 l  588 -335 l  588 -313 588 -291 586 -269 ct 587 -269 l 
p ef
969 6 m  936 6 911 -3 893 -21 ct 875 -38 866 -63 866 -95 ct 866 -130 877 -156 900 -175 ct 
922 -193 955 -202 998 -202 ct 1070 -204 l  1070 -221 l  1070 -243 1066 -259 1059 -270 ct 
1051 -280 1039 -286 1021 -286 ct 1005 -286 993 -282 986 -275 ct 978 -267 974 -255 972 -238 ct 
881 -242 l  886 -275 901 -300 926 -317 ct 950 -334 983 -342 1025 -342 ct 1067 -342 1100 -332 1123 -311 ct 
1146 -290 1157 -260 1157 -222 ct 1157 -99 l  1157 -81 1159 -68 1164 -61 ct 1168 -53 1175 -50 1185 -50 ct 
1192 -50 1198 -50 1204 -52 ct 1204 -5 l  1199 -3 1194 -2 1190 -1 ct 1186 0 1182 1 1178 1 ct 
1174 2 1169 2 1165 3 ct 1160 3 1155 4 1148 4 ct 1126 4 1110 -2 1100 -13 ct 1089 -23 1083 -39 1081 -60 ct 
1079 -60 l  1055 -16 1018 6 969 6 ct p
1070 -156 m  1026 -155 l  1005 -154 991 -152 982 -148 ct 974 -145 968 -139 963 -132 ct 
959 -124 956 -114 956 -102 ct 956 -86 960 -74 967 -66 ct 975 -59 985 -55 997 -55 ct 
1010 -55 1023 -59 1034 -66 ct 1045 -73 1054 -84 1061 -97 ct 1067 -110 1070 -124 1070 -139 ct 
1070 -156 l  p ef
1460 0 m  1460 -189 l  1460 -248 1440 -277 1400 -277 ct 1379 -277 1362 -268 1349 -250 ct 
1336 -232 1329 -208 1329 -180 ct 1329 0 l  1242 0 l  1242 -261 l  1242 -279 1242 -293 1242 -305 ct 
1241 -316 1240 -327 1240 -336 ct 1323 -336 l  1324 -332 1324 -321 1325 -304 ct 
1326 -287 1327 -276 1327 -269 ct 1328 -269 l  1340 -295 1355 -314 1373 -325 ct 
1390 -337 1412 -342 1436 -342 ct 1472 -342 1499 -332 1518 -310 ct 1537 -288 1547 -256 1547 -213 ct 
1547 0 l  1460 0 l  p ef
1850 0 m  1850 -189 l  1850 -248 1830 -277 1790 -277 ct 1769 -277 1752 -268 1739 -250 ct 
1726 -232 1719 -208 1719 -180 ct 1719 0 l  1632 0 l  1632 -261 l  1632 -279 1632 -293 1632 -305 ct 
1631 -316 1630 -327 1630 -336 ct 1713 -336 l  1714 -332 1714 -321 1715 -304 ct 
1716 -287 1717 -276 1717 -269 ct 1718 -269 l  1730 -295 1745 -314 1763 -325 ct 
1780 -337 1802 -342 1826 -342 ct 1862 -342 1889 -332 1908 -310 ct 1927 -288 1937 -256 1937 -213 ct 
1937 0 l  1850 0 l  p ef
2159 6 m  2108 6 2070 -9 2042 -39 ct 2015 -69 2002 -112 2002 -170 ct 2002 -225 2016 -268 2043 -297 ct 
2071 -327 2110 -342 2160 -342 ct 2208 -342 2245 -326 2270 -294 ct 2296 -262 2308 -215 2308 -154 ct 
2308 -151 l  2093 -151 l  2093 -119 2099 -94 2111 -77 ct 2124 -61 2141 -52 2163 -52 ct 
2194 -52 2213 -66 2221 -92 ct 2303 -85 l  2280 -24 2231 6 2159 6 ct p
2159 -287 m  2138 -287 2122 -280 2111 -266 ct 2100 -251 2095 -231 2094 -206 ct 
2224 -206 l  2222 -233 2216 -253 2205 -267 ct 2193 -280 2178 -287 2159 -287 ct 
p ef
2372 0 m  2372 -461 l  2459 -461 l  2459 0 l  2372 0 l  p ef
2724 0 m  2724 -65 l  2832 -65 l  2832 -363 l  2727 -298 l  2727 -366 l 
2837 -438 l  2919 -438 l  2919 -65 l  3019 -65 l  3019 0 l  2724 0 l  p ef
pom
pum
13282 4675 t
247 -66 m  302 -66 340 -94 362 -149 ct 441 -119 l  424 -77 399 -45 366 -25 ct 
333 -4 293 6 247 6 ct 176 6 122 -14 84 -54 ct 45 -94 26 -149 26 -221 ct 26 -293 45 -348 82 -386 ct 
119 -425 172 -444 242 -444 ct 294 -444 335 -434 368 -413 ct 400 -393 423 -362 436 -322 ct 
355 -300 l  348 -322 335 -340 315 -353 ct 295 -366 271 -372 244 -372 ct 203 -372 172 -359 150 -334 ct 
129 -308 118 -270 118 -221 ct 118 -171 129 -132 151 -106 ct 173 -79 205 -66 247 -66 ct 
p ef
587 -269 m  599 -295 614 -314 632 -325 ct 649 -337 671 -342 695 -342 ct 731 -342 758 -332 777 -310 ct 
796 -288 806 -256 806 -213 ct 806 0 l  719 0 l  719 -189 l  719 -248 699 -277 659 -277 ct 
638 -277 621 -268 608 -250 ct 595 -232 588 -209 588 -180 ct 588 0 l  501 0 l 
501 -461 l  588 -461 l  588 -335 l  588 -313 588 -291 586 -269 ct 587 -269 l 
p ef
969 6 m  936 6 911 -3 893 -21 ct 875 -38 866 -63 866 -95 ct 866 -130 877 -156 900 -175 ct 
922 -193 955 -202 998 -202 ct 1070 -204 l  1070 -221 l  1070 -243 1066 -259 1059 -270 ct 
1051 -280 1039 -286 1021 -286 ct 1005 -286 993 -282 986 -275 ct 978 -267 974 -255 972 -238 ct 
881 -242 l  886 -275 901 -300 926 -317 ct 950 -334 983 -342 1025 -342 ct 1067 -342 1100 -332 1123 -311 ct 
1146 -290 1157 -260 1157 -222 ct 1157 -99 l  1157 -81 1159 -68 1164 -61 ct 1168 -53 1175 -50 1185 -50 ct 
1192 -50 1198 -50 1204 -52 ct 1204 -5 l  1199 -3 1194 -2 1190 -1 ct 1186 0 1182 1 1178 1 ct 
1174 2 1169 2 1165 3 ct 1160 3 1155 4 1148 4 ct 1126 4 1110 -2 1100 -13 ct 1089 -23 1083 -39 1081 -60 ct 
1079 -60 l  1055 -16 1018 6 969 6 ct p
1070 -156 m  1026 -155 l  1005 -154 991 -152 982 -148 ct 974 -145 968 -139 963 -132 ct 
959 -124 956 -114 956 -102 ct 956 -86 960 -74 967 -66 ct 975 -59 985 -55 997 -55 ct 
1010 -55 1023 -59 1034 -66 ct 1045 -73 1054 -84 1061 -97 ct 1067 -110 1070 -124 1070 -139 ct 
1070 -156 l  p ef
1460 0 m  1460 -189 l  1460 -248 1440 -277 1400 -277 ct 1379 -277 1362 -268 1349 -250 ct 
1336 -232 1329 -208 1329 -180 ct 1329 0 l  1242 0 l  1242 -261 l  1242 -279 1242 -293 1242 -305 ct 
1241 -316 1240 -327 1240 -336 ct 1323 -336 l  1324 -332 1324 -321 1325 -304 ct 
1326 -287 1327 -276 1327 -269 ct 1328 -269 l  1340 -295 1355 -314 1373 -325 ct 
1390 -337 1412 -342 1436 -342 ct 1472 -342 1499 -332 1518 -310 ct 1537 -288 1547 -256 1547 -213 ct 
1547 0 l  1460 0 l  p ef
1850 0 m  1850 -189 l  1850 -248 1830 -277 1790 -277 ct 1769 -277 1752 -268 1739 -250 ct 
1726 -232 1719 -208 1719 -180 ct 1719 0 l  1632 0 l  1632 -261 l  1632 -279 1632 -293 1632 -305 ct 
1631 -316 1630 -327 1630 -336 ct 1713 -336 l  1714 -332 1714 -321 1715 -304 ct 
1716 -287 1717 -276 1717 -269 ct 1718 -269 l  1730 -295 1745 -314 1763 -325 ct 
1780 -337 1802 -342 1826 -342 ct 1862 -342 1889 -332 1908 -310 ct 1927 -288 1937 -256 1937 -213 ct 
1937 0 l  1850 0 l  p ef
2159 6 m  2108 6 2070 -9 2042 -39 ct 2015 -69 2002 -112 2002 -170 ct 2002 -225 2016 -268 2043 -297 ct 
2071 -327 2110 -342 2160 -342 ct 2208 -342 2245 -326 2270 -294 ct 2296 -262 2308 -215 2308 -154 ct 
2308 -151 l  2093 -151 l  2093 -119 2099 -94 2111 -77 ct 2124 -61 2141 -52 2163 -52 ct 
2194 -52 2213 -66 2221 -92 ct 2303 -85 l  2280 -24 2231 6 2159 6 ct p
2159 -287 m  2138 -287 2122 -280 2111 -266 ct 2100 -251 2095 -231 2094 -206 ct 
2224 -206 l  2222 -233 2216 -253 2205 -267 ct 2193 -280 2178 -287 2159 -287 ct 
p ef
2372 0 m  2372 -461 l  2459 -461 l  2459 0 l  2372 0 l  p ef
3014 -143 m  3014 -97 3001 -60 2975 -34 ct 2949 -7 2913 6 2867 6 ct 2816 6 2776 -12 2749 -48 ct 
2721 -84 2707 -138 2707 -209 ct 2707 -287 2721 -345 2749 -385 ct 2777 -424 2817 -444 2869 -444 ct 
2906 -444 2936 -436 2957 -420 ct 2978 -403 2994 -378 3002 -344 ct 2920 -332 l 
2912 -361 2895 -375 2868 -375 ct 2844 -375 2826 -363 2813 -340 ct 2799 -317 2793 -281 2793 -234 ct 
2802 -249 2815 -261 2831 -270 ct 2848 -278 2867 -282 2887 -282 ct 2926 -282 2957 -270 2980 -245 ct 
3003 -220 3014 -186 3014 -143 ct p
2927 -141 m  2927 -166 2921 -185 2910 -198 ct 2898 -211 2882 -218 2862 -218 ct 
2843 -218 2828 -212 2816 -199 ct 2805 -187 2799 -171 2799 -150 ct 2799 -125 2805 -104 2817 -87 ct 
2829 -70 2845 -62 2864 -62 ct 2884 -62 2899 -69 2910 -83 ct 2921 -97 2927 -116 2927 -141 ct 
p ef
pom
pum
20465 4675 t
247 -66 m  302 -66 340 -94 362 -149 ct 441 -119 l  424 -77 399 -45 366 -25 ct 
333 -4 293 6 247 6 ct 176 6 122 -14 84 -54 ct 45 -94 26 -149 26 -221 ct 26 -293 45 -348 82 -386 ct 
119 -425 172 -444 242 -444 ct 294 -444 335 -434 368 -413 ct 400 -393 423 -362 436 -322 ct 
355 -300 l  348 -322 335 -340 315 -353 ct 295 -366 271 -372 244 -372 ct 203 -372 172 -359 150 -334 ct 
129 -308 118 -270 118 -221 ct 118 -171 129 -132 151 -106 ct 173 -79 205 -66 247 -66 ct 
p ef
587 -269 m  599 -295 614 -314 632 -325 ct 649 -337 671 -342 695 -342 ct 731 -342 758 -332 777 -310 ct 
796 -288 806 -256 806 -213 ct 806 0 l  719 0 l  719 -189 l  719 -248 699 -277 659 -277 ct 
638 -277 621 -268 608 -250 ct 595 -232 588 -209 588 -180 ct 588 0 l  501 0 l 
501 -461 l  588 -461 l  588 -335 l  588 -313 588 -291 586 -269 ct 587 -269 l 
p ef
969 6 m  936 6 911 -3 893 -21 ct 875 -38 866 -63 866 -95 ct 866 -130 877 -156 900 -175 ct 
922 -193 955 -202 998 -202 ct 1070 -204 l  1070 -221 l  1070 -243 1066 -259 1059 -270 ct 
1051 -280 1039 -286 1021 -286 ct 1005 -286 993 -282 986 -275 ct 978 -267 974 -255 972 -238 ct 
881 -242 l  886 -275 901 -300 926 -317 ct 950 -334 983 -342 1025 -342 ct 1067 -342 1100 -332 1123 -311 ct 
1146 -290 1157 -260 1157 -222 ct 1157 -99 l  1157 -81 1159 -68 1164 -61 ct 1168 -53 1175 -50 1185 -50 ct 
1192 -50 1198 -50 1204 -52 ct 1204 -5 l  1199 -3 1194 -2 1190 -1 ct 1186 0 1182 1 1178 1 ct 
1174 2 1169 2 1165 3 ct 1160 3 1155 4 1148 4 ct 1126 4 1110 -2 1100 -13 ct 1089 -23 1083 -39 1081 -60 ct 
1079 -60 l  1055 -16 1018 6 969 6 ct p
1070 -156 m  1026 -155 l  1005 -154 991 -152 982 -148 ct 974 -145 968 -139 963 -132 ct 
959 -124 956 -114 956 -102 ct 956 -86 960 -74 967 -66 ct 975 -59 985 -55 997 -55 ct 
1010 -55 1023 -59 1034 -66 ct 1045 -73 1054 -84 1061 -97 ct 1067 -110 1070 -124 1070 -139 ct 
1070 -156 l  p ef
1460 0 m  1460 -189 l  1460 -248 1440 -277 1400 -277 ct 1379 -277 1362 -268 1349 -250 ct 
1336 -232 1329 -208 1329 -180 ct 1329 0 l  1242 0 l  1242 -261 l  1242 -279 1242 -293 1242 -305 ct 
1241 -316 1240 -327 1240 -336 ct 1323 -336 l  1324 -332 1324 -321 1325 -304 ct 
1326 -287 1327 -276 1327 -269 ct 1328 -269 l  1340 -295 1355 -314 1373 -325 ct 
1390 -337 1412 -342 1436 -342 ct 1472 -342 1499 -332 1518 -310 ct 1537 -288 1547 -256 1547 -213 ct 
1547 0 l  1460 0 l  p ef
1850 0 m  1850 -189 l  1850 -248 1830 -277 1790 -277 ct 1769 -277 1752 -268 1739 -250 ct 
1726 -232 1719 -208 1719 -180 ct 1719 0 l  1632 0 l  1632 -261 l  1632 -279 1632 -293 1632 -305 ct 
1631 -316 1630 -327 1630 -336 ct 1713 -336 l  1714 -332 1714 -321 1715 -304 ct 
1716 -287 1717 -276 1717 -269 ct 1718 -269 l  1730 -295 1745 -314 1763 -325 ct 
1780 -337 1802 -342 1826 -342 ct 1862 -342 1889 -332 1908 -310 ct 1927 -288 1937 -256 1937 -213 ct 
1937 0 l  1850 0 l  p ef
2159 6 m  2108 6 2070 -9 2042 -39 ct 2015 -69 2002 -112 2002 -170 ct 2002 -225 2016 -268 2043 -297 ct 
2071 -327 2110 -342 2160 -342 ct 2208 -342 2245 -326 2270 -294 ct 2296 -262 2308 -215 2308 -154 ct 
2308 -151 l  2093 -151 l  2093 -119 2099 -94 2111 -77 ct 2124 -61 2141 -52 2163 -52 ct 
2194 -52 2213 -66 2221 -92 ct 2303 -85 l  2280 -24 2231 6 2159 6 ct p
2159 -287 m  2138 -287 2122 -280 2111 -266 ct 2100 -251 2095 -231 2094 -206 ct 
2224 -206 l  2222 -233 2216 -253 2205 -267 ct 2193 -280 2178 -287 2159 -287 ct 
p ef
2372 0 m  2372 -461 l  2459 -461 l  2459 0 l  2372 0 l  p ef
2724 0 m  2724 -65 l  2832 -65 l  2832 -363 l  2727 -298 l  2727 -366 l 
2837 -438 l  2919 -438 l  2919 -65 l  3019 -65 l  3019 0 l  2724 0 l  p ef
3041 0 m  3041 -65 l  3149 -65 l  3149 -363 l  3044 -298 l  3044 -366 l 
3154 -438 l  3236 -438 l  3236 -65 l  3336 -65 l  3336 0 l  3041 0 l  p ef
pom
gs
107 lw 1 lj 12759 10583 m  16966 10583 l  ps
gr
gs
12101 10583 m  12790 10812 l  12790 10353 l  12101 10583 l  p ef
gr
gs
17624 10583 m  16936 10353 l  16936 10812 l  17624 10583 l  p ef
gr
pum
13859 10447 t
32 0 m  32 -39 l  42 -64 55 -85 71 -104 ct 86 -122 102 -139 118 -154 ct 135 -169 152 -183 168 -196 ct 
185 -208 199 -221 213 -234 ct 226 -247 237 -260 245 -274 ct 253 -289 257 -304 257 -322 ct 
257 -346 250 -365 236 -378 ct 222 -391 202 -398 177 -398 ct 154 -398 134 -392 119 -379 ct 
103 -366 94 -348 91 -324 ct 34 -329 l  39 -364 53 -392 79 -413 ct 104 -434 137 -444 177 -444 ct 
221 -444 255 -434 279 -413 ct 303 -392 314 -362 314 -324 ct 314 -307 311 -290 303 -274 ct 
295 -257 283 -240 268 -223 ct 253 -206 224 -180 180 -145 ct 157 -126 138 -108 124 -93 ct 
110 -77 100 -62 93 -47 ct 321 -47 l  321 0 l  32 0 l  p ef
383 0 m  383 -39 l  393 -64 406 -85 422 -104 ct 437 -122 453 -139 469 -154 ct 
486 -169 503 -183 519 -196 ct 536 -208 550 -221 564 -234 ct 577 -247 588 -260 596 -274 ct 
604 -289 608 -304 608 -322 ct 608 -346 601 -365 587 -378 ct 573 -391 553 -398 528 -398 ct 
505 -398 485 -392 470 -379 ct 454 -366 445 -348 442 -324 ct 385 -329 l  390 -364 404 -392 430 -413 ct 
455 -434 488 -444 528 -444 ct 572 -444 606 -434 630 -413 ct 654 -392 665 -362 665 -324 ct 
665 -307 662 -290 654 -274 ct 646 -257 634 -240 619 -223 ct 604 -206 575 -180 531 -145 ct 
508 -126 489 -108 475 -93 ct 461 -77 451 -62 444 -47 ct 672 -47 l  672 0 l  383 0 l 
p ef
1127 0 m  1127 -292 l  1127 -324 1127 -355 1129 -385 ct 1119 -348 1110 -319 1102 -298 ct 
989 0 l  948 0 l  833 -298 l  816 -351 l  806 -385 l  807 -351 l  808 -292 l 
808 0 l  755 0 l  755 -438 l  833 -438 l  949 -134 l  953 -122 957 -109 961 -95 ct 
965 -81 967 -71 969 -65 ct 970 -73 974 -85 979 -102 ct 984 -119 988 -130 990 -134 ct 
1104 -438 l  1180 -438 l  1180 0 l  1127 0 l  p ef
1580 -1 m  1580 -203 l  1343 -203 l  1343 -1 l  1284 -1 l  1284 -438 l 
1343 -438 l  1343 -253 l  1580 -253 l  1580 -438 l  1639 -438 l  1639 -1 l 
1580 -1 l  p ef
1715 0 m  1715 -43 l  1902 -293 l  1725 -293 l  1725 -336 l  1968 -336 l 
1968 -293 l  1780 -43 l  1975 -43 l  1975 0 l  1715 0 l  p ef
pom
gs
107 lw 1 lj 12029 10578 m  12029 10370 l  ps
12029 10161 m  12029 9952 l  ps
12029 9743 m  12029 9605 l  ps
gr
gs
107 lw 1 lj 17605 10578 m  17609 10370 l  ps
17613 10161 m  17617 9952 l  ps
17621 9743 m  17624 9605 l  ps
gr
gs
54 lw 1 lj 26172 3641 m  26955 3641 l  ps
gr
gs
25895 3641 m  26198 3831 l  26198 3451 l  25895 3641 l  p ef
gr
gs
27232 3640 m  26929 3451 l  26929 3831 l  27232 3640 l  p ef
gr
pum
25736 3206 t
326 -143 m  326 -96 313 -60 285 -34 ct 258 -7 220 6 171 6 ct 131 6 98 -3 73 -21 ct 
48 -38 32 -64 25 -98 ct 82 -104 l  94 -61 124 -40 173 -40 ct 203 -40 226 -49 243 -67 ct 
260 -85 269 -110 269 -141 ct 269 -169 260 -191 243 -208 ct 226 -225 203 -233 174 -233 ct 
159 -233 145 -231 132 -226 ct 119 -221 106 -213 93 -202 ct 38 -202 l  53 -437 l 
301 -437 l  301 -390 l  104 -390 l  95 -251 l  119 -270 149 -279 185 -279 ct 
228 -279 263 -266 288 -241 ct 314 -216 326 -183 326 -143 ct p ef
775 0 m  775 -292 l  775 -324 775 -355 777 -385 ct 767 -348 758 -319 750 -298 ct 
637 0 l  596 0 l  481 -298 l  464 -351 l  454 -385 l  455 -351 l  456 -292 l 
456 0 l  403 0 l  403 -438 l  481 -438 l  597 -134 l  601 -122 605 -109 609 -95 ct 
613 -81 615 -71 617 -65 ct 618 -73 622 -85 627 -102 ct 632 -119 636 -130 638 -134 ct 
752 -438 l  828 -438 l  828 0 l  775 0 l  p ef
1229 -1 m  1229 -203 l  992 -203 l  992 -1 l  933 -1 l  933 -438 l  992 -438 l 
992 -253 l  1229 -253 l  1229 -438 l  1288 -438 l  1288 -1 l  1229 -1 l 
p ef
1364 0 m  1364 -43 l  1551 -293 l  1374 -293 l  1374 -336 l  1617 -336 l 
1617 -293 l  1429 -43 l  1624 -43 l  1624 0 l  1364 0 l  p ef
pom
gs
107 lw 1 lj 25860 6808 m  25860 6599 l  ps
25860 6390 m  25860 6182 l  ps
25860 5973 m  25860 5764 l  ps
25860 5555 m  25860 5346 l  ps
25860 5137 m  25860 4929 l  ps
25860 4720 m  25860 4511 l  ps
25860 4302 m  25860 4093 l  ps
25860 3884 m  25860 3676 l  ps
gr
gs
107 lw 1 lj 27258 6808 m  27258 6599 l  ps
27258 6390 m  27258 6181 l  ps
27258 5972 m  27258 5763 l  ps
27258 5555 m  27258 5346 l  ps
27258 5137 m  27258 4928 l  ps
27258 4719 m  27258 4510 l  ps
27258 4302 m  27258 4093 l  ps
27258 3884 m  27258 3692 l  ps
gr
gs
29 lw 1 lj 21158 10822 m  21589 10822 l  ps
gr
gs
20907 10823 m  21181 10994 l  21181 10651 l  20907 10823 l  p ef
gr
gs
21840 10822 m  21566 10651 l  21566 10994 l  21840 10822 l  p ef
gr
pum
20546 11582 t
326 -143 m  326 -96 313 -60 285 -34 ct 258 -7 220 6 171 6 ct 131 6 98 -3 73 -21 ct 
48 -38 32 -64 25 -98 ct 82 -104 l  94 -61 124 -40 173 -40 ct 203 -40 226 -49 243 -67 ct 
260 -85 269 -110 269 -141 ct 269 -169 260 -191 243 -208 ct 226 -225 203 -233 174 -233 ct 
159 -233 145 -231 132 -226 ct 119 -221 106 -213 93 -202 ct 38 -202 l  53 -437 l 
301 -437 l  301 -390 l  104 -390 l  95 -251 l  119 -270 149 -279 185 -279 ct 
228 -279 263 -266 288 -241 ct 314 -216 326 -183 326 -143 ct p ef
775 0 m  775 -292 l  775 -324 775 -355 777 -385 ct 767 -348 758 -319 750 -298 ct 
637 0 l  596 0 l  481 -298 l  464 -351 l  454 -385 l  455 -351 l  456 -292 l 
456 0 l  403 0 l  403 -438 l  481 -438 l  597 -134 l  601 -122 605 -109 609 -95 ct 
613 -81 615 -71 617 -65 ct 618 -73 622 -85 627 -102 ct 632 -119 636 -130 638 -134 ct 
752 -438 l  828 -438 l  828 0 l  775 0 l  p ef
1229 -1 m  1229 -203 l  992 -203 l  992 -1 l  933 -1 l  933 -438 l  992 -438 l 
992 -253 l  1229 -253 l  1229 -438 l  1288 -438 l  1288 -1 l  1229 -1 l 
p ef
1364 0 m  1364 -43 l  1551 -293 l  1374 -293 l  1374 -336 l  1617 -336 l 
1617 -293 l  1429 -43 l  1624 -43 l  1624 0 l  1364 0 l  p ef
pom
gs
107 lw 1 lj 20957 10822 m  20957 10716 l  ps
20957 10663 m  20957 10557 l  ps
20957 10504 m  20957 10398 l  ps
20957 10345 m  20957 10239 l  ps
20957 10186 m  20957 10080 l  ps
20957 10027 m  20957 9921 l  ps
20957 9868 m  20957 9762 l  ps
20957 9709 m  20957 9603 l  ps
20957 9550 m  20957 9484 l  ps
gr
gs
107 lw 1 lj 21866 10833 m  21866 10727 l  ps
21866 10674 m  21866 10568 l  ps
21866 10515 m  21866 10409 l  ps
21866 10356 m  21866 10250 l  ps
21866 10197 m  21866 10091 l  ps
21866 10038 m  21866 9932 l  ps
21866 9879 m  21866 9773 l  ps
21866 9720 m  21866 9614 l  ps
gr
pum
3342 881 t
22 0 m  22 -61 l  33 -86 50 -110 71 -134 ct 92 -158 118 -182 150 -208 ct 180 -233 202 -254 214 -270 ct 
226 -286 233 -302 233 -317 ct 233 -355 213 -374 175 -374 ct 157 -374 142 -369 133 -359 ct 
123 -349 116 -334 113 -314 ct 26 -319 l  31 -360 46 -391 71 -412 ct 96 -433 131 -444 175 -444 ct 
222 -444 258 -433 283 -412 ct 308 -390 321 -360 321 -321 ct 321 -301 317 -282 309 -265 ct 
301 -249 290 -234 278 -220 ct 265 -206 251 -193 236 -180 ct 220 -168 205 -156 191 -145 ct 
177 -133 163 -121 151 -110 ct 140 -98 131 -85 125 -72 ct 328 -72 l  328 0 l 
22 0 l  p ef
394 0 m  394 -95 l  484 -95 l  484 0 l  394 0 l  p ef
820 -89 m  820 0 l  737 0 l  737 -89 l  539 -89 l  539 -154 l  723 -437 l 
820 -437 l  820 -154 l  879 -154 l  879 -89 l  820 -89 l  p
737 -297 m  737 -308 738 -320 738 -333 ct 739 -346 740 -355 740 -358 ct 735 -347 725 -330 711 -308 ct 
610 -154 l  737 -154 l  737 -297 l  p ef
1208 -219 m  1208 -145 1195 -89 1170 -51 ct 1145 -13 1107 6 1056 6 ct 956 6 906 -69 906 -219 ct 
906 -271 912 -314 923 -347 ct 934 -380 950 -405 972 -420 ct 994 -436 1023 -444 1059 -444 ct 
1110 -444 1148 -425 1172 -388 ct 1196 -350 1208 -294 1208 -219 ct p
1121 -219 m  1121 -259 1119 -291 1115 -313 ct 1111 -335 1105 -351 1096 -361 ct 
1087 -371 1075 -376 1058 -376 ct 1040 -376 1027 -371 1018 -361 ct 1009 -351 1003 -335 999 -313 ct 
995 -291 993 -259 993 -219 ct 993 -179 995 -148 999 -125 ct 1003 -103 1010 -87 1019 -77 ct 
1027 -67 1040 -63 1057 -63 ct 1073 -63 1086 -68 1095 -78 ct 1104 -88 1111 -105 1115 -127 ct 
1119 -150 1121 -180 1121 -219 ct p ef
1482 -66 m  1506 -66 1529 -69 1551 -76 ct 1573 -83 1591 -92 1603 -103 ct 1603 -163 l 
1496 -163 l  1496 -231 l  1687 -231 l  1687 -70 l  1663 -46 1633 -28 1596 -14 ct 
1559 -1 1520 6 1479 6 ct 1408 6 1354 -14 1315 -53 ct 1277 -93 1258 -148 1258 -221 ct 
1258 -293 1277 -348 1316 -386 ct 1354 -425 1409 -444 1482 -444 ct 1584 -444 1649 -406 1677 -330 ct 
1593 -305 l  1584 -327 1570 -344 1550 -355 ct 1531 -366 1508 -372 1482 -372 ct 
1439 -372 1406 -359 1384 -333 ct 1361 -307 1350 -269 1350 -221 ct 1350 -171 1362 -133 1385 -106 ct 
1408 -79 1440 -66 1482 -66 ct p ef
2051 0 m  2051 -187 l  1861 -187 l  1861 0 l  1769 0 l  1769 -437 l  1861 -437 l 
1861 -263 l  2051 -263 l  2051 -437 l  2143 -437 l  2143 0 l  2051 0 l 
p ef
2209 0 m  2209 -62 l  2367 -273 l  2222 -273 l  2222 -336 l  2463 -336 l 
2463 -274 l  2306 -64 l  2479 -64 l  2479 0 l  2209 0 l  p ef
pom
gs
106 lw 1 lj 27852 11258 m  27851 1188 l  ps
gr
pum
26418 952 t
22 0 m  22 -61 l  33 -86 50 -110 71 -134 ct 92 -158 118 -182 150 -208 ct 180 -233 202 -254 214 -270 ct 
226 -286 233 -302 233 -317 ct 233 -355 213 -374 175 -374 ct 157 -374 142 -369 133 -359 ct 
123 -349 116 -334 113 -314 ct 26 -319 l  31 -360 46 -391 71 -412 ct 96 -433 131 -444 175 -444 ct 
222 -444 258 -433 283 -412 ct 308 -390 321 -360 321 -321 ct 321 -301 317 -282 309 -265 ct 
301 -249 290 -234 278 -220 ct 265 -206 251 -193 236 -180 ct 220 -168 205 -156 191 -145 ct 
177 -133 163 -121 151 -110 ct 140 -98 131 -85 125 -72 ct 328 -72 l  328 0 l 
22 0 l  p ef
394 0 m  394 -95 l  484 -95 l  484 0 l  394 0 l  p ef
820 -89 m  820 0 l  737 0 l  737 -89 l  539 -89 l  539 -154 l  723 -437 l 
820 -437 l  820 -154 l  879 -154 l  879 -89 l  820 -89 l  p
737 -297 m  737 -308 738 -320 738 -333 ct 739 -346 740 -355 740 -358 ct 735 -347 725 -330 711 -308 ct 
610 -154 l  737 -154 l  737 -297 l  p ef
1215 -123 m  1215 -82 1201 -51 1174 -28 ct 1147 -5 1108 6 1058 6 ct 1008 6 970 -5 942 -28 ct 
915 -50 901 -82 901 -123 ct 901 -151 909 -174 925 -193 ct 941 -212 963 -224 990 -229 ct 
990 -230 l  967 -235 948 -247 933 -265 ct 919 -283 911 -304 911 -328 ct 911 -364 924 -392 949 -413 ct 
975 -434 1011 -444 1057 -444 ct 1104 -444 1140 -434 1166 -414 ct 1191 -394 1204 -365 1204 -328 ct 
1204 -304 1197 -283 1182 -265 ct 1168 -247 1149 -235 1124 -231 ct 1124 -229 l 
1153 -225 1175 -213 1191 -195 ct 1207 -176 1215 -153 1215 -123 ct p
1114 -323 m  1114 -344 1109 -359 1100 -368 ct 1090 -378 1076 -383 1057 -383 ct 
1019 -383 1000 -363 1000 -323 ct 1000 -281 1019 -260 1057 -260 ct 1076 -260 1091 -265 1100 -275 ct 
1109 -284 1114 -301 1114 -323 ct p
1124 -130 m  1124 -176 1102 -199 1056 -199 ct 1035 -199 1019 -193 1008 -181 ct 
996 -169 991 -152 991 -129 ct 991 -104 996 -85 1008 -73 ct 1019 -61 1036 -55 1059 -55 ct 
1081 -55 1098 -61 1108 -73 ct 1119 -85 1124 -104 1124 -130 ct p ef
1562 -122 m  1562 -81 1549 -49 1522 -27 ct 1495 -4 1457 7 1407 7 ct 1360 7 1323 -4 1295 -25 ct 
1268 -47 1251 -78 1247 -119 ct 1335 -127 l  1341 -85 1365 -64 1407 -64 ct 1428 -64 1444 -69 1456 -79 ct 
1467 -90 1473 -105 1473 -127 ct 1473 -146 1466 -161 1452 -171 ct 1438 -182 1417 -187 1389 -187 ct 
1359 -187 l  1359 -257 l  1387 -257 l  1412 -257 1431 -263 1444 -273 ct 1456 -283 1463 -298 1463 -317 ct 
1463 -335 1458 -349 1448 -359 ct 1438 -369 1423 -374 1404 -374 ct 1386 -374 1371 -370 1360 -360 ct 
1349 -350 1343 -336 1341 -317 ct 1254 -324 l  1259 -361 1274 -391 1301 -412 ct 
1328 -433 1362 -444 1405 -444 ct 1451 -444 1487 -434 1512 -413 ct 1538 -393 1551 -364 1551 -328 ct 
1551 -300 1543 -278 1527 -260 ct 1511 -243 1488 -231 1458 -225 ct 1458 -224 l 
1491 -220 1517 -209 1535 -191 ct 1553 -173 1562 -150 1562 -122 ct p ef
1833 -66 m  1857 -66 1880 -69 1902 -76 ct 1924 -83 1942 -92 1954 -103 ct 1954 -163 l 
1847 -163 l  1847 -231 l  2038 -231 l  2038 -70 l  2014 -46 1984 -28 1947 -14 ct 
1910 -1 1871 6 1830 6 ct 1759 6 1705 -14 1666 -53 ct 1628 -93 1609 -148 1609 -221 ct 
1609 -293 1628 -348 1667 -386 ct 1705 -425 1760 -444 1833 -444 ct 1935 -444 2000 -406 2028 -330 ct 
1944 -305 l  1935 -327 1921 -344 1901 -355 ct 1882 -366 1859 -372 1833 -372 ct 
1790 -372 1757 -359 1735 -333 ct 1712 -307 1701 -269 1701 -221 ct 1701 -171 1713 -133 1736 -106 ct 
1759 -79 1791 -66 1833 -66 ct p ef
2403 0 m  2403 -187 l  2213 -187 l  2213 0 l  2121 0 l  2121 -437 l  2213 -437 l 
2213 -263 l  2403 -263 l  2403 -437 l  2495 -437 l  2495 0 l  2403 0 l 
p ef
2561 0 m  2561 -62 l  2719 -273 l  2574 -273 l  2574 -336 l  2815 -336 l 
2815 -274 l  2658 -64 l  2831 -64 l  2831 0 l  2561 0 l  p ef
pom
pum
1239 4528 t
408 -150 m  408 -100 391 -61 358 -34 ct 325 -6 278 8 216 8 ct 155 8 108 -6 75 -33 ct 
41 -61 25 -100 25 -150 ct 25 -184 34 -213 54 -236 ct 74 -259 100 -274 133 -279 ct 
133 -281 l  105 -287 81 -302 64 -324 ct 46 -346 37 -372 37 -401 ct 37 -444 53 -479 84 -504 ct 
115 -529 158 -542 215 -542 ct 273 -542 317 -530 348 -505 ct 379 -480 394 -445 394 -400 ct 
394 -371 386 -345 368 -323 ct 351 -301 327 -287 297 -282 ct 297 -280 l  332 -275 359 -260 378 -238 ct 
398 -215 408 -186 408 -150 ct p
285 -394 m  285 -419 279 -438 268 -450 ct 256 -461 238 -467 215 -467 ct 169 -467 146 -443 146 -394 ct 
146 -343 169 -318 216 -318 ct 239 -318 256 -324 268 -336 ct 279 -347 285 -367 285 -394 ct 
p
297 -159 m  297 -215 270 -243 214 -243 ct 188 -243 169 -236 155 -221 ct 141 -206 134 -185 134 -158 ct 
134 -126 141 -103 155 -89 ct 168 -74 189 -67 217 -67 ct 245 -67 265 -74 278 -89 ct 
291 -103 297 -127 297 -159 ct p ef
832 -267 m  832 -177 816 -108 785 -62 ct 754 -15 708 8 646 8 ct 524 8 463 -84 463 -267 ct 
463 -331 469 -383 483 -424 ct 496 -464 516 -494 543 -513 ct 570 -532 605 -542 649 -542 ct 
712 -542 759 -519 788 -473 ct 817 -428 832 -359 832 -267 ct p
725 -267 m  725 -316 722 -355 718 -382 ct 713 -409 705 -429 695 -441 ct 684 -453 669 -459 648 -459 ct 
627 -459 611 -453 600 -441 ct 589 -429 581 -409 576 -382 ct 572 -355 569 -316 569 -267 ct 
569 -218 572 -180 577 -153 ct 581 -125 589 -106 600 -94 ct 611 -82 626 -76 647 -76 ct 
667 -76 683 -82 694 -95 ct 705 -107 713 -127 718 -155 ct 722 -182 725 -220 725 -267 ct 
p ef
891 0 m  891 -74 l  905 -105 925 -134 950 -163 ct 976 -192 1008 -223 1047 -254 ct 
1084 -285 1111 -310 1126 -329 ct 1141 -349 1148 -368 1148 -387 ct 1148 -434 1125 -457 1078 -457 ct 
1055 -457 1038 -451 1026 -439 ct 1014 -426 1006 -408 1003 -384 ct 895 -390 l 
902 -439 920 -477 951 -503 ct 982 -529 1024 -542 1077 -542 ct 1135 -542 1179 -529 1210 -503 ct 
1241 -476 1256 -439 1256 -392 ct 1256 -367 1251 -344 1241 -324 ct 1232 -304 1219 -285 1204 -268 ct 
1188 -251 1171 -235 1152 -220 ct 1133 -205 1115 -191 1097 -177 ct 1080 -163 1064 -148 1049 -134 ct 
1035 -119 1024 -104 1017 -88 ct 1265 -88 l  1265 0 l  891 0 l  p ef
1348 0 m  1348 -116 l  1457 -116 l  1457 0 l  1348 0 l  p ef
1560 0 m  1560 -79 l  1692 -79 l  1692 -444 l  1564 -364 l  1564 -448 l 
1698 -535 l  1799 -535 l  1799 -79 l  1921 -79 l  1921 0 l  1560 0 l  p ef
1950 0 m  1950 -79 l  2082 -79 l  2082 -444 l  1954 -364 l  1954 -448 l 
2088 -535 l  2189 -535 l  2189 -79 l  2311 -79 l  2311 0 l  1950 0 l  p ef
pom
pum
1478 5256 t
442 -207 m  442 -139 429 -86 401 -49 ct 374 -11 335 8 285 8 ct 256 8 231 1 210 -11 ct 
188 -24 172 -42 161 -66 ct 160 -66 l  160 -57 159 -45 158 -30 ct 157 -14 156 -4 155 0 ct 
51 0 l  53 -24 54 -55 54 -94 ct 54 -563 l  161 -563 l  161 -406 l  159 -339 l 
161 -339 l  185 -392 228 -418 292 -418 ct 340 -418 377 -400 403 -363 ct 429 -326 442 -274 442 -207 ct 
p
331 -207 m  331 -253 324 -288 311 -310 ct 297 -333 276 -344 247 -344 ct 219 -344 197 -332 182 -308 ct 
167 -284 159 -249 159 -203 ct 159 -160 167 -126 181 -101 ct 196 -77 218 -65 247 -65 ct 
303 -65 331 -112 331 -207 ct p ef
482 16 m  592 -563 l  682 -563 l  574 16 l  482 16 l  p ef
916 165 m  866 165 826 155 795 136 ct 765 117 746 90 739 55 ct 845 42 l  849 59 857 71 870 81 ct 
882 90 899 95 919 95 ct 948 95 970 86 984 68 ct 997 49 1004 22 1004 -13 ct 1004 -35 l 
1005 -76 l  1004 -76 l  981 -25 937 0 872 0 ct 825 0 788 -18 761 -54 ct 735 -90 722 -141 722 -208 ct 
722 -275 735 -327 762 -363 ct 789 -400 829 -418 880 -418 ct 940 -418 981 -393 1004 -344 ct 
1006 -344 l  1006 -353 1007 -365 1008 -380 ct 1009 -395 1010 -405 1011 -410 ct 
1112 -410 l  1111 -383 1110 -351 1110 -315 ct 1110 -12 l  1110 46 1093 90 1060 120 ct 
1027 150 979 165 916 165 ct p
1005 -210 m  1005 -253 997 -286 982 -309 ct 967 -333 946 -345 918 -345 ct 861 -345 833 -299 833 -208 ct 
833 -119 861 -74 917 -74 ct 946 -74 967 -86 982 -110 ct 997 -133 1005 -167 1005 -210 ct 
p ef
1172 16 m  1282 -563 l  1372 -563 l  1264 16 l  1172 16 l  p ef
1700 0 m  1700 -230 l  1700 -302 1675 -338 1627 -338 ct 1601 -338 1580 -327 1564 -305 ct 
1549 -283 1541 -254 1541 -220 ct 1541 0 l  1434 0 l  1434 -319 l  1434 -341 1434 -359 1433 -373 ct 
1433 -387 1432 -399 1431 -410 ct 1533 -410 l  1533 -406 1534 -393 1536 -372 ct 
1537 -351 1538 -336 1538 -329 ct 1539 -329 l  1554 -360 1572 -383 1593 -397 ct 
1615 -411 1641 -418 1671 -418 ct 1714 -418 1748 -405 1771 -378 ct 1794 -351 1806 -312 1806 -260 ct 
1806 0 l  1700 0 l  p ef
pom
pum
894 8829 t
408 -150 m  408 -100 391 -61 358 -34 ct 325 -6 278 8 216 8 ct 155 8 108 -6 75 -33 ct 
41 -61 25 -100 25 -150 ct 25 -184 34 -213 54 -236 ct 74 -259 100 -274 133 -279 ct 
133 -281 l  105 -287 81 -302 64 -324 ct 46 -346 37 -372 37 -401 ct 37 -444 53 -479 84 -504 ct 
115 -529 158 -542 215 -542 ct 273 -542 317 -530 348 -505 ct 379 -480 394 -445 394 -400 ct 
394 -371 386 -345 368 -323 ct 351 -301 327 -287 297 -282 ct 297 -280 l  332 -275 359 -260 378 -238 ct 
398 -215 408 -186 408 -150 ct p
285 -394 m  285 -419 279 -438 268 -450 ct 256 -461 238 -467 215 -467 ct 169 -467 146 -443 146 -394 ct 
146 -343 169 -318 216 -318 ct 239 -318 256 -324 268 -336 ct 279 -347 285 -367 285 -394 ct 
p
297 -159 m  297 -215 270 -243 214 -243 ct 188 -243 169 -236 155 -221 ct 141 -206 134 -185 134 -158 ct 
134 -126 141 -103 155 -89 ct 168 -74 189 -67 217 -67 ct 245 -67 265 -74 278 -89 ct 
291 -103 297 -127 297 -159 ct p ef
832 -267 m  832 -177 816 -108 785 -62 ct 754 -15 708 8 646 8 ct 524 8 463 -84 463 -267 ct 
463 -331 469 -383 483 -424 ct 496 -464 516 -494 543 -513 ct 570 -532 605 -542 649 -542 ct 
712 -542 759 -519 788 -473 ct 817 -428 832 -359 832 -267 ct p
725 -267 m  725 -316 722 -355 718 -382 ct 713 -409 705 -429 695 -441 ct 684 -453 669 -459 648 -459 ct 
627 -459 611 -453 600 -441 ct 589 -429 581 -409 576 -382 ct 572 -355 569 -316 569 -267 ct 
569 -218 572 -180 577 -153 ct 581 -125 589 -106 600 -94 ct 611 -82 626 -76 647 -76 ct 
667 -76 683 -82 694 -95 ct 705 -107 713 -127 718 -155 ct 722 -182 725 -220 725 -267 ct 
p ef
891 0 m  891 -74 l  905 -105 925 -134 950 -163 ct 976 -192 1008 -223 1047 -254 ct 
1084 -285 1111 -310 1126 -329 ct 1141 -349 1148 -368 1148 -387 ct 1148 -434 1125 -457 1078 -457 ct 
1055 -457 1038 -451 1026 -439 ct 1014 -426 1006 -408 1003 -384 ct 895 -390 l 
902 -439 920 -477 951 -503 ct 982 -529 1024 -542 1077 -542 ct 1135 -542 1179 -529 1210 -503 ct 
1241 -476 1256 -439 1256 -392 ct 1256 -367 1251 -344 1241 -324 ct 1232 -304 1219 -285 1204 -268 ct 
1188 -251 1171 -235 1152 -220 ct 1133 -205 1115 -191 1097 -177 ct 1080 -163 1064 -148 1049 -134 ct 
1035 -119 1024 -104 1017 -88 ct 1265 -88 l  1265 0 l  891 0 l  p ef
1348 0 m  1348 -116 l  1457 -116 l  1457 0 l  1348 0 l  p ef
1560 0 m  1560 -79 l  1692 -79 l  1692 -444 l  1564 -364 l  1564 -448 l 
1698 -535 l  1799 -535 l  1799 -79 l  1921 -79 l  1921 0 l  1560 0 l  p ef
2353 -178 m  2353 -121 2335 -76 2300 -42 ct 2265 -9 2217 8 2155 8 ct 2102 8 2059 -4 2027 -28 ct 
1994 -52 1974 -87 1967 -133 ct 2073 -142 l  2079 -119 2089 -103 2103 -92 ct 
2117 -82 2135 -77 2156 -77 ct 2183 -77 2204 -85 2220 -102 ct 2236 -119 2243 -143 2243 -175 ct 
2243 -203 2236 -226 2221 -243 ct 2206 -259 2185 -268 2159 -268 ct 2129 -268 2105 -256 2086 -233 ct 
1982 -233 l  2001 -534 l  2322 -534 l  2322 -455 l  2098 -455 l  2089 -320 l 
2115 -343 2147 -354 2186 -354 ct 2236 -354 2277 -338 2307 -307 ct 2338 -275 2353 -232 2353 -178 ct 
p ef
2428 0 m  2428 -116 l  2537 -116 l  2537 0 l  2428 0 l  p ef
2947 -109 m  2947 0 l  2846 0 l  2846 -109 l  2603 -109 l  2603 -189 l 
2828 -535 l  2947 -535 l  2947 -188 l  3018 -188 l  3018 -109 l  2947 -109 l 
p
2846 -363 m  2846 -377 2846 -392 2847 -408 ct 2848 -423 2849 -434 2849 -438 ct 
2842 -424 2831 -404 2813 -377 ct 2690 -188 l  2846 -188 l  2846 -363 l  p ef
pom
pum
1008 9557 t
571 -269 m  571 -214 560 -165 538 -122 ct 516 -80 485 -48 444 -26 ct 403 -3 355 8 300 8 ct 
217 8 151 -17 103 -66 ct 56 -116 32 -183 32 -269 ct 32 -355 56 -422 103 -470 ct 
151 -518 217 -542 301 -542 ct 386 -542 452 -518 500 -469 ct 547 -421 571 -354 571 -269 ct 
p
457 -269 m  457 -327 443 -372 416 -405 ct 389 -438 351 -454 301 -454 ct 251 -454 213 -438 185 -405 ct 
158 -373 144 -327 144 -269 ct 144 -211 158 -164 186 -131 ct 214 -97 252 -80 300 -80 ct 
350 -80 389 -96 416 -129 ct 443 -162 457 -209 457 -269 ct p ef
1172 -269 m  1172 -198 1155 -139 1120 -91 ct 1085 -44 1036 -14 973 -1 ct 982 24 994 42 1010 53 ct 
1025 64 1047 70 1075 70 ct 1090 70 1105 68 1120 66 ct 1119 142 l  1088 149 1057 153 1028 153 ct 
986 153 952 141 925 119 ct 898 95 877 57 860 4 ct 788 -3 732 -30 693 -78 ct 653 -127 633 -190 633 -269 ct 
633 -355 657 -422 704 -470 ct 752 -518 818 -542 902 -542 ct 987 -542 1053 -518 1101 -469 ct 
1148 -421 1172 -354 1172 -269 ct p
1058 -269 m  1058 -327 1044 -372 1017 -405 ct 990 -438 952 -454 902 -454 ct 
852 -454 814 -438 786 -405 ct 759 -373 745 -328 745 -269 ct 745 -211 759 -164 787 -131 ct 
815 -97 853 -80 901 -80 ct 951 -80 990 -96 1017 -129 ct 1044 -162 1058 -209 1058 -269 ct 
p ef
1693 -365 m  1693 -331 1685 -300 1670 -273 ct 1654 -246 1631 -225 1602 -210 ct 
1573 -195 1538 -188 1498 -188 ct 1366 -188 l  1366 0 l  1254 0 l  1254 -534 l 
1494 -534 l  1558 -534 1607 -519 1641 -490 ct 1676 -460 1693 -419 1693 -365 ct 
p
1581 -363 m  1581 -419 1547 -447 1481 -447 ct 1366 -447 l  1366 -274 l  1484 -274 l 
1515 -274 1539 -282 1556 -297 ct 1572 -312 1581 -334 1581 -363 ct p ef
2206 -154 m  2206 -101 2187 -61 2148 -34 ct 2109 -6 2052 8 1977 8 ct 1909 8 1855 -4 1816 -28 ct 
1777 -53 1752 -89 1741 -139 ct 1849 -157 l  1857 -128 1871 -108 1892 -95 ct 
1913 -82 1943 -76 1980 -76 ct 2059 -76 2098 -100 2098 -147 ct 2098 -162 2093 -175 2084 -185 ct 
2075 -195 2062 -203 2046 -209 ct 2030 -216 1999 -224 1952 -233 ct 1913 -243 1885 -250 1869 -256 ct 
1853 -262 1839 -268 1827 -276 ct 1814 -284 1803 -293 1794 -304 ct 1786 -315 1779 -327 1774 -342 ct 
1769 -357 1766 -374 1766 -393 ct 1766 -441 1784 -478 1821 -504 ct 1857 -529 1910 -542 1979 -542 ct 
2045 -542 2095 -532 2128 -511 ct 2161 -490 2183 -456 2192 -408 ct 2084 -393 l 
2078 -416 2067 -434 2050 -445 ct 2033 -457 2008 -463 1977 -463 ct 1909 -463 1875 -441 1875 -399 ct 
1875 -385 1879 -374 1886 -365 ct 1893 -356 1904 -349 1918 -342 ct 1932 -336 1961 -328 2004 -319 ct 
2055 -308 2092 -298 2114 -289 ct 2136 -280 2154 -269 2166 -257 ct 2179 -244 2189 -230 2196 -213 ct 
2203 -196 2206 -176 2206 -154 ct p ef
2656 0 m  2465 -245 l  2399 -195 l  2399 0 l  2287 0 l  2287 -534 l  2399 -534 l 
2399 -292 l  2639 -534 l  2770 -534 l  2542 -308 l  2788 0 l  2656 0 l 
p ef
pom
gr
gs
0 0 m 29692 0 l 29692 13385 l 0 13385 l 0 0 l eoclip newpath
gr
gr
0 13386 t 
pom
count op_count sub {pop} repeat countdictstack dict_count sub {end} repeat b4_inc_state restore
%%PageTrailer
%%Trailer
%%EOF
