%!PS-Adobe-3.0 EPSF-3.0
%%Title: ../figures/net_churn_agri.eps
%%Creator: matplotlib version 2.0.0, http://matplotlib.org/
%%CreationDate: Wed Apr 26 17:12:46 2017
%%Orientation: portrait
%%BoundingBox: 97 263 514 528
%%EndComments
%%BeginProlog
/mpldict 8 dict def
mpldict begin
/m { moveto } bind def
/l { lineto } bind def
/r { rlineto } bind def
/c { curveto } bind def
/cl { closepath } bind def
/box {
m
1 index 0 r
0 exch r
neg 0 r
cl
} bind def
/clipbox {
box
clip
newpath
} bind def
%!PS-Adobe-3.0 Resource-Font
%%Title: DejaVu Sans
%%Copyright: Copyright (c) 2003 by Bitstream, Inc. All Rights Reserved. Copyright (c) 2006 by Tavmjong Bah. All Rights Reserved. DejaVu changes are in public domain 
%%Creator: Converted from TrueType to type 3 by PPR
25 dict begin
/_d{bind def}bind def
/_m{moveto}_d
/_l{lineto}_d
/_cl{closepath eofill}_d
/_c{curveto}_d
/_sc{7 -1 roll{setcachedevice}{pop pop pop pop pop pop}ifelse}_d
/_e{exec}_d
/FontName /DejaVuSans def
/PaintType 0 def
/FontMatrix[.001 0 0 .001 0 0]def
/FontBBox[-1021 -463 1793 1232]def
/FontType 3 def
/Encoding [ /space /quotedbl /hyphen /slash /zero /one /two /three /four /five /six /seven /eight /underscore /a /b /c /d /e /f /h /i /k /l /m /n /o /p /r /s /t /u /v /y /minus ] def
/FontInfo 10 dict dup begin
/FamilyName (DejaVu Sans) def
/FullName (DejaVu Sans) def
/Notice (Copyright (c) 2003 by Bitstream, Inc. All Rights Reserved. Copyright (c) 2006 by Tavmjong Bah. All Rights Reserved. DejaVu changes are in public domain ) def
/Weight (Book) def
/Version (Version 2.35) def
/ItalicAngle 0.0 def
/isFixedPitch false def
/UnderlinePosition -130 def
/UnderlineThickness 90 def
end readonly def
/CharStrings 35 dict dup begin
/space{318 0 0 0 0 0 _sc
}_d
/quotedbl{460 0 96 458 364 729 _sc
179 729 _m
179 458 _l
96 458 _l
96 729 _l
179 729 _l
364 729 _m
364 458 _l
281 458 _l
281 729 _l
364 729 _l
_cl}_d
/hyphen{361 0 49 234 312 314 _sc
49 314 _m
312 314 _l
312 234 _l
49 234 _l
49 314 _l
_cl}_d
/slash{337 0 0 -92 337 729 _sc
254 729 _m
337 729 _l
83 -92 _l
0 -92 _l
254 729 _l
_cl}_d
/zero{636 0 66 -13 570 742 _sc
318 664 _m
267 664 229 639 203 589 _c
177 539 165 464 165 364 _c
165 264 177 189 203 139 _c
229 89 267 64 318 64 _c
369 64 407 89 433 139 _c
458 189 471 264 471 364 _c
471 464 458 539 433 589 _c
407 639 369 664 318 664 _c
318 742 _m
399 742 461 709 505 645 _c
548 580 570 486 570 364 _c
570 241 548 147 505 83 _c
461 19 399 -13 318 -13 _c
236 -13 173 19 130 83 _c
87 147 66 241 66 364 _c
66 486 87 580 130 645 _c
173 709 236 742 318 742 _c
_cl}_d
/one{636 0 110 0 544 729 _sc
124 83 _m
285 83 _l
285 639 _l
110 604 _l
110 694 _l
284 729 _l
383 729 _l
383 83 _l
544 83 _l
544 0 _l
124 0 _l
124 83 _l
_cl}_d
/two{{636 0 73 0 536 742 _sc
192 83 _m
536 83 _l
536 0 _l
73 0 _l
73 83 _l
110 121 161 173 226 239 _c
290 304 331 346 348 365 _c
380 400 402 430 414 455 _c
426 479 433 504 433 528 _c
433 566 419 598 392 622 _c
365 646 330 659 286 659 _c
255 659 222 653 188 643 _c
154 632 117 616 78 594 _c
78 694 _l
118 710 155 722 189 730 _c
223 738 255 742 284 742 _c
}_e{359 742 419 723 464 685 _c
509 647 532 597 532 534 _c
532 504 526 475 515 449 _c
504 422 484 390 454 354 _c
446 344 420 317 376 272 _c
332 227 271 164 192 83 _c
_cl}_e}_d
/three{{636 0 76 -13 556 742 _sc
406 393 _m
453 383 490 362 516 330 _c
542 298 556 258 556 212 _c
556 140 531 84 482 45 _c
432 6 362 -13 271 -13 _c
240 -13 208 -10 176 -4 _c
144 1 110 10 76 22 _c
76 117 _l
103 101 133 89 166 81 _c
198 73 232 69 268 69 _c
330 69 377 81 409 105 _c
441 129 458 165 458 212 _c
458 254 443 288 413 312 _c
383 336 341 349 287 349 _c
}_e{202 349 _l
202 430 _l
291 430 _l
339 430 376 439 402 459 _c
428 478 441 506 441 543 _c
441 580 427 609 401 629 _c
374 649 336 659 287 659 _c
260 659 231 656 200 650 _c
169 644 135 635 98 623 _c
98 711 _l
135 721 170 729 203 734 _c
235 739 266 742 296 742 _c
370 742 429 725 473 691 _c
517 657 539 611 539 553 _c
539 513 527 479 504 451 _c
481 423 448 403 406 393 _c
_cl}_e}_d
/four{636 0 49 0 580 729 _sc
378 643 _m
129 254 _l
378 254 _l
378 643 _l
352 729 _m
476 729 _l
476 254 _l
580 254 _l
580 172 _l
476 172 _l
476 0 _l
378 0 _l
378 172 _l
49 172 _l
49 267 _l
352 729 _l
_cl}_d
/five{{636 0 77 -13 549 729 _sc
108 729 _m
495 729 _l
495 646 _l
198 646 _l
198 467 _l
212 472 227 476 241 478 _c
255 480 270 482 284 482 _c
365 482 429 459 477 415 _c
525 370 549 310 549 234 _c
549 155 524 94 475 51 _c
426 8 357 -13 269 -13 _c
238 -13 207 -10 175 -6 _c
143 -1 111 6 77 17 _c
77 116 _l
106 100 136 88 168 80 _c
199 72 232 69 267 69 _c
}_e{323 69 368 83 401 113 _c
433 143 450 183 450 234 _c
450 284 433 324 401 354 _c
368 384 323 399 267 399 _c
241 399 214 396 188 390 _c
162 384 135 375 108 363 _c
108 729 _l
_cl}_e}_d
/six{{636 0 70 -13 573 742 _sc
330 404 _m
286 404 251 388 225 358 _c
199 328 186 286 186 234 _c
186 181 199 139 225 109 _c
251 79 286 64 330 64 _c
374 64 409 79 435 109 _c
461 139 474 181 474 234 _c
474 286 461 328 435 358 _c
409 388 374 404 330 404 _c
526 713 _m
526 623 _l
501 635 476 644 451 650 _c
425 656 400 659 376 659 _c
310 659 260 637 226 593 _c
}_e{192 549 172 482 168 394 _c
187 422 211 444 240 459 _c
269 474 301 482 336 482 _c
409 482 467 459 509 415 _c
551 371 573 310 573 234 _c
573 159 550 99 506 54 _c
462 9 403 -13 330 -13 _c
246 -13 181 19 137 83 _c
92 147 70 241 70 364 _c
70 479 97 571 152 639 _c
206 707 280 742 372 742 _c
396 742 421 739 447 735 _c
472 730 498 723 526 713 _c
_cl}_e}_d
/seven{636 0 82 0 551 729 _sc
82 729 _m
551 729 _l
551 687 _l
286 0 _l
183 0 _l
432 646 _l
82 646 _l
82 729 _l
_cl}_d
/eight{{636 0 68 -13 568 742 _sc
318 346 _m
271 346 234 333 207 308 _c
180 283 167 249 167 205 _c
167 161 180 126 207 101 _c
234 76 271 64 318 64 _c
364 64 401 76 428 102 _c
455 127 469 161 469 205 _c
469 249 455 283 429 308 _c
402 333 365 346 318 346 _c
219 388 _m
177 398 144 418 120 447 _c
96 476 85 511 85 553 _c
85 611 105 657 147 691 _c
188 725 245 742 318 742 _c
}_e{390 742 447 725 489 691 _c
530 657 551 611 551 553 _c
551 511 539 476 515 447 _c
491 418 459 398 417 388 _c
464 377 501 355 528 323 _c
554 291 568 251 568 205 _c
568 134 546 80 503 43 _c
459 5 398 -13 318 -13 _c
237 -13 175 5 132 43 _c
89 80 68 134 68 205 _c
68 251 81 291 108 323 _c
134 355 171 377 219 388 _c
183 544 _m
183 506 194 476 218 455 _c
}_e{242 434 275 424 318 424 _c
360 424 393 434 417 455 _c
441 476 453 506 453 544 _c
453 582 441 611 417 632 _c
393 653 360 664 318 664 _c
275 664 242 653 218 632 _c
194 611 183 582 183 544 _c
_cl}_e}_d
/underscore{500 0 -9 -235 510 -165 _sc
510 -165 _m
510 -235 _l
-9 -235 _l
-9 -165 _l
510 -165 _l
_cl}_d
/a{{613 0 60 -13 522 560 _sc
343 275 _m
270 275 220 266 192 250 _c
164 233 150 205 150 165 _c
150 133 160 107 181 89 _c
202 70 231 61 267 61 _c
317 61 357 78 387 114 _c
417 149 432 196 432 255 _c
432 275 _l
343 275 _l
522 312 _m
522 0 _l
432 0 _l
432 83 _l
411 49 385 25 355 10 _c
325 -5 287 -13 243 -13 _c
187 -13 142 2 109 33 _c
76 64 60 106 60 159 _c
}_e{60 220 80 266 122 298 _c
163 329 224 345 306 345 _c
432 345 _l
432 354 _l
432 395 418 427 391 450 _c
364 472 326 484 277 484 _c
245 484 215 480 185 472 _c
155 464 127 453 100 439 _c
100 522 _l
132 534 164 544 195 550 _c
226 556 256 560 286 560 _c
365 560 424 539 463 498 _c
502 457 522 395 522 312 _c
_cl}_e}_d
/b{{635 0 91 -13 580 760 _sc
487 273 _m
487 339 473 390 446 428 _c
418 466 381 485 334 485 _c
286 485 249 466 222 428 _c
194 390 181 339 181 273 _c
181 207 194 155 222 117 _c
249 79 286 61 334 61 _c
381 61 418 79 446 117 _c
473 155 487 207 487 273 _c
181 464 _m
199 496 223 520 252 536 _c
281 552 316 560 356 560 _c
422 560 476 533 518 481 _c
559 428 580 359 580 273 _c
}_e{580 187 559 117 518 65 _c
476 13 422 -13 356 -13 _c
316 -13 281 -5 252 10 _c
223 25 199 49 181 82 _c
181 0 _l
91 0 _l
91 760 _l
181 760 _l
181 464 _l
_cl}_e}_d
/c{{550 0 55 -13 488 560 _sc
488 526 _m
488 442 _l
462 456 437 466 411 473 _c
385 480 360 484 334 484 _c
276 484 230 465 198 428 _c
166 391 150 339 150 273 _c
150 206 166 154 198 117 _c
230 80 276 62 334 62 _c
360 62 385 65 411 72 _c
437 79 462 90 488 104 _c
488 21 _l
462 9 436 0 410 -5 _c
383 -10 354 -13 324 -13 _c
242 -13 176 12 128 64 _c
}_e{79 115 55 185 55 273 _c
55 362 79 432 128 483 _c
177 534 244 560 330 560 _c
358 560 385 557 411 551 _c
437 545 463 537 488 526 _c
_cl}_e}_d
/d{{635 0 55 -13 544 760 _sc
454 464 _m
454 760 _l
544 760 _l
544 0 _l
454 0 _l
454 82 _l
435 49 411 25 382 10 _c
353 -5 319 -13 279 -13 _c
213 -13 159 13 117 65 _c
75 117 55 187 55 273 _c
55 359 75 428 117 481 _c
159 533 213 560 279 560 _c
319 560 353 552 382 536 _c
411 520 435 496 454 464 _c
148 273 _m
148 207 161 155 188 117 _c
215 79 253 61 301 61 _c
}_e{348 61 385 79 413 117 _c
440 155 454 207 454 273 _c
454 339 440 390 413 428 _c
385 466 348 485 301 485 _c
253 485 215 466 188 428 _c
161 390 148 339 148 273 _c
_cl}_e}_d
/e{{615 0 55 -13 562 560 _sc
562 296 _m
562 252 _l
149 252 _l
153 190 171 142 205 110 _c
238 78 284 62 344 62 _c
378 62 412 66 444 74 _c
476 82 509 95 541 113 _c
541 28 _l
509 14 476 3 442 -3 _c
408 -9 373 -13 339 -13 _c
251 -13 182 12 131 62 _c
80 112 55 181 55 268 _c
55 357 79 428 127 481 _c
175 533 241 560 323 560 _c
397 560 455 536 498 489 _c
}_e{540 441 562 377 562 296 _c
472 322 _m
471 371 457 410 431 440 _c
404 469 368 484 324 484 _c
274 484 234 469 204 441 _c
174 413 156 373 152 322 _c
472 322 _l
_cl}_e}_d
/f{352 0 23 0 371 760 _sc
371 760 _m
371 685 _l
285 685 _l
253 685 230 678 218 665 _c
205 652 199 629 199 595 _c
199 547 _l
347 547 _l
347 477 _l
199 477 _l
199 0 _l
109 0 _l
109 477 _l
23 477 _l
23 547 _l
109 547 _l
109 585 _l
109 645 123 690 151 718 _c
179 746 224 760 286 760 _c
371 760 _l
_cl}_d
/h{634 0 91 0 549 760 _sc
549 330 _m
549 0 _l
459 0 _l
459 327 _l
459 379 448 417 428 443 _c
408 469 378 482 338 482 _c
289 482 251 466 223 435 _c
195 404 181 362 181 309 _c
181 0 _l
91 0 _l
91 760 _l
181 760 _l
181 462 _l
202 494 227 519 257 535 _c
286 551 320 560 358 560 _c
420 560 468 540 500 501 _c
532 462 549 405 549 330 _c
_cl}_d
/i{278 0 94 0 184 760 _sc
94 547 _m
184 547 _l
184 0 _l
94 0 _l
94 547 _l
94 760 _m
184 760 _l
184 646 _l
94 646 _l
94 760 _l
_cl}_d
/k{579 0 91 0 576 760 _sc
91 760 _m
181 760 _l
181 311 _l
449 547 _l
564 547 _l
274 291 _l
576 0 _l
459 0 _l
181 267 _l
181 0 _l
91 0 _l
91 760 _l
_cl}_d
/l{278 0 94 0 184 760 _sc
94 760 _m
184 760 _l
184 0 _l
94 0 _l
94 760 _l
_cl}_d
/m{{974 0 91 0 889 560 _sc
520 442 _m
542 482 569 511 600 531 _c
631 550 668 560 711 560 _c
767 560 811 540 842 500 _c
873 460 889 403 889 330 _c
889 0 _l
799 0 _l
799 327 _l
799 379 789 418 771 444 _c
752 469 724 482 686 482 _c
639 482 602 466 575 435 _c
548 404 535 362 535 309 _c
535 0 _l
445 0 _l
445 327 _l
445 379 435 418 417 444 _c
398 469 369 482 331 482 _c
}_e{285 482 248 466 221 435 _c
194 404 181 362 181 309 _c
181 0 _l
91 0 _l
91 547 _l
181 547 _l
181 462 _l
201 495 226 520 255 536 _c
283 552 317 560 357 560 _c
397 560 430 550 458 530 _c
486 510 506 480 520 442 _c
_cl}_e}_d
/n{634 0 91 0 549 560 _sc
549 330 _m
549 0 _l
459 0 _l
459 327 _l
459 379 448 417 428 443 _c
408 469 378 482 338 482 _c
289 482 251 466 223 435 _c
195 404 181 362 181 309 _c
181 0 _l
91 0 _l
91 547 _l
181 547 _l
181 462 _l
202 494 227 519 257 535 _c
286 551 320 560 358 560 _c
420 560 468 540 500 501 _c
532 462 549 405 549 330 _c
_cl}_d
/o{612 0 55 -13 557 560 _sc
306 484 _m
258 484 220 465 192 427 _c
164 389 150 338 150 273 _c
150 207 163 156 191 118 _c
219 80 257 62 306 62 _c
354 62 392 80 420 118 _c
448 156 462 207 462 273 _c
462 337 448 389 420 427 _c
392 465 354 484 306 484 _c
306 560 _m
384 560 445 534 490 484 _c
534 433 557 363 557 273 _c
557 183 534 113 490 63 _c
445 12 384 -13 306 -13 _c
227 -13 165 12 121 63 _c
77 113 55 183 55 273 _c
55 363 77 433 121 484 _c
165 534 227 560 306 560 _c
_cl}_d
/p{{635 0 91 -207 580 560 _sc
181 82 _m
181 -207 _l
91 -207 _l
91 547 _l
181 547 _l
181 464 _l
199 496 223 520 252 536 _c
281 552 316 560 356 560 _c
422 560 476 533 518 481 _c
559 428 580 359 580 273 _c
580 187 559 117 518 65 _c
476 13 422 -13 356 -13 _c
316 -13 281 -5 252 10 _c
223 25 199 49 181 82 _c
487 273 _m
487 339 473 390 446 428 _c
418 466 381 485 334 485 _c
}_e{286 485 249 466 222 428 _c
194 390 181 339 181 273 _c
181 207 194 155 222 117 _c
249 79 286 61 334 61 _c
381 61 418 79 446 117 _c
473 155 487 207 487 273 _c
_cl}_e}_d
/r{411 0 91 0 411 560 _sc
411 463 _m
401 469 390 473 378 476 _c
366 478 353 480 339 480 _c
288 480 249 463 222 430 _c
194 397 181 350 181 288 _c
181 0 _l
91 0 _l
91 547 _l
181 547 _l
181 462 _l
199 495 224 520 254 536 _c
284 552 321 560 365 560 _c
371 560 378 559 386 559 _c
393 558 401 557 411 555 _c
411 463 _l
_cl}_d
/s{{521 0 54 -13 472 560 _sc
443 531 _m
443 446 _l
417 458 391 468 364 475 _c
336 481 308 485 279 485 _c
234 485 200 478 178 464 _c
156 450 145 430 145 403 _c
145 382 153 366 169 354 _c
185 342 217 330 265 320 _c
296 313 _l
360 299 405 279 432 255 _c
458 230 472 195 472 151 _c
472 100 452 60 412 31 _c
372 1 316 -13 246 -13 _c
216 -13 186 -10 154 -5 _c
}_e{122 0 89 8 54 20 _c
54 113 _l
87 95 120 82 152 74 _c
184 65 216 61 248 61 _c
290 61 323 68 346 82 _c
368 96 380 117 380 144 _c
380 168 371 187 355 200 _c
339 213 303 226 247 238 _c
216 245 _l
160 257 119 275 95 299 _c
70 323 58 356 58 399 _c
58 450 76 490 112 518 _c
148 546 200 560 268 560 _c
301 560 332 557 362 552 _c
391 547 418 540 443 531 _c
}_e{_cl}_e}_d
/t{392 0 27 0 368 702 _sc
183 702 _m
183 547 _l
368 547 _l
368 477 _l
183 477 _l
183 180 _l
183 135 189 106 201 94 _c
213 81 238 75 276 75 _c
368 75 _l
368 0 _l
276 0 _l
206 0 158 13 132 39 _c
106 65 93 112 93 180 _c
93 477 _l
27 477 _l
27 547 _l
93 547 _l
93 702 _l
183 702 _l
_cl}_d
/u{634 0 85 -13 543 560 _sc
85 216 _m
85 547 _l
175 547 _l
175 219 _l
175 167 185 129 205 103 _c
225 77 255 64 296 64 _c
344 64 383 79 411 110 _c
439 141 453 183 453 237 _c
453 547 _l
543 547 _l
543 0 _l
453 0 _l
453 84 _l
431 50 405 26 377 10 _c
348 -5 315 -13 277 -13 _c
214 -13 166 6 134 45 _c
101 83 85 140 85 216 _c
311 560 _m
311 560 _l
_cl}_d
/v{592 0 30 0 562 547 _sc
30 547 _m
125 547 _l
296 88 _l
467 547 _l
562 547 _l
357 0 _l
235 0 _l
30 547 _l
_cl}_d
/y{592 0 30 -207 562 547 _sc
322 -50 _m
296 -114 271 -157 247 -177 _c
223 -197 191 -207 151 -207 _c
79 -207 _l
79 -132 _l
132 -132 _l
156 -132 175 -126 189 -114 _c
203 -102 218 -75 235 -31 _c
251 9 _l
30 547 _l
125 547 _l
296 119 _l
467 547 _l
562 547 _l
322 -50 _l
_cl}_d
/minus{838 0 106 272 732 355 _sc
106 355 _m
732 355 _l
732 272 _l
106 272 _l
106 355 _l
_cl}_d
end readonly def

/BuildGlyph
 {exch begin
 CharStrings exch
 2 copy known not{pop /.notdef}if
 true 3 1 roll get exec
 end}_d

/BuildChar {
 1 index /Encoding get exch get
 1 index /BuildGlyph get exec
}_d

FontName currentdict end definefont pop
end
%%EndProlog
mpldict begin
97.792 263.083 translate
416.416 265.835 0 0 clipbox
gsave
0 0 m
416.415625 0 l
416.415625 265.834585 l
0 265.834585 l
cl
1.000 setgray
fill
grestore
gsave
41.765625 58.094839 m
412.915625 58.094839 l
412.915625 262.334585 l
41.765625 262.334585 l
cl
1.000 setgray
fill
grestore
gsave
371.1 204.2 41.77 58.09 clipbox
58.63608 79.880412 m
76.874409 79.880412 l
76.874409 85.326806 l
58.63608 85.326806 l
cl
1.000 0.647 0.000 setrgbcolor
fill
grestore
gsave
371.1 204.2 41.77 58.09 clipbox
81.433991 79.880412 m
99.67232 79.880412 l
99.67232 85.326806 l
81.433991 85.326806 l
cl
1.000 0.647 0.000 setrgbcolor
fill
grestore
gsave
371.1 204.2 41.77 58.09 clipbox
104.231903 79.880412 m
122.470232 79.880412 l
122.470232 85.326806 l
104.231903 85.326806 l
cl
1.000 0.647 0.000 setrgbcolor
fill
grestore
gsave
371.1 204.2 41.77 58.09 clipbox
127.029814 82.603609 m
145.268143 82.603609 l
145.268143 85.326806 l
127.029814 85.326806 l
cl
1.000 0.647 0.000 setrgbcolor
fill
grestore
gsave
371.1 204.2 41.77 58.09 clipbox
149.827726 79.880412 m
168.066055 79.880412 l
168.066055 85.326806 l
149.827726 85.326806 l
cl
1.000 0.647 0.000 setrgbcolor
fill
grestore
gsave
371.1 204.2 41.77 58.09 clipbox
172.625637 77.157216 m
190.863967 77.157216 l
190.863967 85.326806 l
172.625637 85.326806 l
cl
1.000 0.647 0.000 setrgbcolor
fill
grestore
gsave
371.1 204.2 41.77 58.09 clipbox
195.423549 74.434019 m
213.661878 74.434019 l
213.661878 85.326806 l
195.423549 85.326806 l
cl
1.000 0.647 0.000 setrgbcolor
fill
grestore
gsave
371.1 204.2 41.77 58.09 clipbox
218.22146 74.434019 m
236.45979 74.434019 l
236.45979 85.326806 l
218.22146 85.326806 l
cl
1.000 0.647 0.000 setrgbcolor
fill
grestore
gsave
371.1 204.2 41.77 58.09 clipbox
241.019372 79.880412 m
259.257701 79.880412 l
259.257701 85.326806 l
241.019372 85.326806 l
cl
1.000 0.647 0.000 setrgbcolor
fill
grestore
gsave
371.1 204.2 41.77 58.09 clipbox
263.817283 79.880412 m
282.055613 79.880412 l
282.055613 85.326806 l
263.817283 85.326806 l
cl
1.000 0.647 0.000 setrgbcolor
fill
grestore
gsave
371.1 204.2 41.77 58.09 clipbox
286.615195 77.157216 m
304.853524 77.157216 l
304.853524 85.326806 l
286.615195 85.326806 l
cl
1.000 0.647 0.000 setrgbcolor
fill
grestore
gsave
371.1 204.2 41.77 58.09 clipbox
309.413107 77.157216 m
327.651436 77.157216 l
327.651436 85.326806 l
309.413107 85.326806 l
cl
1.000 0.647 0.000 setrgbcolor
fill
grestore
gsave
371.1 204.2 41.77 58.09 clipbox
332.211018 79.880412 m
350.449347 79.880412 l
350.449347 85.326806 l
332.211018 85.326806 l
cl
1.000 0.647 0.000 setrgbcolor
fill
grestore
gsave
371.1 204.2 41.77 58.09 clipbox
355.00893 71.710823 m
373.247259 71.710823 l
373.247259 85.326806 l
355.00893 85.326806 l
cl
1.000 0.647 0.000 setrgbcolor
fill
grestore
gsave
371.1 204.2 41.77 58.09 clipbox
377.806841 77.157216 m
396.04517 77.157216 l
396.04517 85.326806 l
377.806841 85.326806 l
cl
1.000 0.647 0.000 setrgbcolor
fill
grestore
gsave
371.1 204.2 41.77 58.09 clipbox
58.63608 85.326806 m
76.874409 85.326806 l
76.874409 90.773199 l
58.63608 90.773199 l
cl
0.000 0.500 0.000 setrgbcolor
fill
grestore
gsave
371.1 204.2 41.77 58.09 clipbox
81.433991 85.326806 m
99.67232 85.326806 l
99.67232 96.219592 l
81.433991 96.219592 l
cl
0.000 0.500 0.000 setrgbcolor
fill
grestore
gsave
371.1 204.2 41.77 58.09 clipbox
104.231903 85.326806 m
122.470232 85.326806 l
122.470232 90.773199 l
104.231903 90.773199 l
cl
0.000 0.500 0.000 setrgbcolor
fill
grestore
gsave
371.1 204.2 41.77 58.09 clipbox
127.029814 85.326806 m
145.268143 85.326806 l
145.268143 88.050002 l
127.029814 88.050002 l
cl
0.000 0.500 0.000 setrgbcolor
fill
grestore
gsave
371.1 204.2 41.77 58.09 clipbox
149.827726 85.326806 m
168.066055 85.326806 l
168.066055 90.773199 l
149.827726 90.773199 l
cl
0.000 0.500 0.000 setrgbcolor
fill
grestore
gsave
371.1 204.2 41.77 58.09 clipbox
172.625637 85.326806 m
190.863967 85.326806 l
190.863967 93.496395 l
172.625637 93.496395 l
cl
0.000 0.500 0.000 setrgbcolor
fill
grestore
gsave
371.1 204.2 41.77 58.09 clipbox
195.423549 85.326806 m
213.661878 85.326806 l
213.661878 90.773199 l
195.423549 90.773199 l
cl
0.000 0.500 0.000 setrgbcolor
fill
grestore
gsave
371.1 204.2 41.77 58.09 clipbox
218.22146 85.326806 m
236.45979 85.326806 l
236.45979 93.496395 l
218.22146 93.496395 l
cl
0.000 0.500 0.000 setrgbcolor
fill
grestore
gsave
371.1 204.2 41.77 58.09 clipbox
241.019372 85.326806 m
259.257701 85.326806 l
259.257701 93.496395 l
241.019372 93.496395 l
cl
0.000 0.500 0.000 setrgbcolor
fill
grestore
gsave
371.1 204.2 41.77 58.09 clipbox
263.817283 85.326806 m
282.055613 85.326806 l
282.055613 96.219592 l
263.817283 96.219592 l
cl
0.000 0.500 0.000 setrgbcolor
fill
grestore
gsave
371.1 204.2 41.77 58.09 clipbox
286.615195 85.326806 m
304.853524 85.326806 l
304.853524 98.942789 l
286.615195 98.942789 l
cl
0.000 0.500 0.000 setrgbcolor
fill
grestore
gsave
371.1 204.2 41.77 58.09 clipbox
309.413107 85.326806 m
327.651436 85.326806 l
327.651436 90.773199 l
309.413107 90.773199 l
cl
0.000 0.500 0.000 setrgbcolor
fill
grestore
gsave
371.1 204.2 41.77 58.09 clipbox
332.211018 85.326806 m
350.449347 85.326806 l
350.449347 90.773199 l
332.211018 90.773199 l
cl
0.000 0.500 0.000 setrgbcolor
fill
grestore
gsave
371.1 204.2 41.77 58.09 clipbox
355.00893 85.326806 m
373.247259 85.326806 l
373.247259 98.942789 l
355.00893 98.942789 l
cl
0.000 0.500 0.000 setrgbcolor
fill
grestore
gsave
371.1 204.2 41.77 58.09 clipbox
377.806841 85.326806 m
396.04517 85.326806 l
396.04517 93.496395 l
377.806841 93.496395 l
cl
0.000 0.500 0.000 setrgbcolor
fill
grestore
0.800 setlinewidth
1 setlinejoin
2 setlinecap
[] 0 setdash
0.690 setgray
gsave
371.1 204.2 41.77 58.09 clipbox
67.755244 58.094839 m
67.755244 262.334585 l
stroke
grestore
0 setlinecap
0.000 setgray
gsave
/o {
gsave
newpath
translate
0.8 setlinewidth
1 setlinejoin
0 setlinecap
0 0 m
0 -3.5 l

gsave
0.000 setgray
fill
grestore
stroke
grestore
} bind def
67.7552 58.0948 o
grestore
/DejaVuSans findfont
10.000 scalefont
setfont
gsave
16.405518 15.471584 translate
30.000000 rotate
0.000000 0.000000 m /two glyphshow
6.362305 0.000000 m /zero glyphshow
12.724609 0.000000 m /one glyphshow
19.086914 0.000000 m /six glyphshow
25.449219 0.000000 m /hyphen glyphshow
29.057617 0.000000 m /zero glyphshow
35.419922 0.000000 m /six glyphshow
41.782227 0.000000 m /hyphen glyphshow
45.390625 0.000000 m /two glyphshow
51.752930 0.000000 m /zero glyphshow
grestore
2 setlinecap
0.690 setgray
gsave
371.1 204.2 41.77 58.09 clipbox
113.351067 58.094839 m
113.351067 262.334585 l
stroke
grestore
0 setlinecap
0.000 setgray
gsave
/o {
gsave
newpath
translate
0.8 setlinewidth
1 setlinejoin
0 setlinecap
0 0 m
0 -3.5 l

gsave
0.000 setgray
fill
grestore
stroke
grestore
} bind def
113.351 58.0948 o
grestore
gsave
62.001341 15.471584 translate
30.000000 rotate
0.000000 0.000000 m /two glyphshow
6.362305 0.000000 m /zero glyphshow
12.724609 0.000000 m /one glyphshow
19.086914 0.000000 m /six glyphshow
25.449219 0.000000 m /hyphen glyphshow
29.057617 0.000000 m /zero glyphshow
35.419922 0.000000 m /six glyphshow
41.782227 0.000000 m /hyphen glyphshow
45.390625 0.000000 m /two glyphshow
51.752930 0.000000 m /two glyphshow
grestore
2 setlinecap
0.690 setgray
gsave
371.1 204.2 41.77 58.09 clipbox
158.94689 58.094839 m
158.94689 262.334585 l
stroke
grestore
0 setlinecap
0.000 setgray
gsave
/o {
gsave
newpath
translate
0.8 setlinewidth
1 setlinejoin
0 setlinecap
0 0 m
0 -3.5 l

gsave
0.000 setgray
fill
grestore
stroke
grestore
} bind def
158.947 58.0948 o
grestore
gsave
107.597165 15.471584 translate
30.000000 rotate
0.000000 0.000000 m /two glyphshow
6.362305 0.000000 m /zero glyphshow
12.724609 0.000000 m /one glyphshow
19.086914 0.000000 m /six glyphshow
25.449219 0.000000 m /hyphen glyphshow
29.057617 0.000000 m /zero glyphshow
35.419922 0.000000 m /six glyphshow
41.782227 0.000000 m /hyphen glyphshow
45.390625 0.000000 m /two glyphshow
51.752930 0.000000 m /four glyphshow
grestore
2 setlinecap
0.690 setgray
gsave
371.1 204.2 41.77 58.09 clipbox
204.542713 58.094839 m
204.542713 262.334585 l
stroke
grestore
0 setlinecap
0.000 setgray
gsave
/o {
gsave
newpath
translate
0.8 setlinewidth
1 setlinejoin
0 setlinecap
0 0 m
0 -3.5 l

gsave
0.000 setgray
fill
grestore
stroke
grestore
} bind def
204.543 58.0948 o
grestore
gsave
153.192988 15.471584 translate
30.000000 rotate
0.000000 0.000000 m /two glyphshow
6.362305 0.000000 m /zero glyphshow
12.724609 0.000000 m /one glyphshow
19.086914 0.000000 m /six glyphshow
25.449219 0.000000 m /hyphen glyphshow
29.057617 0.000000 m /zero glyphshow
35.419922 0.000000 m /six glyphshow
41.782227 0.000000 m /hyphen glyphshow
45.390625 0.000000 m /two glyphshow
51.752930 0.000000 m /six glyphshow
grestore
2 setlinecap
0.690 setgray
gsave
371.1 204.2 41.77 58.09 clipbox
250.138537 58.094839 m
250.138537 262.334585 l
stroke
grestore
0 setlinecap
0.000 setgray
gsave
/o {
gsave
newpath
translate
0.8 setlinewidth
1 setlinejoin
0 setlinecap
0 0 m
0 -3.5 l

gsave
0.000 setgray
fill
grestore
stroke
grestore
} bind def
250.139 58.0948 o
grestore
gsave
198.788811 15.471584 translate
30.000000 rotate
0.000000 0.000000 m /two glyphshow
6.362305 0.000000 m /zero glyphshow
12.724609 0.000000 m /one glyphshow
19.086914 0.000000 m /six glyphshow
25.449219 0.000000 m /hyphen glyphshow
29.057617 0.000000 m /zero glyphshow
35.419922 0.000000 m /six glyphshow
41.782227 0.000000 m /hyphen glyphshow
45.390625 0.000000 m /two glyphshow
51.752930 0.000000 m /eight glyphshow
grestore
2 setlinecap
0.690 setgray
gsave
371.1 204.2 41.77 58.09 clipbox
295.73436 58.094839 m
295.73436 262.334585 l
stroke
grestore
0 setlinecap
0.000 setgray
gsave
/o {
gsave
newpath
translate
0.8 setlinewidth
1 setlinejoin
0 setlinecap
0 0 m
0 -3.5 l

gsave
0.000 setgray
fill
grestore
stroke
grestore
} bind def
295.734 58.0948 o
grestore
gsave
244.384634 15.471584 translate
30.000000 rotate
0.000000 0.000000 m /two glyphshow
6.362305 0.000000 m /zero glyphshow
12.724609 0.000000 m /one glyphshow
19.086914 0.000000 m /six glyphshow
25.449219 0.000000 m /hyphen glyphshow
29.057617 0.000000 m /zero glyphshow
35.419922 0.000000 m /six glyphshow
41.782227 0.000000 m /hyphen glyphshow
45.390625 0.000000 m /three glyphshow
51.752930 0.000000 m /zero glyphshow
grestore
2 setlinecap
0.690 setgray
gsave
371.1 204.2 41.77 58.09 clipbox
341.330183 58.094839 m
341.330183 262.334585 l
stroke
grestore
0 setlinecap
0.000 setgray
gsave
/o {
gsave
newpath
translate
0.8 setlinewidth
1 setlinejoin
0 setlinecap
0 0 m
0 -3.5 l

gsave
0.000 setgray
fill
grestore
stroke
grestore
} bind def
341.33 58.0948 o
grestore
gsave
289.980457 15.471584 translate
30.000000 rotate
0.000000 0.000000 m /two glyphshow
6.362305 0.000000 m /zero glyphshow
12.724609 0.000000 m /one glyphshow
19.086914 0.000000 m /six glyphshow
25.449219 0.000000 m /hyphen glyphshow
29.057617 0.000000 m /zero glyphshow
35.419922 0.000000 m /seven glyphshow
41.782227 0.000000 m /hyphen glyphshow
45.390625 0.000000 m /zero glyphshow
51.752930 0.000000 m /two glyphshow
grestore
2 setlinecap
0.690 setgray
gsave
371.1 204.2 41.77 58.09 clipbox
386.926006 58.094839 m
386.926006 262.334585 l
stroke
grestore
0 setlinecap
0.000 setgray
gsave
/o {
gsave
newpath
translate
0.8 setlinewidth
1 setlinejoin
0 setlinecap
0 0 m
0 -3.5 l

gsave
0.000 setgray
fill
grestore
stroke
grestore
} bind def
386.926 58.0948 o
grestore
gsave
335.576280 15.471584 translate
30.000000 rotate
0.000000 0.000000 m /two glyphshow
6.362305 0.000000 m /zero glyphshow
12.724609 0.000000 m /one glyphshow
19.086914 0.000000 m /six glyphshow
25.449219 0.000000 m /hyphen glyphshow
29.057617 0.000000 m /zero glyphshow
35.419922 0.000000 m /seven glyphshow
41.782227 0.000000 m /hyphen glyphshow
45.390625 0.000000 m /zero glyphshow
51.752930 0.000000 m /four glyphshow
grestore
gsave
216.067187 2.078125 translate
0.000000 rotate
0.000000 0.000000 m /d glyphshow
6.347656 0.000000 m /a glyphshow
12.475586 0.000000 m /t glyphshow
16.396484 0.000000 m /e glyphshow
grestore
2 setlinecap
0.690 setgray
gsave
371.1 204.2 41.77 58.09 clipbox
41.765625 58.094839 m
412.915625 58.094839 l
stroke
grestore
0 setlinecap
0.000 setgray
gsave
/o {
gsave
newpath
translate
0.8 setlinewidth
1 setlinejoin
0 setlinecap
0 0 m
-3.5 0 l

gsave
0.000 setgray
fill
grestore
stroke
grestore
} bind def
41.7656 58.0948 o
grestore
gsave
13.671875 54.297964 translate
0.000000 rotate
0.000000 0.000000 m /minus glyphshow
8.378906 0.000000 m /one glyphshow
14.741211 0.000000 m /zero glyphshow
grestore
2 setlinecap
0.690 setgray
gsave
371.1 204.2 41.77 58.09 clipbox
41.765625 85.326806 m
412.915625 85.326806 l
stroke
grestore
0 setlinecap
0.000 setgray
gsave
/o {
gsave
newpath
translate
0.8 setlinewidth
1 setlinejoin
0 setlinecap
0 0 m
-3.5 0 l

gsave
0.000 setgray
fill
grestore
stroke
grestore
} bind def
41.7656 85.3268 o
grestore
gsave
28.406250 81.529931 translate
0.000000 rotate
0.000000 0.000000 m /zero glyphshow
grestore
2 setlinecap
0.690 setgray
gsave
371.1 204.2 41.77 58.09 clipbox
41.765625 112.558772 m
412.915625 112.558772 l
stroke
grestore
0 setlinecap
0.000 setgray
gsave
/o {
gsave
newpath
translate
0.8 setlinewidth
1 setlinejoin
0 setlinecap
0 0 m
-3.5 0 l

gsave
0.000 setgray
fill
grestore
stroke
grestore
} bind def
41.7656 112.559 o
grestore
gsave
22.046875 108.761897 translate
0.000000 rotate
0.000000 0.000000 m /one glyphshow
6.362305 0.000000 m /zero glyphshow
grestore
2 setlinecap
0.690 setgray
gsave
371.1 204.2 41.77 58.09 clipbox
41.765625 139.790738 m
412.915625 139.790738 l
stroke
grestore
0 setlinecap
0.000 setgray
gsave
/o {
gsave
newpath
translate
0.8 setlinewidth
1 setlinejoin
0 setlinecap
0 0 m
-3.5 0 l

gsave
0.000 setgray
fill
grestore
stroke
grestore
} bind def
41.7656 139.791 o
grestore
gsave
22.046875 135.993863 translate
0.000000 rotate
0.000000 0.000000 m /two glyphshow
6.362305 0.000000 m /zero glyphshow
grestore
2 setlinecap
0.690 setgray
gsave
371.1 204.2 41.77 58.09 clipbox
41.765625 167.022704 m
412.915625 167.022704 l
stroke
grestore
0 setlinecap
0.000 setgray
gsave
/o {
gsave
newpath
translate
0.8 setlinewidth
1 setlinejoin
0 setlinecap
0 0 m
-3.5 0 l

gsave
0.000 setgray
fill
grestore
stroke
grestore
} bind def
41.7656 167.023 o
grestore
gsave
22.046875 163.225829 translate
0.000000 rotate
0.000000 0.000000 m /three glyphshow
6.362305 0.000000 m /zero glyphshow
grestore
2 setlinecap
0.690 setgray
gsave
371.1 204.2 41.77 58.09 clipbox
41.765625 194.25467 m
412.915625 194.25467 l
stroke
grestore
0 setlinecap
0.000 setgray
gsave
/o {
gsave
newpath
translate
0.8 setlinewidth
1 setlinejoin
0 setlinecap
0 0 m
-3.5 0 l

gsave
0.000 setgray
fill
grestore
stroke
grestore
} bind def
41.7656 194.255 o
grestore
gsave
22.046875 190.457795 translate
0.000000 rotate
0.000000 0.000000 m /four glyphshow
6.362305 0.000000 m /zero glyphshow
grestore
2 setlinecap
0.690 setgray
gsave
371.1 204.2 41.77 58.09 clipbox
41.765625 221.486636 m
412.915625 221.486636 l
stroke
grestore
0 setlinecap
0.000 setgray
gsave
/o {
gsave
newpath
translate
0.8 setlinewidth
1 setlinejoin
0 setlinecap
0 0 m
-3.5 0 l

gsave
0.000 setgray
fill
grestore
stroke
grestore
} bind def
41.7656 221.487 o
grestore
gsave
22.046875 217.689761 translate
0.000000 rotate
0.000000 0.000000 m /five glyphshow
6.362305 0.000000 m /zero glyphshow
grestore
2 setlinecap
0.690 setgray
gsave
371.1 204.2 41.77 58.09 clipbox
41.765625 248.718602 m
412.915625 248.718602 l
stroke
grestore
0 setlinecap
0.000 setgray
gsave
/o {
gsave
newpath
translate
0.8 setlinewidth
1 setlinejoin
0 setlinecap
0 0 m
-3.5 0 l

gsave
0.000 setgray
fill
grestore
stroke
grestore
} bind def
41.7656 248.719 o
grestore
gsave
22.046875 244.921727 translate
0.000000 rotate
0.000000 0.000000 m /six glyphshow
6.362305 0.000000 m /zero glyphshow
grestore
gsave
7.593750 102.675650 translate
90.000000 rotate
0.000000 0.000000 m /n glyphshow
6.337891 0.000000 m /u glyphshow
12.675781 0.000000 m /m glyphshow
22.416992 0.000000 m /b glyphshow
28.764648 0.000000 m /e glyphshow
34.916992 0.000000 m /r glyphshow
39.028320 0.000000 m /space glyphshow
42.207031 0.000000 m /o glyphshow
48.325195 0.000000 m /f glyphshow
51.845703 0.000000 m /space glyphshow
55.024414 0.000000 m /l glyphshow
57.802734 0.000000 m /i glyphshow
60.581055 0.000000 m /n glyphshow
66.918945 0.000000 m /k glyphshow
72.709961 0.000000 m /s glyphshow
77.919922 0.000000 m /slash glyphshow
81.289062 0.000000 m /e glyphshow
87.441406 0.000000 m /v glyphshow
93.359375 0.000000 m /e glyphshow
99.511719 0.000000 m /n glyphshow
105.849609 0.000000 m /t glyphshow
109.770508 0.000000 m /s glyphshow
grestore
1.500 setlinewidth
2 setlinecap
0.122 0.467 0.706 setrgbcolor
gsave
371.1 204.2 41.77 58.09 clipbox
67.755244 147.960328 m
90.553156 147.960328 l
113.351067 147.960328 l
136.148979 145.237131 l
158.94689 147.960328 l
181.744802 147.960328 l
204.542713 145.237131 l
227.340625 150.683524 l
250.138537 150.683524 l
272.936448 158.853114 l
295.73436 164.299507 l
318.532271 158.853114 l
341.330183 156.129918 l
364.128094 158.853114 l
386.926006 158.853114 l
stroke
grestore
1.000 setlinewidth
0 setlinecap
gsave
371.1 204.2 41.77 58.09 clipbox
/o {
gsave
newpath
translate
1.0 setlinewidth
1 setlinejoin
0 setlinecap
-3 0 m
3 0 l
0 -3 m
0 3 l

gsave
0.122 0.467 0.706 setrgbcolor
fill
grestore
stroke
grestore
} bind def
67.7552 147.96 o
90.5532 147.96 o
113.351 147.96 o
136.149 145.237 o
158.947 147.96 o
181.745 147.96 o
204.543 145.237 o
227.341 150.684 o
250.139 150.684 o
272.936 158.853 o
295.734 164.3 o
318.532 158.853 o
341.33 156.13 o
364.128 158.853 o
386.926 158.853 o
grestore
0.800 setlinewidth
0 setlinejoin
2 setlinecap
[] 0 setdash
0.000 setgray
gsave
41.765625 58.094839 m
41.765625 262.334585 l
stroke
grestore
gsave
412.915625 58.094839 m
412.915625 262.334585 l
stroke
grestore
gsave
41.765625 58.094839 m
412.915625 58.094839 l
stroke
grestore
gsave
41.765625 262.334585 m
412.915625 262.334585 l
stroke
grestore
1.000 setlinewidth
0 setlinecap
0.800 setgray
gsave
171.68125 209.75646 m
405.915625 209.75646 l
407.248958 209.75646 407.915625 210.423127 407.915625 211.75646 c
407.915625 255.334585 l
407.915625 256.667919 407.248958 257.334585 405.915625 257.334585 c
171.68125 257.334585 l
170.347917 257.334585 169.68125 256.667919 169.68125 255.334585 c
169.68125 211.75646 l
169.68125 210.423127 170.347917 209.75646 171.68125 209.75646 c
cl
gsave
1.000 setgray
fill
grestore
stroke
grestore
1.500 setlinewidth
1 setlinejoin
2 setlinecap
[] 0 setdash
0.122 0.467 0.706 setrgbcolor
gsave
173.68125 249.240835 m
193.68125 249.240835 l
stroke
grestore
1.000 setlinewidth
0 setlinecap
gsave
/o {
gsave
newpath
translate
1.0 setlinewidth
1 setlinejoin
0 setlinecap
-3 0 m
3 0 l
0 -3 m
0 3 l

gsave
0.122 0.467 0.706 setrgbcolor
fill
grestore
stroke
grestore
} bind def
183.681 249.241 o
grestore
0.000 setgray
gsave
201.681250 245.740835 translate
0.000000 rotate
0.000000 0.000000 m /t glyphshow
3.920898 0.000000 m /o glyphshow
10.039062 0.000000 m /t glyphshow
13.959961 0.000000 m /a glyphshow
20.087891 0.000000 m /l glyphshow
22.866211 0.000000 m /space glyphshow
26.044922 0.000000 m /n glyphshow
32.382812 0.000000 m /u glyphshow
38.720703 0.000000 m /m glyphshow
48.461914 0.000000 m /b glyphshow
54.809570 0.000000 m /e glyphshow
60.961914 0.000000 m /r glyphshow
65.073242 0.000000 m /space glyphshow
68.251953 0.000000 m /o glyphshow
74.370117 0.000000 m /f glyphshow
77.890625 0.000000 m /space glyphshow
81.069336 0.000000 m /a glyphshow
87.197266 0.000000 m /c glyphshow
92.695312 0.000000 m /t glyphshow
96.616211 0.000000 m /i glyphshow
99.394531 0.000000 m /v glyphshow
105.312500 0.000000 m /e glyphshow
111.464844 0.000000 m /space glyphshow
114.643555 0.000000 m /l glyphshow
117.421875 0.000000 m /i glyphshow
120.200195 0.000000 m /n glyphshow
126.538086 0.000000 m /k glyphshow
132.329102 0.000000 m /s glyphshow
grestore
gsave
173.68125 231.06896 m
193.68125 231.06896 l
193.68125 238.06896 l
173.68125 238.06896 l
cl
1.000 0.647 0.000 setrgbcolor
fill
grestore
gsave
201.681250 231.068960 translate
0.000000 rotate
0.000000 0.000000 m /n glyphshow
6.337891 0.000000 m /u glyphshow
12.675781 0.000000 m /m glyphshow
22.416992 0.000000 m /b glyphshow
28.764648 0.000000 m /e glyphshow
34.916992 0.000000 m /r glyphshow
39.028320 0.000000 m /space glyphshow
42.207031 0.000000 m /o glyphshow
48.325195 0.000000 m /f glyphshow
51.845703 0.000000 m /space glyphshow
55.024414 0.000000 m /quotedbl glyphshow
59.624023 0.000000 m /p glyphshow
65.971680 0.000000 m /a glyphshow
72.099609 0.000000 m /t glyphshow
76.020508 0.000000 m /h glyphshow
82.358398 0.000000 m /underscore glyphshow
87.358398 0.000000 m /d glyphshow
93.706055 0.000000 m /e glyphshow
99.858398 0.000000 m /l glyphshow
102.636719 0.000000 m /e glyphshow
108.789062 0.000000 m /t glyphshow
112.709961 0.000000 m /e glyphshow
118.862305 0.000000 m /quotedbl glyphshow
123.461914 0.000000 m /space glyphshow
126.640625 0.000000 m /e glyphshow
132.792969 0.000000 m /v glyphshow
138.710938 0.000000 m /e glyphshow
144.863281 0.000000 m /n glyphshow
151.201172 0.000000 m /t glyphshow
155.122070 0.000000 m /s glyphshow
160.332031 0.000000 m /space glyphshow
163.510742 0.000000 m /p glyphshow
169.858398 0.000000 m /e glyphshow
176.010742 0.000000 m /r glyphshow
180.122070 0.000000 m /space glyphshow
183.300781 0.000000 m /d glyphshow
189.648438 0.000000 m /a glyphshow
195.776367 0.000000 m /y glyphshow
grestore
gsave
173.68125 216.115835 m
193.68125 216.115835 l
193.68125 223.115835 l
173.68125 223.115835 l
cl
0.000 0.500 0.000 setrgbcolor
fill
grestore
gsave
201.681250 216.115835 translate
0.000000 rotate
0.000000 0.000000 m /n glyphshow
6.337891 0.000000 m /u glyphshow
12.675781 0.000000 m /m glyphshow
22.416992 0.000000 m /b glyphshow
28.764648 0.000000 m /e glyphshow
34.916992 0.000000 m /r glyphshow
39.028320 0.000000 m /space glyphshow
42.207031 0.000000 m /o glyphshow
48.325195 0.000000 m /f glyphshow
51.845703 0.000000 m /space glyphshow
55.024414 0.000000 m /quotedbl glyphshow
59.624023 0.000000 m /p glyphshow
65.971680 0.000000 m /a glyphshow
72.099609 0.000000 m /t glyphshow
76.020508 0.000000 m /h glyphshow
82.358398 0.000000 m /underscore glyphshow
87.358398 0.000000 m /c glyphshow
92.856445 0.000000 m /r glyphshow
96.967773 0.000000 m /e glyphshow
103.120117 0.000000 m /a glyphshow
109.248047 0.000000 m /t glyphshow
113.168945 0.000000 m /e glyphshow
119.321289 0.000000 m /quotedbl glyphshow
123.920898 0.000000 m /space glyphshow
127.099609 0.000000 m /e glyphshow
133.251953 0.000000 m /v glyphshow
139.169922 0.000000 m /e glyphshow
145.322266 0.000000 m /n glyphshow
151.660156 0.000000 m /t glyphshow
155.581055 0.000000 m /s glyphshow
160.791016 0.000000 m /space glyphshow
163.969727 0.000000 m /p glyphshow
170.317383 0.000000 m /e glyphshow
176.469727 0.000000 m /r glyphshow
180.581055 0.000000 m /space glyphshow
183.759766 0.000000 m /d glyphshow
190.107422 0.000000 m /a glyphshow
196.235352 0.000000 m /y glyphshow
grestore

end
showpage
