%!PS-Adobe-3.0 EPSF-3.0
%%Title: ../figures/net_churn_building.eps
%%Creator: matplotlib version 2.0.0, http://matplotlib.org/
%%CreationDate: Wed Apr 26 17:12:26 2017
%%Orientation: portrait
%%BoundingBox: 115 267 496 524
%%EndComments
%%BeginProlog
/mpldict 8 dict def
mpldict begin
/m { moveto } bind def
/l { lineto } bind def
/r { rlineto } bind def
/c { curveto } bind def
/cl { closepath } bind def
/box {
m
1 index 0 r
0 exch r
neg 0 r
cl
} bind def
/clipbox {
box
clip
newpath
} bind def
%!PS-Adobe-3.0 Resource-Font
%%Title: DejaVu Sans
%%Copyright: Copyright (c) 2003 by Bitstream, Inc. All Rights Reserved. Copyright (c) 2006 by Tavmjong Bah. All Rights Reserved. DejaVu changes are in public domain 
%%Creator: Converted from TrueType to type 3 by PPR
25 dict begin
/_d{bind def}bind def
/_m{moveto}_d
/_l{lineto}_d
/_cl{closepath eofill}_d
/_c{curveto}_d
/_sc{7 -1 roll{setcachedevice}{pop pop pop pop pop pop}ifelse}_d
/_e{exec}_d
/FontName /DejaVuSans def
/PaintType 0 def
/FontMatrix[.001 0 0 .001 0 0]def
/FontBBox[-1021 -463 1793 1232]def
/FontType 3 def
/Encoding [ /space /quotedbl /hyphen /slash /zero /one /two /three /four /five /six /seven /eight /underscore /a /b /c /d /e /f /h /i /k /l /m /n /o /p /r /s /t /u /v /y /minus ] def
/FontInfo 10 dict dup begin
/FamilyName (DejaVu Sans) def
/FullName (DejaVu Sans) def
/Notice (Copyright (c) 2003 by Bitstream, Inc. All Rights Reserved. Copyright (c) 2006 by Tavmjong Bah. All Rights Reserved. DejaVu changes are in public domain ) def
/Weight (Book) def
/Version (Version 2.35) def
/ItalicAngle 0.0 def
/isFixedPitch false def
/UnderlinePosition -130 def
/UnderlineThickness 90 def
end readonly def
/CharStrings 35 dict dup begin
/space{318 0 0 0 0 0 _sc
}_d
/quotedbl{460 0 96 458 364 729 _sc
179 729 _m
179 458 _l
96 458 _l
96 729 _l
179 729 _l
364 729 _m
364 458 _l
281 458 _l
281 729 _l
364 729 _l
_cl}_d
/hyphen{361 0 49 234 312 314 _sc
49 314 _m
312 314 _l
312 234 _l
49 234 _l
49 314 _l
_cl}_d
/slash{337 0 0 -92 337 729 _sc
254 729 _m
337 729 _l
83 -92 _l
0 -92 _l
254 729 _l
_cl}_d
/zero{636 0 66 -13 570 742 _sc
318 664 _m
267 664 229 639 203 589 _c
177 539 165 464 165 364 _c
165 264 177 189 203 139 _c
229 89 267 64 318 64 _c
369 64 407 89 433 139 _c
458 189 471 264 471 364 _c
471 464 458 539 433 589 _c
407 639 369 664 318 664 _c
318 742 _m
399 742 461 709 505 645 _c
548 580 570 486 570 364 _c
570 241 548 147 505 83 _c
461 19 399 -13 318 -13 _c
236 -13 173 19 130 83 _c
87 147 66 241 66 364 _c
66 486 87 580 130 645 _c
173 709 236 742 318 742 _c
_cl}_d
/one{636 0 110 0 544 729 _sc
124 83 _m
285 83 _l
285 639 _l
110 604 _l
110 694 _l
284 729 _l
383 729 _l
383 83 _l
544 83 _l
544 0 _l
124 0 _l
124 83 _l
_cl}_d
/two{{636 0 73 0 536 742 _sc
192 83 _m
536 83 _l
536 0 _l
73 0 _l
73 83 _l
110 121 161 173 226 239 _c
290 304 331 346 348 365 _c
380 400 402 430 414 455 _c
426 479 433 504 433 528 _c
433 566 419 598 392 622 _c
365 646 330 659 286 659 _c
255 659 222 653 188 643 _c
154 632 117 616 78 594 _c
78 694 _l
118 710 155 722 189 730 _c
223 738 255 742 284 742 _c
}_e{359 742 419 723 464 685 _c
509 647 532 597 532 534 _c
532 504 526 475 515 449 _c
504 422 484 390 454 354 _c
446 344 420 317 376 272 _c
332 227 271 164 192 83 _c
_cl}_e}_d
/three{{636 0 76 -13 556 742 _sc
406 393 _m
453 383 490 362 516 330 _c
542 298 556 258 556 212 _c
556 140 531 84 482 45 _c
432 6 362 -13 271 -13 _c
240 -13 208 -10 176 -4 _c
144 1 110 10 76 22 _c
76 117 _l
103 101 133 89 166 81 _c
198 73 232 69 268 69 _c
330 69 377 81 409 105 _c
441 129 458 165 458 212 _c
458 254 443 288 413 312 _c
383 336 341 349 287 349 _c
}_e{202 349 _l
202 430 _l
291 430 _l
339 430 376 439 402 459 _c
428 478 441 506 441 543 _c
441 580 427 609 401 629 _c
374 649 336 659 287 659 _c
260 659 231 656 200 650 _c
169 644 135 635 98 623 _c
98 711 _l
135 721 170 729 203 734 _c
235 739 266 742 296 742 _c
370 742 429 725 473 691 _c
517 657 539 611 539 553 _c
539 513 527 479 504 451 _c
481 423 448 403 406 393 _c
_cl}_e}_d
/four{636 0 49 0 580 729 _sc
378 643 _m
129 254 _l
378 254 _l
378 643 _l
352 729 _m
476 729 _l
476 254 _l
580 254 _l
580 172 _l
476 172 _l
476 0 _l
378 0 _l
378 172 _l
49 172 _l
49 267 _l
352 729 _l
_cl}_d
/five{{636 0 77 -13 549 729 _sc
108 729 _m
495 729 _l
495 646 _l
198 646 _l
198 467 _l
212 472 227 476 241 478 _c
255 480 270 482 284 482 _c
365 482 429 459 477 415 _c
525 370 549 310 549 234 _c
549 155 524 94 475 51 _c
426 8 357 -13 269 -13 _c
238 -13 207 -10 175 -6 _c
143 -1 111 6 77 17 _c
77 116 _l
106 100 136 88 168 80 _c
199 72 232 69 267 69 _c
}_e{323 69 368 83 401 113 _c
433 143 450 183 450 234 _c
450 284 433 324 401 354 _c
368 384 323 399 267 399 _c
241 399 214 396 188 390 _c
162 384 135 375 108 363 _c
108 729 _l
_cl}_e}_d
/six{{636 0 70 -13 573 742 _sc
330 404 _m
286 404 251 388 225 358 _c
199 328 186 286 186 234 _c
186 181 199 139 225 109 _c
251 79 286 64 330 64 _c
374 64 409 79 435 109 _c
461 139 474 181 474 234 _c
474 286 461 328 435 358 _c
409 388 374 404 330 404 _c
526 713 _m
526 623 _l
501 635 476 644 451 650 _c
425 656 400 659 376 659 _c
310 659 260 637 226 593 _c
}_e{192 549 172 482 168 394 _c
187 422 211 444 240 459 _c
269 474 301 482 336 482 _c
409 482 467 459 509 415 _c
551 371 573 310 573 234 _c
573 159 550 99 506 54 _c
462 9 403 -13 330 -13 _c
246 -13 181 19 137 83 _c
92 147 70 241 70 364 _c
70 479 97 571 152 639 _c
206 707 280 742 372 742 _c
396 742 421 739 447 735 _c
472 730 498 723 526 713 _c
_cl}_e}_d
/seven{636 0 82 0 551 729 _sc
82 729 _m
551 729 _l
551 687 _l
286 0 _l
183 0 _l
432 646 _l
82 646 _l
82 729 _l
_cl}_d
/eight{{636 0 68 -13 568 742 _sc
318 346 _m
271 346 234 333 207 308 _c
180 283 167 249 167 205 _c
167 161 180 126 207 101 _c
234 76 271 64 318 64 _c
364 64 401 76 428 102 _c
455 127 469 161 469 205 _c
469 249 455 283 429 308 _c
402 333 365 346 318 346 _c
219 388 _m
177 398 144 418 120 447 _c
96 476 85 511 85 553 _c
85 611 105 657 147 691 _c
188 725 245 742 318 742 _c
}_e{390 742 447 725 489 691 _c
530 657 551 611 551 553 _c
551 511 539 476 515 447 _c
491 418 459 398 417 388 _c
464 377 501 355 528 323 _c
554 291 568 251 568 205 _c
568 134 546 80 503 43 _c
459 5 398 -13 318 -13 _c
237 -13 175 5 132 43 _c
89 80 68 134 68 205 _c
68 251 81 291 108 323 _c
134 355 171 377 219 388 _c
183 544 _m
183 506 194 476 218 455 _c
}_e{242 434 275 424 318 424 _c
360 424 393 434 417 455 _c
441 476 453 506 453 544 _c
453 582 441 611 417 632 _c
393 653 360 664 318 664 _c
275 664 242 653 218 632 _c
194 611 183 582 183 544 _c
_cl}_e}_d
/underscore{500 0 -9 -235 510 -165 _sc
510 -165 _m
510 -235 _l
-9 -235 _l
-9 -165 _l
510 -165 _l
_cl}_d
/a{{613 0 60 -13 522 560 _sc
343 275 _m
270 275 220 266 192 250 _c
164 233 150 205 150 165 _c
150 133 160 107 181 89 _c
202 70 231 61 267 61 _c
317 61 357 78 387 114 _c
417 149 432 196 432 255 _c
432 275 _l
343 275 _l
522 312 _m
522 0 _l
432 0 _l
432 83 _l
411 49 385 25 355 10 _c
325 -5 287 -13 243 -13 _c
187 -13 142 2 109 33 _c
76 64 60 106 60 159 _c
}_e{60 220 80 266 122 298 _c
163 329 224 345 306 345 _c
432 345 _l
432 354 _l
432 395 418 427 391 450 _c
364 472 326 484 277 484 _c
245 484 215 480 185 472 _c
155 464 127 453 100 439 _c
100 522 _l
132 534 164 544 195 550 _c
226 556 256 560 286 560 _c
365 560 424 539 463 498 _c
502 457 522 395 522 312 _c
_cl}_e}_d
/b{{635 0 91 -13 580 760 _sc
487 273 _m
487 339 473 390 446 428 _c
418 466 381 485 334 485 _c
286 485 249 466 222 428 _c
194 390 181 339 181 273 _c
181 207 194 155 222 117 _c
249 79 286 61 334 61 _c
381 61 418 79 446 117 _c
473 155 487 207 487 273 _c
181 464 _m
199 496 223 520 252 536 _c
281 552 316 560 356 560 _c
422 560 476 533 518 481 _c
559 428 580 359 580 273 _c
}_e{580 187 559 117 518 65 _c
476 13 422 -13 356 -13 _c
316 -13 281 -5 252 10 _c
223 25 199 49 181 82 _c
181 0 _l
91 0 _l
91 760 _l
181 760 _l
181 464 _l
_cl}_e}_d
/c{{550 0 55 -13 488 560 _sc
488 526 _m
488 442 _l
462 456 437 466 411 473 _c
385 480 360 484 334 484 _c
276 484 230 465 198 428 _c
166 391 150 339 150 273 _c
150 206 166 154 198 117 _c
230 80 276 62 334 62 _c
360 62 385 65 411 72 _c
437 79 462 90 488 104 _c
488 21 _l
462 9 436 0 410 -5 _c
383 -10 354 -13 324 -13 _c
242 -13 176 12 128 64 _c
}_e{79 115 55 185 55 273 _c
55 362 79 432 128 483 _c
177 534 244 560 330 560 _c
358 560 385 557 411 551 _c
437 545 463 537 488 526 _c
_cl}_e}_d
/d{{635 0 55 -13 544 760 _sc
454 464 _m
454 760 _l
544 760 _l
544 0 _l
454 0 _l
454 82 _l
435 49 411 25 382 10 _c
353 -5 319 -13 279 -13 _c
213 -13 159 13 117 65 _c
75 117 55 187 55 273 _c
55 359 75 428 117 481 _c
159 533 213 560 279 560 _c
319 560 353 552 382 536 _c
411 520 435 496 454 464 _c
148 273 _m
148 207 161 155 188 117 _c
215 79 253 61 301 61 _c
}_e{348 61 385 79 413 117 _c
440 155 454 207 454 273 _c
454 339 440 390 413 428 _c
385 466 348 485 301 485 _c
253 485 215 466 188 428 _c
161 390 148 339 148 273 _c
_cl}_e}_d
/e{{615 0 55 -13 562 560 _sc
562 296 _m
562 252 _l
149 252 _l
153 190 171 142 205 110 _c
238 78 284 62 344 62 _c
378 62 412 66 444 74 _c
476 82 509 95 541 113 _c
541 28 _l
509 14 476 3 442 -3 _c
408 -9 373 -13 339 -13 _c
251 -13 182 12 131 62 _c
80 112 55 181 55 268 _c
55 357 79 428 127 481 _c
175 533 241 560 323 560 _c
397 560 455 536 498 489 _c
}_e{540 441 562 377 562 296 _c
472 322 _m
471 371 457 410 431 440 _c
404 469 368 484 324 484 _c
274 484 234 469 204 441 _c
174 413 156 373 152 322 _c
472 322 _l
_cl}_e}_d
/f{352 0 23 0 371 760 _sc
371 760 _m
371 685 _l
285 685 _l
253 685 230 678 218 665 _c
205 652 199 629 199 595 _c
199 547 _l
347 547 _l
347 477 _l
199 477 _l
199 0 _l
109 0 _l
109 477 _l
23 477 _l
23 547 _l
109 547 _l
109 585 _l
109 645 123 690 151 718 _c
179 746 224 760 286 760 _c
371 760 _l
_cl}_d
/h{634 0 91 0 549 760 _sc
549 330 _m
549 0 _l
459 0 _l
459 327 _l
459 379 448 417 428 443 _c
408 469 378 482 338 482 _c
289 482 251 466 223 435 _c
195 404 181 362 181 309 _c
181 0 _l
91 0 _l
91 760 _l
181 760 _l
181 462 _l
202 494 227 519 257 535 _c
286 551 320 560 358 560 _c
420 560 468 540 500 501 _c
532 462 549 405 549 330 _c
_cl}_d
/i{278 0 94 0 184 760 _sc
94 547 _m
184 547 _l
184 0 _l
94 0 _l
94 547 _l
94 760 _m
184 760 _l
184 646 _l
94 646 _l
94 760 _l
_cl}_d
/k{579 0 91 0 576 760 _sc
91 760 _m
181 760 _l
181 311 _l
449 547 _l
564 547 _l
274 291 _l
576 0 _l
459 0 _l
181 267 _l
181 0 _l
91 0 _l
91 760 _l
_cl}_d
/l{278 0 94 0 184 760 _sc
94 760 _m
184 760 _l
184 0 _l
94 0 _l
94 760 _l
_cl}_d
/m{{974 0 91 0 889 560 _sc
520 442 _m
542 482 569 511 600 531 _c
631 550 668 560 711 560 _c
767 560 811 540 842 500 _c
873 460 889 403 889 330 _c
889 0 _l
799 0 _l
799 327 _l
799 379 789 418 771 444 _c
752 469 724 482 686 482 _c
639 482 602 466 575 435 _c
548 404 535 362 535 309 _c
535 0 _l
445 0 _l
445 327 _l
445 379 435 418 417 444 _c
398 469 369 482 331 482 _c
}_e{285 482 248 466 221 435 _c
194 404 181 362 181 309 _c
181 0 _l
91 0 _l
91 547 _l
181 547 _l
181 462 _l
201 495 226 520 255 536 _c
283 552 317 560 357 560 _c
397 560 430 550 458 530 _c
486 510 506 480 520 442 _c
_cl}_e}_d
/n{634 0 91 0 549 560 _sc
549 330 _m
549 0 _l
459 0 _l
459 327 _l
459 379 448 417 428 443 _c
408 469 378 482 338 482 _c
289 482 251 466 223 435 _c
195 404 181 362 181 309 _c
181 0 _l
91 0 _l
91 547 _l
181 547 _l
181 462 _l
202 494 227 519 257 535 _c
286 551 320 560 358 560 _c
420 560 468 540 500 501 _c
532 462 549 405 549 330 _c
_cl}_d
/o{612 0 55 -13 557 560 _sc
306 484 _m
258 484 220 465 192 427 _c
164 389 150 338 150 273 _c
150 207 163 156 191 118 _c
219 80 257 62 306 62 _c
354 62 392 80 420 118 _c
448 156 462 207 462 273 _c
462 337 448 389 420 427 _c
392 465 354 484 306 484 _c
306 560 _m
384 560 445 534 490 484 _c
534 433 557 363 557 273 _c
557 183 534 113 490 63 _c
445 12 384 -13 306 -13 _c
227 -13 165 12 121 63 _c
77 113 55 183 55 273 _c
55 363 77 433 121 484 _c
165 534 227 560 306 560 _c
_cl}_d
/p{{635 0 91 -207 580 560 _sc
181 82 _m
181 -207 _l
91 -207 _l
91 547 _l
181 547 _l
181 464 _l
199 496 223 520 252 536 _c
281 552 316 560 356 560 _c
422 560 476 533 518 481 _c
559 428 580 359 580 273 _c
580 187 559 117 518 65 _c
476 13 422 -13 356 -13 _c
316 -13 281 -5 252 10 _c
223 25 199 49 181 82 _c
487 273 _m
487 339 473 390 446 428 _c
418 466 381 485 334 485 _c
}_e{286 485 249 466 222 428 _c
194 390 181 339 181 273 _c
181 207 194 155 222 117 _c
249 79 286 61 334 61 _c
381 61 418 79 446 117 _c
473 155 487 207 487 273 _c
_cl}_e}_d
/r{411 0 91 0 411 560 _sc
411 463 _m
401 469 390 473 378 476 _c
366 478 353 480 339 480 _c
288 480 249 463 222 430 _c
194 397 181 350 181 288 _c
181 0 _l
91 0 _l
91 547 _l
181 547 _l
181 462 _l
199 495 224 520 254 536 _c
284 552 321 560 365 560 _c
371 560 378 559 386 559 _c
393 558 401 557 411 555 _c
411 463 _l
_cl}_d
/s{{521 0 54 -13 472 560 _sc
443 531 _m
443 446 _l
417 458 391 468 364 475 _c
336 481 308 485 279 485 _c
234 485 200 478 178 464 _c
156 450 145 430 145 403 _c
145 382 153 366 169 354 _c
185 342 217 330 265 320 _c
296 313 _l
360 299 405 279 432 255 _c
458 230 472 195 472 151 _c
472 100 452 60 412 31 _c
372 1 316 -13 246 -13 _c
216 -13 186 -10 154 -5 _c
}_e{122 0 89 8 54 20 _c
54 113 _l
87 95 120 82 152 74 _c
184 65 216 61 248 61 _c
290 61 323 68 346 82 _c
368 96 380 117 380 144 _c
380 168 371 187 355 200 _c
339 213 303 226 247 238 _c
216 245 _l
160 257 119 275 95 299 _c
70 323 58 356 58 399 _c
58 450 76 490 112 518 _c
148 546 200 560 268 560 _c
301 560 332 557 362 552 _c
391 547 418 540 443 531 _c
}_e{_cl}_e}_d
/t{392 0 27 0 368 702 _sc
183 702 _m
183 547 _l
368 547 _l
368 477 _l
183 477 _l
183 180 _l
183 135 189 106 201 94 _c
213 81 238 75 276 75 _c
368 75 _l
368 0 _l
276 0 _l
206 0 158 13 132 39 _c
106 65 93 112 93 180 _c
93 477 _l
27 477 _l
27 547 _l
93 547 _l
93 702 _l
183 702 _l
_cl}_d
/u{634 0 85 -13 543 560 _sc
85 216 _m
85 547 _l
175 547 _l
175 219 _l
175 167 185 129 205 103 _c
225 77 255 64 296 64 _c
344 64 383 79 411 110 _c
439 141 453 183 453 237 _c
453 547 _l
543 547 _l
543 0 _l
453 0 _l
453 84 _l
431 50 405 26 377 10 _c
348 -5 315 -13 277 -13 _c
214 -13 166 6 134 45 _c
101 83 85 140 85 216 _c
311 560 _m
311 560 _l
_cl}_d
/v{592 0 30 0 562 547 _sc
30 547 _m
125 547 _l
296 88 _l
467 547 _l
562 547 _l
357 0 _l
235 0 _l
30 547 _l
_cl}_d
/y{592 0 30 -207 562 547 _sc
322 -50 _m
296 -114 271 -157 247 -177 _c
223 -197 191 -207 151 -207 _c
79 -207 _l
79 -132 _l
132 -132 _l
156 -132 175 -126 189 -114 _c
203 -102 218 -75 235 -31 _c
251 9 _l
30 547 _l
125 547 _l
296 119 _l
467 547 _l
562 547 _l
322 -50 _l
_cl}_d
/minus{838 0 106 272 732 355 _sc
106 355 _m
732 355 _l
732 272 _l
106 272 _l
106 355 _l
_cl}_d
end readonly def

/BuildGlyph
 {exch begin
 CharStrings exch
 2 copy known not{pop /.notdef}if
 true 3 1 roll get exec
 end}_d

/BuildChar {
 1 index /Encoding get exch get
 1 index /BuildGlyph get exec
}_d

FontName currentdict end definefont pop
end
%%EndProlog
mpldict begin
115.967 267.283 translate
380.066 257.435 0 0 clipbox
gsave
0 0 m
380.065625 0 l
380.065625 257.434839 l
0 257.434839 l
cl
1.000 setgray
fill
grestore
gsave
41.765625 58.094839 m
376.565625 58.094839 l
376.565625 253.934839 l
41.765625 253.934839 l
cl
1.000 setgray
fill
grestore
gsave
334.8 195.8 41.77 58.09 clipbox
56.983807 73.762039 m
61.055561 73.762039 l
61.055561 84.206839 l
56.983807 84.206839 l
cl
1.000 0.647 0.000 setrgbcolor
fill
grestore
gsave
334.8 195.8 41.77 58.09 clipbox
62.0735 60.706039 m
66.145254 60.706039 l
66.145254 84.206839 l
62.0735 84.206839 l
cl
1.000 0.647 0.000 setrgbcolor
fill
grestore
gsave
334.8 195.8 41.77 58.09 clipbox
67.163193 71.150839 m
71.234947 71.150839 l
71.234947 84.206839 l
67.163193 84.206839 l
cl
1.000 0.647 0.000 setrgbcolor
fill
grestore
gsave
334.8 195.8 41.77 58.09 clipbox
72.252886 55.483639 m
76.32464 55.483639 l
76.32464 84.206839 l
72.252886 84.206839 l
cl
1.000 0.647 0.000 setrgbcolor
fill
grestore
gsave
334.8 195.8 41.77 58.09 clipbox
77.342578 68.539639 m
81.414333 68.539639 l
81.414333 84.206839 l
77.342578 84.206839 l
cl
1.000 0.647 0.000 setrgbcolor
fill
grestore
gsave
334.8 195.8 41.77 58.09 clipbox
82.432271 58.094839 m
86.504026 58.094839 l
86.504026 84.206839 l
82.432271 84.206839 l
cl
1.000 0.647 0.000 setrgbcolor
fill
grestore
gsave
334.8 195.8 41.77 58.09 clipbox
87.521964 71.150839 m
91.593719 71.150839 l
91.593719 84.206839 l
87.521964 84.206839 l
cl
1.000 0.647 0.000 setrgbcolor
fill
grestore
gsave
334.8 195.8 41.77 58.09 clipbox
92.611657 65.928439 m
96.683412 65.928439 l
96.683412 84.206839 l
92.611657 84.206839 l
cl
1.000 0.647 0.000 setrgbcolor
fill
grestore
gsave
334.8 195.8 41.77 58.09 clipbox
97.70135 58.094839 m
101.773104 58.094839 l
101.773104 84.206839 l
97.70135 84.206839 l
cl
1.000 0.647 0.000 setrgbcolor
fill
grestore
gsave
334.8 195.8 41.77 58.09 clipbox
102.791043 71.150839 m
106.862797 71.150839 l
106.862797 84.206839 l
102.791043 84.206839 l
cl
1.000 0.647 0.000 setrgbcolor
fill
grestore
gsave
334.8 195.8 41.77 58.09 clipbox
107.880736 60.706039 m
111.95249 60.706039 l
111.95249 84.206839 l
107.880736 84.206839 l
cl
1.000 0.647 0.000 setrgbcolor
fill
grestore
gsave
334.8 195.8 41.77 58.09 clipbox
112.970429 68.539639 m
117.042183 68.539639 l
117.042183 84.206839 l
112.970429 84.206839 l
cl
1.000 0.647 0.000 setrgbcolor
fill
grestore
gsave
334.8 195.8 41.77 58.09 clipbox
118.060122 65.928439 m
122.131876 65.928439 l
122.131876 84.206839 l
118.060122 84.206839 l
cl
1.000 0.647 0.000 setrgbcolor
fill
grestore
gsave
334.8 195.8 41.77 58.09 clipbox
123.149815 65.928439 m
127.221569 65.928439 l
127.221569 84.206839 l
123.149815 84.206839 l
cl
1.000 0.647 0.000 setrgbcolor
fill
grestore
gsave
334.8 195.8 41.77 58.09 clipbox
128.239508 68.539639 m
132.311262 68.539639 l
132.311262 84.206839 l
128.239508 84.206839 l
cl
1.000 0.647 0.000 setrgbcolor
fill
grestore
gsave
334.8 195.8 41.77 58.09 clipbox
133.329201 65.928439 m
137.400955 65.928439 l
137.400955 84.206839 l
133.329201 84.206839 l
cl
1.000 0.647 0.000 setrgbcolor
fill
grestore
gsave
334.8 195.8 41.77 58.09 clipbox
138.418893 58.094839 m
142.490648 58.094839 l
142.490648 84.206839 l
138.418893 84.206839 l
cl
1.000 0.647 0.000 setrgbcolor
fill
grestore
gsave
334.8 195.8 41.77 58.09 clipbox
143.508586 68.539639 m
147.580341 68.539639 l
147.580341 84.206839 l
143.508586 84.206839 l
cl
1.000 0.647 0.000 setrgbcolor
fill
grestore
gsave
334.8 195.8 41.77 58.09 clipbox
148.598279 73.762039 m
152.670034 73.762039 l
152.670034 84.206839 l
148.598279 84.206839 l
cl
1.000 0.647 0.000 setrgbcolor
fill
grestore
gsave
334.8 195.8 41.77 58.09 clipbox
153.687972 58.094839 m
157.759727 58.094839 l
157.759727 84.206839 l
153.687972 84.206839 l
cl
1.000 0.647 0.000 setrgbcolor
fill
grestore
gsave
334.8 195.8 41.77 58.09 clipbox
158.777665 76.373239 m
162.849419 76.373239 l
162.849419 84.206839 l
158.777665 84.206839 l
cl
1.000 0.647 0.000 setrgbcolor
fill
grestore
gsave
334.8 195.8 41.77 58.09 clipbox
163.867358 63.317239 m
167.939112 63.317239 l
167.939112 84.206839 l
163.867358 84.206839 l
cl
1.000 0.647 0.000 setrgbcolor
fill
grestore
gsave
334.8 195.8 41.77 58.09 clipbox
168.957051 68.539639 m
173.028805 68.539639 l
173.028805 84.206839 l
168.957051 84.206839 l
cl
1.000 0.647 0.000 setrgbcolor
fill
grestore
gsave
334.8 195.8 41.77 58.09 clipbox
174.046744 60.706039 m
178.118498 60.706039 l
178.118498 84.206839 l
174.046744 84.206839 l
cl
1.000 0.647 0.000 setrgbcolor
fill
grestore
gsave
334.8 195.8 41.77 58.09 clipbox
179.136437 63.317239 m
183.208191 63.317239 l
183.208191 84.206839 l
179.136437 84.206839 l
cl
1.000 0.647 0.000 setrgbcolor
fill
grestore
gsave
334.8 195.8 41.77 58.09 clipbox
184.22613 68.539639 m
188.297884 68.539639 l
188.297884 84.206839 l
184.22613 84.206839 l
cl
1.000 0.647 0.000 setrgbcolor
fill
grestore
gsave
334.8 195.8 41.77 58.09 clipbox
189.315823 68.539639 m
193.387577 68.539639 l
193.387577 84.206839 l
189.315823 84.206839 l
cl
1.000 0.647 0.000 setrgbcolor
fill
grestore
gsave
334.8 195.8 41.77 58.09 clipbox
194.405516 52.872439 m
198.47727 52.872439 l
198.47727 84.206839 l
194.405516 84.206839 l
cl
1.000 0.647 0.000 setrgbcolor
fill
grestore
gsave
334.8 195.8 41.77 58.09 clipbox
199.495208 63.317239 m
203.566963 63.317239 l
203.566963 84.206839 l
199.495208 84.206839 l
cl
1.000 0.647 0.000 setrgbcolor
fill
grestore
gsave
334.8 195.8 41.77 58.09 clipbox
204.584901 65.928439 m
208.656656 65.928439 l
208.656656 84.206839 l
204.584901 84.206839 l
cl
1.000 0.647 0.000 setrgbcolor
fill
grestore
gsave
334.8 195.8 41.77 58.09 clipbox
209.674594 68.539639 m
213.746349 68.539639 l
213.746349 84.206839 l
209.674594 84.206839 l
cl
1.000 0.647 0.000 setrgbcolor
fill
grestore
gsave
334.8 195.8 41.77 58.09 clipbox
214.764287 73.762039 m
218.836042 73.762039 l
218.836042 84.206839 l
214.764287 84.206839 l
cl
1.000 0.647 0.000 setrgbcolor
fill
grestore
gsave
334.8 195.8 41.77 58.09 clipbox
219.85398 73.762039 m
223.925734 73.762039 l
223.925734 84.206839 l
219.85398 84.206839 l
cl
1.000 0.647 0.000 setrgbcolor
fill
grestore
gsave
334.8 195.8 41.77 58.09 clipbox
224.943673 52.872439 m
229.015427 52.872439 l
229.015427 84.206839 l
224.943673 84.206839 l
cl
1.000 0.647 0.000 setrgbcolor
fill
grestore
gsave
334.8 195.8 41.77 58.09 clipbox
230.033366 71.150839 m
234.10512 71.150839 l
234.10512 84.206839 l
230.033366 84.206839 l
cl
1.000 0.647 0.000 setrgbcolor
fill
grestore
gsave
334.8 195.8 41.77 58.09 clipbox
235.123059 78.984439 m
239.194813 78.984439 l
239.194813 84.206839 l
235.123059 84.206839 l
cl
1.000 0.647 0.000 setrgbcolor
fill
grestore
gsave
334.8 195.8 41.77 58.09 clipbox
240.212752 65.928439 m
244.284506 65.928439 l
244.284506 84.206839 l
240.212752 84.206839 l
cl
1.000 0.647 0.000 setrgbcolor
fill
grestore
gsave
334.8 195.8 41.77 58.09 clipbox
245.302445 60.706039 m
249.374199 60.706039 l
249.374199 84.206839 l
245.302445 84.206839 l
cl
1.000 0.647 0.000 setrgbcolor
fill
grestore
gsave
334.8 195.8 41.77 58.09 clipbox
250.392138 65.928439 m
254.463892 65.928439 l
254.463892 84.206839 l
250.392138 84.206839 l
cl
1.000 0.647 0.000 setrgbcolor
fill
grestore
gsave
334.8 195.8 41.77 58.09 clipbox
255.481831 68.539639 m
259.553585 68.539639 l
259.553585 84.206839 l
255.481831 84.206839 l
cl
1.000 0.647 0.000 setrgbcolor
fill
grestore
gsave
334.8 195.8 41.77 58.09 clipbox
260.571523 73.762039 m
264.643278 73.762039 l
264.643278 84.206839 l
260.571523 84.206839 l
cl
1.000 0.647 0.000 setrgbcolor
fill
grestore
gsave
334.8 195.8 41.77 58.09 clipbox
265.661216 73.762039 m
269.732971 73.762039 l
269.732971 84.206839 l
265.661216 84.206839 l
cl
1.000 0.647 0.000 setrgbcolor
fill
grestore
gsave
334.8 195.8 41.77 58.09 clipbox
270.750909 65.928439 m
274.822664 65.928439 l
274.822664 84.206839 l
270.750909 84.206839 l
cl
1.000 0.647 0.000 setrgbcolor
fill
grestore
gsave
334.8 195.8 41.77 58.09 clipbox
275.840602 52.872439 m
279.912357 52.872439 l
279.912357 84.206839 l
275.840602 84.206839 l
cl
1.000 0.647 0.000 setrgbcolor
fill
grestore
gsave
334.8 195.8 41.77 58.09 clipbox
280.930295 50.261239 m
285.002049 50.261239 l
285.002049 84.206839 l
280.930295 84.206839 l
cl
1.000 0.647 0.000 setrgbcolor
fill
grestore
gsave
334.8 195.8 41.77 58.09 clipbox
286.019988 71.150839 m
290.091742 71.150839 l
290.091742 84.206839 l
286.019988 84.206839 l
cl
1.000 0.647 0.000 setrgbcolor
fill
grestore
gsave
334.8 195.8 41.77 58.09 clipbox
291.109681 68.539639 m
295.181435 68.539639 l
295.181435 84.206839 l
291.109681 84.206839 l
cl
1.000 0.647 0.000 setrgbcolor
fill
grestore
gsave
334.8 195.8 41.77 58.09 clipbox
296.199374 71.150839 m
300.271128 71.150839 l
300.271128 84.206839 l
296.199374 84.206839 l
cl
1.000 0.647 0.000 setrgbcolor
fill
grestore
gsave
334.8 195.8 41.77 58.09 clipbox
301.289067 65.928439 m
305.360821 65.928439 l
305.360821 84.206839 l
301.289067 84.206839 l
cl
1.000 0.647 0.000 setrgbcolor
fill
grestore
gsave
334.8 195.8 41.77 58.09 clipbox
306.37876 65.928439 m
310.450514 65.928439 l
310.450514 84.206839 l
306.37876 84.206839 l
cl
1.000 0.647 0.000 setrgbcolor
fill
grestore
gsave
334.8 195.8 41.77 58.09 clipbox
311.468453 71.150839 m
315.540207 71.150839 l
315.540207 84.206839 l
311.468453 84.206839 l
cl
1.000 0.647 0.000 setrgbcolor
fill
grestore
gsave
334.8 195.8 41.77 58.09 clipbox
316.558146 68.539639 m
320.6299 68.539639 l
320.6299 84.206839 l
316.558146 84.206839 l
cl
1.000 0.647 0.000 setrgbcolor
fill
grestore
gsave
334.8 195.8 41.77 58.09 clipbox
321.647838 68.539639 m
325.719593 68.539639 l
325.719593 84.206839 l
321.647838 84.206839 l
cl
1.000 0.647 0.000 setrgbcolor
fill
grestore
gsave
334.8 195.8 41.77 58.09 clipbox
326.737531 73.762039 m
330.809286 73.762039 l
330.809286 84.206839 l
326.737531 84.206839 l
cl
1.000 0.647 0.000 setrgbcolor
fill
grestore
gsave
334.8 195.8 41.77 58.09 clipbox
331.827224 60.706039 m
335.898979 60.706039 l
335.898979 84.206839 l
331.827224 84.206839 l
cl
1.000 0.647 0.000 setrgbcolor
fill
grestore
gsave
334.8 195.8 41.77 58.09 clipbox
336.916917 76.373239 m
340.988672 76.373239 l
340.988672 84.206839 l
336.916917 84.206839 l
cl
1.000 0.647 0.000 setrgbcolor
fill
grestore
gsave
334.8 195.8 41.77 58.09 clipbox
342.00661 68.539639 m
346.078364 68.539639 l
346.078364 84.206839 l
342.00661 84.206839 l
cl
1.000 0.647 0.000 setrgbcolor
fill
grestore
gsave
334.8 195.8 41.77 58.09 clipbox
347.096303 65.928439 m
351.168057 65.928439 l
351.168057 84.206839 l
347.096303 84.206839 l
cl
1.000 0.647 0.000 setrgbcolor
fill
grestore
gsave
334.8 195.8 41.77 58.09 clipbox
352.185996 65.928439 m
356.25775 65.928439 l
356.25775 84.206839 l
352.185996 84.206839 l
cl
1.000 0.647 0.000 setrgbcolor
fill
grestore
gsave
334.8 195.8 41.77 58.09 clipbox
357.275689 63.317239 m
361.347443 63.317239 l
361.347443 84.206839 l
357.275689 84.206839 l
cl
1.000 0.647 0.000 setrgbcolor
fill
grestore
gsave
334.8 195.8 41.77 58.09 clipbox
56.983807 84.206839 m
61.055561 84.206839 l
61.055561 94.651639 l
56.983807 94.651639 l
cl
0.000 0.500 0.000 setrgbcolor
fill
grestore
gsave
334.8 195.8 41.77 58.09 clipbox
62.0735 84.206839 m
66.145254 84.206839 l
66.145254 107.707639 l
62.0735 107.707639 l
cl
0.000 0.500 0.000 setrgbcolor
fill
grestore
gsave
334.8 195.8 41.77 58.09 clipbox
67.163193 84.206839 m
71.234947 84.206839 l
71.234947 97.262839 l
67.163193 97.262839 l
cl
0.000 0.500 0.000 setrgbcolor
fill
grestore
gsave
334.8 195.8 41.77 58.09 clipbox
72.252886 84.206839 m
76.32464 84.206839 l
76.32464 112.930039 l
72.252886 112.930039 l
cl
0.000 0.500 0.000 setrgbcolor
fill
grestore
gsave
334.8 195.8 41.77 58.09 clipbox
77.342578 84.206839 m
81.414333 84.206839 l
81.414333 99.874039 l
77.342578 99.874039 l
cl
0.000 0.500 0.000 setrgbcolor
fill
grestore
gsave
334.8 195.8 41.77 58.09 clipbox
82.432271 84.206839 m
86.504026 84.206839 l
86.504026 110.318839 l
82.432271 110.318839 l
cl
0.000 0.500 0.000 setrgbcolor
fill
grestore
gsave
334.8 195.8 41.77 58.09 clipbox
87.521964 84.206839 m
91.593719 84.206839 l
91.593719 97.262839 l
87.521964 97.262839 l
cl
0.000 0.500 0.000 setrgbcolor
fill
grestore
gsave
334.8 195.8 41.77 58.09 clipbox
92.611657 84.206839 m
96.683412 84.206839 l
96.683412 99.874039 l
92.611657 99.874039 l
cl
0.000 0.500 0.000 setrgbcolor
fill
grestore
gsave
334.8 195.8 41.77 58.09 clipbox
97.70135 84.206839 m
101.773104 84.206839 l
101.773104 115.541239 l
97.70135 115.541239 l
cl
0.000 0.500 0.000 setrgbcolor
fill
grestore
gsave
334.8 195.8 41.77 58.09 clipbox
102.791043 84.206839 m
106.862797 84.206839 l
106.862797 97.262839 l
102.791043 97.262839 l
cl
0.000 0.500 0.000 setrgbcolor
fill
grestore
gsave
334.8 195.8 41.77 58.09 clipbox
107.880736 84.206839 m
111.95249 84.206839 l
111.95249 105.096439 l
107.880736 105.096439 l
cl
0.000 0.500 0.000 setrgbcolor
fill
grestore
gsave
334.8 195.8 41.77 58.09 clipbox
112.970429 84.206839 m
117.042183 84.206839 l
117.042183 99.874039 l
112.970429 99.874039 l
cl
0.000 0.500 0.000 setrgbcolor
fill
grestore
gsave
334.8 195.8 41.77 58.09 clipbox
118.060122 84.206839 m
122.131876 84.206839 l
122.131876 102.485239 l
118.060122 102.485239 l
cl
0.000 0.500 0.000 setrgbcolor
fill
grestore
gsave
334.8 195.8 41.77 58.09 clipbox
123.149815 84.206839 m
127.221569 84.206839 l
127.221569 105.096439 l
123.149815 105.096439 l
cl
0.000 0.500 0.000 setrgbcolor
fill
grestore
gsave
334.8 195.8 41.77 58.09 clipbox
128.239508 84.206839 m
132.311262 84.206839 l
132.311262 99.874039 l
128.239508 99.874039 l
cl
0.000 0.500 0.000 setrgbcolor
fill
grestore
gsave
334.8 195.8 41.77 58.09 clipbox
133.329201 84.206839 m
137.400955 84.206839 l
137.400955 102.485239 l
133.329201 102.485239 l
cl
0.000 0.500 0.000 setrgbcolor
fill
grestore
gsave
334.8 195.8 41.77 58.09 clipbox
138.418893 84.206839 m
142.490648 84.206839 l
142.490648 110.318839 l
138.418893 110.318839 l
cl
0.000 0.500 0.000 setrgbcolor
fill
grestore
gsave
334.8 195.8 41.77 58.09 clipbox
143.508586 84.206839 m
147.580341 84.206839 l
147.580341 99.874039 l
143.508586 99.874039 l
cl
0.000 0.500 0.000 setrgbcolor
fill
grestore
gsave
334.8 195.8 41.77 58.09 clipbox
148.598279 84.206839 m
152.670034 84.206839 l
152.670034 94.651639 l
148.598279 94.651639 l
cl
0.000 0.500 0.000 setrgbcolor
fill
grestore
gsave
334.8 195.8 41.77 58.09 clipbox
153.687972 84.206839 m
157.759727 84.206839 l
157.759727 110.318839 l
153.687972 110.318839 l
cl
0.000 0.500 0.000 setrgbcolor
fill
grestore
gsave
334.8 195.8 41.77 58.09 clipbox
158.777665 84.206839 m
162.849419 84.206839 l
162.849419 92.040439 l
158.777665 92.040439 l
cl
0.000 0.500 0.000 setrgbcolor
fill
grestore
gsave
334.8 195.8 41.77 58.09 clipbox
163.867358 84.206839 m
167.939112 84.206839 l
167.939112 105.096439 l
163.867358 105.096439 l
cl
0.000 0.500 0.000 setrgbcolor
fill
grestore
gsave
334.8 195.8 41.77 58.09 clipbox
168.957051 84.206839 m
173.028805 84.206839 l
173.028805 99.874039 l
168.957051 99.874039 l
cl
0.000 0.500 0.000 setrgbcolor
fill
grestore
gsave
334.8 195.8 41.77 58.09 clipbox
174.046744 84.206839 m
178.118498 84.206839 l
178.118498 110.318839 l
174.046744 110.318839 l
cl
0.000 0.500 0.000 setrgbcolor
fill
grestore
gsave
334.8 195.8 41.77 58.09 clipbox
179.136437 84.206839 m
183.208191 84.206839 l
183.208191 105.096439 l
179.136437 105.096439 l
cl
0.000 0.500 0.000 setrgbcolor
fill
grestore
gsave
334.8 195.8 41.77 58.09 clipbox
184.22613 84.206839 m
188.297884 84.206839 l
188.297884 99.874039 l
184.22613 99.874039 l
cl
0.000 0.500 0.000 setrgbcolor
fill
grestore
gsave
334.8 195.8 41.77 58.09 clipbox
189.315823 84.206839 m
193.387577 84.206839 l
193.387577 99.874039 l
189.315823 99.874039 l
cl
0.000 0.500 0.000 setrgbcolor
fill
grestore
gsave
334.8 195.8 41.77 58.09 clipbox
194.405516 84.206839 m
198.47727 84.206839 l
198.47727 123.374839 l
194.405516 123.374839 l
cl
0.000 0.500 0.000 setrgbcolor
fill
grestore
gsave
334.8 195.8 41.77 58.09 clipbox
199.495208 84.206839 m
203.566963 84.206839 l
203.566963 105.096439 l
199.495208 105.096439 l
cl
0.000 0.500 0.000 setrgbcolor
fill
grestore
gsave
334.8 195.8 41.77 58.09 clipbox
204.584901 84.206839 m
208.656656 84.206839 l
208.656656 102.485239 l
204.584901 102.485239 l
cl
0.000 0.500 0.000 setrgbcolor
fill
grestore
gsave
334.8 195.8 41.77 58.09 clipbox
209.674594 84.206839 m
213.746349 84.206839 l
213.746349 99.874039 l
209.674594 99.874039 l
cl
0.000 0.500 0.000 setrgbcolor
fill
grestore
gsave
334.8 195.8 41.77 58.09 clipbox
214.764287 84.206839 m
218.836042 84.206839 l
218.836042 94.651639 l
214.764287 94.651639 l
cl
0.000 0.500 0.000 setrgbcolor
fill
grestore
gsave
334.8 195.8 41.77 58.09 clipbox
219.85398 84.206839 m
223.925734 84.206839 l
223.925734 94.651639 l
219.85398 94.651639 l
cl
0.000 0.500 0.000 setrgbcolor
fill
grestore
gsave
334.8 195.8 41.77 58.09 clipbox
224.943673 84.206839 m
229.015427 84.206839 l
229.015427 120.763639 l
224.943673 120.763639 l
cl
0.000 0.500 0.000 setrgbcolor
fill
grestore
gsave
334.8 195.8 41.77 58.09 clipbox
230.033366 84.206839 m
234.10512 84.206839 l
234.10512 97.262839 l
230.033366 97.262839 l
cl
0.000 0.500 0.000 setrgbcolor
fill
grestore
gsave
334.8 195.8 41.77 58.09 clipbox
235.123059 84.206839 m
239.194813 84.206839 l
239.194813 89.429239 l
235.123059 89.429239 l
cl
0.000 0.500 0.000 setrgbcolor
fill
grestore
gsave
334.8 195.8 41.77 58.09 clipbox
240.212752 84.206839 m
244.284506 84.206839 l
244.284506 102.485239 l
240.212752 102.485239 l
cl
0.000 0.500 0.000 setrgbcolor
fill
grestore
gsave
334.8 195.8 41.77 58.09 clipbox
245.302445 84.206839 m
249.374199 84.206839 l
249.374199 107.707639 l
245.302445 107.707639 l
cl
0.000 0.500 0.000 setrgbcolor
fill
grestore
gsave
334.8 195.8 41.77 58.09 clipbox
250.392138 84.206839 m
254.463892 84.206839 l
254.463892 102.485239 l
250.392138 102.485239 l
cl
0.000 0.500 0.000 setrgbcolor
fill
grestore
gsave
334.8 195.8 41.77 58.09 clipbox
255.481831 84.206839 m
259.553585 84.206839 l
259.553585 99.874039 l
255.481831 99.874039 l
cl
0.000 0.500 0.000 setrgbcolor
fill
grestore
gsave
334.8 195.8 41.77 58.09 clipbox
260.571523 84.206839 m
264.643278 84.206839 l
264.643278 94.651639 l
260.571523 94.651639 l
cl
0.000 0.500 0.000 setrgbcolor
fill
grestore
gsave
334.8 195.8 41.77 58.09 clipbox
265.661216 84.206839 m
269.732971 84.206839 l
269.732971 94.651639 l
265.661216 94.651639 l
cl
0.000 0.500 0.000 setrgbcolor
fill
grestore
gsave
334.8 195.8 41.77 58.09 clipbox
270.750909 84.206839 m
274.822664 84.206839 l
274.822664 102.485239 l
270.750909 102.485239 l
cl
0.000 0.500 0.000 setrgbcolor
fill
grestore
gsave
334.8 195.8 41.77 58.09 clipbox
275.840602 84.206839 m
279.912357 84.206839 l
279.912357 118.152439 l
275.840602 118.152439 l
cl
0.000 0.500 0.000 setrgbcolor
fill
grestore
gsave
334.8 195.8 41.77 58.09 clipbox
280.930295 84.206839 m
285.002049 84.206839 l
285.002049 118.152439 l
280.930295 118.152439 l
cl
0.000 0.500 0.000 setrgbcolor
fill
grestore
gsave
334.8 195.8 41.77 58.09 clipbox
286.019988 84.206839 m
290.091742 84.206839 l
290.091742 97.262839 l
286.019988 97.262839 l
cl
0.000 0.500 0.000 setrgbcolor
fill
grestore
gsave
334.8 195.8 41.77 58.09 clipbox
291.109681 84.206839 m
295.181435 84.206839 l
295.181435 99.874039 l
291.109681 99.874039 l
cl
0.000 0.500 0.000 setrgbcolor
fill
grestore
gsave
334.8 195.8 41.77 58.09 clipbox
296.199374 84.206839 m
300.271128 84.206839 l
300.271128 97.262839 l
296.199374 97.262839 l
cl
0.000 0.500 0.000 setrgbcolor
fill
grestore
gsave
334.8 195.8 41.77 58.09 clipbox
301.289067 84.206839 m
305.360821 84.206839 l
305.360821 102.485239 l
301.289067 102.485239 l
cl
0.000 0.500 0.000 setrgbcolor
fill
grestore
gsave
334.8 195.8 41.77 58.09 clipbox
306.37876 84.206839 m
310.450514 84.206839 l
310.450514 102.485239 l
306.37876 102.485239 l
cl
0.000 0.500 0.000 setrgbcolor
fill
grestore
gsave
334.8 195.8 41.77 58.09 clipbox
311.468453 84.206839 m
315.540207 84.206839 l
315.540207 97.262839 l
311.468453 97.262839 l
cl
0.000 0.500 0.000 setrgbcolor
fill
grestore
gsave
334.8 195.8 41.77 58.09 clipbox
316.558146 84.206839 m
320.6299 84.206839 l
320.6299 99.874039 l
316.558146 99.874039 l
cl
0.000 0.500 0.000 setrgbcolor
fill
grestore
gsave
334.8 195.8 41.77 58.09 clipbox
321.647838 84.206839 m
325.719593 84.206839 l
325.719593 99.874039 l
321.647838 99.874039 l
cl
0.000 0.500 0.000 setrgbcolor
fill
grestore
gsave
334.8 195.8 41.77 58.09 clipbox
326.737531 84.206839 m
330.809286 84.206839 l
330.809286 94.651639 l
326.737531 94.651639 l
cl
0.000 0.500 0.000 setrgbcolor
fill
grestore
gsave
334.8 195.8 41.77 58.09 clipbox
331.827224 84.206839 m
335.898979 84.206839 l
335.898979 112.930039 l
331.827224 112.930039 l
cl
0.000 0.500 0.000 setrgbcolor
fill
grestore
gsave
334.8 195.8 41.77 58.09 clipbox
336.916917 84.206839 m
340.988672 84.206839 l
340.988672 92.040439 l
336.916917 92.040439 l
cl
0.000 0.500 0.000 setrgbcolor
fill
grestore
gsave
334.8 195.8 41.77 58.09 clipbox
342.00661 84.206839 m
346.078364 84.206839 l
346.078364 99.874039 l
342.00661 99.874039 l
cl
0.000 0.500 0.000 setrgbcolor
fill
grestore
gsave
334.8 195.8 41.77 58.09 clipbox
347.096303 84.206839 m
351.168057 84.206839 l
351.168057 102.485239 l
347.096303 102.485239 l
cl
0.000 0.500 0.000 setrgbcolor
fill
grestore
gsave
334.8 195.8 41.77 58.09 clipbox
352.185996 84.206839 m
356.25775 84.206839 l
356.25775 102.485239 l
352.185996 102.485239 l
cl
0.000 0.500 0.000 setrgbcolor
fill
grestore
gsave
334.8 195.8 41.77 58.09 clipbox
357.275689 84.206839 m
361.347443 84.206839 l
361.347443 102.485239 l
357.275689 102.485239 l
cl
0.000 0.500 0.000 setrgbcolor
fill
grestore
0.800 setlinewidth
1 setlinejoin
2 setlinecap
[] 0 setdash
0.690 setgray
gsave
334.8 195.8 41.77 58.09 clipbox
59.019684 58.094839 m
59.019684 253.934839 l
stroke
grestore
0 setlinecap
0.000 setgray
gsave
/o {
gsave
newpath
translate
0.8 setlinewidth
1 setlinejoin
0 setlinecap
0 0 m
0 -3.5 l

gsave
0.000 setgray
fill
grestore
stroke
grestore
} bind def
59.0197 58.0948 o
grestore
/DejaVuSans findfont
10.000 scalefont
setfont
gsave
7.669958 15.471584 translate
30.000000 rotate
0.000000 0.000000 m /two glyphshow
6.362305 0.000000 m /zero glyphshow
12.724609 0.000000 m /one glyphshow
19.086914 0.000000 m /six glyphshow
25.449219 0.000000 m /hyphen glyphshow
29.057617 0.000000 m /one glyphshow
35.419922 0.000000 m /one glyphshow
41.782227 0.000000 m /hyphen glyphshow
45.390625 0.000000 m /one glyphshow
51.752930 0.000000 m /three glyphshow
grestore
2 setlinecap
0.690 setgray
gsave
334.8 195.8 41.77 58.09 clipbox
94.647534 58.094839 m
94.647534 253.934839 l
stroke
grestore
0 setlinecap
0.000 setgray
gsave
/o {
gsave
newpath
translate
0.8 setlinewidth
1 setlinejoin
0 setlinecap
0 0 m
0 -3.5 l

gsave
0.000 setgray
fill
grestore
stroke
grestore
} bind def
94.6475 58.0948 o
grestore
gsave
43.297809 15.471584 translate
30.000000 rotate
0.000000 0.000000 m /two glyphshow
6.362305 0.000000 m /zero glyphshow
12.724609 0.000000 m /one glyphshow
19.086914 0.000000 m /six glyphshow
25.449219 0.000000 m /hyphen glyphshow
29.057617 0.000000 m /one glyphshow
35.419922 0.000000 m /one glyphshow
41.782227 0.000000 m /hyphen glyphshow
45.390625 0.000000 m /two glyphshow
51.752930 0.000000 m /zero glyphshow
grestore
2 setlinecap
0.690 setgray
gsave
334.8 195.8 41.77 58.09 clipbox
130.275385 58.094839 m
130.275385 253.934839 l
stroke
grestore
0 setlinecap
0.000 setgray
gsave
/o {
gsave
newpath
translate
0.8 setlinewidth
1 setlinejoin
0 setlinecap
0 0 m
0 -3.5 l

gsave
0.000 setgray
fill
grestore
stroke
grestore
} bind def
130.275 58.0948 o
grestore
gsave
78.925659 15.471584 translate
30.000000 rotate
0.000000 0.000000 m /two glyphshow
6.362305 0.000000 m /zero glyphshow
12.724609 0.000000 m /one glyphshow
19.086914 0.000000 m /six glyphshow
25.449219 0.000000 m /hyphen glyphshow
29.057617 0.000000 m /one glyphshow
35.419922 0.000000 m /one glyphshow
41.782227 0.000000 m /hyphen glyphshow
45.390625 0.000000 m /two glyphshow
51.752930 0.000000 m /seven glyphshow
grestore
2 setlinecap
0.690 setgray
gsave
334.8 195.8 41.77 58.09 clipbox
165.903235 58.094839 m
165.903235 253.934839 l
stroke
grestore
0 setlinecap
0.000 setgray
gsave
/o {
gsave
newpath
translate
0.8 setlinewidth
1 setlinejoin
0 setlinecap
0 0 m
0 -3.5 l

gsave
0.000 setgray
fill
grestore
stroke
grestore
} bind def
165.903 58.0948 o
grestore
gsave
114.553509 15.471584 translate
30.000000 rotate
0.000000 0.000000 m /two glyphshow
6.362305 0.000000 m /zero glyphshow
12.724609 0.000000 m /one glyphshow
19.086914 0.000000 m /six glyphshow
25.449219 0.000000 m /hyphen glyphshow
29.057617 0.000000 m /one glyphshow
35.419922 0.000000 m /two glyphshow
41.782227 0.000000 m /hyphen glyphshow
45.390625 0.000000 m /zero glyphshow
51.752930 0.000000 m /four glyphshow
grestore
2 setlinecap
0.690 setgray
gsave
334.8 195.8 41.77 58.09 clipbox
201.531086 58.094839 m
201.531086 253.934839 l
stroke
grestore
0 setlinecap
0.000 setgray
gsave
/o {
gsave
newpath
translate
0.8 setlinewidth
1 setlinejoin
0 setlinecap
0 0 m
0 -3.5 l

gsave
0.000 setgray
fill
grestore
stroke
grestore
} bind def
201.531 58.0948 o
grestore
gsave
150.181360 15.471584 translate
30.000000 rotate
0.000000 0.000000 m /two glyphshow
6.362305 0.000000 m /zero glyphshow
12.724609 0.000000 m /one glyphshow
19.086914 0.000000 m /six glyphshow
25.449219 0.000000 m /hyphen glyphshow
29.057617 0.000000 m /one glyphshow
35.419922 0.000000 m /two glyphshow
41.782227 0.000000 m /hyphen glyphshow
45.390625 0.000000 m /one glyphshow
51.752930 0.000000 m /one glyphshow
grestore
2 setlinecap
0.690 setgray
gsave
334.8 195.8 41.77 58.09 clipbox
237.158936 58.094839 m
237.158936 253.934839 l
stroke
grestore
0 setlinecap
0.000 setgray
gsave
/o {
gsave
newpath
translate
0.8 setlinewidth
1 setlinejoin
0 setlinecap
0 0 m
0 -3.5 l

gsave
0.000 setgray
fill
grestore
stroke
grestore
} bind def
237.159 58.0948 o
grestore
gsave
185.809210 15.471584 translate
30.000000 rotate
0.000000 0.000000 m /two glyphshow
6.362305 0.000000 m /zero glyphshow
12.724609 0.000000 m /one glyphshow
19.086914 0.000000 m /six glyphshow
25.449219 0.000000 m /hyphen glyphshow
29.057617 0.000000 m /one glyphshow
35.419922 0.000000 m /two glyphshow
41.782227 0.000000 m /hyphen glyphshow
45.390625 0.000000 m /one glyphshow
51.752930 0.000000 m /eight glyphshow
grestore
2 setlinecap
0.690 setgray
gsave
334.8 195.8 41.77 58.09 clipbox
272.786786 58.094839 m
272.786786 253.934839 l
stroke
grestore
0 setlinecap
0.000 setgray
gsave
/o {
gsave
newpath
translate
0.8 setlinewidth
1 setlinejoin
0 setlinecap
0 0 m
0 -3.5 l

gsave
0.000 setgray
fill
grestore
stroke
grestore
} bind def
272.787 58.0948 o
grestore
gsave
221.437061 15.471584 translate
30.000000 rotate
0.000000 0.000000 m /two glyphshow
6.362305 0.000000 m /zero glyphshow
12.724609 0.000000 m /one glyphshow
19.086914 0.000000 m /six glyphshow
25.449219 0.000000 m /hyphen glyphshow
29.057617 0.000000 m /one glyphshow
35.419922 0.000000 m /two glyphshow
41.782227 0.000000 m /hyphen glyphshow
45.390625 0.000000 m /two glyphshow
51.752930 0.000000 m /five glyphshow
grestore
2 setlinecap
0.690 setgray
gsave
334.8 195.8 41.77 58.09 clipbox
308.414637 58.094839 m
308.414637 253.934839 l
stroke
grestore
0 setlinecap
0.000 setgray
gsave
/o {
gsave
newpath
translate
0.8 setlinewidth
1 setlinejoin
0 setlinecap
0 0 m
0 -3.5 l

gsave
0.000 setgray
fill
grestore
stroke
grestore
} bind def
308.415 58.0948 o
grestore
gsave
257.064911 15.471584 translate
30.000000 rotate
0.000000 0.000000 m /two glyphshow
6.362305 0.000000 m /zero glyphshow
12.724609 0.000000 m /one glyphshow
19.086914 0.000000 m /seven glyphshow
25.449219 0.000000 m /hyphen glyphshow
29.057617 0.000000 m /zero glyphshow
35.419922 0.000000 m /one glyphshow
41.782227 0.000000 m /hyphen glyphshow
45.390625 0.000000 m /zero glyphshow
51.752930 0.000000 m /one glyphshow
grestore
2 setlinecap
0.690 setgray
gsave
334.8 195.8 41.77 58.09 clipbox
344.042487 58.094839 m
344.042487 253.934839 l
stroke
grestore
0 setlinecap
0.000 setgray
gsave
/o {
gsave
newpath
translate
0.8 setlinewidth
1 setlinejoin
0 setlinecap
0 0 m
0 -3.5 l

gsave
0.000 setgray
fill
grestore
stroke
grestore
} bind def
344.042 58.0948 o
grestore
gsave
292.692761 15.471584 translate
30.000000 rotate
0.000000 0.000000 m /two glyphshow
6.362305 0.000000 m /zero glyphshow
12.724609 0.000000 m /one glyphshow
19.086914 0.000000 m /seven glyphshow
25.449219 0.000000 m /hyphen glyphshow
29.057617 0.000000 m /zero glyphshow
35.419922 0.000000 m /one glyphshow
41.782227 0.000000 m /hyphen glyphshow
45.390625 0.000000 m /zero glyphshow
51.752930 0.000000 m /eight glyphshow
grestore
gsave
197.892188 2.078125 translate
0.000000 rotate
0.000000 0.000000 m /d glyphshow
6.347656 0.000000 m /a glyphshow
12.475586 0.000000 m /t glyphshow
16.396484 0.000000 m /e glyphshow
grestore
2 setlinecap
0.690 setgray
gsave
334.8 195.8 41.77 58.09 clipbox
41.765625 58.094839 m
376.565625 58.094839 l
stroke
grestore
0 setlinecap
0.000 setgray
gsave
/o {
gsave
newpath
translate
0.8 setlinewidth
1 setlinejoin
0 setlinecap
0 0 m
-3.5 0 l

gsave
0.000 setgray
fill
grestore
stroke
grestore
} bind def
41.7656 58.0948 o
grestore
gsave
13.671875 54.297964 translate
0.000000 rotate
0.000000 0.000000 m /minus glyphshow
8.378906 0.000000 m /one glyphshow
14.741211 0.000000 m /zero glyphshow
grestore
2 setlinecap
0.690 setgray
gsave
334.8 195.8 41.77 58.09 clipbox
41.765625 84.206839 m
376.565625 84.206839 l
stroke
grestore
0 setlinecap
0.000 setgray
gsave
/o {
gsave
newpath
translate
0.8 setlinewidth
1 setlinejoin
0 setlinecap
0 0 m
-3.5 0 l

gsave
0.000 setgray
fill
grestore
stroke
grestore
} bind def
41.7656 84.2068 o
grestore
gsave
28.406250 80.409964 translate
0.000000 rotate
0.000000 0.000000 m /zero glyphshow
grestore
2 setlinecap
0.690 setgray
gsave
334.8 195.8 41.77 58.09 clipbox
41.765625 110.318839 m
376.565625 110.318839 l
stroke
grestore
0 setlinecap
0.000 setgray
gsave
/o {
gsave
newpath
translate
0.8 setlinewidth
1 setlinejoin
0 setlinecap
0 0 m
-3.5 0 l

gsave
0.000 setgray
fill
grestore
stroke
grestore
} bind def
41.7656 110.319 o
grestore
gsave
22.046875 106.521964 translate
0.000000 rotate
0.000000 0.000000 m /one glyphshow
6.362305 0.000000 m /zero glyphshow
grestore
2 setlinecap
0.690 setgray
gsave
334.8 195.8 41.77 58.09 clipbox
41.765625 136.430839 m
376.565625 136.430839 l
stroke
grestore
0 setlinecap
0.000 setgray
gsave
/o {
gsave
newpath
translate
0.8 setlinewidth
1 setlinejoin
0 setlinecap
0 0 m
-3.5 0 l

gsave
0.000 setgray
fill
grestore
stroke
grestore
} bind def
41.7656 136.431 o
grestore
gsave
22.046875 132.633964 translate
0.000000 rotate
0.000000 0.000000 m /two glyphshow
6.362305 0.000000 m /zero glyphshow
grestore
2 setlinecap
0.690 setgray
gsave
334.8 195.8 41.77 58.09 clipbox
41.765625 162.542839 m
376.565625 162.542839 l
stroke
grestore
0 setlinecap
0.000 setgray
gsave
/o {
gsave
newpath
translate
0.8 setlinewidth
1 setlinejoin
0 setlinecap
0 0 m
-3.5 0 l

gsave
0.000 setgray
fill
grestore
stroke
grestore
} bind def
41.7656 162.543 o
grestore
gsave
22.046875 158.745964 translate
0.000000 rotate
0.000000 0.000000 m /three glyphshow
6.362305 0.000000 m /zero glyphshow
grestore
2 setlinecap
0.690 setgray
gsave
334.8 195.8 41.77 58.09 clipbox
41.765625 188.654839 m
376.565625 188.654839 l
stroke
grestore
0 setlinecap
0.000 setgray
gsave
/o {
gsave
newpath
translate
0.8 setlinewidth
1 setlinejoin
0 setlinecap
0 0 m
-3.5 0 l

gsave
0.000 setgray
fill
grestore
stroke
grestore
} bind def
41.7656 188.655 o
grestore
gsave
22.046875 184.857964 translate
0.000000 rotate
0.000000 0.000000 m /four glyphshow
6.362305 0.000000 m /zero glyphshow
grestore
2 setlinecap
0.690 setgray
gsave
334.8 195.8 41.77 58.09 clipbox
41.765625 214.766839 m
376.565625 214.766839 l
stroke
grestore
0 setlinecap
0.000 setgray
gsave
/o {
gsave
newpath
translate
0.8 setlinewidth
1 setlinejoin
0 setlinecap
0 0 m
-3.5 0 l

gsave
0.000 setgray
fill
grestore
stroke
grestore
} bind def
41.7656 214.767 o
grestore
gsave
22.046875 210.969964 translate
0.000000 rotate
0.000000 0.000000 m /five glyphshow
6.362305 0.000000 m /zero glyphshow
grestore
2 setlinecap
0.690 setgray
gsave
334.8 195.8 41.77 58.09 clipbox
41.765625 240.878839 m
376.565625 240.878839 l
stroke
grestore
0 setlinecap
0.000 setgray
gsave
/o {
gsave
newpath
translate
0.8 setlinewidth
1 setlinejoin
0 setlinecap
0 0 m
-3.5 0 l

gsave
0.000 setgray
fill
grestore
stroke
grestore
} bind def
41.7656 240.879 o
grestore
gsave
22.046875 237.081964 translate
0.000000 rotate
0.000000 0.000000 m /six glyphshow
6.362305 0.000000 m /zero glyphshow
grestore
gsave
7.593750 98.475777 translate
90.000000 rotate
0.000000 0.000000 m /n glyphshow
6.337891 0.000000 m /u glyphshow
12.675781 0.000000 m /m glyphshow
22.416992 0.000000 m /b glyphshow
28.764648 0.000000 m /e glyphshow
34.916992 0.000000 m /r glyphshow
39.028320 0.000000 m /space glyphshow
42.207031 0.000000 m /o glyphshow
48.325195 0.000000 m /f glyphshow
51.845703 0.000000 m /space glyphshow
55.024414 0.000000 m /l glyphshow
57.802734 0.000000 m /i glyphshow
60.581055 0.000000 m /n glyphshow
66.918945 0.000000 m /k glyphshow
72.709961 0.000000 m /s glyphshow
77.919922 0.000000 m /slash glyphshow
81.289062 0.000000 m /e glyphshow
87.441406 0.000000 m /v glyphshow
93.359375 0.000000 m /e glyphshow
99.511719 0.000000 m /n glyphshow
105.849609 0.000000 m /t glyphshow
109.770508 0.000000 m /s glyphshow
grestore
1.500 setlinewidth
2 setlinecap
0.122 0.467 0.706 setrgbcolor
gsave
334.8 195.8 41.77 58.09 clipbox
59.019684 165.154039 m
64.109377 188.654839 l
69.19907 165.154039 l
74.288763 178.210039 l
79.378456 175.598839 l
84.468149 175.598839 l
89.557841 170.376439 l
94.647534 178.210039 l
99.737227 183.432439 l
104.82692 167.765239 l
109.916613 167.765239 l
115.006306 167.765239 l
120.095999 165.154039 l
125.185692 170.376439 l
130.275385 170.376439 l
135.365078 172.987639 l
140.454771 178.210039 l
145.544464 162.542839 l
150.634156 159.931639 l
155.723849 180.821239 l
160.813542 159.931639 l
165.903235 170.376439 l
170.992928 162.542839 l
176.082621 170.376439 l
181.172314 165.154039 l
186.262007 167.765239 l
191.3517 167.765239 l
196.441393 175.598839 l
201.531086 180.821239 l
206.620779 170.376439 l
211.710471 162.542839 l
216.800164 159.931639 l
221.889857 157.320439 l
226.97955 172.987639 l
232.069243 157.320439 l
237.158936 154.709239 l
242.248629 159.931639 l
247.338322 167.765239 l
252.428015 162.542839 l
257.517708 162.542839 l
262.607401 159.931639 l
267.697094 159.931639 l
272.786786 167.765239 l
277.876479 180.821239 l
282.966172 183.432439 l
288.055865 162.542839 l
293.145558 167.765239 l
298.235251 165.154039 l
303.324944 170.376439 l
308.414637 170.376439 l
313.50433 162.542839 l
318.594023 165.154039 l
323.683716 170.376439 l
328.773409 159.931639 l
333.863101 159.931639 l
338.952794 159.931639 l
344.042487 162.542839 l
349.13218 167.765239 l
354.221873 159.931639 l
359.311566 165.154039 l
stroke
grestore
1.000 setlinewidth
0 setlinecap
gsave
334.8 195.8 41.77 58.09 clipbox
/o {
gsave
newpath
translate
1.0 setlinewidth
1 setlinejoin
0 setlinecap
-3 0 m
3 0 l
0 -3 m
0 3 l

gsave
0.122 0.467 0.706 setrgbcolor
fill
grestore
stroke
grestore
} bind def
59.0197 165.154 o
64.1094 188.655 o
69.1991 165.154 o
74.2888 178.21 o
79.3785 175.599 o
84.4681 175.599 o
89.5578 170.376 o
94.6475 178.21 o
99.7372 183.432 o
104.827 167.765 o
109.917 167.765 o
115.006 167.765 o
120.096 165.154 o
125.186 170.376 o
130.275 170.376 o
135.365 172.988 o
140.455 178.21 o
145.544 162.543 o
150.634 159.932 o
155.724 180.821 o
160.814 159.932 o
165.903 170.376 o
170.993 162.543 o
176.083 170.376 o
181.172 165.154 o
186.262 167.765 o
191.352 167.765 o
196.441 175.599 o
201.531 180.821 o
206.621 170.376 o
211.71 162.543 o
216.8 159.932 o
221.89 157.32 o
226.98 172.988 o
232.069 157.32 o
237.159 154.709 o
242.249 159.932 o
247.338 167.765 o
252.428 162.543 o
257.518 162.543 o
262.607 159.932 o
267.697 159.932 o
272.787 167.765 o
277.876 180.821 o
282.966 183.432 o
288.056 162.543 o
293.146 167.765 o
298.235 165.154 o
303.325 170.376 o
308.415 170.376 o
313.504 162.543 o
318.594 165.154 o
323.684 170.376 o
328.773 159.932 o
333.863 159.932 o
338.953 159.932 o
344.042 162.543 o
349.132 167.765 o
354.222 159.932 o
359.312 165.154 o
grestore
0.800 setlinewidth
0 setlinejoin
2 setlinecap
[] 0 setdash
0.000 setgray
gsave
41.765625 58.094839 m
41.765625 253.934839 l
stroke
grestore
gsave
376.565625 58.094839 m
376.565625 253.934839 l
stroke
grestore
gsave
41.765625 58.094839 m
376.565625 58.094839 l
stroke
grestore
gsave
41.765625 253.934839 m
376.565625 253.934839 l
stroke
grestore
1.000 setlinewidth
0 setlinecap
0.800 setgray
gsave
135.33125 201.356714 m
369.565625 201.356714 l
370.898958 201.356714 371.565625 202.023381 371.565625 203.356714 c
371.565625 246.934839 l
371.565625 248.268173 370.898958 248.934839 369.565625 248.934839 c
135.33125 248.934839 l
133.997917 248.934839 133.33125 248.268173 133.33125 246.934839 c
133.33125 203.356714 l
133.33125 202.023381 133.997917 201.356714 135.33125 201.356714 c
cl
gsave
1.000 setgray
fill
grestore
stroke
grestore
1.500 setlinewidth
1 setlinejoin
2 setlinecap
[] 0 setdash
0.122 0.467 0.706 setrgbcolor
gsave
137.33125 240.841089 m
157.33125 240.841089 l
stroke
grestore
1.000 setlinewidth
0 setlinecap
gsave
/o {
gsave
newpath
translate
1.0 setlinewidth
1 setlinejoin
0 setlinecap
-3 0 m
3 0 l
0 -3 m
0 3 l

gsave
0.122 0.467 0.706 setrgbcolor
fill
grestore
stroke
grestore
} bind def
147.331 240.841 o
grestore
0.000 setgray
gsave
165.331250 237.341089 translate
0.000000 rotate
0.000000 0.000000 m /t glyphshow
3.920898 0.000000 m /o glyphshow
10.039062 0.000000 m /t glyphshow
13.959961 0.000000 m /a glyphshow
20.087891 0.000000 m /l glyphshow
22.866211 0.000000 m /space glyphshow
26.044922 0.000000 m /n glyphshow
32.382812 0.000000 m /u glyphshow
38.720703 0.000000 m /m glyphshow
48.461914 0.000000 m /b glyphshow
54.809570 0.000000 m /e glyphshow
60.961914 0.000000 m /r glyphshow
65.073242 0.000000 m /space glyphshow
68.251953 0.000000 m /o glyphshow
74.370117 0.000000 m /f glyphshow
77.890625 0.000000 m /space glyphshow
81.069336 0.000000 m /a glyphshow
87.197266 0.000000 m /c glyphshow
92.695312 0.000000 m /t glyphshow
96.616211 0.000000 m /i glyphshow
99.394531 0.000000 m /v glyphshow
105.312500 0.000000 m /e glyphshow
111.464844 0.000000 m /space glyphshow
114.643555 0.000000 m /l glyphshow
117.421875 0.000000 m /i glyphshow
120.200195 0.000000 m /n glyphshow
126.538086 0.000000 m /k glyphshow
132.329102 0.000000 m /s glyphshow
grestore
gsave
137.33125 222.669214 m
157.33125 222.669214 l
157.33125 229.669214 l
137.33125 229.669214 l
cl
1.000 0.647 0.000 setrgbcolor
fill
grestore
gsave
165.331250 222.669214 translate
0.000000 rotate
0.000000 0.000000 m /n glyphshow
6.337891 0.000000 m /u glyphshow
12.675781 0.000000 m /m glyphshow
22.416992 0.000000 m /b glyphshow
28.764648 0.000000 m /e glyphshow
34.916992 0.000000 m /r glyphshow
39.028320 0.000000 m /space glyphshow
42.207031 0.000000 m /o glyphshow
48.325195 0.000000 m /f glyphshow
51.845703 0.000000 m /space glyphshow
55.024414 0.000000 m /quotedbl glyphshow
59.624023 0.000000 m /p glyphshow
65.971680 0.000000 m /a glyphshow
72.099609 0.000000 m /t glyphshow
76.020508 0.000000 m /h glyphshow
82.358398 0.000000 m /underscore glyphshow
87.358398 0.000000 m /d glyphshow
93.706055 0.000000 m /e glyphshow
99.858398 0.000000 m /l glyphshow
102.636719 0.000000 m /e glyphshow
108.789062 0.000000 m /t glyphshow
112.709961 0.000000 m /e glyphshow
118.862305 0.000000 m /quotedbl glyphshow
123.461914 0.000000 m /space glyphshow
126.640625 0.000000 m /e glyphshow
132.792969 0.000000 m /v glyphshow
138.710938 0.000000 m /e glyphshow
144.863281 0.000000 m /n glyphshow
151.201172 0.000000 m /t glyphshow
155.122070 0.000000 m /s glyphshow
160.332031 0.000000 m /space glyphshow
163.510742 0.000000 m /p glyphshow
169.858398 0.000000 m /e glyphshow
176.010742 0.000000 m /r glyphshow
180.122070 0.000000 m /space glyphshow
183.300781 0.000000 m /d glyphshow
189.648438 0.000000 m /a glyphshow
195.776367 0.000000 m /y glyphshow
grestore
gsave
137.33125 207.716089 m
157.33125 207.716089 l
157.33125 214.716089 l
137.33125 214.716089 l
cl
0.000 0.500 0.000 setrgbcolor
fill
grestore
gsave
165.331250 207.716089 translate
0.000000 rotate
0.000000 0.000000 m /n glyphshow
6.337891 0.000000 m /u glyphshow
12.675781 0.000000 m /m glyphshow
22.416992 0.000000 m /b glyphshow
28.764648 0.000000 m /e glyphshow
34.916992 0.000000 m /r glyphshow
39.028320 0.000000 m /space glyphshow
42.207031 0.000000 m /o glyphshow
48.325195 0.000000 m /f glyphshow
51.845703 0.000000 m /space glyphshow
55.024414 0.000000 m /quotedbl glyphshow
59.624023 0.000000 m /p glyphshow
65.971680 0.000000 m /a glyphshow
72.099609 0.000000 m /t glyphshow
76.020508 0.000000 m /h glyphshow
82.358398 0.000000 m /underscore glyphshow
87.358398 0.000000 m /c glyphshow
92.856445 0.000000 m /r glyphshow
96.967773 0.000000 m /e glyphshow
103.120117 0.000000 m /a glyphshow
109.248047 0.000000 m /t glyphshow
113.168945 0.000000 m /e glyphshow
119.321289 0.000000 m /quotedbl glyphshow
123.920898 0.000000 m /space glyphshow
127.099609 0.000000 m /e glyphshow
133.251953 0.000000 m /v glyphshow
139.169922 0.000000 m /e glyphshow
145.322266 0.000000 m /n glyphshow
151.660156 0.000000 m /t glyphshow
155.581055 0.000000 m /s glyphshow
160.791016 0.000000 m /space glyphshow
163.969727 0.000000 m /p glyphshow
170.317383 0.000000 m /e glyphshow
176.469727 0.000000 m /r glyphshow
180.581055 0.000000 m /space glyphshow
183.759766 0.000000 m /d glyphshow
190.107422 0.000000 m /a glyphshow
196.235352 0.000000 m /y glyphshow
grestore

end
showpage
