%!PS-Adobe-3.0 EPSF-3.0 
%%BoundingBox: 0 0 338 118
%%Pages: 0
%%Creator: LibreOffice 4.3
%%Title: none
%%CreationDate: none
%%LanguageLevel: 2
%%EndComments
%%BeginProlog
%%BeginResource: procset SDRes-Prolog 1.0 0
/b4_inc_state save def
/dict_count countdictstack def
/op_count count 1 sub def
userdict begin
0 setgray 0 setlinecap 1 setlinewidth 0 setlinejoin 10 setmiterlimit[] 0 setdash newpath
/languagelevel where {pop languagelevel 1 ne {false setstrokeadjust false setoverprint} if} if
/bdef {bind def} bind def
/c {setrgbcolor} bdef
/l {neg lineto} bdef
/rl {neg rlineto} bdef
/lc {setlinecap} bdef
/lj {setlinejoin} bdef
/lw {setlinewidth} bdef
/ml {setmiterlimit} bdef
/ld {setdash} bdef
/m {neg moveto} bdef
/ct {6 2 roll neg 6 2 roll neg 6 2 roll neg curveto} bdef
/r {rotate} bdef
/t {neg translate} bdef
/s {scale} bdef
/sw {show} bdef
/gs {gsave} bdef
/gr {grestore} bdef
/f {findfont dup length dict begin
{1 index /FID ne {def} {pop pop} ifelse} forall /Encoding ISOLatin1Encoding def
currentdict end /NFont exch definefont pop /NFont findfont} bdef
/p {closepath} bdef
/sf {scalefont setfont} bdef
/ef {eofill}bdef
/pc {closepath stroke}bdef
/ps {stroke}bdef
/pum {matrix currentmatrix}bdef
/pom {setmatrix}bdef
/bs {/aString exch def /nXOfs exch def /nWidth exch def currentpoint nXOfs 0 rmoveto pum nWidth aString stringwidth pop div 1 scale aString show pom moveto} bdef
%%EndResource
%%EndProlog
%%BeginSetup
%%EndSetup
%%Page: 1 1
%%BeginPageSetup
%%EndPageSetup
pum
0.02831 0.0284 s 
0 -4154 t
/tm matrix currentmatrix def
tm setmatrix
-3284 -4972 t 
1 1 s 
0 lw 1 lj 0.003 0.003 0.003 c 3285 8615 m  15221 8615 l  ps
4301 9123 m  4555 8615 l  ps
4801 9123 m  5055 8615 l  ps
5301 9123 m  5555 8615 l  ps
5801 9123 m  6054 8615 l  ps
6300 9123 m  6554 8615 l  ps
6800 9123 m  7054 8615 l  ps
7300 9123 m  7554 8615 l  ps
7800 9123 m  8054 8615 l  ps
8300 9123 m  8554 8615 l  ps
8800 9123 m  9054 8615 l  ps
9300 9123 m  9554 8615 l  ps
9800 9123 m  10054 8615 l  ps
10300 9123 m  10554 8615 l  ps
10800 9123 m  11054 8615 l  ps
11300 9123 m  11554 8615 l  ps
11800 9123 m  12053 8615 l  ps
12299 9123 m  12553 8615 l  ps
12799 9123 m  13053 8615 l  ps
13299 9123 m  13553 8615 l  ps
13799 9123 m  14053 8615 l  ps
14299 9123 m  14553 8615 l  ps
14799 9123 m  15053 8615 l  ps
3301 9123 m  3555 8615 l  ps
3801 9123 m  4055 8615 l  ps
6078 8615 m  6078 5696 l  ps
0.449 0.625 0.812 c 6079 6076 m  5952 6076 l  5952 5695 l  6206 5695 l 
6206 6076 l  6079 6076 l  p ef
0.207 0.398 0.644 c 6078 6076 m  5952 6076 l  5952 5695 l  6205 5695 l 
6205 6076 l  6078 6076 l  pc
0.003 0.003 0.003 c 5682 7092 m  5754 7092 5809 7147 5809 7219 ct 5809 7291 5754 7346 5682 7346 ct 
5610 7346 5555 7291 5555 7219 ct 5555 7147 5610 7092 5682 7092 ct pc
5555 7092 m  5555 7092 l  pc
5810 7347 m  5810 7347 l  pc
5682 7346 m  5682 8108 l  ps
5428 8615 m  5682 8108 l  ps
6062 8615 m  5682 8108 l  ps
5301 7754 m  5682 7500 l  ps
6062 7727 m  5683 7500 l  ps
12778 8615 m  12778 5696 l  ps
0.449 0.625 0.812 c 12779 6076 m  12652 6076 l  12652 5695 l  12906 5695 l 
12906 6076 l  12779 6076 l  p ef
0.207 0.398 0.644 c 12778 6076 m  12651 6076 l  12651 5695 l  12905 5695 l 
12905 6076 l  12778 6076 l  pc
0.003 0.003 0.003 c 13181 7092 m  13253 7092 13308 7147 13308 7219 ct 13308 7291 13253 7346 13181 7346 ct 
13109 7346 13054 7291 13054 7219 ct 13054 7147 13109 7092 13181 7092 ct pc
13054 7092 m  13054 7092 l  pc
13309 7347 m  13309 7347 l  pc
13181 7346 m  13181 8108 l  ps
12927 8615 m  13181 8108 l  ps
13562 8615 m  13181 8108 l  ps
12800 7754 m  13181 7500 l  ps
13562 7727 m  13182 7500 l  ps
0.449 0.625 0.812 c 5063 7853 m  4809 7853 l  4809 7472 l  5317 7472 l 
5317 7853 l  5063 7853 l  p ef
0.207 0.398 0.644 c 5063 7853 m  4809 7853 l  4809 7472 l  5317 7472 l 
5317 7853 l  5063 7853 l  pc
0.449 0.625 0.812 c 4805 7853 m  5318 7853 l  5068 7981 l  4555 7981 l 
4805 7853 l  p
4555 7853 m  4555 7853 l  p
5318 7981 m  5318 7981 l  p ef
0.207 0.398 0.644 c 4805 7853 m  5318 7853 l  5068 7981 l  4555 7981 l 
4805 7853 l  pc
4555 7853 m  4555 7853 l  pc
5318 7981 m  5318 7981 l  pc
24.99189 lw 0.449 0.625 0.812 c 5063 7473 m  5063 6425 6078 7123 6078 6077 ct 
ps
pum
12538 5482 t
0.003 0.003 0.003 c 149 -259 m  149 0 l  109 0 l  109 -259 l  9 -259 l  9 -291 l 
248 -291 l  248 -259 l  149 -259 l  p ef
492 0 m  404 -127 l  315 0 l  272 0 l  382 -151 l  280 -291 l  324 -291 l 
404 -177 l  483 -291 l  527 -291 l  427 -153 l  535 0 l  492 0 l  p ef
pom
pum
5814 5482 t
240 0 m  165 -121 l  74 -121 l  74 0 l  35 0 l  35 -291 l  171 -291 l 
204 -291 229 -284 247 -269 ct 265 -254 274 -234 274 -208 ct 274 -186 268 -168 255 -153 ct 
242 -139 225 -129 203 -126 ct 285 0 l  240 0 l  p
234 -207 m  234 -224 228 -237 217 -246 ct 206 -255 189 -259 167 -259 ct 74 -259 l 
74 -152 l  169 -152 l  190 -152 206 -157 217 -167 ct 229 -176 234 -190 234 -207 ct 
p ef
535 0 m  447 -127 l  358 0 l  315 0 l  425 -151 l  323 -291 l  367 -291 l 
447 -177 l  526 -291 l  570 -291 l  470 -153 l  578 0 l  535 0 l  p ef
pom
1 lw 0.402 0.402 0.402 c 7129 5650 m  12447 5650 l  ps
6987 5650 m  7128 5574 l  7139 5574 l  7139 5580 l  7018 5645 l  7139 5645 l 
7139 5655 l  7018 5655 l  7139 5720 l  7139 5726 l  7128 5726 l  6987 5650 l 
p ef
6930 5750 m  12248 5750 l  ps
6788 5750 m  6929 5674 l  6940 5674 l  6940 5680 l  6819 5745 l  6940 5745 l 
6940 5755 l  6819 5755 l  6940 5820 l  6940 5826 l  6929 5826 l  6788 5750 l 
p ef
6731 5850 m  12049 5850 l  ps
6589 5850 m  6730 5774 l  6741 5774 l  6741 5780 l  6620 5845 l  6741 5845 l 
6741 5855 l  6620 5855 l  6741 5920 l  6741 5926 l  6730 5926 l  6589 5850 l 
p ef
6532 5950 m  11850 5950 l  ps
6390 5950 m  6531 5874 l  6542 5874 l  6542 5880 l  6421 5945 l  6542 5945 l 
6542 5955 l  6421 5955 l  6542 6020 l  6542 6026 l  6531 6026 l  6390 5950 l 
p ef
pum
9424 6081 t
-90.2 r 26 0 m  26 -30 l  52 -30 l  52 0 l  26 0 l  p ef
106 0 m  106 -30 l  132 -30 l  132 0 l  106 0 l  p ef
187 0 m  187 -30 l  213 -30 l  213 0 l  187 0 l  p ef
pom
0.003 0.003 0.003 c 14079 6092 m  14079 8474 l  ps
14079 5950 m  14155 6091 l  14155 6102 l  14149 6102 l  14084 5981 l  14084 6102 l 
14074 6102 l  14074 5981 l  14009 6102 l  14003 6102 l  14003 6091 l  14079 5950 l 
p ef
14079 8616 m  14003 8475 l  14003 8464 l  14009 8464 l  14074 8585 l  14074 8464 l 
14084 8464 l  14084 8585 l  14149 8464 l  14155 8464 l  14155 8475 l  14079 8616 l 
p ef
pum
14179 7375 t
91 -33 m  91 0 l  74 0 l  74 -33 l  5 -33 l  5 -48 l  72 -146 l  91 -146 l 
91 -48 l  112 -48 l  112 -33 l  91 -33 l  p
74 -125 m  74 -125 73 -123 71 -120 ct 69 -116 68 -114 67 -113 ct 29 -58 l  24 -50 l 
22 -48 l  74 -48 l  74 -125 l  p ef
258 0 m  258 -71 l  258 -82 256 -90 253 -94 ct 250 -98 245 -100 237 -100 ct 
229 -100 223 -97 218 -91 ct 214 -85 211 -76 211 -65 ct 211 0 l  193 0 l  193 -88 l 
193 -101 193 -109 192 -112 ct 210 -112 l  210 -112 210 -111 210 -109 ct 210 -108 210 -106 210 -104 ct 
210 -102 210 -98 211 -93 ct 211 -93 l  215 -101 219 -106 225 -109 ct 230 -112 236 -114 244 -114 ct 
252 -114 259 -112 264 -109 ct 269 -106 272 -100 274 -93 ct 274 -93 l  278 -100 283 -106 289 -109 ct 
294 -112 301 -114 309 -114 ct 320 -114 328 -111 333 -105 ct 338 -99 341 -89 341 -75 ct 
341 0 l  323 0 l  323 -71 l  323 -82 321 -90 318 -94 ct 315 -98 310 -100 302 -100 ct 
294 -100 287 -97 283 -91 ct 278 -85 276 -76 276 -65 ct 276 0 l  258 0 l  p ef
pom
0 4154 t 
pom
count op_count sub {pop} repeat countdictstack dict_count sub {end} repeat b4_inc_state restore
%%PageTrailer
%%Trailer
%%EOF
