%!PS-Adobe-3.0 EPSF-3.0 
%%BoundingBox: 0 0 858 531
%%Pages: 0
%%Creator: LibreOffice 6.0
%%Title: none
%%CreationDate: none
%%LanguageLevel: 2
%%EndComments
%%BeginProlog
%%BeginResource: procset SDRes-Prolog 1.0 0
/b4_inc_state save def
/dict_count countdictstack def
/op_count count 1 sub def
userdict begin
0 setgray 0 setlinecap 1 setlinewidth 0 setlinejoin 10 setmiterlimit[] 0 setdash newpath
/languagelevel where {pop languagelevel 1 ne {false setstrokeadjust false setoverprint} if} if
/bdef {bind def} bind def
/c {setrgbcolor} bdef
/l {neg lineto} bdef
/rl {neg rlineto} bdef
/lc {setlinecap} bdef
/lj {setlinejoin} bdef
/lw {setlinewidth} bdef
/ml {setmiterlimit} bdef
/ld {setdash} bdef
/m {neg moveto} bdef
/ct {6 2 roll neg 6 2 roll neg 6 2 roll neg curveto} bdef
/r {rotate} bdef
/t {neg translate} bdef
/s {scale} bdef
/sw {show} bdef
/gs {gsave} bdef
/gr {grestore} bdef
/f {findfont dup length dict begin
{1 index /FID ne {def} {pop pop} ifelse} forall /Encoding ISOLatin1Encoding def
currentdict end /NFont exch definefont pop /NFont findfont} bdef
/p {closepath} bdef
/sf {scalefont setfont} bdef
/ef {eofill}bdef
/pc {closepath stroke}bdef
/ps {stroke}bdef
/pum {matrix currentmatrix}bdef
/pom {setmatrix}bdef
/bs {/aString exch def /nXOfs exch def /nWidth exch def currentpoint nXOfs 0 rmoveto pum nWidth aString stringwidth pop div 1 scale aString show pom moveto} bdef
%%EndResource
%%EndProlog
%%BeginSetup
%%EndSetup
%%Page: 1 1
%%BeginPageSetup
%%EndPageSetup
pum
0.02833 0.02832 s 
0 -18745 t
/tm matrix currentmatrix def
gs
0 0 m 30276 0 l 30276 18744 l 0 18744 l 0 0 l eoclip newpath
gs
0 0 m 30276 0 l 30276 18744 l 0 18744 l 0 0 l eoclip newpath
gs
0.933 0.933 0.933 c 17010 7110 m  4318 7110 l  4318 462 l  29702 462 l 
29702 7110 l  17010 7110 l  p ef
gr
gs
106 lw 1 lj 0.003 0.003 0.003 c 17010 7110 m  4318 7110 l  4318 462 l  29702 462 l 
29702 7110 l  17010 7110 l  pc
gr
gs
0.933 0.933 0.933 c 17073 15931 m  4444 15931 l  4444 9284 l  29701 9284 l 
29701 15931 l  17073 15931 l  p ef
gr
gs
106 lw 1 lj 0.003 0.003 0.003 c 17073 15931 m  4444 15931 l  4444 9284 l  29701 9284 l 
29701 15931 l  17073 15931 l  pc
gr
pum
782 4040 t
0.003 0.003 0.003 c 876 -268 m  876 -178 841 -109 771 -60 ct 701 -11 603 14 475 14 ct 
239 14 102 -68 64 -233 ct 192 -258 l  206 -200 237 -157 285 -130 ct 333 -102 398 -89 480 -89 ct 
565 -89 631 -103 677 -132 ct 723 -162 746 -204 746 -261 ct 746 -293 739 -318 724 -338 ct 
710 -358 690 -374 663 -387 ct 637 -400 606 -411 570 -419 ct 533 -428 493 -437 449 -448 ct 
373 -465 314 -482 275 -499 ct 235 -516 203 -535 181 -555 ct 158 -576 140 -601 128 -629 ct 
116 -657 110 -689 110 -725 ct 110 -808 141 -872 205 -917 ct 269 -962 360 -985 478 -985 ct 
588 -985 673 -968 731 -934 ct 789 -901 830 -843 854 -762 ct 724 -739 l  710 -791 683 -828 643 -851 ct 
603 -874 548 -886 477 -886 ct 399 -886 340 -873 299 -847 ct 258 -822 238 -783 238 -732 ct 
238 -702 246 -678 261 -658 ct 277 -639 300 -622 330 -609 ct 360 -595 419 -578 508 -559 ct 
538 -552 568 -545 598 -538 ct 627 -530 656 -522 683 -512 ct 710 -502 735 -491 759 -477 ct 
783 -464 803 -448 821 -428 ct 838 -409 852 -386 862 -360 ct 871 -334 876 -303 876 -268 ct 
p ef
1742 0 m  1490 -403 l  1187 -403 l  1187 0 l  1056 0 l  1056 -970 l  1513 -970 l 
1622 -970 1706 -946 1766 -897 ct 1825 -848 1855 -780 1855 -693 ct 1855 -621 1834 -560 1792 -511 ct 
1750 -462 1692 -431 1618 -418 ct 1894 0 l  1742 0 l  p
1723 -692 m  1723 -748 1704 -791 1665 -821 ct 1627 -850 1572 -865 1499 -865 ct 
1187 -865 l  1187 -507 l  1505 -507 l  1574 -507 1628 -523 1666 -556 ct 1704 -588 1723 -633 1723 -692 ct 
p ef
2502 -877 m  2394 -877 2311 -842 2251 -773 ct 2191 -704 2161 -610 2161 -489 ct 
2161 -370 2192 -275 2255 -203 ct 2317 -130 2401 -94 2507 -94 ct 2643 -94 2745 -161 2814 -296 ct 
2921 -242 l  2881 -159 2825 -95 2753 -51 ct 2680 -8 2597 14 2501 14 ct 2403 14 2319 -6 2247 -47 ct 
2176 -88 2121 -146 2084 -221 ct 2046 -297 2028 -386 2028 -489 ct 2028 -644 2069 -765 2153 -853 ct 
2237 -941 2352 -984 2500 -984 ct 2604 -984 2690 -964 2759 -924 ct 2829 -883 2880 -824 2912 -744 ct 
2788 -703 l  2765 -759 2729 -802 2679 -832 ct 2629 -862 2570 -877 2502 -877 ct 
p ef
pom
pum
860 13181 t
951 -495 m  951 -395 932 -308 893 -232 ct 854 -157 799 -100 727 -60 ct 655 -20 573 0 479 0 ct 
116 0 l  116 -970 l  437 -970 l  601 -970 728 -929 817 -847 ct 907 -764 951 -647 951 -495 ct 
p
819 -495 m  819 -615 786 -707 720 -770 ct 654 -833 559 -865 434 -865 ct 247 -865 l 
247 -105 l  464 -105 l  535 -105 597 -121 651 -152 ct 705 -183 747 -228 776 -287 ct 
805 -346 819 -415 819 -495 ct p ef
1892 -268 m  1892 -178 1857 -109 1787 -60 ct 1717 -11 1619 14 1491 14 ct 1255 14 1118 -68 1080 -233 ct 
1208 -258 l  1222 -200 1253 -157 1301 -130 ct 1349 -102 1414 -89 1496 -89 ct 
1581 -89 1647 -103 1693 -132 ct 1739 -162 1762 -204 1762 -261 ct 1762 -293 1755 -318 1740 -338 ct 
1726 -358 1706 -374 1679 -387 ct 1653 -400 1622 -411 1586 -419 ct 1549 -428 1509 -437 1465 -448 ct 
1389 -465 1330 -482 1291 -499 ct 1251 -516 1219 -535 1197 -555 ct 1174 -576 1156 -601 1144 -629 ct 
1132 -657 1126 -689 1126 -725 ct 1126 -808 1157 -872 1221 -917 ct 1285 -962 1376 -985 1494 -985 ct 
1604 -985 1689 -968 1747 -934 ct 1805 -901 1846 -843 1870 -762 ct 1740 -739 l 
1726 -791 1699 -828 1659 -851 ct 1619 -874 1564 -886 1493 -886 ct 1415 -886 1356 -873 1315 -847 ct 
1274 -822 1254 -783 1254 -732 ct 1254 -702 1262 -678 1277 -658 ct 1293 -639 1316 -622 1346 -609 ct 
1376 -595 1435 -578 1524 -559 ct 1554 -552 1584 -545 1614 -538 ct 1643 -530 1672 -522 1699 -512 ct 
1726 -502 1751 -491 1775 -477 ct 1799 -464 1819 -448 1837 -428 ct 1854 -409 1868 -386 1878 -360 ct 
1887 -334 1892 -303 1892 -268 ct p ef
2452 -863 m  2452 0 l  2321 0 l  2321 -863 l  1988 -863 l  1988 -970 l 
2786 -970 l  2786 -863 l  2452 -863 l  p ef
pom
gs
1.000 1.000 1.000 c 15011 7097 m  9337 7097 l  9337 464 l  20684 464 l 
20684 7097 l  15011 7097 l  p ef
gr
gs
106 lw 1 lj 15011 7097 m  9337 7097 l  9337 464 l  20684 464 l  20684 7097 l 
15011 7097 l  pc
gr
pum
14111 3484 t
496 -863 m  496 0 l  365 0 l  365 -863 l  32 -863 l  32 -970 l  830 -970 l 
830 -863 l  496 -863 l  p ef
1625 0 m  1334 -424 l  1036 0 l  891 0 l  1260 -504 l  919 -971 l  1064 -971 l 
1334 -590 l  1597 -971 l  1742 -971 l  1410 -509 l  1771 0 l  1625 0 l 
p ef
pom
pum
13237 4805 t
951 -495 m  951 -395 932 -308 893 -232 ct 854 -157 799 -100 727 -60 ct 655 -20 573 0 479 0 ct 
116 0 l  116 -970 l  437 -970 l  601 -970 728 -929 817 -847 ct 907 -764 951 -647 951 -495 ct 
p
819 -495 m  819 -615 786 -707 720 -770 ct 654 -833 559 -865 434 -865 ct 247 -865 l 
247 -105 l  464 -105 l  535 -105 597 -121 651 -152 ct 705 -183 747 -228 776 -287 ct 
805 -346 819 -415 819 -495 ct p ef
1820 0 m  1709 -284 l  1267 -284 l  1155 0 l  1019 0 l  1415 -971 l  1564 -971 l 
1954 0 l  1820 0 l  p
1488 -872 m  1482 -852 l  1470 -814 1453 -765 1431 -706 ct 1307 -387 l  1670 -387 l 
1545 -707 l  1532 -739 1519 -774 1507 -814 ct 1488 -872 l  p ef
2346 -863 m  2346 0 l  2215 0 l  2215 -863 l  1882 -863 l  1882 -970 l 
2680 -970 l  2680 -863 l  2346 -863 l  p ef
3412 0 m  3301 -284 l  2859 -284 l  2747 0 l  2611 0 l  3007 -971 l  3156 -971 l 
3546 0 l  3412 0 l  p
3080 -872 m  3074 -852 l  3062 -814 3045 -765 3023 -706 ct 2899 -387 l  3262 -387 l 
3137 -707 l  3124 -739 3111 -774 3099 -814 ct 3080 -872 l  p ef
pom
gs
107 lw 1 lj 6174 17036 m  29046 17036 l  ps
gr
gs
5518 17036 m  6205 17265 l  6205 16807 l  5518 17036 l  p ef
gr
gs
29702 17036 m  29015 16807 l  29015 17265 l  29702 17036 l  p ef
gr
pum
13440 18353 t
347 -604 m  347 -1 l  255 -1 l  255 -604 l  22 -604 l  22 -679 l  580 -679 l 
580 -604 l  347 -604 l  p ef
633 -632 m  633 -715 l  720 -715 l  720 -632 l  633 -632 l  p
633 0 m  633 -521 l  720 -521 l  720 0 l  633 0 l  p ef
1157 0 m  1157 -331 l  1157 -381 1150 -416 1136 -435 ct 1123 -454 1098 -464 1062 -464 ct 
1025 -464 996 -450 974 -422 ct 952 -393 942 -354 942 -302 ct 942 0 l  855 0 l 
855 -410 l  855 -471 854 -508 853 -521 ct 934 -521 l  935 -520 935 -515 935 -508 ct 
936 -501 936 -493 937 -484 ct 937 -475 938 -458 938 -432 ct 940 -432 l  958 -469 980 -495 1004 -509 ct 
1028 -524 1057 -531 1092 -531 ct 1132 -531 1163 -523 1186 -507 ct 1209 -492 1225 -467 1234 -432 ct 
1235 -432 l  1253 -467 1275 -492 1301 -508 ct 1326 -523 1357 -531 1393 -531 ct 
1446 -531 1484 -517 1508 -488 ct 1532 -460 1544 -413 1544 -347 ct 1544 0 l  1458 0 l 
1458 -331 l  1458 -381 1451 -416 1438 -435 ct 1424 -454 1399 -464 1363 -464 ct 
1325 -464 1296 -450 1274 -422 ct 1253 -394 1243 -354 1243 -302 ct 1243 0 l  1157 0 l 
p ef
1742 -242 m  1742 -182 1754 -136 1779 -104 ct 1804 -71 1840 -55 1888 -55 ct 
1925 -55 1955 -63 1978 -78 ct 2001 -93 2016 -112 2024 -135 ct 2100 -113 l  2069 -31 1998 10 1888 10 ct 
1810 10 1752 -13 1711 -59 ct 1671 -105 1651 -173 1651 -264 ct 1651 -350 1671 -416 1711 -462 ct 
1752 -508 1809 -531 1884 -531 ct 2037 -531 2114 -439 2114 -254 ct 2114 -242 l 
1742 -242 l  p
2024 -308 m  2020 -364 2006 -404 1983 -429 ct 1959 -454 1926 -467 1883 -467 ct 
1841 -467 1807 -453 1783 -425 ct 1758 -396 1745 -358 1743 -308 ct 2024 -308 l 
p ef
3047 -187 m  3047 -124 3023 -76 2974 -42 ct 2925 -7 2856 10 2767 10 ct 2601 10 2505 -47 2479 -162 ct 
2568 -180 l  2578 -140 2600 -110 2634 -90 ct 2667 -71 2712 -62 2770 -62 ct 2829 -62 2875 -72 2908 -92 ct 
2940 -113 2956 -143 2956 -182 ct 2956 -204 2951 -222 2941 -236 ct 2931 -250 2916 -261 2898 -270 ct 
2880 -279 2858 -287 2833 -293 ct 2807 -299 2779 -306 2748 -313 ct 2695 -325 2654 -336 2626 -348 ct 
2598 -360 2576 -373 2560 -388 ct 2544 -403 2532 -420 2523 -439 ct 2515 -459 2511 -481 2511 -507 ct 
2511 -565 2533 -610 2577 -641 ct 2622 -673 2686 -688 2768 -688 ct 2846 -688 2905 -677 2945 -653 ct 
2986 -629 3015 -589 3031 -532 ct 2941 -516 l  2931 -552 2912 -578 2884 -595 ct 
2856 -611 2817 -619 2768 -619 ct 2713 -619 2672 -610 2643 -592 ct 2615 -574 2600 -547 2600 -512 ct 
2600 -491 2606 -473 2617 -460 ct 2628 -446 2644 -435 2665 -425 ct 2686 -416 2727 -404 2790 -390 ct 
2811 -385 2831 -381 2852 -376 ct 2873 -371 2893 -365 2912 -358 ct 2931 -351 2948 -343 2965 -333 ct 
2981 -324 2996 -313 3008 -299 ct 3020 -286 3030 -270 3037 -252 ct 3044 -233 3047 -212 3047 -187 ct 
p ef
3157 0 m  3157 -715 l  3243 -715 l  3243 0 l  3157 0 l  p ef
3817 -261 m  3817 -170 3797 -102 3757 -57 ct 3717 -12 3659 10 3582 10 ct 3506 10 3449 -13 3410 -60 ct 
3371 -106 3351 -173 3351 -261 ct 3351 -441 3429 -531 3585 -531 ct 3665 -531 3724 -509 3761 -465 ct 
3799 -421 3817 -353 3817 -261 ct p
3726 -261 m  3726 -333 3716 -385 3694 -418 ct 3673 -451 3637 -467 3587 -467 ct 
3536 -467 3499 -450 3477 -417 ct 3454 -384 3443 -332 3443 -261 ct 3443 -192 3454 -141 3476 -106 ct 
3498 -71 3533 -54 3581 -54 ct 3633 -54 3671 -71 3693 -104 ct 3715 -138 3726 -190 3726 -261 ct 
p ef
4128 -4 m  4099 4 4070 8 4040 8 ct 3971 8 3936 -31 3936 -110 ct 3936 -458 l 
3876 -458 l  3876 -521 l  3940 -521 l  3965 -638 l  4023 -638 l  4023 -521 l 
4119 -521 l  4119 -458 l  4023 -458 l  4023 -129 l  4023 -104 4027 -86 4035 -76 ct 
4043 -66 4058 -61 4078 -61 ct 4089 -61 4106 -63 4128 -68 ct 4128 -4 l  p ef
4472 -256 m  4472 -349 4487 -432 4516 -506 ct 4545 -580 4590 -650 4650 -715 ct 
4734 -715 l  4674 -648 4630 -577 4602 -502 ct 4574 -427 4559 -344 4559 -255 ct 
4559 -166 4573 -84 4601 -9 ct 4629 66 4673 137 4734 205 ct 4650 205 l  4589 139 4545 70 4516 -5 ct 
4487 -79 4472 -162 4472 -254 ct 4472 -256 l  p ef
5148 -266 m  5126 -266 5103 -270 5080 -277 ct 5056 -284 5033 -291 5009 -299 ct 
4968 -314 4933 -321 4905 -321 ct 4883 -321 4863 -318 4845 -311 ct 4826 -305 4806 -294 4785 -279 ct 
4785 -348 l  4821 -375 4863 -388 4912 -388 ct 4929 -388 4947 -386 4968 -382 ct 
4988 -378 5019 -368 5061 -354 ct 5071 -350 5086 -345 5105 -340 ct 5124 -335 5141 -332 5155 -332 ct 
5197 -332 5236 -347 5273 -376 ct 5273 -304 l  5254 -291 5236 -281 5217 -275 ct 
5198 -269 5175 -266 5148 -266 ct p ef
5392 0 m  5392 -74 l  5565 -74 l  5565 -596 l  5412 -487 l  5412 -569 l 
5572 -679 l  5652 -679 l  5652 -74 l  5818 -74 l  5818 0 l  5392 0 l  p ef
6377 -340 m  6377 -226 6357 -139 6317 -80 ct 6277 -20 6218 10 6140 10 ct 6062 10 6004 -20 5964 -79 ct 
5925 -139 5906 -225 5906 -340 ct 5906 -456 5925 -544 5963 -602 ct 6001 -660 6061 -689 6143 -689 ct 
6223 -689 6282 -660 6320 -601 ct 6358 -542 6377 -455 6377 -340 ct p
6289 -340 m  6289 -438 6278 -509 6255 -553 ct 6233 -597 6195 -619 6143 -619 ct 
6090 -619 6052 -597 6028 -554 ct 6005 -510 5993 -439 5993 -340 ct 5993 -243 6005 -173 6029 -128 ct 
6052 -83 6090 -61 6141 -61 ct 6192 -61 6230 -84 6254 -129 ct 6277 -175 6289 -245 6289 -340 ct 
p ef
7063 0 m  7063 -331 l  7063 -381 7056 -416 7042 -435 ct 7029 -454 7004 -464 6968 -464 ct 
6931 -464 6902 -450 6880 -422 ct 6858 -393 6848 -354 6848 -302 ct 6848 0 l  6761 0 l 
6761 -410 l  6761 -471 6760 -508 6759 -521 ct 6840 -521 l  6841 -520 6841 -515 6841 -508 ct 
6842 -501 6842 -493 6843 -484 ct 6843 -475 6844 -458 6844 -432 ct 6846 -432 l 
6864 -469 6886 -495 6910 -509 ct 6934 -524 6963 -531 6998 -531 ct 7038 -531 7069 -523 7092 -507 ct 
7115 -492 7131 -467 7140 -432 ct 7141 -432 l  7159 -467 7181 -492 7207 -508 ct 
7232 -523 7263 -531 7299 -531 ct 7352 -531 7390 -517 7414 -488 ct 7438 -460 7450 -413 7450 -347 ct 
7450 0 l  7364 0 l  7364 -331 l  7364 -381 7357 -416 7344 -435 ct 7330 -454 7305 -464 7269 -464 ct 
7231 -464 7202 -450 7180 -422 ct 7159 -394 7149 -354 7149 -302 ct 7149 0 l  7063 0 l 
p ef
7972 -144 m  7972 -95 7953 -57 7916 -30 ct 7879 -3 7827 10 7760 10 ct 7695 10 7645 -1 7610 -22 ct 
7575 -43 7552 -77 7541 -122 ct 7618 -137 l  7625 -109 7641 -89 7664 -76 ct 7687 -63 7719 -56 7760 -56 ct 
7804 -56 7837 -63 7857 -76 ct 7877 -90 7888 -110 7888 -137 ct 7888 -157 7880 -174 7866 -187 ct 
7852 -200 7829 -210 7798 -219 ct 7736 -235 l  7686 -248 7650 -261 7629 -273 ct 
7608 -285 7592 -300 7580 -318 ct 7568 -336 7562 -357 7562 -383 ct 7562 -431 7579 -467 7613 -492 ct 
7647 -517 7696 -529 7761 -529 ct 7819 -529 7864 -519 7898 -499 ct 7932 -478 7954 -446 7963 -401 ct 
7885 -392 l  7880 -415 7867 -433 7846 -445 ct 7825 -457 7797 -463 7761 -463 ct 
7722 -463 7693 -458 7674 -446 ct 7656 -434 7647 -416 7647 -392 ct 7647 -377 7650 -365 7658 -355 ct 
7666 -345 7677 -337 7692 -331 ct 7707 -324 7739 -314 7788 -303 ct 7834 -291 7867 -280 7887 -271 ct 
7907 -261 7923 -250 7935 -238 ct 7947 -226 7956 -212 7962 -197 ct 7969 -181 7972 -164 7972 -144 ct 
p ef
8276 -254 m  8276 -161 8262 -78 8233 -4 ct 8204 70 8159 140 8099 205 ct 8015 205 l 
8075 137 8119 66 8147 -8 ct 8175 -83 8189 -165 8189 -255 ct 8189 -345 8175 -427 8147 -502 ct 
8119 -577 8075 -648 8015 -715 ct 8099 -715 l  8159 -649 8204 -580 8233 -506 ct 
8262 -431 8276 -348 8276 -256 ct 8276 -254 l  p ef
pom
gs
1.000 1.000 1.000 c 15011 15909 m  9337 15909 l  9337 9276 l  20684 9276 l 
20684 15909 l  15011 15909 l  p ef
gr
gs
106 lw 1 lj 15011 15909 m  9337 15909 l  9337 9276 l  20684 9276 l  20684 15909 l 
15011 15909 l  pc
gr
pum
14033 12296 t
802 0 m  550 -403 l  247 -403 l  247 0 l  116 0 l  116 -970 l  573 -970 l 
682 -970 766 -946 826 -897 ct 885 -848 915 -780 915 -693 ct 915 -621 894 -560 852 -511 ct 
810 -462 752 -431 678 -418 ct 954 0 l  802 0 l  p
783 -692 m  783 -748 764 -791 725 -821 ct 687 -850 632 -865 559 -865 ct 247 -865 l 
247 -507 l  565 -507 l  634 -507 688 -523 726 -556 ct 764 -588 783 -633 783 -692 ct 
p ef
1782 0 m  1491 -424 l  1193 0 l  1048 0 l  1417 -504 l  1076 -971 l  1221 -971 l 
1491 -590 l  1754 -971 l  1899 -971 l  1567 -509 l  1928 0 l  1782 0 l 
p ef
pom
pum
13237 13617 t
951 -495 m  951 -395 932 -308 893 -232 ct 854 -157 799 -100 727 -60 ct 655 -20 573 0 479 0 ct 
116 0 l  116 -970 l  437 -970 l  601 -970 728 -929 817 -847 ct 907 -764 951 -647 951 -495 ct 
p
819 -495 m  819 -615 786 -707 720 -770 ct 654 -833 559 -865 434 -865 ct 247 -865 l 
247 -105 l  464 -105 l  535 -105 597 -121 651 -152 ct 705 -183 747 -228 776 -287 ct 
805 -346 819 -415 819 -495 ct p ef
1820 0 m  1709 -284 l  1267 -284 l  1155 0 l  1019 0 l  1415 -971 l  1564 -971 l 
1954 0 l  1820 0 l  p
1488 -872 m  1482 -852 l  1470 -814 1453 -765 1431 -706 ct 1307 -387 l  1670 -387 l 
1545 -707 l  1532 -739 1519 -774 1507 -814 ct 1488 -872 l  p ef
2346 -863 m  2346 0 l  2215 0 l  2215 -863 l  1882 -863 l  1882 -970 l 
2680 -970 l  2680 -863 l  2346 -863 l  p ef
3412 0 m  3301 -284 l  2859 -284 l  2747 0 l  2611 0 l  3007 -971 l  3156 -971 l 
3546 0 l  3412 0 l  p
3080 -872 m  3074 -852 l  3062 -814 3045 -765 3023 -706 ct 2899 -387 l  3262 -387 l 
3137 -707 l  3124 -739 3111 -774 3099 -814 ct 3080 -872 l  p ef
pom
gs
1.000 1.000 1.000 c 25968 7097 m  24368 7097 l  24368 464 l  27568 464 l 
27568 7097 l  25968 7097 l  p ef
gr
gs
106 lw 1 lj 25968 7097 m  24368 7097 l  24368 464 l  27568 464 l  27568 7097 l 
25968 7097 l  pc
gr
pum
24990 3484 t
802 0 m  550 -403 l  247 -403 l  247 0 l  116 0 l  116 -970 l  573 -970 l 
682 -970 766 -946 826 -897 ct 885 -848 915 -780 915 -693 ct 915 -621 894 -560 852 -511 ct 
810 -462 752 -431 678 -418 ct 954 0 l  802 0 l  p
783 -692 m  783 -748 764 -791 725 -821 ct 687 -850 632 -865 559 -865 ct 247 -865 l 
247 -507 l  565 -507 l  634 -507 688 -523 726 -556 ct 764 -588 783 -633 783 -692 ct 
p ef
1782 0 m  1491 -424 l  1193 0 l  1048 0 l  1417 -504 l  1076 -971 l  1221 -971 l 
1491 -590 l  1754 -971 l  1899 -971 l  1567 -509 l  1928 0 l  1782 0 l 
p ef
pom
pum
24520 4805 t
804 0 m  693 -284 l  251 -284 l  139 0 l  3 0 l  399 -971 l  548 -971 l 
938 0 l  804 0 l  p
472 -872 m  466 -852 l  454 -814 437 -765 415 -706 ct 291 -387 l  654 -387 l 
529 -707 l  516 -739 503 -774 491 -814 ct 472 -872 l  p ef
1486 -877 m  1378 -877 1295 -842 1235 -773 ct 1175 -704 1145 -610 1145 -489 ct 
1145 -370 1176 -275 1239 -203 ct 1301 -130 1385 -94 1491 -94 ct 1627 -94 1729 -161 1798 -296 ct 
1905 -242 l  1865 -159 1809 -95 1737 -51 ct 1664 -8 1581 14 1485 14 ct 1387 14 1303 -6 1231 -47 ct 
1160 -88 1105 -146 1068 -221 ct 1030 -297 1012 -386 1012 -489 ct 1012 -644 1053 -765 1137 -853 ct 
1221 -941 1336 -984 1484 -984 ct 1588 -984 1674 -964 1743 -924 ct 1813 -883 1864 -824 1896 -744 ct 
1772 -703 l  1749 -759 1713 -802 1663 -832 ct 1613 -862 1554 -877 1486 -877 ct 
p ef
2718 0 m  2330 -468 l  2203 -372 l  2203 0 l  2072 0 l  2072 -971 l  2203 -971 l 
2203 -484 l  2671 -971 l  2826 -971 l  2413 -549 l  2881 0 l  2718 0 l 
p ef
pom
gs
1.000 1.000 1.000 c 25968 15909 m  24368 15909 l  24368 9276 l  27568 9276 l 
27568 15909 l  25968 15909 l  p ef
gr
gs
106 lw 1 lj 25968 15909 m  24368 15909 l  24368 9276 l  27568 9276 l  27568 15909 l 
25968 15909 l  pc
gr
pum
25069 12296 t
496 -863 m  496 0 l  365 0 l  365 -863 l  32 -863 l  32 -970 l  830 -970 l 
830 -863 l  496 -863 l  p ef
1625 0 m  1334 -424 l  1036 0 l  891 0 l  1260 -504 l  919 -971 l  1064 -971 l 
1334 -590 l  1597 -971 l  1742 -971 l  1410 -509 l  1771 0 l  1625 0 l 
p ef
pom
pum
24520 13617 t
804 0 m  693 -284 l  251 -284 l  139 0 l  3 0 l  399 -971 l  548 -971 l 
938 0 l  804 0 l  p
472 -872 m  466 -852 l  454 -814 437 -765 415 -706 ct 291 -387 l  654 -387 l 
529 -707 l  516 -739 503 -774 491 -814 ct 472 -872 l  p ef
1486 -877 m  1378 -877 1295 -842 1235 -773 ct 1175 -704 1145 -610 1145 -489 ct 
1145 -370 1176 -275 1239 -203 ct 1301 -130 1385 -94 1491 -94 ct 1627 -94 1729 -161 1798 -296 ct 
1905 -242 l  1865 -159 1809 -95 1737 -51 ct 1664 -8 1581 14 1485 14 ct 1387 14 1303 -6 1231 -47 ct 
1160 -88 1105 -146 1068 -221 ct 1030 -297 1012 -386 1012 -489 ct 1012 -644 1053 -765 1137 -853 ct 
1221 -941 1336 -984 1484 -984 ct 1588 -984 1674 -964 1743 -924 ct 1813 -883 1864 -824 1896 -744 ct 
1772 -703 l  1749 -759 1713 -802 1663 -832 ct 1613 -862 1554 -877 1486 -877 ct 
p ef
2718 0 m  2330 -468 l  2203 -372 l  2203 0 l  2072 0 l  2072 -971 l  2203 -971 l 
2203 -484 l  2671 -971 l  2826 -971 l  2413 -549 l  2881 0 l  2718 0 l 
p ef
pom
gs
107 lw 1 lj 9969 14302 m  20003 14302 l  ps
gr
gs
9312 14302 m  9999 14531 l  9999 14073 l  9312 14302 l  p ef
gr
gs
20660 14302 m  19973 14073 l  19973 14531 l  20660 14302 l  p ef
gr
pum
12525 15384 t
570 -297 m  570 -237 559 -184 535 -139 ct 512 -94 479 -60 436 -36 ct 393 -12 343 0 287 0 ct 
69 0 l  69 -582 l  262 -582 l  360 -582 437 -557 490 -508 ct 544 -458 570 -388 570 -297 ct 
p
491 -297 m  491 -369 471 -424 432 -462 ct 392 -500 335 -519 260 -519 ct 148 -519 l 
148 -63 l  278 -63 l  321 -63 358 -73 391 -91 ct 423 -110 448 -137 465 -172 ct 
482 -207 491 -249 491 -297 ct p ef
781 8 m  736 8 702 -4 680 -27 ct 657 -51 646 -84 646 -125 ct 646 -171 661 -207 692 -231 ct 
722 -256 771 -269 839 -271 ct 939 -273 l  939 -297 l  939 -333 932 -359 916 -375 ct 
901 -391 876 -398 843 -398 ct 810 -398 786 -393 771 -382 ct 756 -370 746 -352 743 -327 ct 
666 -334 l  678 -415 738 -455 845 -455 ct 901 -455 944 -442 972 -416 ct 1000 -391 1014 -353 1014 -305 ct 
1014 -112 l  1014 -90 1017 -74 1023 -63 ct 1029 -52 1040 -46 1056 -46 ct 1063 -46 1071 -47 1081 -49 ct 
1081 -3 l  1062 2 1043 4 1023 4 ct 996 4 976 -3 963 -18 ct 950 -32 943 -55 942 -86 ct 
939 -86 l  920 -52 898 -27 873 -13 ct 848 1 817 8 781 8 ct p
798 -48 m  825 -48 849 -54 871 -66 ct 892 -79 909 -96 921 -117 ct 933 -139 939 -161 939 -184 ct 
939 -221 l  858 -219 l  823 -218 796 -215 778 -208 ct 760 -202 746 -191 737 -178 ct 
727 -164 722 -146 722 -124 ct 722 -99 729 -81 742 -68 ct 755 -54 774 -48 798 -48 ct 
p ef
1309 -3 m  1284 4 1259 7 1234 7 ct 1174 7 1144 -27 1144 -94 ct 1144 -392 l  1093 -392 l 
1093 -446 l  1147 -446 l  1169 -547 l  1219 -547 l  1219 -446 l  1301 -446 l 
1301 -392 l  1219 -392 l  1219 -110 l  1219 -89 1222 -74 1229 -65 ct 1236 -56 1249 -52 1266 -52 ct 
1276 -52 1290 -54 1309 -58 ct 1309 -3 l  p ef
1488 8 m  1443 8 1409 -4 1387 -27 ct 1364 -51 1353 -84 1353 -125 ct 1353 -171 1368 -207 1399 -231 ct 
1429 -256 1478 -269 1546 -271 ct 1646 -273 l  1646 -297 l  1646 -333 1639 -359 1623 -375 ct 
1608 -391 1583 -398 1550 -398 ct 1517 -398 1493 -393 1478 -382 ct 1463 -370 1453 -352 1450 -327 ct 
1373 -334 l  1385 -415 1445 -455 1552 -455 ct 1608 -455 1651 -442 1679 -416 ct 
1707 -391 1721 -353 1721 -305 ct 1721 -112 l  1721 -90 1724 -74 1730 -63 ct 
1736 -52 1747 -46 1763 -46 ct 1770 -46 1778 -47 1788 -49 ct 1788 -3 l  1769 2 1750 4 1730 4 ct 
1703 4 1683 -3 1670 -18 ct 1657 -32 1650 -55 1649 -86 ct 1646 -86 l  1627 -52 1605 -27 1580 -13 ct 
1555 1 1524 8 1488 8 ct p
1505 -48 m  1532 -48 1556 -54 1578 -66 ct 1599 -79 1616 -96 1628 -117 ct 1640 -139 1646 -161 1646 -184 ct 
1646 -221 l  1565 -219 l  1530 -218 1503 -215 1485 -208 ct 1467 -202 1453 -191 1444 -178 ct 
1434 -164 1429 -146 1429 -124 ct 1429 -99 1436 -81 1449 -68 ct 1462 -54 1481 -48 1505 -48 ct 
p ef
2076 -219 m  2076 -299 2089 -370 2114 -433 ct 2139 -497 2177 -556 2229 -612 ct 
2301 -612 l  2249 -555 2211 -494 2187 -430 ct 2163 -365 2151 -295 2151 -219 ct 
2151 -142 2163 -72 2187 -8 ct 2211 56 2249 117 2301 175 ct 2229 175 l  2177 119 2138 59 2114 -4 ct 
2089 -68 2076 -139 2076 -218 ct 2076 -219 l  p ef
2656 -228 m  2637 -228 2617 -231 2597 -237 ct 2577 -243 2557 -250 2537 -257 ct 
2502 -269 2472 -276 2447 -276 ct 2429 -276 2412 -273 2396 -267 ct 2380 -261 2363 -252 2345 -239 ct 
2345 -298 l  2376 -321 2412 -333 2454 -333 ct 2468 -333 2484 -331 2501 -328 ct 
2519 -324 2546 -316 2581 -303 ct 2590 -300 2602 -296 2619 -291 ct 2635 -287 2650 -285 2662 -285 ct 
2698 -285 2732 -297 2763 -323 ct 2763 -261 l  2747 -250 2731 -241 2715 -236 ct 
2699 -231 2679 -228 2656 -228 ct p ef
3166 -132 m  3166 -1 l  3096 -1 l  3096 -132 l  2821 -132 l  2821 -190 l 
3088 -582 l  3166 -582 l  3166 -191 l  3248 -191 l  3248 -132 l  3166 -132 l 
p
3096 -498 m  3095 -497 3091 -489 3084 -476 ct 3077 -463 3072 -454 3068 -449 ct 
2919 -229 l  2897 -199 l  2890 -191 l  3096 -191 l  3096 -498 l  p ef
3826 0 m  3826 -283 l  3826 -326 3820 -356 3808 -373 ct 3797 -389 3775 -398 3744 -398 ct 
3713 -398 3688 -386 3669 -361 ct 3651 -337 3642 -303 3642 -259 ct 3642 0 l  3568 0 l 
3568 -351 l  3568 -403 3567 -435 3565 -447 ct 3635 -447 l  3636 -445 3636 -442 3636 -436 ct 
3637 -430 3637 -423 3637 -415 ct 3638 -407 3638 -392 3639 -370 ct 3640 -370 l 
3656 -402 3674 -424 3695 -436 ct 3716 -449 3741 -455 3770 -455 ct 3804 -455 3831 -448 3851 -435 ct 
3871 -421 3884 -400 3892 -370 ct 3893 -370 l  3909 -400 3927 -422 3949 -435 ct 
3971 -448 3998 -455 4029 -455 ct 4074 -455 4107 -443 4127 -418 ct 4148 -394 4158 -354 4158 -298 ct 
4158 0 l  4084 0 l  4084 -283 l  4084 -326 4079 -356 4067 -373 ct 4055 -389 4033 -398 4003 -398 ct 
3970 -398 3945 -386 3927 -361 ct 3909 -337 3900 -303 3900 -259 ct 3900 0 l  3826 0 l 
p ef
4608 -124 m  4608 -82 4593 -49 4561 -26 ct 4529 -3 4484 8 4427 8 ct 4371 8 4329 -1 4298 -19 ct 
4268 -38 4249 -66 4240 -105 ct 4305 -118 l  4312 -94 4325 -76 4344 -65 ct 4364 -54 4392 -49 4427 -49 ct 
4465 -49 4492 -54 4510 -66 ct 4527 -77 4536 -95 4536 -118 ct 4536 -136 4530 -150 4518 -161 ct 
4506 -172 4486 -181 4459 -188 ct 4406 -202 l  4363 -213 4333 -224 4315 -235 ct 
4297 -245 4283 -258 4273 -273 ct 4262 -288 4257 -307 4257 -329 ct 4257 -370 4272 -401 4301 -422 ct 
4330 -443 4372 -454 4428 -454 ct 4477 -454 4516 -445 4545 -428 ct 4574 -411 4593 -383 4601 -345 ct 
4534 -336 l  4530 -356 4518 -371 4500 -382 ct 4482 -393 4458 -398 4428 -398 ct 
4394 -398 4370 -393 4354 -383 ct 4338 -372 4330 -357 4330 -336 ct 4330 -324 4333 -313 4340 -305 ct 
4346 -297 4356 -290 4369 -284 ct 4382 -278 4409 -270 4451 -260 ct 4490 -250 4518 -241 4536 -232 ct 
4553 -224 4567 -215 4577 -205 ct 4587 -194 4595 -183 4600 -169 ct 4606 -156 4608 -141 4608 -124 ct 
p ef
4869 -218 m  4869 -138 4857 -67 4832 -4 ct 4807 60 4769 119 4717 175 ct 4645 175 l 
4697 117 4735 56 4759 -8 ct 4783 -71 4795 -142 4795 -219 ct 4795 -295 4782 -366 4758 -430 ct 
4734 -494 4696 -555 4645 -612 ct 4717 -612 l  4769 -556 4807 -496 4832 -433 ct 
4857 -369 4869 -298 4869 -219 ct 4869 -218 l  p ef
pom
gs
1.000 1.000 1.000 c 14577 6079 m  14577 9633 l  14143 9633 l  15011 10818 l 
15879 9633 l  15445 9633 l  15445 6079 l  14577 6079 l  p
14143 6079 m  14143 6079 l  p
15879 10818 m  15879 10818 l  p ef
gr
gs
106 lw 1 lj 14577 6079 m  14577 9633 l  14143 9633 l  15011 10818 l  15879 9633 l 
15445 9633 l  15445 6079 l  14577 6079 l  pc
gr
gs
106 lw 1 lj 14143 6079 m  14143 6079 l  pc
gr
gs
106 lw 1 lj 15879 10818 m  15879 10818 l  pc
gr
gs
1.000 1.000 1.000 c 26353 10343 m  26353 6789 l  26738 6789 l  25968 5604 l 
25197 6789 l  25583 6789 l  25583 10343 l  26353 10343 l  p
26738 10343 m  26738 10343 l  p
25197 5604 m  25197 5604 l  p ef
gr
gs
106 lw 1 lj 26353 10343 m  26353 6789 l  26738 6789 l  25968 5604 l  25197 6789 l 
25583 6789 l  25583 10343 l  26353 10343 l  pc
gr
gs
106 lw 1 lj 26738 10343 m  26738 10343 l  pc
gr
gs
106 lw 1 lj 25197 5604 m  25197 5604 l  pc
gr
gs
82 lw 1 lj 6785 10842 m  9004 10842 l  ps
gr
gs
6477 10843 m  6813 11053 l  6813 10632 l  6477 10843 l  p ef
gr
gs
9312 10841 m  8976 10631 l  8976 11052 l  9312 10841 l  p ef
gr
gs
82 lw 1 lj 9686 10842 m  11905 10842 l  ps
gr
gs
9378 10843 m  9714 11053 l  9714 10632 l  9378 10843 l  p ef
gr
gs
12213 10841 m  11877 10631 l  11877 11052 l  12213 10841 l  p ef
gr
pum
5838 10373 t
250 -66 m  274 -66 297 -69 319 -76 ct 341 -83 359 -92 371 -103 ct 371 -163 l 
264 -163 l  264 -231 l  455 -231 l  455 -70 l  431 -46 401 -28 364 -14 ct 
327 -1 288 6 247 6 ct 176 6 122 -14 83 -53 ct 45 -93 26 -148 26 -221 ct 26 -293 45 -348 84 -386 ct 
122 -425 177 -444 250 -444 ct 352 -444 417 -406 445 -330 ct 361 -305 l  352 -327 338 -344 318 -355 ct 
299 -366 276 -372 250 -372 ct 207 -372 174 -359 152 -333 ct 129 -307 118 -269 118 -221 ct 
118 -171 130 -133 153 -106 ct 176 -79 208 -66 250 -66 ct p ef
622 -336 m  622 -148 l  622 -89 641 -59 681 -59 ct 702 -59 719 -68 732 -86 ct 
745 -104 751 -128 751 -156 ct 751 -336 l  839 -336 l  839 -75 l  839 -47 839 -22 841 0 ct 
758 0 l  755 -30 754 -52 754 -67 ct 753 -67 l  741 -41 726 -23 708 -11 ct 691 0 669 6 645 6 ct 
609 6 582 -5 563 -27 ct 544 -49 534 -81 534 -123 ct 534 -336 l  622 -336 l  p ef
1007 6 m  974 6 949 -3 931 -21 ct 913 -38 904 -63 904 -95 ct 904 -130 915 -156 938 -175 ct 
960 -193 993 -202 1036 -202 ct 1108 -204 l  1108 -221 l  1108 -243 1104 -259 1097 -270 ct 
1089 -280 1077 -286 1059 -286 ct 1043 -286 1031 -282 1024 -275 ct 1016 -267 1012 -255 1010 -238 ct 
919 -242 l  924 -275 939 -300 964 -317 ct 988 -334 1021 -342 1063 -342 ct 1105 -342 1138 -332 1161 -311 ct 
1184 -290 1195 -260 1195 -222 ct 1195 -99 l  1195 -81 1197 -68 1202 -61 ct 1206 -53 1213 -50 1223 -50 ct 
1230 -50 1236 -50 1242 -52 ct 1242 -5 l  1237 -3 1232 -2 1228 -1 ct 1224 0 1220 1 1216 1 ct 
1212 2 1207 2 1203 3 ct 1198 3 1193 4 1186 4 ct 1164 4 1148 -2 1138 -13 ct 1127 -23 1121 -39 1119 -60 ct 
1117 -60 l  1093 -16 1056 6 1007 6 ct p
1108 -156 m  1064 -155 l  1043 -154 1029 -152 1020 -148 ct 1012 -145 1006 -139 1001 -132 ct 
997 -124 994 -114 994 -102 ct 994 -86 998 -74 1005 -66 ct 1013 -59 1023 -55 1035 -55 ct 
1048 -55 1061 -59 1072 -66 ct 1083 -73 1092 -84 1099 -97 ct 1105 -110 1108 -124 1108 -139 ct 
1108 -156 l  p ef
1280 0 m  1280 -257 l  1280 -275 1280 -291 1280 -303 ct 1279 -315 1278 -326 1278 -336 ct 
1361 -336 l  1362 -332 1362 -321 1363 -302 ct 1364 -283 1365 -270 1365 -264 ct 
1366 -264 l  1375 -287 1382 -304 1389 -314 ct 1395 -323 1403 -330 1412 -335 ct 
1422 -340 1433 -342 1447 -342 ct 1458 -342 1467 -341 1474 -338 ct 1474 -264 l 
1459 -268 1447 -269 1436 -269 ct 1415 -269 1398 -260 1386 -243 ct 1374 -225 1367 -199 1367 -165 ct 
1367 0 l  1280 0 l  p ef
1744 0 m  1743 -4 1742 -11 1741 -24 ct 1740 -37 1739 -47 1739 -55 ct 1738 -55 l 
1719 -15 1683 6 1631 6 ct 1591 6 1561 -10 1540 -40 ct 1519 -71 1508 -113 1508 -168 ct 
1508 -224 1519 -267 1542 -297 ct 1564 -327 1596 -342 1637 -342 ct 1661 -342 1681 -337 1699 -327 ct 
1716 -317 1729 -303 1738 -283 ct 1739 -283 l  1738 -338 l  1738 -461 l  1826 -461 l 
1826 -74 l  1826 -53 1826 -29 1828 0 ct 1744 0 l  p
1740 -170 m  1740 -206 1734 -234 1722 -254 ct 1709 -273 1692 -283 1668 -283 ct 
1645 -283 1627 -274 1616 -255 ct 1605 -236 1599 -207 1599 -168 ct 1599 -92 1622 -54 1667 -54 ct 
1690 -54 1708 -64 1721 -84 ct 1733 -104 1740 -133 1740 -170 ct p ef
2111 -367 m  2111 -1 l  2019 -1 l  2019 -367 l  1878 -367 l  1878 -438 l 
2252 -438 l  2252 -367 l  2111 -367 l  p ef
2292 -397 m  2292 -461 l  2379 -461 l  2379 -397 l  2292 -397 l  p
2292 0 m  2292 -336 l  2379 -336 l  2379 0 l  2292 0 l  p ef
2668 0 m  2668 -189 l  2668 -248 2651 -277 2617 -277 ct 2599 -277 2585 -268 2574 -250 ct 
2563 -232 2557 -209 2557 -180 ct 2557 0 l  2470 0 l  2470 -261 l  2470 -279 2470 -293 2470 -305 ct 
2469 -316 2468 -327 2468 -336 ct 2551 -336 l  2552 -332 2552 -321 2553 -304 ct 
2554 -287 2555 -276 2555 -269 ct 2556 -269 l  2567 -295 2580 -314 2596 -325 ct 
2612 -337 2632 -342 2654 -342 ct 2705 -342 2736 -318 2747 -269 ct 2749 -269 l 
2760 -295 2774 -314 2790 -325 ct 2806 -337 2826 -342 2851 -342 ct 2883 -342 2908 -331 2926 -309 ct 
2943 -287 2951 -255 2951 -213 ct 2951 0 l  2865 0 l  2865 -189 l  2865 -248 2848 -277 2814 -277 ct 
2797 -277 2783 -269 2772 -252 ct 2761 -236 2755 -213 2754 -184 ct 2754 0 l  2668 0 l 
p ef
3171 6 m  3120 6 3082 -9 3054 -39 ct 3027 -69 3014 -112 3014 -170 ct 3014 -225 3028 -268 3055 -297 ct 
3083 -327 3122 -342 3172 -342 ct 3220 -342 3257 -326 3282 -294 ct 3308 -262 3320 -215 3320 -154 ct 
3320 -151 l  3105 -151 l  3105 -119 3111 -94 3123 -77 ct 3136 -61 3153 -52 3175 -52 ct 
3206 -52 3225 -66 3233 -92 ct 3315 -85 l  3292 -24 3243 6 3171 6 ct p
3171 -287 m  3150 -287 3134 -280 3123 -266 ct 3112 -251 3107 -231 3106 -206 ct 
3236 -206 l  3234 -233 3228 -253 3217 -267 ct 3205 -280 3190 -287 3171 -287 ct 
p ef
pom
gs
82 lw 1 lj 4625 2382 m  9006 2382 l  ps
gr
gs
4318 2383 m  4653 2593 l  4653 2172 l  4318 2383 l  p ef
gr
gs
9313 2381 m  8978 2171 l  8978 2592 l  9313 2381 l  p ef
gr
pum
5439 1948 t
240 -367 m  240 -1 l  148 -1 l  148 -367 l  7 -367 l  7 -438 l  381 -438 l 
381 -367 l  240 -367 l  p ef
643 0 m  565 -122 l  486 0 l  393 0 l  516 -173 l  399 -336 l  493 -336 l 
565 -226 l  636 -336 l  731 -336 l  614 -174 l  738 0 l  643 0 l  p ef
1386 -221 m  1386 -175 1377 -135 1359 -101 ct 1341 -66 1316 -40 1282 -21 ct 
1249 -3 1210 6 1165 6 ct 1096 6 1042 -14 1003 -55 ct 965 -95 945 -151 945 -221 ct 
945 -291 964 -346 1003 -385 ct 1042 -424 1096 -444 1166 -444 ct 1235 -444 1289 -424 1328 -384 ct 
1367 -345 1386 -290 1386 -221 ct p
1293 -221 m  1293 -268 1282 -305 1259 -332 ct 1237 -359 1206 -372 1166 -372 ct 
1125 -372 1093 -359 1071 -332 ct 1048 -306 1037 -268 1037 -221 ct 1037 -173 1049 -135 1071 -107 ct 
1094 -80 1125 -66 1165 -66 ct 1206 -66 1237 -79 1260 -106 ct 1282 -133 1293 -171 1293 -221 ct 
p ef
1561 -277 m  1561 -1 l  1474 -1 l  1474 -277 l  1425 -277 l  1425 -336 l 
1474 -336 l  1474 -371 l  1474 -402 1482 -424 1498 -439 ct 1514 -454 1539 -461 1572 -461 ct 
1588 -461 1606 -459 1627 -456 ct 1627 -400 l  1618 -402 1610 -403 1601 -403 ct 
1586 -403 1576 -400 1570 -394 ct 1564 -388 1561 -377 1561 -362 ct 1561 -336 l 
1627 -336 l  1627 -277 l  1561 -277 l  p ef
1773 -277 m  1773 -1 l  1686 -1 l  1686 -277 l  1637 -277 l  1637 -336 l 
1686 -336 l  1686 -371 l  1686 -402 1694 -424 1710 -439 ct 1726 -454 1751 -461 1784 -461 ct 
1800 -461 1818 -459 1839 -456 ct 1839 -400 l  1830 -402 1822 -403 1813 -403 ct 
1798 -403 1788 -400 1782 -394 ct 1776 -388 1773 -377 1773 -362 ct 1773 -336 l 
1839 -336 l  1839 -277 l  1773 -277 l  p ef
2164 -98 m  2164 -66 2151 -40 2124 -22 ct 2098 -3 2061 6 2014 6 ct 1968 6 1933 -1 1908 -16 ct 
1884 -30 1867 -53 1859 -84 ct 1936 -95 l  1940 -79 1948 -68 1958 -62 ct 1969 -55 1988 -52 2014 -52 ct 
2038 -52 2056 -55 2067 -61 ct 2079 -67 2084 -77 2084 -90 ct 2084 -101 2080 -109 2071 -116 ct 
2062 -122 2046 -127 2025 -132 ct 1976 -141 1943 -150 1925 -159 ct 1908 -167 1895 -178 1886 -191 ct 
1877 -205 1873 -221 1873 -240 ct 1873 -272 1885 -297 1910 -315 ct 1934 -333 1969 -342 2015 -342 ct 
2055 -342 2087 -334 2111 -319 ct 2135 -303 2150 -281 2156 -251 ct 2079 -243 l 
2077 -257 2071 -267 2061 -274 ct 2051 -281 2036 -284 2015 -284 ct 1994 -284 1978 -281 1968 -276 ct 
1958 -271 1953 -262 1953 -250 ct 1953 -240 1957 -232 1965 -227 ct 1973 -221 1986 -216 2005 -212 ct 
2031 -207 2054 -202 2075 -196 ct 2095 -190 2111 -183 2124 -176 ct 2136 -168 2146 -158 2153 -145 ct 
2160 -133 2164 -117 2164 -98 ct p ef
2371 6 m  2320 6 2282 -9 2254 -39 ct 2227 -69 2214 -112 2214 -170 ct 2214 -225 2228 -268 2255 -297 ct 
2283 -327 2322 -342 2372 -342 ct 2420 -342 2457 -326 2482 -294 ct 2508 -262 2520 -215 2520 -154 ct 
2520 -151 l  2305 -151 l  2305 -119 2311 -94 2323 -77 ct 2336 -61 2353 -52 2375 -52 ct 
2406 -52 2425 -66 2433 -92 ct 2515 -85 l  2492 -24 2443 6 2371 6 ct p
2371 -287 m  2350 -287 2334 -280 2323 -266 ct 2312 -251 2307 -231 2306 -206 ct 
2436 -206 l  2434 -233 2428 -253 2417 -267 ct 2405 -280 2390 -287 2371 -287 ct 
p ef
2670 6 m  2645 6 2625 -1 2611 -15 ct 2597 -29 2590 -50 2590 -78 ct 2590 -276 l 
2548 -276 l  2548 -335 l  2595 -335 l  2622 -414 l  2676 -414 l  2676 -335 l 
2740 -335 l  2740 -276 l  2676 -276 l  2676 -102 l  2676 -86 2680 -74 2686 -66 ct 
2692 -58 2702 -54 2715 -54 ct 2721 -54 2731 -56 2744 -59 ct 2744 -5 l  2722 2 2698 6 2670 6 ct 
p ef
pom
gs
82 lw 1 lj 21009 11056 m  24076 11050 l  ps
gr
gs
20701 11058 m  21037 11267 l  21036 10846 l  20701 11058 l  p ef
gr
gs
24384 11048 m  24048 10839 l  24049 11260 l  24384 11048 l  p ef
gr
pum
20956 10622 t
0.1 r 351 -1 m  313 -112 l  146 -112 l  107 -1 l  16 -1 l  175 -438 l  283 -438 l 
442 -1 l  351 -1 l  p
229 -370 m  227 -363 l  225 -356 223 -347 220 -338 ct 217 -328 199 -276 167 -181 ct 
292 -181 l  249 -307 l  236 -349 l  229 -370 l  p ef
704 -66 m  759 -66 797 -94 819 -149 ct 898 -119 l  881 -77 856 -45 823 -25 ct 
790 -4 750 6 704 6 ct 633 6 579 -14 541 -54 ct 502 -94 483 -149 483 -221 ct 483 -293 502 -348 539 -386 ct 
576 -425 629 -444 699 -444 ct 751 -444 792 -434 825 -413 ct 857 -393 880 -362 893 -322 ct 
812 -300 l  805 -322 792 -340 772 -353 ct 752 -366 728 -372 701 -372 ct 660 -372 629 -359 607 -334 ct 
586 -308 575 -270 575 -221 ct 575 -171 586 -132 608 -106 ct 630 -79 662 -66 704 -66 ct 
p ef
1259 0 m  1102 -201 l  1048 -160 l  1048 0 l  956 0 l  956 -437 l  1048 -437 l 
1048 -239 l  1245 -437 l  1352 -437 l  1165 -252 l  1367 0 l  1259 0 l 
p ef
1811 0 m  1810 -4 1809 -11 1808 -24 ct 1807 -37 1806 -47 1806 -55 ct 1805 -55 l 
1786 -15 1750 6 1698 6 ct 1658 6 1628 -10 1607 -40 ct 1586 -71 1575 -113 1575 -168 ct 
1575 -224 1586 -267 1609 -297 ct 1631 -327 1663 -342 1704 -342 ct 1728 -342 1748 -337 1766 -327 ct 
1783 -317 1796 -303 1805 -283 ct 1806 -283 l  1805 -338 l  1805 -461 l  1893 -461 l 
1893 -74 l  1893 -53 1893 -29 1895 0 ct 1811 0 l  p
1807 -170 m  1807 -206 1801 -234 1789 -254 ct 1776 -273 1759 -283 1735 -283 ct 
1712 -283 1694 -274 1683 -255 ct 1672 -236 1666 -207 1666 -168 ct 1666 -92 1689 -54 1734 -54 ct 
1757 -54 1775 -64 1788 -84 ct 1800 -104 1807 -133 1807 -170 ct p ef
2121 6 m  2070 6 2032 -9 2004 -39 ct 1977 -69 1964 -112 1964 -170 ct 1964 -225 1978 -268 2005 -297 ct 
2033 -327 2072 -342 2122 -342 ct 2170 -342 2207 -326 2232 -294 ct 2258 -262 2270 -215 2270 -154 ct 
2270 -151 l  2055 -151 l  2055 -119 2061 -94 2073 -77 ct 2086 -61 2103 -52 2125 -52 ct 
2156 -52 2175 -66 2183 -92 ct 2265 -85 l  2242 -24 2193 6 2121 6 ct p
2121 -287 m  2100 -287 2084 -280 2073 -266 ct 2062 -251 2057 -231 2056 -206 ct 
2186 -206 l  2184 -233 2178 -253 2167 -267 ct 2155 -280 2140 -287 2121 -287 ct 
p ef
2334 0 m  2334 -461 l  2421 -461 l  2421 0 l  2334 0 l  p ef
2590 6 m  2557 6 2532 -3 2514 -21 ct 2496 -38 2487 -63 2487 -95 ct 2487 -130 2498 -156 2521 -175 ct 
2543 -193 2576 -202 2619 -202 ct 2691 -204 l  2691 -221 l  2691 -243 2687 -259 2680 -270 ct 
2672 -280 2660 -286 2642 -286 ct 2626 -286 2614 -282 2607 -275 ct 2599 -267 2595 -255 2593 -238 ct 
2502 -242 l  2507 -275 2522 -300 2547 -317 ct 2571 -334 2604 -342 2646 -342 ct 
2688 -342 2721 -332 2744 -311 ct 2767 -290 2778 -260 2778 -222 ct 2778 -99 l 
2778 -81 2780 -68 2785 -61 ct 2789 -53 2796 -50 2806 -50 ct 2813 -50 2819 -50 2825 -52 ct 
2825 -5 l  2820 -3 2815 -2 2811 -1 ct 2807 0 2803 1 2799 1 ct 2795 2 2790 2 2786 3 ct 
2781 3 2776 4 2769 4 ct 2747 4 2731 -2 2721 -13 ct 2710 -23 2704 -39 2702 -60 ct 
2700 -60 l  2676 -16 2639 6 2590 6 ct p
2691 -156 m  2647 -155 l  2626 -154 2612 -152 2603 -148 ct 2595 -145 2589 -139 2584 -132 ct 
2580 -124 2577 -114 2577 -102 ct 2577 -86 2581 -74 2588 -66 ct 2596 -59 2606 -55 2618 -55 ct 
2631 -55 2644 -59 2655 -66 ct 2666 -73 2675 -84 2682 -97 ct 2688 -110 2691 -124 2691 -139 ct 
2691 -156 l  p ef
2907 132 m  2886 132 2868 131 2852 128 ct 2852 66 l  2863 68 2873 68 2882 68 ct 
2894 68 2905 66 2913 62 ct 2921 59 2928 52 2935 43 ct 2941 34 2949 18 2957 -3 ct 
2824 -336 l  2916 -336 l  2969 -178 l  2977 -156 2987 -121 3000 -75 ct 3008 -104 l 
3028 -177 l  3078 -336 l  3169 -336 l  3036 18 l  3018 61 3000 91 2981 107 ct 
2962 124 2937 132 2907 132 ct p ef
pom
gr
gs
0 0 m 30276 0 l 30276 18744 l 0 18744 l 0 0 l eoclip newpath
gr
gr
0 18745 t 
pom
count op_count sub {pop} repeat countdictstack dict_count sub {end} repeat b4_inc_state restore
%%PageTrailer
%%Trailer
%%EOF
