%!PS-Adobe-3.0 EPSF-3.0 
%%BoundingBox: 0 0 598 207
%%Pages: 0
%%Creator: LibreOffice 6.0
%%Title: none
%%CreationDate: none
%%LanguageLevel: 2
%%EndComments
%%BeginProlog
%%BeginResource: procset SDRes-Prolog 1.0 0
/b4_inc_state save def
/dict_count countdictstack def
/op_count count 1 sub def
userdict begin
0 setgray 0 setlinecap 1 setlinewidth 0 setlinejoin 10 setmiterlimit[] 0 setdash newpath
/languagelevel where {pop languagelevel 1 ne {false setstrokeadjust false setoverprint} if} if
/bdef {bind def} bind def
/c {setrgbcolor} bdef
/l {neg lineto} bdef
/rl {neg rlineto} bdef
/lc {setlinecap} bdef
/lj {setlinejoin} bdef
/lw {setlinewidth} bdef
/ml {setmiterlimit} bdef
/ld {setdash} bdef
/m {neg moveto} bdef
/ct {6 2 roll neg 6 2 roll neg 6 2 roll neg curveto} bdef
/r {rotate} bdef
/t {neg translate} bdef
/s {scale} bdef
/sw {show} bdef
/gs {gsave} bdef
/gr {grestore} bdef
/f {findfont dup length dict begin
{1 index /FID ne {def} {pop pop} ifelse} forall /Encoding ISOLatin1Encoding def
currentdict end /NFont exch definefont pop /NFont findfont} bdef
/p {closepath} bdef
/sf {scalefont setfont} bdef
/ef {eofill}bdef
/pc {closepath stroke}bdef
/ps {stroke}bdef
/pum {matrix currentmatrix}bdef
/pom {setmatrix}bdef
/bs {/aString exch def /nXOfs exch def /nWidth exch def currentpoint nXOfs 0 rmoveto pum nWidth aString stringwidth pop div 1 scale aString show pom moveto} bdef
%%EndResource
%%EndProlog
%%BeginSetup
%%EndSetup
%%Page: 1 1
%%BeginPageSetup
%%EndPageSetup
pum
0.02836 0.02829 s 
0 -7315 t
/tm matrix currentmatrix def
gs
0 0 m 21081 0 l 21081 7314 l 0 7314 l 0 0 l eoclip newpath
gs
0 0 m 21081 0 l 21081 7314 l 0 7314 l 0 0 l eoclip newpath
gs
1.000 0.203 0.203 c 1320 1295 m  3340 1295 l  3340 2208 l  1320 2208 l 
1320 1295 l  p ef
gr
pum
1822 1947 t
0.003 0.003 0.003 c 102 -197 m  102 -46 l  167 -46 l  200 -46 223 -51 237 -63 ct 
250 -74 257 -93 257 -119 ct 257 -146 250 -165 235 -178 ct 221 -191 198 -197 167 -197 ct 
102 -197 l  p
102 -365 m  102 -242 l  166 -242 l  193 -242 213 -247 225 -257 ct 237 -268 243 -284 243 -307 ct 
243 -328 237 -342 225 -352 ct 213 -361 194 -365 166 -365 ct 102 -365 l  p
46 -411 m  167 -411 l  209 -411 242 -402 265 -384 ct 287 -366 299 -340 299 -307 ct 
299 -282 293 -262 281 -248 ct 269 -233 251 -224 227 -221 ct 254 -216 275 -205 290 -186 ct 
305 -167 313 -143 313 -113 ct 313 -76 301 -48 276 -29 ct 252 -10 216 0 167 0 ct 
46 0 l  46 -411 l  p ef
pom
pum
2161 1947 t
321 -143 m  241 -63 l  216 -88 l  260 -132 l  18 -132 l  18 -177 l  260 -177 l 
216 -221 l  241 -246 l  321 -166 l  321 -143 l  p ef
509 -362 m  450 -152 l  567 -152 l  509 -362 l  p
475 -411 m  543 -411 l  668 0 l  611 0 l  581 -107 l  436 -107 l  407 0 l 
349 0 l  475 -411 l  p ef
pom
gs
0.003 0.800 0.203 c 3340 1295 m  5360 1295 l  5360 2208 l  3340 2208 l  3340 1295 l 
p ef
gr
pum
3842 1947 t
296 -15 m  281 -7 267 -1 252 2 ct 237 6 221 8 205 8 ct 152 8 111 -11 82 -48 ct 
53 -85 38 -138 38 -205 ct 38 -273 53 -325 82 -363 ct 111 -400 152 -419 205 -419 ct 
221 -419 237 -417 252 -413 ct 267 -410 281 -404 296 -396 ct 296 -339 l  282 -351 267 -359 252 -365 ct 
236 -371 220 -374 205 -374 ct 168 -374 141 -360 123 -332 ct 105 -304 96 -262 96 -205 ct 
96 -149 105 -107 123 -79 ct 141 -51 168 -37 205 -37 ct 221 -37 237 -40 252 -46 ct 
268 -52 282 -60 296 -72 ct 296 -15 l  p ef
pom
pum
4181 1947 t
321 -143 m  241 -63 l  216 -88 l  260 -132 l  18 -132 l  18 -177 l  260 -177 l 
216 -221 l  241 -246 l  321 -166 l  321 -143 l  p ef
509 -362 m  450 -152 l  567 -152 l  509 -362 l  p
475 -411 m  543 -411 l  668 0 l  611 0 l  581 -107 l  436 -107 l  407 0 l 
349 0 l  475 -411 l  p ef
pom
gs
1.000 0.203 1.000 c 5360 1295 m  7380 1295 l  7380 2208 l  5360 2208 l 
5360 1295 l  p ef
gr
pum
5862 1947 t
120 -46 m  167 -46 200 -57 218 -80 ct 237 -103 246 -145 246 -205 ct 246 -266 237 -308 218 -331 ct 
200 -354 167 -365 120 -365 ct 94 -365 l  94 -46 l  120 -46 l  p
121 -411 m  184 -411 230 -394 260 -361 ct 290 -327 305 -276 305 -205 ct 305 -135 290 -83 260 -50 ct 
230 -17 184 0 121 0 ct 38 0 l  38 -411 l  121 -411 l  p ef
pom
pum
6201 1947 t
321 -143 m  241 -63 l  216 -88 l  260 -132 l  18 -132 l  18 -177 l  260 -177 l 
216 -221 l  241 -246 l  321 -166 l  321 -143 l  p ef
509 -362 m  450 -152 l  567 -152 l  509 -362 l  p
475 -411 m  543 -411 l  668 0 l  611 0 l  581 -107 l  436 -107 l  407 0 l 
349 0 l  475 -411 l  p ef
pom
gs
1.000 0.203 0.203 c 7380 1295 m  9400 1295 l  9400 2208 l  7380 2208 l 
7380 1295 l  p ef
gr
pum
7882 1947 t
102 -197 m  102 -46 l  167 -46 l  200 -46 223 -51 237 -63 ct 250 -74 257 -93 257 -119 ct 
257 -146 250 -165 235 -178 ct 221 -191 198 -197 167 -197 ct 102 -197 l  p
102 -365 m  102 -242 l  166 -242 l  193 -242 213 -247 225 -257 ct 237 -268 243 -284 243 -307 ct 
243 -328 237 -342 225 -352 ct 213 -361 194 -365 166 -365 ct 102 -365 l  p
46 -411 m  167 -411 l  209 -411 242 -402 265 -384 ct 287 -366 299 -340 299 -307 ct 
299 -282 293 -262 281 -248 ct 269 -233 251 -224 227 -221 ct 254 -216 275 -205 290 -186 ct 
305 -167 313 -143 313 -113 ct 313 -76 301 -48 276 -29 ct 252 -10 216 0 167 0 ct 
46 0 l  46 -411 l  p ef
pom
pum
8221 1947 t
321 -143 m  241 -63 l  216 -88 l  260 -132 l  18 -132 l  18 -177 l  260 -177 l 
216 -221 l  241 -246 l  321 -166 l  321 -143 l  p ef
509 -362 m  450 -152 l  567 -152 l  509 -362 l  p
475 -411 m  543 -411 l  668 0 l  611 0 l  581 -107 l  436 -107 l  407 0 l 
349 0 l  475 -411 l  p ef
pom
gs
0.003 0.800 0.203 c 9400 1295 m  11420 1295 l  11420 2208 l  9400 2208 l 
9400 1295 l  p ef
gr
pum
9902 1947 t
296 -15 m  281 -7 267 -1 252 2 ct 237 6 221 8 205 8 ct 152 8 111 -11 82 -48 ct 
53 -85 38 -138 38 -205 ct 38 -273 53 -325 82 -363 ct 111 -400 152 -419 205 -419 ct 
221 -419 237 -417 252 -413 ct 267 -410 281 -404 296 -396 ct 296 -339 l  282 -351 267 -359 252 -365 ct 
236 -371 220 -374 205 -374 ct 168 -374 141 -360 123 -332 ct 105 -304 96 -262 96 -205 ct 
96 -149 105 -107 123 -79 ct 141 -51 168 -37 205 -37 ct 221 -37 237 -40 252 -46 ct 
268 -52 282 -60 296 -72 ct 296 -15 l  p ef
pom
pum
10241 1947 t
321 -143 m  241 -63 l  216 -88 l  260 -132 l  18 -132 l  18 -177 l  260 -177 l 
216 -221 l  241 -246 l  321 -166 l  321 -143 l  p ef
509 -362 m  450 -152 l  567 -152 l  509 -362 l  p
475 -411 m  543 -411 l  668 0 l  611 0 l  581 -107 l  436 -107 l  407 0 l 
349 0 l  475 -411 l  p ef
pom
gs
1.000 0.203 1.000 c 11420 1295 m  13440 1295 l  13440 2208 l  11420 2208 l 
11420 1295 l  p ef
gr
pum
11922 1947 t
120 -46 m  167 -46 200 -57 218 -80 ct 237 -103 246 -145 246 -205 ct 246 -266 237 -308 218 -331 ct 
200 -354 167 -365 120 -365 ct 94 -365 l  94 -46 l  120 -46 l  p
121 -411 m  184 -411 230 -394 260 -361 ct 290 -327 305 -276 305 -205 ct 305 -135 290 -83 260 -50 ct 
230 -17 184 0 121 0 ct 38 0 l  38 -411 l  121 -411 l  p ef
pom
pum
12261 1947 t
321 -143 m  241 -63 l  216 -88 l  260 -132 l  18 -132 l  18 -177 l  260 -177 l 
216 -221 l  241 -246 l  321 -166 l  321 -143 l  p ef
509 -362 m  450 -152 l  567 -152 l  509 -362 l  p
475 -411 m  543 -411 l  668 0 l  611 0 l  581 -107 l  436 -107 l  407 0 l 
349 0 l  475 -411 l  p ef
pom
gs
0.601 0.601 1.000 c 1320 2208 m  3340 2208 l  3340 3121 l  1320 3121 l 
1320 2208 l  p ef
gr
pum
1822 2860 t
64 -411 m  306 -411 l  306 -364 l  120 -364 l  120 -243 l  289 -243 l 
289 -196 l  120 -196 l  120 1 l  64 1 l  64 -411 l  p ef
pom
pum
2161 2860 t
321 -143 m  241 -63 l  216 -88 l  260 -132 l  18 -132 l  18 -177 l  260 -177 l 
216 -221 l  241 -246 l  321 -166 l  321 -143 l  p ef
635 -15 m  620 -7 606 -1 591 2 ct 576 6 560 8 544 8 ct 491 8 450 -11 421 -48 ct 
392 -85 377 -138 377 -205 ct 377 -273 392 -325 421 -363 ct 450 -400 491 -419 544 -419 ct 
560 -419 576 -417 591 -413 ct 606 -410 620 -404 635 -396 ct 635 -339 l  621 -351 606 -359 591 -365 ct 
575 -371 559 -374 544 -374 ct 507 -374 480 -360 462 -332 ct 444 -304 435 -262 435 -205 ct 
435 -149 444 -107 462 -79 ct 480 -51 507 -37 544 -37 ct 560 -37 576 -40 591 -46 ct 
607 -52 621 -60 635 -72 ct 635 -15 l  p ef
pom
gs
1.000 0.828 0.128 c 3340 2208 m  5360 2208 l  5360 3121 l  3340 3121 l 
3340 2208 l  p ef
gr
pum
3842 2860 t
304 -34 m  289 -20 272 -10 254 -3 ct 235 4 215 8 193 8 ct 141 8 101 -11 72 -48 ct 
43 -85 28 -138 28 -205 ct 28 -273 43 -325 72 -363 ct 102 -400 142 -419 195 -419 ct 
212 -419 228 -417 244 -412 ct 260 -407 275 -399 290 -390 ct 290 -332 l  275 -347 260 -357 244 -364 ct 
229 -370 212 -374 195 -374 ct 159 -374 131 -360 113 -332 ct 95 -304 86 -262 86 -205 ct 
86 -148 95 -106 113 -78 ct 130 -51 157 -37 193 -37 ct 206 -37 216 -39 226 -41 ct 
235 -44 243 -49 251 -55 ct 251 -165 l  191 -165 l  191 -211 l  304 -211 l 
304 -34 l  p ef
pom
pum
4181 2860 t
321 -143 m  241 -63 l  216 -88 l  260 -132 l  18 -132 l  18 -177 l  260 -177 l 
216 -221 l  241 -246 l  321 -166 l  321 -143 l  p ef
459 -46 m  506 -46 539 -57 557 -80 ct 576 -103 585 -145 585 -205 ct 585 -266 576 -308 557 -331 ct 
539 -354 506 -365 459 -365 ct 433 -365 l  433 -46 l  459 -46 l  p
460 -411 m  523 -411 569 -394 599 -361 ct 629 -327 644 -276 644 -205 ct 644 -135 629 -83 599 -50 ct 
569 -17 523 0 460 0 ct 377 0 l  377 -411 l  460 -411 l  p ef
pom
gs
0.003 0.800 1.000 c 5360 2208 m  7380 2208 l  7380 3121 l  5360 3121 l  5360 2208 l 
p ef
gr
pum
5862 2860 t
54 -411 m  298 -411 l  298 -364 l  110 -364 l  110 -243 l  290 -243 l 
290 -196 l  110 -196 l  110 -47 l  303 -47 l  303 0 l  54 0 l  54 -411 l 
p ef
pom
pum
6201 2860 t
321 -143 m  241 -63 l  216 -88 l  260 -132 l  18 -132 l  18 -177 l  260 -177 l 
216 -221 l  241 -246 l  321 -166 l  321 -143 l  p ef
441 -197 m  441 -46 l  506 -46 l  539 -46 562 -51 576 -63 ct 589 -74 596 -93 596 -119 ct 
596 -146 589 -165 574 -178 ct 560 -191 537 -197 506 -197 ct 441 -197 l  p
441 -365 m  441 -242 l  505 -242 l  532 -242 552 -247 564 -257 ct 576 -268 582 -284 582 -307 ct 
582 -328 576 -342 564 -352 ct 552 -361 533 -365 505 -365 ct 441 -365 l  p
385 -411 m  506 -411 l  548 -411 581 -402 604 -384 ct 626 -366 638 -340 638 -307 ct 
638 -282 632 -262 620 -248 ct 608 -233 590 -224 566 -221 ct 593 -216 614 -205 629 -186 ct 
644 -167 652 -143 652 -113 ct 652 -76 640 -48 615 -29 ct 591 -10 555 0 506 0 ct 
385 0 l  385 -411 l  p ef
pom
gs
1.000 1.000 1.000 c 7380 2208 m  9400 2208 l  9400 3121 l  7380 3121 l 
7380 2208 l  p ef
gr
gs
1.000 1.000 1.000 c 9400 2208 m  11420 2208 l  11420 3121 l  9400 3121 l 
9400 2208 l  p ef
gr
gs
1.000 1.000 1.000 c 11420 2208 m  13440 2208 l  13440 3121 l  11420 3121 l 
11420 2208 l  p ef
gr
gs
1.000 1.000 1.000 c 1320 3121 m  3340 3121 l  3340 4034 l  1320 4034 l 
1320 3121 l  p ef
gr
gs
1.000 1.000 1.000 c 3340 3121 m  5360 3121 l  5360 4034 l  3340 4034 l 
3340 3121 l  p ef
gr
gs
1.000 1.000 1.000 c 5360 3121 m  7380 3121 l  7380 4034 l  5360 4034 l 
5360 3121 l  p ef
gr
gs
1.000 1.000 1.000 c 7380 3121 m  9400 3121 l  9400 4034 l  7380 4034 l 
7380 3121 l  p ef
gr
gs
1.000 1.000 1.000 c 9400 3121 m  11420 3121 l  11420 4034 l  9400 4034 l 
9400 3121 l  p ef
gr
gs
1.000 1.000 1.000 c 11420 3121 m  13440 3121 l  13440 4034 l  11420 4034 l 
11420 3121 l  p ef
gr
gs
1.000 1.000 1.000 c 1320 4034 m  3340 4034 l  3340 5750 l  1320 5750 l 
1320 4034 l  p ef
gr
pum
1822 5087 t
135 -84 m  204 -84 l  204 0 l  135 0 l  135 -84 l  p ef
474 -84 m  543 -84 l  543 0 l  474 0 l  474 -84 l  p ef
812 -84 m  881 -84 l  881 0 l  812 0 l  812 -84 l  p ef
pom
gs
1.000 1.000 1.000 c 3340 4034 m  5360 4034 l  5360 5750 l  3340 5750 l 
3340 4034 l  p ef
gr
pum
3842 5087 t
135 -84 m  204 -84 l  204 0 l  135 0 l  135 -84 l  p ef
474 -84 m  543 -84 l  543 0 l  474 0 l  474 -84 l  p ef
812 -84 m  881 -84 l  881 0 l  812 0 l  812 -84 l  p ef
pom
gs
1.000 1.000 1.000 c 5360 4034 m  7380 4034 l  7380 5750 l  5360 5750 l 
5360 4034 l  p ef
gr
pum
5862 5087 t
135 -84 m  204 -84 l  204 0 l  135 0 l  135 -84 l  p ef
474 -84 m  543 -84 l  543 0 l  474 0 l  474 -84 l  p ef
812 -84 m  881 -84 l  881 0 l  812 0 l  812 -84 l  p ef
pom
gs
1.000 1.000 1.000 c 7380 4034 m  9400 4034 l  9400 5750 l  7380 5750 l 
7380 4034 l  p ef
gr
pum
7882 5087 t
135 -84 m  204 -84 l  204 0 l  135 0 l  135 -84 l  p ef
474 -84 m  543 -84 l  543 0 l  474 0 l  474 -84 l  p ef
812 -84 m  881 -84 l  881 0 l  812 0 l  812 -84 l  p ef
pom
gs
1.000 1.000 1.000 c 9400 4034 m  11420 4034 l  11420 5750 l  9400 5750 l 
9400 4034 l  p ef
gr
pum
9902 5087 t
135 -84 m  204 -84 l  204 0 l  135 0 l  135 -84 l  p ef
474 -84 m  543 -84 l  543 0 l  474 0 l  474 -84 l  p ef
812 -84 m  881 -84 l  881 0 l  812 0 l  812 -84 l  p ef
pom
gs
1.000 1.000 1.000 c 11420 4034 m  13440 4034 l  13440 5750 l  11420 5750 l 
11420 4034 l  p ef
gr
pum
11922 5087 t
135 -84 m  204 -84 l  204 0 l  135 0 l  135 -84 l  p ef
474 -84 m  543 -84 l  543 0 l  474 0 l  474 -84 l  p ef
812 -84 m  881 -84 l  881 0 l  812 0 l  812 -84 l  p ef
pom
gs
1.000 1.000 1.000 c 1320 5750 m  3340 5750 l  3340 6663 l  1320 6663 l 
1320 5750 l  p ef
gr
gs
1.000 1.000 1.000 c 3340 5750 m  5360 5750 l  5360 6663 l  3340 6663 l 
3340 5750 l  p ef
gr
gs
1.000 1.000 1.000 c 5360 5750 m  7380 5750 l  7380 6663 l  5360 6663 l 
5360 5750 l  p ef
gr
gs
1.000 1.000 1.000 c 7380 5750 m  9400 5750 l  9400 6663 l  7380 6663 l 
7380 5750 l  p ef
gr
gs
1.000 1.000 1.000 c 9400 5750 m  11420 5750 l  11420 6663 l  9400 6663 l 
9400 5750 l  p ef
gr
gs
1.000 1.000 1.000 c 11420 5750 m  13440 5750 l  13440 6663 l  11420 6663 l 
11420 5750 l  p ef
gr
gs
8.82 lw 1 lj 0.328 0.328 0.328 c 1302 1282 m  3358 1282 l  ps
gr
gs
17.64 lw 1 lj 0.167 0.167 0.167 c 1311 1295 m  3349 1295 l  ps
gr
gs
8.82 lw 1 lj 1329 1308 m  3331 1308 l  ps
gr
gs
8.82 lw 1 lj 0.328 0.328 0.328 c 3322 1282 m  5378 1282 l  ps
gr
gs
17.64 lw 1 lj 0.167 0.167 0.167 c 3331 1295 m  5369 1295 l  ps
gr
gs
8.82 lw 1 lj 3349 1308 m  5351 1308 l  ps
gr
gs
8.82 lw 1 lj 0.328 0.328 0.328 c 5342 1282 m  7398 1282 l  ps
gr
gs
17.64 lw 1 lj 0.167 0.167 0.167 c 5351 1295 m  7389 1295 l  ps
gr
gs
8.82 lw 1 lj 5369 1308 m  7371 1308 l  ps
gr
gs
8.82 lw 1 lj 0.328 0.328 0.328 c 7362 1282 m  9418 1282 l  ps
gr
gs
17.64 lw 1 lj 0.167 0.167 0.167 c 7371 1295 m  9409 1295 l  ps
gr
gs
8.82 lw 1 lj 7389 1308 m  9391 1308 l  ps
gr
gs
8.82 lw 1 lj 0.328 0.328 0.328 c 9382 1282 m  11438 1282 l  ps
gr
gs
17.64 lw 1 lj 0.167 0.167 0.167 c 9391 1295 m  11429 1295 l  ps
gr
gs
8.82 lw 1 lj 9409 1308 m  11411 1308 l  ps
gr
gs
8.82 lw 1 lj 0.328 0.328 0.328 c 11402 1282 m  13458 1282 l  ps
gr
gs
17.64 lw 1 lj 0.167 0.167 0.167 c 11411 1295 m  13449 1295 l  ps
gr
gs
8.82 lw 1 lj 11429 1308 m  13431 1308 l  ps
gr
gs
8.82 lw 1 lj 0.328 0.328 0.328 c 1329 2195 m  3331 2195 l  ps
gr
gs
17.64 lw 1 lj 0.167 0.167 0.167 c 1311 2208 m  3349 2208 l  ps
gr
gs
8.82 lw 1 lj 1329 2221 m  3331 2221 l  ps
gr
gs
8.82 lw 1 lj 0.328 0.328 0.328 c 3349 2195 m  5351 2195 l  ps
gr
gs
17.64 lw 1 lj 0.167 0.167 0.167 c 3331 2208 m  5369 2208 l  ps
gr
gs
8.82 lw 1 lj 3349 2221 m  5351 2221 l  ps
gr
gs
8.82 lw 1 lj 0.328 0.328 0.328 c 5369 2195 m  7371 2195 l  ps
gr
gs
17.64 lw 1 lj 0.167 0.167 0.167 c 5351 2208 m  7389 2208 l  ps
gr
gs
8.82 lw 1 lj 5369 2221 m  7371 2221 l  ps
gr
gs
8.82 lw 1 lj 0.328 0.328 0.328 c 7389 2195 m  9391 2195 l  ps
gr
gs
17.64 lw 1 lj 0.167 0.167 0.167 c 7371 2208 m  9409 2208 l  ps
gr
gs
8.82 lw 1 lj 7389 2221 m  9391 2221 l  ps
gr
gs
8.82 lw 1 lj 0.328 0.328 0.328 c 9409 2195 m  11411 2195 l  ps
gr
gs
17.64 lw 1 lj 0.167 0.167 0.167 c 9391 2208 m  11429 2208 l  ps
gr
gs
8.82 lw 1 lj 9409 2221 m  11411 2221 l  ps
gr
gs
8.82 lw 1 lj 0.328 0.328 0.328 c 11429 2195 m  13431 2195 l  ps
gr
gs
17.64 lw 1 lj 0.167 0.167 0.167 c 11411 2208 m  13449 2208 l  ps
gr
gs
8.82 lw 1 lj 11429 2221 m  13431 2221 l  ps
gr
gs
8.82 lw 1 lj 0.328 0.328 0.328 c 1329 3108 m  3331 3108 l  ps
gr
gs
17.64 lw 1 lj 0.167 0.167 0.167 c 1311 3121 m  3349 3121 l  ps
gr
gs
8.82 lw 1 lj 1329 3134 m  3331 3134 l  ps
gr
gs
8.82 lw 1 lj 0.328 0.328 0.328 c 3349 3108 m  5351 3108 l  ps
gr
gs
17.64 lw 1 lj 0.167 0.167 0.167 c 3331 3121 m  5369 3121 l  ps
gr
gs
8.82 lw 1 lj 3349 3134 m  5351 3134 l  ps
gr
gs
8.82 lw 1 lj 0.328 0.328 0.328 c 5369 3108 m  7371 3108 l  ps
gr
gs
17.64 lw 1 lj 0.167 0.167 0.167 c 5351 3121 m  7389 3121 l  ps
gr
gs
8.82 lw 1 lj 5369 3134 m  7371 3134 l  ps
gr
gs
8.82 lw 1 lj 0.328 0.328 0.328 c 7389 3108 m  9391 3108 l  ps
gr
gs
17.64 lw 1 lj 0.167 0.167 0.167 c 7371 3121 m  9409 3121 l  ps
gr
gs
8.82 lw 1 lj 7389 3134 m  9391 3134 l  ps
gr
gs
8.82 lw 1 lj 0.328 0.328 0.328 c 9409 3108 m  11411 3108 l  ps
gr
gs
17.64 lw 1 lj 0.167 0.167 0.167 c 9391 3121 m  11429 3121 l  ps
gr
gs
8.82 lw 1 lj 9409 3134 m  11411 3134 l  ps
gr
gs
8.82 lw 1 lj 0.328 0.328 0.328 c 11429 3108 m  13431 3108 l  ps
gr
gs
17.64 lw 1 lj 0.167 0.167 0.167 c 11411 3121 m  13449 3121 l  ps
gr
gs
8.82 lw 1 lj 11429 3134 m  13431 3134 l  ps
gr
gs
8.82 lw 1 lj 0.328 0.328 0.328 c 1329 4021 m  3331 4021 l  ps
gr
gs
17.64 lw 1 lj 0.167 0.167 0.167 c 1311 4034 m  3349 4034 l  ps
gr
gs
8.82 lw 1 lj 1329 4047 m  3331 4047 l  ps
gr
gs
8.82 lw 1 lj 0.328 0.328 0.328 c 3349 4021 m  5351 4021 l  ps
gr
gs
17.64 lw 1 lj 0.167 0.167 0.167 c 3331 4034 m  5369 4034 l  ps
gr
gs
8.82 lw 1 lj 3349 4047 m  5351 4047 l  ps
gr
gs
8.82 lw 1 lj 5369 4021 m  7371 4021 l  ps
gr
gs
17.64 lw 1 lj 0.167 0.167 0.167 c 5351 4034 m  7389 4034 l  ps
gr
gs
8.82 lw 1 lj 0.328 0.328 0.328 c 5369 4047 m  7371 4047 l  ps
gr
gs
8.82 lw 1 lj 0.328 0.328 0.328 c 7389 4021 m  9391 4021 l  ps
gr
gs
17.64 lw 1 lj 0.167 0.167 0.167 c 7371 4034 m  9409 4034 l  ps
gr
gs
8.82 lw 1 lj 7389 4047 m  9391 4047 l  ps
gr
gs
8.82 lw 1 lj 0.328 0.328 0.328 c 9409 4021 m  11411 4021 l  ps
gr
gs
17.64 lw 1 lj 0.167 0.167 0.167 c 9391 4034 m  11429 4034 l  ps
gr
gs
8.82 lw 1 lj 9409 4047 m  11411 4047 l  ps
gr
gs
8.82 lw 1 lj 0.328 0.328 0.328 c 11429 4021 m  13431 4021 l  ps
gr
gs
17.64 lw 1 lj 0.167 0.167 0.167 c 11411 4034 m  13449 4034 l  ps
gr
gs
8.82 lw 1 lj 11429 4047 m  13431 4047 l  ps
gr
gs
8.82 lw 1 lj 0.328 0.328 0.328 c 1329 5737 m  3331 5737 l  ps
gr
gs
17.64 lw 1 lj 0.167 0.167 0.167 c 1311 5750 m  3349 5750 l  ps
gr
gs
8.82 lw 1 lj 1329 5763 m  3331 5763 l  ps
gr
gs
8.82 lw 1 lj 0.328 0.328 0.328 c 1329 6650 m  3331 6650 l  ps
gr
gs
17.64 lw 1 lj 0.167 0.167 0.167 c 1311 6663 m  3349 6663 l  ps
gr
gs
8.82 lw 1 lj 1302 6676 m  3358 6676 l  ps
gr
gs
8.82 lw 1 lj 0.328 0.328 0.328 c 3349 5737 m  5351 5737 l  ps
gr
gs
17.64 lw 1 lj 0.167 0.167 0.167 c 3331 5750 m  5369 5750 l  ps
gr
gs
8.82 lw 1 lj 3349 5763 m  5351 5763 l  ps
gr
gs
8.82 lw 1 lj 0.328 0.328 0.328 c 3349 6650 m  5351 6650 l  ps
gr
gs
17.64 lw 1 lj 0.167 0.167 0.167 c 3331 6663 m  5369 6663 l  ps
gr
gs
8.82 lw 1 lj 3322 6676 m  5378 6676 l  ps
gr
gs
8.82 lw 1 lj 0.328 0.328 0.328 c 5369 5737 m  7371 5737 l  ps
gr
gs
17.64 lw 1 lj 0.167 0.167 0.167 c 5351 5750 m  7389 5750 l  ps
gr
gs
8.82 lw 1 lj 5369 5763 m  7371 5763 l  ps
gr
gs
8.82 lw 1 lj 0.328 0.328 0.328 c 5369 6650 m  7371 6650 l  ps
gr
gs
17.64 lw 1 lj 0.167 0.167 0.167 c 5351 6663 m  7389 6663 l  ps
gr
gs
8.82 lw 1 lj 5342 6676 m  7398 6676 l  ps
gr
gs
8.82 lw 1 lj 0.328 0.328 0.328 c 7389 5737 m  9391 5737 l  ps
gr
gs
17.64 lw 1 lj 0.167 0.167 0.167 c 7371 5750 m  9409 5750 l  ps
gr
gs
8.82 lw 1 lj 7389 5763 m  9391 5763 l  ps
gr
gs
8.82 lw 1 lj 0.328 0.328 0.328 c 7389 6650 m  9391 6650 l  ps
gr
gs
17.64 lw 1 lj 0.167 0.167 0.167 c 7371 6663 m  9409 6663 l  ps
gr
gs
8.82 lw 1 lj 7362 6676 m  9418 6676 l  ps
gr
gs
8.82 lw 1 lj 0.328 0.328 0.328 c 9409 5737 m  11411 5737 l  ps
gr
gs
17.64 lw 1 lj 0.167 0.167 0.167 c 9391 5750 m  11429 5750 l  ps
gr
gs
8.82 lw 1 lj 9409 5763 m  11411 5763 l  ps
gr
gs
8.82 lw 1 lj 0.328 0.328 0.328 c 9409 6650 m  11411 6650 l  ps
gr
gs
17.64 lw 1 lj 0.167 0.167 0.167 c 9391 6663 m  11429 6663 l  ps
gr
gs
8.82 lw 1 lj 9382 6676 m  11438 6676 l  ps
gr
gs
8.82 lw 1 lj 0.328 0.328 0.328 c 11429 5737 m  13431 5737 l  ps
gr
gs
17.64 lw 1 lj 0.167 0.167 0.167 c 11411 5750 m  13449 5750 l  ps
gr
gs
8.82 lw 1 lj 11429 5763 m  13431 5763 l  ps
gr
gs
8.82 lw 1 lj 0.328 0.328 0.328 c 11429 6650 m  13431 6650 l  ps
gr
gs
17.64 lw 1 lj 0.167 0.167 0.167 c 11411 6663 m  13449 6663 l  ps
gr
gs
8.82 lw 1 lj 11402 6676 m  13458 6676 l  ps
gr
gs
8.82 lw 1 lj 0.328 0.328 0.328 c 1333 1304 m  1333 2199 l  ps
gr
gs
17.64 lw 1 lj 0.167 0.167 0.167 c 1320 1286 m  1320 2217 l  ps
gr
gs
8.82 lw 1 lj 1307 1277 m  1307 2226 l  ps
gr
gs
8.82 lw 1 lj 0.328 0.328 0.328 c 1333 2217 m  1333 3112 l  ps
gr
gs
17.64 lw 1 lj 0.167 0.167 0.167 c 1320 2199 m  1320 3130 l  ps
gr
gs
8.82 lw 1 lj 1307 2190 m  1307 3139 l  ps
gr
gs
8.82 lw 1 lj 0.328 0.328 0.328 c 1333 3130 m  1333 4025 l  ps
gr
gs
17.64 lw 1 lj 0.167 0.167 0.167 c 1320 3112 m  1320 4043 l  ps
gr
gs
8.82 lw 1 lj 1307 3103 m  1307 4052 l  ps
gr
gs
8.82 lw 1 lj 0.328 0.328 0.328 c 1333 4043 m  1333 5741 l  ps
gr
gs
17.64 lw 1 lj 0.167 0.167 0.167 c 1320 4025 m  1320 5759 l  ps
gr
gs
8.82 lw 1 lj 1307 4016 m  1307 5768 l  ps
gr
gs
8.82 lw 1 lj 0.328 0.328 0.328 c 1333 5759 m  1333 6654 l  ps
gr
gs
17.64 lw 1 lj 0.167 0.167 0.167 c 1320 5741 m  1320 6672 l  ps
gr
gs
8.82 lw 1 lj 1307 5732 m  1307 6681 l  ps
gr
gs
8.82 lw 1 lj 0.328 0.328 0.328 c 3353 1304 m  3353 2199 l  ps
gr
gs
17.64 lw 1 lj 0.167 0.167 0.167 c 3340 1286 m  3340 2217 l  ps
gr
gs
8.82 lw 1 lj 3327 1304 m  3327 2199 l  ps
gr
gs
8.82 lw 1 lj 0.328 0.328 0.328 c 3353 2217 m  3353 3112 l  ps
gr
gs
17.64 lw 1 lj 0.167 0.167 0.167 c 3340 2199 m  3340 3130 l  ps
gr
gs
8.82 lw 1 lj 3327 2217 m  3327 3112 l  ps
gr
gs
8.82 lw 1 lj 0.328 0.328 0.328 c 3353 3130 m  3353 4025 l  ps
gr
gs
17.64 lw 1 lj 0.167 0.167 0.167 c 3340 3112 m  3340 4043 l  ps
gr
gs
8.82 lw 1 lj 3327 3130 m  3327 4025 l  ps
gr
gs
8.82 lw 1 lj 0.328 0.328 0.328 c 3353 4043 m  3353 5741 l  ps
gr
gs
17.64 lw 1 lj 0.167 0.167 0.167 c 3340 4025 m  3340 5759 l  ps
gr
gs
8.82 lw 1 lj 3327 4043 m  3327 5741 l  ps
gr
gs
8.82 lw 1 lj 0.328 0.328 0.328 c 3353 5759 m  3353 6654 l  ps
gr
gs
17.64 lw 1 lj 0.167 0.167 0.167 c 3340 5741 m  3340 6672 l  ps
gr
gs
8.82 lw 1 lj 3327 5759 m  3327 6654 l  ps
gr
gs
8.82 lw 1 lj 0.328 0.328 0.328 c 5373 1304 m  5373 2199 l  ps
gr
gs
17.64 lw 1 lj 0.167 0.167 0.167 c 5360 1286 m  5360 2217 l  ps
gr
gs
8.82 lw 1 lj 5347 1304 m  5347 2199 l  ps
gr
gs
8.82 lw 1 lj 0.328 0.328 0.328 c 5373 2217 m  5373 3112 l  ps
gr
gs
17.64 lw 1 lj 0.167 0.167 0.167 c 5360 2199 m  5360 3130 l  ps
gr
gs
8.82 lw 1 lj 5347 2217 m  5347 3112 l  ps
gr
gs
8.82 lw 1 lj 0.328 0.328 0.328 c 5373 3130 m  5373 4025 l  ps
gr
gs
17.64 lw 1 lj 0.167 0.167 0.167 c 5360 3112 m  5360 4043 l  ps
gr
gs
8.82 lw 1 lj 5347 3130 m  5347 4025 l  ps
gr
gs
8.82 lw 1 lj 5373 4043 m  5373 5741 l  ps
gr
gs
17.64 lw 1 lj 0.167 0.167 0.167 c 5360 4025 m  5360 5759 l  ps
gr
gs
8.82 lw 1 lj 0.328 0.328 0.328 c 5347 4043 m  5347 5741 l  ps
gr
gs
8.82 lw 1 lj 0.328 0.328 0.328 c 5373 5759 m  5373 6654 l  ps
gr
gs
17.64 lw 1 lj 0.167 0.167 0.167 c 5360 5741 m  5360 6672 l  ps
gr
gs
8.82 lw 1 lj 5347 5759 m  5347 6654 l  ps
gr
gs
8.82 lw 1 lj 0.328 0.328 0.328 c 7393 1304 m  7393 2199 l  ps
gr
gs
17.64 lw 1 lj 0.167 0.167 0.167 c 7380 1286 m  7380 2217 l  ps
gr
gs
8.82 lw 1 lj 7367 1304 m  7367 2199 l  ps
gr
gs
8.82 lw 1 lj 0.328 0.328 0.328 c 7393 2217 m  7393 3112 l  ps
gr
gs
17.64 lw 1 lj 0.167 0.167 0.167 c 7380 2199 m  7380 3130 l  ps
gr
gs
8.82 lw 1 lj 7367 2217 m  7367 3112 l  ps
gr
gs
8.82 lw 1 lj 0.328 0.328 0.328 c 7393 3130 m  7393 4025 l  ps
gr
gs
17.64 lw 1 lj 0.167 0.167 0.167 c 7380 3112 m  7380 4043 l  ps
gr
gs
8.82 lw 1 lj 7367 3130 m  7367 4025 l  ps
gr
gs
8.82 lw 1 lj 7393 4043 m  7393 5741 l  ps
gr
gs
17.64 lw 1 lj 0.167 0.167 0.167 c 7380 4025 m  7380 5759 l  ps
gr
gs
8.82 lw 1 lj 0.328 0.328 0.328 c 7367 4043 m  7367 5741 l  ps
gr
gs
8.82 lw 1 lj 0.328 0.328 0.328 c 7393 5759 m  7393 6654 l  ps
gr
gs
17.64 lw 1 lj 0.167 0.167 0.167 c 7380 5741 m  7380 6672 l  ps
gr
gs
8.82 lw 1 lj 7367 5759 m  7367 6654 l  ps
gr
gs
8.82 lw 1 lj 0.328 0.328 0.328 c 9413 1304 m  9413 2199 l  ps
gr
gs
17.64 lw 1 lj 0.167 0.167 0.167 c 9400 1286 m  9400 2217 l  ps
gr
gs
8.82 lw 1 lj 9387 1304 m  9387 2199 l  ps
gr
gs
8.82 lw 1 lj 0.328 0.328 0.328 c 9413 2217 m  9413 3112 l  ps
gr
gs
17.64 lw 1 lj 0.167 0.167 0.167 c 9400 2199 m  9400 3130 l  ps
gr
gs
8.82 lw 1 lj 9387 2217 m  9387 3112 l  ps
gr
gs
8.82 lw 1 lj 0.328 0.328 0.328 c 9413 3130 m  9413 4025 l  ps
gr
gs
17.64 lw 1 lj 0.167 0.167 0.167 c 9400 3112 m  9400 4043 l  ps
gr
gs
8.82 lw 1 lj 9387 3130 m  9387 4025 l  ps
gr
gs
8.82 lw 1 lj 0.328 0.328 0.328 c 9413 4043 m  9413 5741 l  ps
gr
gs
17.64 lw 1 lj 0.167 0.167 0.167 c 9400 4025 m  9400 5759 l  ps
gr
gs
8.82 lw 1 lj 9387 4043 m  9387 5741 l  ps
gr
gs
8.82 lw 1 lj 0.328 0.328 0.328 c 9413 5759 m  9413 6654 l  ps
gr
gs
17.64 lw 1 lj 0.167 0.167 0.167 c 9400 5741 m  9400 6672 l  ps
gr
gs
8.82 lw 1 lj 9387 5759 m  9387 6654 l  ps
gr
gs
8.82 lw 1 lj 0.328 0.328 0.328 c 11433 1304 m  11433 2199 l  ps
gr
gs
17.64 lw 1 lj 0.167 0.167 0.167 c 11420 1286 m  11420 2217 l  ps
gr
gs
8.82 lw 1 lj 11407 1304 m  11407 2199 l  ps
gr
gs
8.82 lw 1 lj 0.328 0.328 0.328 c 13453 1277 m  13453 2226 l  ps
gr
gs
17.64 lw 1 lj 0.167 0.167 0.167 c 13440 1286 m  13440 2217 l  ps
gr
gs
8.82 lw 1 lj 13427 1304 m  13427 2199 l  ps
gr
gs
8.82 lw 1 lj 0.328 0.328 0.328 c 11433 2217 m  11433 3112 l  ps
gr
gs
17.64 lw 1 lj 0.167 0.167 0.167 c 11420 2199 m  11420 3130 l  ps
gr
gs
8.82 lw 1 lj 11407 2217 m  11407 3112 l  ps
gr
gs
8.82 lw 1 lj 0.328 0.328 0.328 c 13453 2190 m  13453 3139 l  ps
gr
gs
17.64 lw 1 lj 0.167 0.167 0.167 c 13440 2199 m  13440 3130 l  ps
gr
gs
8.82 lw 1 lj 13427 2217 m  13427 3112 l  ps
gr
gs
8.82 lw 1 lj 0.328 0.328 0.328 c 11433 3130 m  11433 4025 l  ps
gr
gs
17.64 lw 1 lj 0.167 0.167 0.167 c 11420 3112 m  11420 4043 l  ps
gr
gs
8.82 lw 1 lj 11407 3130 m  11407 4025 l  ps
gr
gs
8.82 lw 1 lj 0.328 0.328 0.328 c 13453 3103 m  13453 4052 l  ps
gr
gs
17.64 lw 1 lj 0.167 0.167 0.167 c 13440 3112 m  13440 4043 l  ps
gr
gs
8.82 lw 1 lj 13427 3130 m  13427 4025 l  ps
gr
gs
8.82 lw 1 lj 0.328 0.328 0.328 c 11433 4043 m  11433 5741 l  ps
gr
gs
17.64 lw 1 lj 0.167 0.167 0.167 c 11420 4025 m  11420 5759 l  ps
gr
gs
8.82 lw 1 lj 11407 4043 m  11407 5741 l  ps
gr
gs
8.82 lw 1 lj 0.328 0.328 0.328 c 13453 4016 m  13453 5768 l  ps
gr
gs
17.64 lw 1 lj 0.167 0.167 0.167 c 13440 4025 m  13440 5759 l  ps
gr
gs
8.82 lw 1 lj 13427 4043 m  13427 5741 l  ps
gr
gs
8.82 lw 1 lj 0.328 0.328 0.328 c 11433 5759 m  11433 6654 l  ps
gr
gs
17.64 lw 1 lj 0.167 0.167 0.167 c 11420 5741 m  11420 6672 l  ps
gr
gs
8.82 lw 1 lj 11407 5759 m  11407 6654 l  ps
gr
gs
8.82 lw 1 lj 0.328 0.328 0.328 c 13453 5732 m  13453 6681 l  ps
gr
gs
17.64 lw 1 lj 0.167 0.167 0.167 c 13440 5741 m  13440 6672 l  ps
gr
gs
8.82 lw 1 lj 13427 5759 m  13427 6654 l  ps
gr
gs
1.000 1.000 1.000 c 17228 462 m  17590 462 17867 739 17867 1101 ct 17867 1463 17590 1740 17228 1740 ct 
16866 1740 16589 1463 16589 1101 ct 16589 739 16866 462 17228 462 ct p
16589 462 m  16589 462 l  p
17868 1741 m  17868 1741 l  p ef
gr
gs
53 lw 1 lj 17228 462 m  17590 462 17867 739 17867 1101 ct 17867 1463 17590 1740 17228 1740 ct 
16866 1740 16589 1463 16589 1101 ct 16589 739 16866 462 17228 462 ct pc
gr
gs
53 lw 1 lj 16589 462 m  16589 462 l  pc
gr
gs
53 lw 1 lj 17868 1741 m  17868 1741 l  pc
gr
pum
17037 1321 t
191 -408 m  125 -171 l  257 -171 l  191 -408 l  p
153 -464 m  229 -464 l  371 -1 l  306 -1 l  272 -121 l  110 -121 l  76 -1 l 
11 -1 l  153 -464 l  p ef
pom
gs
1.000 1.000 1.000 c 15156 2952 m  15518 2952 15795 3229 15795 3591 ct 15795 3953 15518 4230 15156 4230 ct 
14794 4230 14517 3953 14517 3591 ct 14517 3229 14794 2952 15156 2952 ct p
14517 2952 m  14517 2952 l  p
15796 4231 m  15796 4231 l  p ef
gr
gs
53 lw 1 lj 15156 2952 m  15518 2952 15795 3229 15795 3591 ct 15795 3953 15518 4230 15156 4230 ct 
14794 4230 14517 3953 14517 3591 ct 14517 3229 14794 2952 15156 2952 ct pc
gr
gs
53 lw 1 lj 14517 2952 m  14517 2952 l  pc
gr
gs
53 lw 1 lj 15796 4231 m  15796 4231 l  pc
gr
pum
14965 3811 t
114 -221 m  114 -52 l  189 -52 l  225 -52 251 -58 266 -71 ct 282 -83 290 -104 290 -133 ct 
290 -164 281 -186 265 -200 ct 249 -214 223 -221 189 -221 ct 114 -221 l  p
114 -412 m  114 -272 l  187 -272 l  217 -272 239 -278 253 -289 ct 266 -301 273 -320 273 -346 ct 
273 -369 266 -386 253 -396 ct 240 -407 218 -412 187 -412 ct 114 -412 l  p
51 -464 m  189 -464 l  236 -464 272 -453 298 -433 ct 324 -412 336 -383 336 -346 ct 
336 -317 330 -295 316 -279 ct 303 -262 282 -252 255 -248 ct 286 -243 309 -230 327 -209 ct 
344 -187 353 -160 353 -127 ct 353 -85 339 -54 311 -32 ct 284 -11 243 0 189 0 ct 
51 0 l  51 -464 l  p ef
pom
gs
1.000 1.000 1.000 c 17216 2952 m  17578 2952 17855 3229 17855 3591 ct 17855 3953 17578 4230 17216 4230 ct 
16854 4230 16577 3953 16577 3591 ct 16577 3229 16854 2952 17216 2952 ct p
16577 2952 m  16577 2952 l  p
17856 4231 m  17856 4231 l  p ef
gr
gs
53 lw 1 lj 17216 2952 m  17578 2952 17855 3229 17855 3591 ct 17855 3953 17578 4230 17216 4230 ct 
16854 4230 16577 3953 16577 3591 ct 16577 3229 16854 2952 17216 2952 ct pc
gr
gs
53 lw 1 lj 16577 2952 m  16577 2952 l  pc
gr
gs
53 lw 1 lj 17856 4231 m  17856 4231 l  pc
gr
pum
17025 3811 t
333 -16 m  317 -8 300 -2 284 3 ct 267 7 249 9 230 9 ct 171 9 125 -12 92 -54 ct 
59 -96 43 -155 43 -231 ct 43 -307 60 -366 93 -408 ct 126 -451 171 -472 230 -472 ct 
249 -472 267 -470 284 -466 ct 300 -461 317 -455 333 -446 ct 333 -382 l  317 -395 301 -404 283 -411 ct 
266 -418 248 -421 230 -421 ct 190 -421 159 -405 139 -374 ct 119 -342 109 -295 109 -231 ct 
109 -168 119 -121 139 -89 ct 159 -58 190 -42 230 -42 ct 249 -42 266 -45 284 -52 ct 
301 -58 318 -68 333 -81 ct 333 -16 l  p ef
pom
gs
1.000 1.000 1.000 c 19220 2952 m  19582 2952 19859 3229 19859 3591 ct 19859 3953 19582 4230 19220 4230 ct 
18858 4230 18581 3953 18581 3591 ct 18581 3229 18858 2952 19220 2952 ct p
18581 2952 m  18581 2952 l  p
19860 4231 m  19860 4231 l  p ef
gr
gs
53 lw 1 lj 19220 2952 m  19582 2952 19859 3229 19859 3591 ct 19859 3953 19582 4230 19220 4230 ct 
18858 4230 18581 3953 18581 3591 ct 18581 3229 18858 2952 19220 2952 ct pc
gr
gs
53 lw 1 lj 18581 2952 m  18581 2952 l  pc
gr
gs
53 lw 1 lj 19860 4231 m  19860 4231 l  pc
gr
pum
19029 3811 t
135 -52 m  188 -52 225 -65 246 -90 ct 266 -116 277 -163 277 -231 ct 277 -300 266 -347 246 -373 ct 
225 -399 188 -412 135 -412 ct 105 -412 l  105 -52 l  135 -52 l  p
136 -464 m  207 -464 259 -445 293 -407 ct 326 -369 343 -311 343 -231 ct 343 -152 326 -94 293 -56 ct 
259 -19 207 0 136 0 ct 42 0 l  42 -464 l  136 -464 l  p ef
pom
gs
82 lw 1 lj 1.000 0.203 0.203 c 15156 2952 m  16442 1842 l  ps
gr
gs
1.000 0.203 0.203 c 16582 1996 m  16777 1581 l  16781 1566 l  16777 1554 l 
16764 1546 l  16750 1547 l  16310 1680 l  16304 1682 l  16302 1685 l  16296 1692 l 
16293 1701 l  16293 1710 l  16298 1718 l  16543 2002 l  16550 2007 l  16560 2011 l 
16569 2008 l  16577 2003 l  16579 2001 l  16582 1996 l  p ef
gr
gs
82 lw 1 lj 1.000 0.203 1.000 c 19220 2952 m  18007 1850 l  ps
gr
gs
1.000 0.203 1.000 c 18143 1692 m  17708 1548 l  17692 1547 l  17681 1552 l 
17675 1566 l  17677 1580 l  17863 2001 l  17865 2006 l  17868 2008 l  17876 2012 l 
17886 2015 l  17894 2013 l  17901 2008 l  18154 1730 l  18158 1722 l  18160 1712 l 
18156 1704 l  18151 1696 l  18149 1694 l  18143 1692 l  p ef
gr
gs
82 lw 1 lj 0.003 0.800 0.203 c 17216 2952 m  17224 2182 l  ps
gr
gs
0.003 0.800 0.203 c 17433 2178 m  17250 1758 l  17241 1745 l  17229 1740 l 
17215 1745 l  17206 1756 l  17015 2174 l  17013 2180 l  17013 2183 l  17015 2192 l 
17020 2201 l  17027 2206 l  17036 2208 l  17411 2211 l  17420 2210 l  17429 2205 l 
17432 2196 l  17434 2187 l  17434 2184 l  17433 2178 l  p ef
gr
pum
2082 1025 t
84 -53 m  181 -53 l  181 -407 l  76 -383 l  76 -441 l  180 -464 l  243 -464 l 
243 -53 l  339 -53 l  339 0 l  84 0 l  84 -53 l  p ef
pom
pum
4094 1025 t
116 -53 m  328 -53 l  328 0 l  47 0 l  47 -53 l  86 -94 120 -130 149 -161 ct 
177 -192 197 -214 208 -227 ct 229 -252 243 -273 250 -288 ct 257 -304 261 -320 261 -336 ct 
261 -362 253 -382 238 -397 ct 223 -412 202 -419 176 -419 ct 157 -419 137 -416 117 -409 ct 
96 -402 74 -392 51 -378 ct 51 -441 l  72 -451 93 -459 114 -464 ct 134 -469 155 -472 175 -472 ct 
220 -472 256 -460 284 -436 ct 311 -412 325 -380 325 -341 ct 325 -321 321 -301 311 -281 ct 
302 -261 287 -239 267 -215 ct 255 -202 238 -183 216 -160 ct 194 -136 161 -100 116 -53 ct 
p ef
pom
pum
6106 1025 t
241 -248 m  271 -240 294 -226 310 -205 ct 326 -184 335 -159 335 -128 ct 335 -85 320 -52 292 -27 ct 
263 -3 223 9 173 9 ct 151 9 130 7 108 3 ct 85 -1 64 -7 42 -14 ct 42 -76 l  64 -65 84 -57 105 -52 ct 
125 -46 146 -44 166 -44 ct 200 -44 227 -52 245 -67 ct 263 -83 273 -105 273 -134 ct 
273 -161 263 -182 245 -198 ct 227 -214 202 -222 170 -222 ct 122 -222 l  122 -274 l 
170 -274 l  199 -274 221 -280 238 -292 ct 254 -305 262 -323 262 -345 ct 262 -369 254 -387 239 -400 ct 
224 -413 203 -419 175 -419 ct 157 -419 138 -417 118 -413 ct 98 -409 78 -402 56 -394 ct 
56 -452 l  81 -459 104 -463 123 -467 ct 143 -470 160 -472 175 -472 ct 220 -472 256 -460 283 -438 ct 
310 -415 324 -385 324 -348 ct 324 -322 317 -301 302 -284 ct 288 -267 268 -255 241 -248 ct 
p ef
pom
pum
8118 1025 t
228 -407 m  82 -162 l  228 -162 l  228 -407 l  p
218 -464 m  290 -464 l  290 -162 l  352 -162 l  352 -111 l  290 -111 l 
290 -1 l  228 -1 l  228 -111 l  32 -111 l  32 -170 l  218 -464 l  p ef
pom
pum
10130 1025 t
64 -464 m  299 -464 l  299 -411 l  121 -411 l  121 -296 l  130 -300 139 -302 148 -304 ct 
157 -305 166 -306 175 -306 ct 223 -306 261 -292 289 -264 ct 317 -235 331 -197 331 -149 ct 
331 -100 317 -61 287 -33 ct 258 -5 218 9 167 9 ct 142 9 119 7 99 4 ct 79 1 60 -4 44 -11 ct 
44 -74 l  63 -64 82 -56 102 -51 ct 121 -46 141 -44 161 -44 ct 195 -44 222 -53 240 -71 ct 
259 -89 269 -115 269 -149 ct 269 -182 259 -207 240 -226 ct 220 -244 193 -253 159 -253 ct 
142 -253 126 -251 110 -248 ct 94 -244 79 -238 64 -230 ct 64 -464 l  p ef
pom
gs
1.000 1.000 1.000 c 15157 5453 m  15519 5453 15796 5730 15796 6092 ct 15796 6454 15519 6731 15157 6731 ct 
14795 6731 14518 6454 14518 6092 ct 14518 5730 14795 5453 15157 5453 ct p
14518 5453 m  14518 5453 l  p
15797 6732 m  15797 6732 l  p ef
gr
gs
53 lw 1 lj 15157 5453 m  15519 5453 15796 5730 15796 6092 ct 15796 6454 15519 6731 15157 6731 ct 
14795 6731 14518 6454 14518 6092 ct 14518 5730 14795 5453 15157 5453 ct pc
gr
gs
53 lw 1 lj 14518 5453 m  14518 5453 l  pc
gr
gs
53 lw 1 lj 15797 6732 m  15797 6732 l  pc
gr
pum
14966 6312 t
61 -464 m  336 -464 l  336 -411 l  124 -411 l  124 -274 l  326 -274 l 
326 -221 l  124 -221 l  124 -53 l  342 -53 l  342 0 l  61 0 l  61 -464 l 
p ef
pom
gs
1.000 1.000 1.000 c 17217 5453 m  17579 5453 17856 5730 17856 6092 ct 17856 6454 17579 6731 17217 6731 ct 
16855 6731 16578 6454 16578 6092 ct 16578 5730 16855 5453 17217 5453 ct p
16578 5453 m  16578 5453 l  p
17857 6732 m  17857 6732 l  p ef
gr
gs
53 lw 1 lj 17217 5453 m  17579 5453 17856 5730 17856 6092 ct 17856 6454 17579 6731 17217 6731 ct 
16855 6731 16578 6454 16578 6092 ct 16578 5730 16855 5453 17217 5453 ct pc
gr
gs
53 lw 1 lj 16578 5453 m  16578 5453 l  pc
gr
gs
53 lw 1 lj 17857 6732 m  17857 6732 l  pc
gr
pum
17026 6312 t
72 -463 m  345 -463 l  345 -410 l  135 -410 l  135 -274 l  325 -274 l 
325 -221 l  135 -221 l  135 1 l  72 1 l  72 -463 l  p ef
pom
gs
1.000 1.000 1.000 c 19221 5453 m  19583 5453 19860 5730 19860 6092 ct 19860 6454 19583 6731 19221 6731 ct 
18859 6731 18582 6454 18582 6092 ct 18582 5730 18859 5453 19221 5453 ct p
18582 5453 m  18582 5453 l  p
19861 6732 m  19861 6732 l  p ef
gr
gs
53 lw 1 lj 19221 5453 m  19583 5453 19860 5730 19860 6092 ct 19860 6454 19583 6731 19221 6731 ct 
18859 6731 18582 6454 18582 6092 ct 18582 5730 18859 5453 19221 5453 ct pc
gr
gs
53 lw 1 lj 18582 5453 m  18582 5453 l  pc
gr
gs
53 lw 1 lj 19861 6732 m  19861 6732 l  pc
gr
pum
19030 6312 t
342 -38 m  326 -23 307 -11 286 -3 ct 265 5 242 9 218 9 ct 159 9 113 -12 81 -54 ct 
48 -96 32 -155 32 -231 ct 32 -307 48 -366 81 -408 ct 114 -451 160 -472 219 -472 ct 
239 -472 257 -469 275 -464 ct 293 -458 310 -450 326 -439 ct 326 -374 l  310 -390 293 -402 275 -410 ct 
257 -417 239 -421 219 -421 ct 178 -421 148 -405 128 -374 ct 107 -342 97 -295 97 -231 ct 
97 -167 107 -119 127 -88 ct 146 -57 177 -42 218 -42 ct 232 -42 244 -44 254 -47 ct 
265 -50 274 -55 282 -62 ct 282 -186 l  215 -186 l  215 -238 l  342 -238 l 
342 -38 l  p ef
pom
gs
82 lw 1 lj 0.003 0.800 1.000 c 15157 5453 m  15156 4672 l  ps
gr
gs
0.003 0.800 1.000 c 15365 4666 m  15178 4247 l  15169 4235 l  15157 4230 l 
15143 4235 l  15134 4246 l  14948 4667 l  14946 4672 l  14946 4675 l  14948 4684 l 
14953 4693 l  14960 4698 l  14969 4700 l  15344 4699 l  15353 4698 l  15361 4692 l 
15365 4684 l  15367 4675 l  15367 4672 l  15365 4666 l  p ef
gr
gs
82 lw 1 lj 0.601 0.601 1.000 c 17217 5453 m  17216 4672 l  ps
gr
gs
0.601 0.601 1.000 c 17425 4666 m  17238 4247 l  17229 4235 l  17217 4230 l 
17203 4235 l  17194 4246 l  17008 4667 l  17006 4672 l  17006 4675 l  17008 4684 l 
17013 4693 l  17020 4698 l  17029 4700 l  17404 4699 l  17413 4698 l  17421 4692 l 
17425 4684 l  17427 4675 l  17427 4672 l  17425 4666 l  p ef
gr
gs
82 lw 1 lj 1.000 0.828 0.128 c 19221 5453 m  19220 4672 l  ps
gr
gs
1.000 0.828 0.128 c 19429 4666 m  19242 4247 l  19233 4235 l  19221 4230 l 
19207 4235 l  19198 4246 l  19012 4667 l  19010 4672 l  19010 4675 l  19012 4684 l 
19017 4693 l  19024 4698 l  19033 4700 l  19408 4699 l  19417 4698 l  19425 4692 l 
19429 4684 l  19431 4675 l  19431 4672 l  19429 4666 l  p ef
gr
pum
12131 1025 t
307 -453 m  307 -395 l  294 -403 280 -409 266 -413 ct 251 -417 236 -419 220 -419 ct 
180 -419 150 -404 130 -374 ct 109 -344 99 -300 99 -242 ct 109 -263 123 -278 140 -289 ct 
158 -301 178 -306 201 -306 ct 245 -306 280 -292 304 -265 ct 329 -238 341 -199 341 -149 ct 
341 -99 328 -60 303 -32 ct 278 -5 243 9 197 9 ct 143 9 104 -10 79 -49 ct 54 -87 41 -148 41 -231 ct 
41 -309 56 -369 86 -410 ct 116 -451 160 -472 217 -472 ct 232 -472 248 -470 263 -467 ct 
278 -464 293 -459 307 -453 ct p
196 -257 m  169 -257 148 -247 133 -228 ct 117 -209 110 -182 110 -149 ct 110 -115 117 -88 133 -69 ct 
148 -50 169 -40 196 -40 ct 223 -40 244 -49 258 -67 ct 272 -86 279 -113 279 -149 ct 
279 -184 272 -212 258 -230 ct 244 -248 223 -257 196 -257 ct p ef
pom
pum
583 1925 t
84 -53 m  181 -53 l  181 -407 l  76 -383 l  76 -441 l  180 -464 l  243 -464 l 
243 -53 l  339 -53 l  339 0 l  84 0 l  84 -53 l  p ef
pom
pum
584 2825 t
116 -53 m  328 -53 l  328 0 l  47 0 l  47 -53 l  86 -94 120 -130 149 -161 ct 
177 -192 197 -214 208 -227 ct 229 -252 243 -273 250 -288 ct 257 -304 261 -320 261 -336 ct 
261 -362 253 -382 238 -397 ct 223 -412 202 -419 176 -419 ct 157 -419 137 -416 117 -409 ct 
96 -402 74 -392 51 -378 ct 51 -441 l  72 -451 93 -459 114 -464 ct 134 -469 155 -472 175 -472 ct 
220 -472 256 -460 284 -436 ct 311 -412 325 -380 325 -341 ct 325 -321 321 -301 311 -281 ct 
302 -261 287 -239 267 -215 ct 255 -202 238 -183 216 -160 ct 194 -136 161 -100 116 -53 ct 
p ef
pom
pum
585 3825 t
241 -248 m  271 -240 294 -226 310 -205 ct 326 -184 335 -159 335 -128 ct 335 -85 320 -52 292 -27 ct 
263 -3 223 9 173 9 ct 151 9 130 7 108 3 ct 85 -1 64 -7 42 -14 ct 42 -76 l  64 -65 84 -57 105 -52 ct 
125 -46 146 -44 166 -44 ct 200 -44 227 -52 245 -67 ct 263 -83 273 -105 273 -134 ct 
273 -161 263 -182 245 -198 ct 227 -214 202 -222 170 -222 ct 122 -222 l  122 -274 l 
170 -274 l  199 -274 221 -280 238 -292 ct 254 -305 262 -323 262 -345 ct 262 -369 254 -387 239 -400 ct 
224 -413 203 -419 175 -419 ct 157 -419 138 -417 118 -413 ct 98 -409 78 -402 56 -394 ct 
56 -452 l  81 -459 104 -463 123 -467 ct 143 -470 160 -472 175 -472 ct 220 -472 256 -460 283 -438 ct 
310 -415 324 -385 324 -348 ct 324 -322 317 -301 302 -284 ct 288 -267 268 -255 241 -248 ct 
p ef
pom
pum
258 6425 t
84 -53 m  181 -53 l  181 -407 l  76 -383 l  76 -441 l  180 -464 l  243 -464 l 
243 -53 l  339 -53 l  339 0 l  84 0 l  84 -53 l  p ef
445 -464 m  680 -464 l  680 -411 l  502 -411 l  502 -296 l  511 -300 520 -302 529 -304 ct 
538 -305 547 -306 556 -306 ct 604 -306 642 -292 670 -264 ct 698 -235 712 -197 712 -149 ct 
712 -100 698 -61 668 -33 ct 639 -5 599 9 548 9 ct 523 9 500 7 480 4 ct 460 1 441 -4 425 -11 ct 
425 -74 l  444 -64 463 -56 483 -51 ct 502 -46 522 -44 542 -44 ct 576 -44 603 -53 621 -71 ct 
640 -89 650 -115 650 -149 ct 650 -182 640 -207 621 -226 ct 601 -244 574 -253 540 -253 ct 
523 -253 507 -251 491 -248 ct 475 -244 460 -238 445 -230 ct 445 -464 l  p ef
pom
gr
gs
0 0 m 21081 0 l 21081 7314 l 0 7314 l 0 0 l eoclip newpath
gr
gr
0 7315 t 
pom
count op_count sub {pop} repeat countdictstack dict_count sub {end} repeat b4_inc_state restore
%%PageTrailer
%%Trailer
%%EOF
