%!PS-Adobe-3.0 EPSF-3.0 
%%BoundingBox: 0 0 713 223
%%Pages: 0
%%Creator: LibreOffice 6.0
%%Title: none
%%CreationDate: none
%%LanguageLevel: 2
%%EndComments
%%BeginProlog
%%BeginResource: procset SDRes-Prolog 1.0 0
/b4_inc_state save def
/dict_count countdictstack def
/op_count count 1 sub def
userdict begin
0 setgray 0 setlinecap 1 setlinewidth 0 setlinejoin 10 setmiterlimit[] 0 setdash newpath
/languagelevel where {pop languagelevel 1 ne {false setstrokeadjust false setoverprint} if} if
/bdef {bind def} bind def
/c {setrgbcolor} bdef
/l {neg lineto} bdef
/rl {neg rlineto} bdef
/lc {setlinecap} bdef
/lj {setlinejoin} bdef
/lw {setlinewidth} bdef
/ml {setmiterlimit} bdef
/ld {setdash} bdef
/m {neg moveto} bdef
/ct {6 2 roll neg 6 2 roll neg 6 2 roll neg curveto} bdef
/r {rotate} bdef
/t {neg translate} bdef
/s {scale} bdef
/sw {show} bdef
/gs {gsave} bdef
/gr {grestore} bdef
/f {findfont dup length dict begin
{1 index /FID ne {def} {pop pop} ifelse} forall /Encoding ISOLatin1Encoding def
currentdict end /NFont exch definefont pop /NFont findfont} bdef
/p {closepath} bdef
/sf {scalefont setfont} bdef
/ef {eofill}bdef
/pc {closepath stroke}bdef
/ps {stroke}bdef
/pum {matrix currentmatrix}bdef
/pom {setmatrix}bdef
/bs {/aString exch def /nXOfs exch def /nWidth exch def currentpoint nXOfs 0 rmoveto pum nWidth aString stringwidth pop div 1 scale aString show pom moveto} bdef
%%EndResource
%%EndProlog
%%BeginSetup
%%EndSetup
%%Page: 1 1
%%BeginPageSetup
%%EndPageSetup
pum
0.02835 0.02832 s 
0 -7874 t
/tm matrix currentmatrix def
gs
0 0 m 25145 0 l 25145 7873 l 0 7873 l 0 0 l eoclip newpath
gs
0 0 m 25145 0 l 25145 7873 l 0 7873 l 0 0 l eoclip newpath
gs
1.000 1.000 1.000 c 5544 7453 m  507 7453 l  507 2246 l  10580 2246 l  10580 7453 l 
5544 7453 l  p ef
gr
gs
53 lw 1 lj 0.003 0.003 0.003 c 5544 7453 m  507 7453 l  507 2246 l  10580 2246 l 
10580 7453 l  5544 7453 l  pc
gr
gs
1.000 1.000 1.000 c 9565 7453 m  8549 7453 l  8549 2246 l  10581 2246 l 
10581 7453 l  9565 7453 l  p ef
gr
gs
53 lw 1 lj 0.003 0.003 0.003 c 9565 7453 m  8549 7453 l  8549 2246 l  10581 2246 l 
10581 7453 l  9565 7453 l  pc
gr
pum
8873 4415 t
0.003 0.003 0.003 c 223 -389 m  223 0 l  164 0 l  164 -389 l  14 -389 l  14 -437 l 
373 -437 l  373 -389 l  223 -389 l  p ef
406 -407 m  406 -460 l  462 -460 l  462 -407 l  406 -407 l  p
406 1 m  406 -335 l  462 -335 l  462 1 l  406 1 l  p ef
742 0 m  742 -213 l  742 -245 738 -268 729 -280 ct 720 -293 704 -299 681 -299 ct 
657 -299 638 -290 624 -272 ct 610 -253 604 -228 604 -195 ct 604 0 l  548 0 l 
548 -264 l  548 -303 547 -327 546 -336 ct 599 -336 l  599 -335 599 -332 600 -327 ct 
600 -323 600 -318 600 -312 ct 601 -306 601 -295 601 -278 ct 602 -278 l  614 -302 628 -319 644 -328 ct 
659 -337 678 -342 700 -342 ct 726 -342 746 -337 761 -327 ct 775 -317 786 -301 791 -278 ct 
792 -278 l  804 -301 818 -317 834 -327 ct 851 -337 871 -342 894 -342 ct 928 -342 953 -333 968 -314 ct 
983 -296 991 -266 991 -224 ct 991 0 l  936 0 l  936 -213 l  936 -245 931 -268 923 -280 ct 
914 -293 898 -299 875 -299 ct 850 -299 831 -290 818 -272 ct 804 -254 797 -228 797 -195 ct 
797 0 l  742 0 l  p ef
1119 -156 m  1119 -118 1127 -88 1142 -67 ct 1158 -46 1182 -36 1212 -36 ct 1236 -36 1256 -41 1270 -50 ct 
1285 -60 1295 -72 1300 -87 ct 1349 -73 l  1329 -20 1283 6 1212 6 ct 1163 6 1125 -9 1099 -38 ct 
1073 -68 1060 -112 1060 -170 ct 1060 -226 1073 -268 1099 -298 ct 1125 -327 1162 -342 1210 -342 ct 
1309 -342 1358 -283 1358 -164 ct 1358 -156 l  1119 -156 l  p
1300 -199 m  1297 -234 1288 -260 1273 -277 ct 1258 -293 1237 -301 1209 -301 ct 
1182 -301 1161 -292 1145 -274 ct 1129 -256 1120 -231 1119 -199 ct 1300 -199 l 
p ef
pom
pum
9019 5012 t
394 -121 m  394 -81 379 -49 347 -27 ct 316 -5 271 6 214 6 ct 107 6 46 -31 29 -105 ct 
86 -117 l  93 -90 107 -71 128 -59 ct 150 -46 179 -40 216 -40 ct 254 -40 284 -47 305 -60 ct 
325 -73 336 -92 336 -118 ct 336 -132 333 -144 326 -153 ct 320 -161 310 -169 299 -175 ct 
287 -180 273 -185 256 -189 ct 240 -193 222 -197 202 -202 ct 168 -210 141 -217 124 -225 ct 
106 -233 92 -241 81 -250 ct 71 -260 63 -271 58 -284 ct 52 -296 49 -311 49 -327 ct 
49 -364 64 -393 92 -414 ct 121 -434 162 -444 215 -444 ct 265 -444 303 -436 329 -421 ct 
355 -406 374 -380 384 -343 ct 326 -333 l  319 -356 307 -373 289 -384 ct 271 -394 246 -399 215 -399 ct 
180 -399 153 -394 135 -382 ct 116 -370 107 -353 107 -330 ct 107 -317 111 -306 118 -297 ct 
125 -288 135 -281 149 -274 ct 162 -268 189 -261 229 -252 ct 242 -249 256 -246 269 -242 ct 
282 -239 295 -235 307 -231 ct 319 -226 331 -221 342 -215 ct 352 -209 361 -202 369 -193 ct 
377 -185 383 -174 388 -163 ct 392 -151 394 -137 394 -121 ct p ef
466 1 m  466 -460 l  522 -460 l  522 1 l  466 1 l  p ef
889 -168 m  889 -110 877 -66 851 -37 ct 825 -8 787 6 738 6 ct 689 6 652 -9 627 -39 ct 
602 -69 590 -112 590 -168 ct 590 -284 640 -342 740 -342 ct 791 -342 829 -328 853 -300 ct 
877 -272 889 -228 889 -168 ct p
831 -168 m  831 -215 824 -248 810 -269 ct 797 -291 773 -301 741 -301 ct 708 -301 685 -290 670 -269 ct 
656 -247 648 -214 648 -168 ct 648 -124 655 -91 670 -69 ct 684 -46 707 -35 738 -35 ct 
771 -35 795 -46 809 -68 ct 824 -89 831 -123 831 -168 ct p ef
1086 -2 m  1067 3 1049 5 1029 5 ct 985 5 962 -20 962 -71 ct 962 -295 l  924 -295 l 
924 -336 l  965 -336 l  981 -411 l  1018 -411 l  1018 -336 l  1080 -336 l 
1080 -295 l  1018 -295 l  1018 -83 l  1018 -67 1021 -56 1026 -49 ct 1031 -43 1041 -39 1054 -39 ct 
1061 -39 1072 -41 1086 -44 ct 1086 -2 l  p ef
pom
pum
9390 5609 t
256 0 m  256 -213 l  256 -235 254 -252 249 -264 ct 245 -277 238 -285 229 -291 ct 
219 -296 205 -299 187 -299 ct 160 -299 139 -290 123 -271 ct 108 -253 100 -227 100 -195 ct 
100 0 l  44 0 l  44 -264 l  44 -303 43 -327 42 -336 ct 95 -336 l  95 -335 95 -332 96 -327 ct 
96 -323 96 -318 96 -312 ct 97 -306 97 -295 97 -278 ct 98 -278 l  111 -302 126 -318 143 -328 ct 
160 -337 181 -342 206 -342 ct 242 -342 269 -333 286 -315 ct 303 -296 312 -266 312 -224 ct 
312 0 l  256 0 l  p ef
pom
gs
1.000 1.000 1.000 c 1465 7453 m  449 7453 l  449 2246 l  2481 2246 l  2481 7453 l 
1465 7453 l  p ef
gr
gs
53 lw 1 lj 1465 7453 m  449 7453 l  449 2246 l  2481 2246 l  2481 7453 l 
1465 7453 l  pc
gr
pum
773 4415 t
223 -389 m  223 0 l  164 0 l  164 -389 l  14 -389 l  14 -437 l  373 -437 l 
373 -389 l  223 -389 l  p ef
406 -407 m  406 -460 l  462 -460 l  462 -407 l  406 -407 l  p
406 1 m  406 -335 l  462 -335 l  462 1 l  406 1 l  p ef
742 0 m  742 -213 l  742 -245 738 -268 729 -280 ct 720 -293 704 -299 681 -299 ct 
657 -299 638 -290 624 -272 ct 610 -253 604 -228 604 -195 ct 604 0 l  548 0 l 
548 -264 l  548 -303 547 -327 546 -336 ct 599 -336 l  599 -335 599 -332 600 -327 ct 
600 -323 600 -318 600 -312 ct 601 -306 601 -295 601 -278 ct 602 -278 l  614 -302 628 -319 644 -328 ct 
659 -337 678 -342 700 -342 ct 726 -342 746 -337 761 -327 ct 775 -317 786 -301 791 -278 ct 
792 -278 l  804 -301 818 -317 834 -327 ct 851 -337 871 -342 894 -342 ct 928 -342 953 -333 968 -314 ct 
983 -296 991 -266 991 -224 ct 991 0 l  936 0 l  936 -213 l  936 -245 931 -268 923 -280 ct 
914 -293 898 -299 875 -299 ct 850 -299 831 -290 818 -272 ct 804 -254 797 -228 797 -195 ct 
797 0 l  742 0 l  p ef
1119 -156 m  1119 -118 1127 -88 1142 -67 ct 1158 -46 1182 -36 1212 -36 ct 1236 -36 1256 -41 1270 -50 ct 
1285 -60 1295 -72 1300 -87 ct 1349 -73 l  1329 -20 1283 6 1212 6 ct 1163 6 1125 -9 1099 -38 ct 
1073 -68 1060 -112 1060 -170 ct 1060 -226 1073 -268 1099 -298 ct 1125 -327 1162 -342 1210 -342 ct 
1309 -342 1358 -283 1358 -164 ct 1358 -156 l  1119 -156 l  p
1300 -199 m  1297 -234 1288 -260 1273 -277 ct 1258 -293 1237 -301 1209 -301 ct 
1182 -301 1161 -292 1145 -274 ct 1129 -256 1120 -231 1119 -199 ct 1300 -199 l 
p ef
pom
pum
919 5012 t
394 -121 m  394 -81 379 -49 347 -27 ct 316 -5 271 6 214 6 ct 107 6 46 -31 29 -105 ct 
86 -117 l  93 -90 107 -71 128 -59 ct 150 -46 179 -40 216 -40 ct 254 -40 284 -47 305 -60 ct 
325 -73 336 -92 336 -118 ct 336 -132 333 -144 326 -153 ct 320 -161 310 -169 299 -175 ct 
287 -180 273 -185 256 -189 ct 240 -193 222 -197 202 -202 ct 168 -210 141 -217 124 -225 ct 
106 -233 92 -241 81 -250 ct 71 -260 63 -271 58 -284 ct 52 -296 49 -311 49 -327 ct 
49 -364 64 -393 92 -414 ct 121 -434 162 -444 215 -444 ct 265 -444 303 -436 329 -421 ct 
355 -406 374 -380 384 -343 ct 326 -333 l  319 -356 307 -373 289 -384 ct 271 -394 246 -399 215 -399 ct 
180 -399 153 -394 135 -382 ct 116 -370 107 -353 107 -330 ct 107 -317 111 -306 118 -297 ct 
125 -288 135 -281 149 -274 ct 162 -268 189 -261 229 -252 ct 242 -249 256 -246 269 -242 ct 
282 -239 295 -235 307 -231 ct 319 -226 331 -221 342 -215 ct 352 -209 361 -202 369 -193 ct 
377 -185 383 -174 388 -163 ct 392 -151 394 -137 394 -121 ct p ef
466 1 m  466 -460 l  522 -460 l  522 1 l  466 1 l  p ef
889 -168 m  889 -110 877 -66 851 -37 ct 825 -8 787 6 738 6 ct 689 6 652 -9 627 -39 ct 
602 -69 590 -112 590 -168 ct 590 -284 640 -342 740 -342 ct 791 -342 829 -328 853 -300 ct 
877 -272 889 -228 889 -168 ct p
831 -168 m  831 -215 824 -248 810 -269 ct 797 -291 773 -301 741 -301 ct 708 -301 685 -290 670 -269 ct 
656 -247 648 -214 648 -168 ct 648 -124 655 -91 670 -69 ct 684 -46 707 -35 738 -35 ct 
771 -35 795 -46 809 -68 ct 824 -89 831 -123 831 -168 ct p ef
1086 -2 m  1067 3 1049 5 1029 5 ct 985 5 962 -20 962 -71 ct 962 -295 l  924 -295 l 
924 -336 l  965 -336 l  981 -411 l  1018 -411 l  1018 -336 l  1080 -336 l 
1080 -295 l  1018 -295 l  1018 -83 l  1018 -67 1021 -56 1026 -49 ct 1031 -43 1041 -39 1054 -39 ct 
1061 -39 1072 -41 1086 -44 ct 1086 -2 l  p ef
pom
pum
1290 5609 t
48 0 m  48 -47 l  160 -47 l  160 -384 l  61 -314 l  61 -366 l  164 -438 l 
216 -438 l  216 -47 l  322 -47 l  322 0 l  48 0 l  p ef
pom
gs
1.000 1.000 1.000 c 3465 7453 m  2449 7453 l  2449 2246 l  4481 2246 l 
4481 7453 l  3465 7453 l  p ef
gr
gs
53 lw 1 lj 3465 7453 m  2449 7453 l  2449 2246 l  4481 2246 l  4481 7453 l 
3465 7453 l  pc
gr
pum
2773 4415 t
223 -389 m  223 0 l  164 0 l  164 -389 l  14 -389 l  14 -437 l  373 -437 l 
373 -389 l  223 -389 l  p ef
406 -407 m  406 -460 l  462 -460 l  462 -407 l  406 -407 l  p
406 1 m  406 -335 l  462 -335 l  462 1 l  406 1 l  p ef
742 0 m  742 -213 l  742 -245 738 -268 729 -280 ct 720 -293 704 -299 681 -299 ct 
657 -299 638 -290 624 -272 ct 610 -253 604 -228 604 -195 ct 604 0 l  548 0 l 
548 -264 l  548 -303 547 -327 546 -336 ct 599 -336 l  599 -335 599 -332 600 -327 ct 
600 -323 600 -318 600 -312 ct 601 -306 601 -295 601 -278 ct 602 -278 l  614 -302 628 -319 644 -328 ct 
659 -337 678 -342 700 -342 ct 726 -342 746 -337 761 -327 ct 775 -317 786 -301 791 -278 ct 
792 -278 l  804 -301 818 -317 834 -327 ct 851 -337 871 -342 894 -342 ct 928 -342 953 -333 968 -314 ct 
983 -296 991 -266 991 -224 ct 991 0 l  936 0 l  936 -213 l  936 -245 931 -268 923 -280 ct 
914 -293 898 -299 875 -299 ct 850 -299 831 -290 818 -272 ct 804 -254 797 -228 797 -195 ct 
797 0 l  742 0 l  p ef
1119 -156 m  1119 -118 1127 -88 1142 -67 ct 1158 -46 1182 -36 1212 -36 ct 1236 -36 1256 -41 1270 -50 ct 
1285 -60 1295 -72 1300 -87 ct 1349 -73 l  1329 -20 1283 6 1212 6 ct 1163 6 1125 -9 1099 -38 ct 
1073 -68 1060 -112 1060 -170 ct 1060 -226 1073 -268 1099 -298 ct 1125 -327 1162 -342 1210 -342 ct 
1309 -342 1358 -283 1358 -164 ct 1358 -156 l  1119 -156 l  p
1300 -199 m  1297 -234 1288 -260 1273 -277 ct 1258 -293 1237 -301 1209 -301 ct 
1182 -301 1161 -292 1145 -274 ct 1129 -256 1120 -231 1119 -199 ct 1300 -199 l 
p ef
pom
pum
2919 5012 t
394 -121 m  394 -81 379 -49 347 -27 ct 316 -5 271 6 214 6 ct 107 6 46 -31 29 -105 ct 
86 -117 l  93 -90 107 -71 128 -59 ct 150 -46 179 -40 216 -40 ct 254 -40 284 -47 305 -60 ct 
325 -73 336 -92 336 -118 ct 336 -132 333 -144 326 -153 ct 320 -161 310 -169 299 -175 ct 
287 -180 273 -185 256 -189 ct 240 -193 222 -197 202 -202 ct 168 -210 141 -217 124 -225 ct 
106 -233 92 -241 81 -250 ct 71 -260 63 -271 58 -284 ct 52 -296 49 -311 49 -327 ct 
49 -364 64 -393 92 -414 ct 121 -434 162 -444 215 -444 ct 265 -444 303 -436 329 -421 ct 
355 -406 374 -380 384 -343 ct 326 -333 l  319 -356 307 -373 289 -384 ct 271 -394 246 -399 215 -399 ct 
180 -399 153 -394 135 -382 ct 116 -370 107 -353 107 -330 ct 107 -317 111 -306 118 -297 ct 
125 -288 135 -281 149 -274 ct 162 -268 189 -261 229 -252 ct 242 -249 256 -246 269 -242 ct 
282 -239 295 -235 307 -231 ct 319 -226 331 -221 342 -215 ct 352 -209 361 -202 369 -193 ct 
377 -185 383 -174 388 -163 ct 392 -151 394 -137 394 -121 ct p ef
466 1 m  466 -460 l  522 -460 l  522 1 l  466 1 l  p ef
889 -168 m  889 -110 877 -66 851 -37 ct 825 -8 787 6 738 6 ct 689 6 652 -9 627 -39 ct 
602 -69 590 -112 590 -168 ct 590 -284 640 -342 740 -342 ct 791 -342 829 -328 853 -300 ct 
877 -272 889 -228 889 -168 ct p
831 -168 m  831 -215 824 -248 810 -269 ct 797 -291 773 -301 741 -301 ct 708 -301 685 -290 670 -269 ct 
656 -247 648 -214 648 -168 ct 648 -124 655 -91 670 -69 ct 684 -46 707 -35 738 -35 ct 
771 -35 795 -46 809 -68 ct 824 -89 831 -123 831 -168 ct p ef
1086 -2 m  1067 3 1049 5 1029 5 ct 985 5 962 -20 962 -71 ct 962 -295 l  924 -295 l 
924 -336 l  965 -336 l  981 -411 l  1018 -411 l  1018 -336 l  1080 -336 l 
1080 -295 l  1018 -295 l  1018 -83 l  1018 -67 1021 -56 1026 -49 ct 1031 -43 1041 -39 1054 -39 ct 
1061 -39 1072 -41 1086 -44 ct 1086 -2 l  p ef
pom
pum
3290 5609 t
32 0 m  32 -39 l  42 -64 55 -85 71 -104 ct 86 -122 102 -139 118 -154 ct 135 -169 152 -183 168 -196 ct 
185 -208 199 -221 213 -234 ct 226 -247 237 -260 245 -274 ct 253 -289 257 -304 257 -322 ct 
257 -346 250 -365 236 -378 ct 222 -391 202 -398 177 -398 ct 154 -398 134 -392 119 -379 ct 
103 -366 94 -348 91 -324 ct 34 -329 l  39 -364 53 -392 79 -413 ct 104 -434 137 -444 177 -444 ct 
221 -444 255 -434 279 -413 ct 303 -392 314 -362 314 -324 ct 314 -307 311 -290 303 -274 ct 
295 -257 283 -240 268 -223 ct 253 -206 224 -180 180 -145 ct 157 -126 138 -108 124 -93 ct 
110 -77 100 -62 93 -47 ct 321 -47 l  321 0 l  32 0 l  p ef
pom
pum
5930 5473 t
116 0 m  116 -136 l  237 -136 l  237 0 l  116 0 l  p ef
467 0 m  467 -136 l  588 -136 l  588 0 l  467 0 l  p ef
819 0 m  819 -136 l  940 -136 l  940 0 l  819 0 l  p ef
pom
gs
53 lw 1 lj 457 385 m  457 7497 l  ps
gr
gs
1.000 1.000 1.000 c 15644 7453 m  10607 7453 l  10607 2246 l  20680 2246 l 
20680 7453 l  15644 7453 l  p ef
gr
gs
53 lw 1 lj 15644 7453 m  10607 7453 l  10607 2246 l  20680 2246 l  20680 7453 l 
15644 7453 l  pc
gr
gs
1.000 1.000 1.000 c 19665 7453 m  18649 7453 l  18649 2246 l  20681 2246 l 
20681 7453 l  19665 7453 l  p ef
gr
gs
53 lw 1 lj 19665 7453 m  18649 7453 l  18649 2246 l  20681 2246 l  20681 7453 l 
19665 7453 l  pc
gr
pum
18973 4415 t
223 -389 m  223 0 l  164 0 l  164 -389 l  14 -389 l  14 -437 l  373 -437 l 
373 -389 l  223 -389 l  p ef
406 -407 m  406 -460 l  462 -460 l  462 -407 l  406 -407 l  p
406 1 m  406 -335 l  462 -335 l  462 1 l  406 1 l  p ef
742 0 m  742 -213 l  742 -245 738 -268 729 -280 ct 720 -293 704 -299 681 -299 ct 
657 -299 638 -290 624 -272 ct 610 -253 604 -228 604 -195 ct 604 0 l  548 0 l 
548 -264 l  548 -303 547 -327 546 -336 ct 599 -336 l  599 -335 599 -332 600 -327 ct 
600 -323 600 -318 600 -312 ct 601 -306 601 -295 601 -278 ct 602 -278 l  614 -302 628 -319 644 -328 ct 
659 -337 678 -342 700 -342 ct 726 -342 746 -337 761 -327 ct 775 -317 786 -301 791 -278 ct 
792 -278 l  804 -301 818 -317 834 -327 ct 851 -337 871 -342 894 -342 ct 928 -342 953 -333 968 -314 ct 
983 -296 991 -266 991 -224 ct 991 0 l  936 0 l  936 -213 l  936 -245 931 -268 923 -280 ct 
914 -293 898 -299 875 -299 ct 850 -299 831 -290 818 -272 ct 804 -254 797 -228 797 -195 ct 
797 0 l  742 0 l  p ef
1119 -156 m  1119 -118 1127 -88 1142 -67 ct 1158 -46 1182 -36 1212 -36 ct 1236 -36 1256 -41 1270 -50 ct 
1285 -60 1295 -72 1300 -87 ct 1349 -73 l  1329 -20 1283 6 1212 6 ct 1163 6 1125 -9 1099 -38 ct 
1073 -68 1060 -112 1060 -170 ct 1060 -226 1073 -268 1099 -298 ct 1125 -327 1162 -342 1210 -342 ct 
1309 -342 1358 -283 1358 -164 ct 1358 -156 l  1119 -156 l  p
1300 -199 m  1297 -234 1288 -260 1273 -277 ct 1258 -293 1237 -301 1209 -301 ct 
1182 -301 1161 -292 1145 -274 ct 1129 -256 1120 -231 1119 -199 ct 1300 -199 l 
p ef
pom
pum
19119 5012 t
394 -121 m  394 -81 379 -49 347 -27 ct 316 -5 271 6 214 6 ct 107 6 46 -31 29 -105 ct 
86 -117 l  93 -90 107 -71 128 -59 ct 150 -46 179 -40 216 -40 ct 254 -40 284 -47 305 -60 ct 
325 -73 336 -92 336 -118 ct 336 -132 333 -144 326 -153 ct 320 -161 310 -169 299 -175 ct 
287 -180 273 -185 256 -189 ct 240 -193 222 -197 202 -202 ct 168 -210 141 -217 124 -225 ct 
106 -233 92 -241 81 -250 ct 71 -260 63 -271 58 -284 ct 52 -296 49 -311 49 -327 ct 
49 -364 64 -393 92 -414 ct 121 -434 162 -444 215 -444 ct 265 -444 303 -436 329 -421 ct 
355 -406 374 -380 384 -343 ct 326 -333 l  319 -356 307 -373 289 -384 ct 271 -394 246 -399 215 -399 ct 
180 -399 153 -394 135 -382 ct 116 -370 107 -353 107 -330 ct 107 -317 111 -306 118 -297 ct 
125 -288 135 -281 149 -274 ct 162 -268 189 -261 229 -252 ct 242 -249 256 -246 269 -242 ct 
282 -239 295 -235 307 -231 ct 319 -226 331 -221 342 -215 ct 352 -209 361 -202 369 -193 ct 
377 -185 383 -174 388 -163 ct 392 -151 394 -137 394 -121 ct p ef
466 1 m  466 -460 l  522 -460 l  522 1 l  466 1 l  p ef
889 -168 m  889 -110 877 -66 851 -37 ct 825 -8 787 6 738 6 ct 689 6 652 -9 627 -39 ct 
602 -69 590 -112 590 -168 ct 590 -284 640 -342 740 -342 ct 791 -342 829 -328 853 -300 ct 
877 -272 889 -228 889 -168 ct p
831 -168 m  831 -215 824 -248 810 -269 ct 797 -291 773 -301 741 -301 ct 708 -301 685 -290 670 -269 ct 
656 -247 648 -214 648 -168 ct 648 -124 655 -91 670 -69 ct 684 -46 707 -35 738 -35 ct 
771 -35 795 -46 809 -68 ct 824 -89 831 -123 831 -168 ct p ef
1086 -2 m  1067 3 1049 5 1029 5 ct 985 5 962 -20 962 -71 ct 962 -295 l  924 -295 l 
924 -336 l  965 -336 l  981 -411 l  1018 -411 l  1018 -336 l  1080 -336 l 
1080 -295 l  1018 -295 l  1018 -83 l  1018 -67 1021 -56 1026 -49 ct 1031 -43 1041 -39 1054 -39 ct 
1061 -39 1072 -41 1086 -44 ct 1086 -2 l  p ef
pom
pum
19490 5609 t
256 0 m  256 -213 l  256 -235 254 -252 249 -264 ct 245 -277 238 -285 229 -291 ct 
219 -296 205 -299 187 -299 ct 160 -299 139 -290 123 -271 ct 108 -253 100 -227 100 -195 ct 
100 0 l  44 0 l  44 -264 l  44 -303 43 -327 42 -336 ct 95 -336 l  95 -335 95 -332 96 -327 ct 
96 -323 96 -318 96 -312 ct 97 -306 97 -295 97 -278 ct 98 -278 l  111 -302 126 -318 143 -328 ct 
160 -337 181 -342 206 -342 ct 242 -342 269 -333 286 -315 ct 303 -296 312 -266 312 -224 ct 
312 0 l  256 0 l  p ef
pom
gs
1.000 1.000 1.000 c 11565 7453 m  10549 7453 l  10549 2246 l  12581 2246 l 
12581 7453 l  11565 7453 l  p ef
gr
gs
53 lw 1 lj 11565 7453 m  10549 7453 l  10549 2246 l  12581 2246 l  12581 7453 l 
11565 7453 l  pc
gr
pum
10873 4415 t
223 -389 m  223 0 l  164 0 l  164 -389 l  14 -389 l  14 -437 l  373 -437 l 
373 -389 l  223 -389 l  p ef
406 -407 m  406 -460 l  462 -460 l  462 -407 l  406 -407 l  p
406 1 m  406 -335 l  462 -335 l  462 1 l  406 1 l  p ef
742 0 m  742 -213 l  742 -245 738 -268 729 -280 ct 720 -293 704 -299 681 -299 ct 
657 -299 638 -290 624 -272 ct 610 -253 604 -228 604 -195 ct 604 0 l  548 0 l 
548 -264 l  548 -303 547 -327 546 -336 ct 599 -336 l  599 -335 599 -332 600 -327 ct 
600 -323 600 -318 600 -312 ct 601 -306 601 -295 601 -278 ct 602 -278 l  614 -302 628 -319 644 -328 ct 
659 -337 678 -342 700 -342 ct 726 -342 746 -337 761 -327 ct 775 -317 786 -301 791 -278 ct 
792 -278 l  804 -301 818 -317 834 -327 ct 851 -337 871 -342 894 -342 ct 928 -342 953 -333 968 -314 ct 
983 -296 991 -266 991 -224 ct 991 0 l  936 0 l  936 -213 l  936 -245 931 -268 923 -280 ct 
914 -293 898 -299 875 -299 ct 850 -299 831 -290 818 -272 ct 804 -254 797 -228 797 -195 ct 
797 0 l  742 0 l  p ef
1119 -156 m  1119 -118 1127 -88 1142 -67 ct 1158 -46 1182 -36 1212 -36 ct 1236 -36 1256 -41 1270 -50 ct 
1285 -60 1295 -72 1300 -87 ct 1349 -73 l  1329 -20 1283 6 1212 6 ct 1163 6 1125 -9 1099 -38 ct 
1073 -68 1060 -112 1060 -170 ct 1060 -226 1073 -268 1099 -298 ct 1125 -327 1162 -342 1210 -342 ct 
1309 -342 1358 -283 1358 -164 ct 1358 -156 l  1119 -156 l  p
1300 -199 m  1297 -234 1288 -260 1273 -277 ct 1258 -293 1237 -301 1209 -301 ct 
1182 -301 1161 -292 1145 -274 ct 1129 -256 1120 -231 1119 -199 ct 1300 -199 l 
p ef
pom
pum
11019 5012 t
394 -121 m  394 -81 379 -49 347 -27 ct 316 -5 271 6 214 6 ct 107 6 46 -31 29 -105 ct 
86 -117 l  93 -90 107 -71 128 -59 ct 150 -46 179 -40 216 -40 ct 254 -40 284 -47 305 -60 ct 
325 -73 336 -92 336 -118 ct 336 -132 333 -144 326 -153 ct 320 -161 310 -169 299 -175 ct 
287 -180 273 -185 256 -189 ct 240 -193 222 -197 202 -202 ct 168 -210 141 -217 124 -225 ct 
106 -233 92 -241 81 -250 ct 71 -260 63 -271 58 -284 ct 52 -296 49 -311 49 -327 ct 
49 -364 64 -393 92 -414 ct 121 -434 162 -444 215 -444 ct 265 -444 303 -436 329 -421 ct 
355 -406 374 -380 384 -343 ct 326 -333 l  319 -356 307 -373 289 -384 ct 271 -394 246 -399 215 -399 ct 
180 -399 153 -394 135 -382 ct 116 -370 107 -353 107 -330 ct 107 -317 111 -306 118 -297 ct 
125 -288 135 -281 149 -274 ct 162 -268 189 -261 229 -252 ct 242 -249 256 -246 269 -242 ct 
282 -239 295 -235 307 -231 ct 319 -226 331 -221 342 -215 ct 352 -209 361 -202 369 -193 ct 
377 -185 383 -174 388 -163 ct 392 -151 394 -137 394 -121 ct p ef
466 1 m  466 -460 l  522 -460 l  522 1 l  466 1 l  p ef
889 -168 m  889 -110 877 -66 851 -37 ct 825 -8 787 6 738 6 ct 689 6 652 -9 627 -39 ct 
602 -69 590 -112 590 -168 ct 590 -284 640 -342 740 -342 ct 791 -342 829 -328 853 -300 ct 
877 -272 889 -228 889 -168 ct p
831 -168 m  831 -215 824 -248 810 -269 ct 797 -291 773 -301 741 -301 ct 708 -301 685 -290 670 -269 ct 
656 -247 648 -214 648 -168 ct 648 -124 655 -91 670 -69 ct 684 -46 707 -35 738 -35 ct 
771 -35 795 -46 809 -68 ct 824 -89 831 -123 831 -168 ct p ef
1086 -2 m  1067 3 1049 5 1029 5 ct 985 5 962 -20 962 -71 ct 962 -295 l  924 -295 l 
924 -336 l  965 -336 l  981 -411 l  1018 -411 l  1018 -336 l  1080 -336 l 
1080 -295 l  1018 -295 l  1018 -83 l  1018 -67 1021 -56 1026 -49 ct 1031 -43 1041 -39 1054 -39 ct 
1061 -39 1072 -41 1086 -44 ct 1086 -2 l  p ef
pom
pum
11390 5609 t
48 0 m  48 -47 l  160 -47 l  160 -384 l  61 -314 l  61 -366 l  164 -438 l 
216 -438 l  216 -47 l  322 -47 l  322 0 l  48 0 l  p ef
pom
gs
1.000 1.000 1.000 c 13565 7453 m  12549 7453 l  12549 2246 l  14581 2246 l 
14581 7453 l  13565 7453 l  p ef
gr
gs
53 lw 1 lj 13565 7453 m  12549 7453 l  12549 2246 l  14581 2246 l  14581 7453 l 
13565 7453 l  pc
gr
pum
12873 4415 t
223 -389 m  223 0 l  164 0 l  164 -389 l  14 -389 l  14 -437 l  373 -437 l 
373 -389 l  223 -389 l  p ef
406 -407 m  406 -460 l  462 -460 l  462 -407 l  406 -407 l  p
406 1 m  406 -335 l  462 -335 l  462 1 l  406 1 l  p ef
742 0 m  742 -213 l  742 -245 738 -268 729 -280 ct 720 -293 704 -299 681 -299 ct 
657 -299 638 -290 624 -272 ct 610 -253 604 -228 604 -195 ct 604 0 l  548 0 l 
548 -264 l  548 -303 547 -327 546 -336 ct 599 -336 l  599 -335 599 -332 600 -327 ct 
600 -323 600 -318 600 -312 ct 601 -306 601 -295 601 -278 ct 602 -278 l  614 -302 628 -319 644 -328 ct 
659 -337 678 -342 700 -342 ct 726 -342 746 -337 761 -327 ct 775 -317 786 -301 791 -278 ct 
792 -278 l  804 -301 818 -317 834 -327 ct 851 -337 871 -342 894 -342 ct 928 -342 953 -333 968 -314 ct 
983 -296 991 -266 991 -224 ct 991 0 l  936 0 l  936 -213 l  936 -245 931 -268 923 -280 ct 
914 -293 898 -299 875 -299 ct 850 -299 831 -290 818 -272 ct 804 -254 797 -228 797 -195 ct 
797 0 l  742 0 l  p ef
1119 -156 m  1119 -118 1127 -88 1142 -67 ct 1158 -46 1182 -36 1212 -36 ct 1236 -36 1256 -41 1270 -50 ct 
1285 -60 1295 -72 1300 -87 ct 1349 -73 l  1329 -20 1283 6 1212 6 ct 1163 6 1125 -9 1099 -38 ct 
1073 -68 1060 -112 1060 -170 ct 1060 -226 1073 -268 1099 -298 ct 1125 -327 1162 -342 1210 -342 ct 
1309 -342 1358 -283 1358 -164 ct 1358 -156 l  1119 -156 l  p
1300 -199 m  1297 -234 1288 -260 1273 -277 ct 1258 -293 1237 -301 1209 -301 ct 
1182 -301 1161 -292 1145 -274 ct 1129 -256 1120 -231 1119 -199 ct 1300 -199 l 
p ef
pom
pum
13019 5012 t
394 -121 m  394 -81 379 -49 347 -27 ct 316 -5 271 6 214 6 ct 107 6 46 -31 29 -105 ct 
86 -117 l  93 -90 107 -71 128 -59 ct 150 -46 179 -40 216 -40 ct 254 -40 284 -47 305 -60 ct 
325 -73 336 -92 336 -118 ct 336 -132 333 -144 326 -153 ct 320 -161 310 -169 299 -175 ct 
287 -180 273 -185 256 -189 ct 240 -193 222 -197 202 -202 ct 168 -210 141 -217 124 -225 ct 
106 -233 92 -241 81 -250 ct 71 -260 63 -271 58 -284 ct 52 -296 49 -311 49 -327 ct 
49 -364 64 -393 92 -414 ct 121 -434 162 -444 215 -444 ct 265 -444 303 -436 329 -421 ct 
355 -406 374 -380 384 -343 ct 326 -333 l  319 -356 307 -373 289 -384 ct 271 -394 246 -399 215 -399 ct 
180 -399 153 -394 135 -382 ct 116 -370 107 -353 107 -330 ct 107 -317 111 -306 118 -297 ct 
125 -288 135 -281 149 -274 ct 162 -268 189 -261 229 -252 ct 242 -249 256 -246 269 -242 ct 
282 -239 295 -235 307 -231 ct 319 -226 331 -221 342 -215 ct 352 -209 361 -202 369 -193 ct 
377 -185 383 -174 388 -163 ct 392 -151 394 -137 394 -121 ct p ef
466 1 m  466 -460 l  522 -460 l  522 1 l  466 1 l  p ef
889 -168 m  889 -110 877 -66 851 -37 ct 825 -8 787 6 738 6 ct 689 6 652 -9 627 -39 ct 
602 -69 590 -112 590 -168 ct 590 -284 640 -342 740 -342 ct 791 -342 829 -328 853 -300 ct 
877 -272 889 -228 889 -168 ct p
831 -168 m  831 -215 824 -248 810 -269 ct 797 -291 773 -301 741 -301 ct 708 -301 685 -290 670 -269 ct 
656 -247 648 -214 648 -168 ct 648 -124 655 -91 670 -69 ct 684 -46 707 -35 738 -35 ct 
771 -35 795 -46 809 -68 ct 824 -89 831 -123 831 -168 ct p ef
1086 -2 m  1067 3 1049 5 1029 5 ct 985 5 962 -20 962 -71 ct 962 -295 l  924 -295 l 
924 -336 l  965 -336 l  981 -411 l  1018 -411 l  1018 -336 l  1080 -336 l 
1080 -295 l  1018 -295 l  1018 -83 l  1018 -67 1021 -56 1026 -49 ct 1031 -43 1041 -39 1054 -39 ct 
1061 -39 1072 -41 1086 -44 ct 1086 -2 l  p ef
pom
pum
13390 5609 t
32 0 m  32 -39 l  42 -64 55 -85 71 -104 ct 86 -122 102 -139 118 -154 ct 135 -169 152 -183 168 -196 ct 
185 -208 199 -221 213 -234 ct 226 -247 237 -260 245 -274 ct 253 -289 257 -304 257 -322 ct 
257 -346 250 -365 236 -378 ct 222 -391 202 -398 177 -398 ct 154 -398 134 -392 119 -379 ct 
103 -366 94 -348 91 -324 ct 34 -329 l  39 -364 53 -392 79 -413 ct 104 -434 137 -444 177 -444 ct 
221 -444 255 -434 279 -413 ct 303 -392 314 -362 314 -324 ct 314 -307 311 -290 303 -274 ct 
295 -257 283 -240 268 -223 ct 253 -206 224 -180 180 -145 ct 157 -126 138 -108 124 -93 ct 
110 -77 100 -62 93 -47 ct 321 -47 l  321 0 l  32 0 l  p ef
pom
pum
16030 5473 t
116 0 m  116 -136 l  237 -136 l  237 0 l  116 0 l  p ef
467 0 m  467 -136 l  588 -136 l  588 0 l  467 0 l  p ef
819 0 m  819 -136 l  940 -136 l  940 0 l  819 0 l  p ef
pom
gs
53 lw 1 lj 10557 385 m  10557 7497 l  ps
gr
gs
54 lw 1 lj 1305 1601 m  9617 1601 l  ps
gr
gs
762 1601 m  1331 1791 l  1331 1412 l  762 1601 l  p ef
gr
gs
10160 1601 m  9592 1412 l  9592 1791 l  10160 1601 l  p ef
gr
pum
4104 1465 t
394 -121 m  394 -81 379 -49 347 -27 ct 316 -5 271 6 214 6 ct 107 6 46 -31 29 -105 ct 
86 -117 l  93 -90 107 -71 128 -59 ct 150 -46 179 -40 216 -40 ct 254 -40 284 -47 305 -60 ct 
325 -73 336 -92 336 -118 ct 336 -132 333 -144 326 -153 ct 320 -161 310 -169 299 -175 ct 
287 -180 273 -185 256 -189 ct 240 -193 222 -197 202 -202 ct 168 -210 141 -217 124 -225 ct 
106 -233 92 -241 81 -250 ct 71 -260 63 -271 58 -284 ct 52 -296 49 -311 49 -327 ct 
49 -364 64 -393 92 -414 ct 121 -434 162 -444 215 -444 ct 265 -444 303 -436 329 -421 ct 
355 -406 374 -380 384 -343 ct 326 -333 l  319 -356 307 -373 289 -384 ct 271 -394 246 -399 215 -399 ct 
180 -399 153 -394 135 -382 ct 116 -370 107 -353 107 -330 ct 107 -317 111 -306 118 -297 ct 
125 -288 135 -281 149 -274 ct 162 -268 189 -261 229 -252 ct 242 -249 256 -246 269 -242 ct 
282 -239 295 -235 307 -231 ct 319 -226 331 -221 342 -215 ct 352 -209 361 -202 369 -193 ct 
377 -185 383 -174 388 -163 ct 392 -151 394 -137 394 -121 ct p ef
466 1 m  466 -460 l  522 -460 l  522 1 l  466 1 l  p ef
889 -168 m  889 -110 877 -66 851 -37 ct 825 -8 787 6 738 6 ct 689 6 652 -9 627 -39 ct 
602 -69 590 -112 590 -168 ct 590 -284 640 -342 740 -342 ct 791 -342 829 -328 853 -300 ct 
877 -272 889 -228 889 -168 ct p
831 -168 m  831 -215 824 -248 810 -269 ct 797 -291 773 -301 741 -301 ct 708 -301 685 -290 670 -269 ct 
656 -247 648 -214 648 -168 ct 648 -124 655 -91 670 -69 ct 684 -46 707 -35 738 -35 ct 
771 -35 795 -46 809 -68 ct 824 -89 831 -123 831 -168 ct p ef
1086 -2 m  1067 3 1049 5 1029 5 ct 985 5 962 -20 962 -71 ct 962 -295 l  924 -295 l 
924 -336 l  965 -336 l  981 -411 l  1018 -411 l  1018 -336 l  1080 -336 l 
1080 -295 l  1018 -295 l  1018 -83 l  1018 -67 1021 -56 1026 -49 ct 1031 -43 1041 -39 1054 -39 ct 
1061 -39 1072 -41 1086 -44 ct 1086 -2 l  p ef
1204 -295 m  1204 0 l  1148 0 l  1148 -295 l  1101 -295 l  1101 -336 l 
1148 -336 l  1148 -374 l  1148 -404 1155 -426 1168 -440 ct 1182 -453 1202 -460 1230 -460 ct 
1245 -460 1259 -459 1269 -456 ct 1269 -414 l  1260 -415 1252 -416 1245 -416 ct 
1230 -416 1220 -413 1214 -405 ct 1207 -398 1204 -385 1204 -366 ct 1204 -336 l 
1269 -336 l  1269 -295 l  1204 -295 l  p ef
1314 0 m  1314 -258 l  1314 -281 1313 -307 1312 -336 ct 1365 -336 l  1367 -298 1367 -275 1367 -267 ct 
1369 -267 l  1377 -296 1388 -316 1399 -326 ct 1411 -337 1427 -342 1448 -342 ct 
1456 -342 1463 -341 1471 -339 ct 1471 -288 l  1463 -290 1454 -291 1441 -291 ct 
1418 -291 1400 -281 1388 -261 ct 1376 -241 1370 -212 1370 -175 ct 1370 0 l  1314 0 l 
p ef
1610 6 m  1577 6 1551 -3 1534 -21 ct 1517 -38 1509 -63 1509 -94 ct 1509 -129 1520 -155 1543 -174 ct 
1566 -192 1603 -202 1654 -204 ct 1729 -205 l  1729 -223 l  1729 -250 1723 -270 1712 -282 ct 
1700 -294 1682 -299 1657 -299 ct 1632 -299 1614 -295 1603 -287 ct 1591 -278 1584 -265 1582 -246 ct 
1524 -251 l  1533 -312 1578 -342 1658 -342 ct 1701 -342 1732 -332 1754 -313 ct 
1775 -294 1786 -266 1786 -229 ct 1786 -85 l  1786 -68 1788 -55 1792 -47 ct 1796 -39 1805 -35 1817 -35 ct 
1822 -35 1828 -35 1835 -37 ct 1835 -2 l  1821 1 1807 3 1792 3 ct 1771 3 1756 -2 1747 -13 ct 
1738 -24 1732 -41 1731 -64 ct 1729 -64 l  1715 -39 1698 -21 1679 -10 ct 1660 1 1637 6 1610 6 ct 
p
1623 -36 m  1644 -36 1662 -41 1678 -50 ct 1694 -59 1706 -72 1715 -88 ct 1725 -104 1729 -121 1729 -138 ct 
1729 -166 l  1668 -165 l  1642 -164 1622 -161 1608 -157 ct 1595 -152 1584 -144 1577 -134 ct 
1570 -123 1566 -110 1566 -93 ct 1566 -75 1571 -61 1581 -51 ct 1591 -41 1605 -36 1623 -36 ct 
p ef
2071 0 m  2071 -213 l  2071 -245 2067 -268 2058 -280 ct 2049 -293 2033 -299 2010 -299 ct 
1986 -299 1967 -290 1953 -272 ct 1939 -253 1933 -228 1933 -195 ct 1933 0 l  1877 0 l 
1877 -264 l  1877 -303 1876 -327 1875 -336 ct 1928 -336 l  1928 -335 1928 -332 1929 -327 ct 
1929 -323 1929 -318 1929 -312 ct 1930 -306 1930 -295 1930 -278 ct 1931 -278 l 
1943 -302 1957 -319 1973 -328 ct 1988 -337 2007 -342 2029 -342 ct 2055 -342 2075 -337 2090 -327 ct 
2104 -317 2115 -301 2120 -278 ct 2121 -278 l  2133 -301 2147 -317 2163 -327 ct 
2180 -337 2200 -342 2223 -342 ct 2257 -342 2282 -333 2297 -314 ct 2312 -296 2320 -266 2320 -224 ct 
2320 0 l  2265 0 l  2265 -213 l  2265 -245 2260 -268 2252 -280 ct 2243 -293 2227 -299 2204 -299 ct 
2179 -299 2160 -290 2147 -272 ct 2133 -254 2126 -228 2126 -195 ct 2126 0 l  2071 0 l 
p ef
2448 -156 m  2448 -118 2456 -88 2471 -67 ct 2487 -46 2511 -36 2541 -36 ct 2565 -36 2585 -41 2599 -50 ct 
2614 -60 2624 -72 2629 -87 ct 2678 -73 l  2658 -20 2612 6 2541 6 ct 2492 6 2454 -9 2428 -38 ct 
2402 -68 2389 -112 2389 -170 ct 2389 -226 2402 -268 2428 -298 ct 2454 -327 2491 -342 2539 -342 ct 
2638 -342 2687 -283 2687 -164 ct 2687 -156 l  2448 -156 l  p
2629 -199 m  2626 -234 2617 -260 2602 -277 ct 2587 -293 2566 -301 2538 -301 ct 
2511 -301 2490 -292 2474 -274 ct 2458 -256 2449 -231 2448 -199 ct 2629 -199 l 
p ef
pom
pum
22530 5473 t
116 0 m  116 -136 l  237 -136 l  237 0 l  116 0 l  p ef
467 0 m  467 -136 l  588 -136 l  588 0 l  467 0 l  p ef
819 0 m  819 -136 l  940 -136 l  940 0 l  819 0 l  p ef
pom
gs
53 lw 1 lj 20685 385 m  20685 7497 l  ps
gr
gs
53 lw 1 lj 20050 2245 m  24241 2245 l  ps
gr
gs
53 lw 1 lj 20051 7445 m  24242 7445 l  ps
gr
gr
gs
0 0 m 25145 0 l 25145 7873 l 0 7873 l 0 0 l eoclip newpath
gr
gr
0 7874 t 
pom
count op_count sub {pop} repeat countdictstack dict_count sub {end} repeat b4_inc_state restore
%%PageTrailer
%%Trailer
%%EOF
