%!PS-Adobe-3.0 EPSF-3.0 
%%BoundingBox: 0 0 814 246
%%Pages: 0
%%Creator: LibreOffice 6.0
%%Title: none
%%CreationDate: none
%%LanguageLevel: 2
%%EndComments
%%BeginProlog
%%BeginResource: procset SDRes-Prolog 1.0 0
/b4_inc_state save def
/dict_count countdictstack def
/op_count count 1 sub def
userdict begin
0 setgray 0 setlinecap 1 setlinewidth 0 setlinejoin 10 setmiterlimit[] 0 setdash newpath
/languagelevel where {pop languagelevel 1 ne {false setstrokeadjust false setoverprint} if} if
/bdef {bind def} bind def
/c {setrgbcolor} bdef
/l {neg lineto} bdef
/rl {neg rlineto} bdef
/lc {setlinecap} bdef
/lj {setlinejoin} bdef
/lw {setlinewidth} bdef
/ml {setmiterlimit} bdef
/ld {setdash} bdef
/m {neg moveto} bdef
/ct {6 2 roll neg 6 2 roll neg 6 2 roll neg curveto} bdef
/r {rotate} bdef
/t {neg translate} bdef
/s {scale} bdef
/sw {show} bdef
/gs {gsave} bdef
/gr {grestore} bdef
/f {findfont dup length dict begin
{1 index /FID ne {def} {pop pop} ifelse} forall /Encoding ISOLatin1Encoding def
currentdict end /NFont exch definefont pop /NFont findfont} bdef
/p {closepath} bdef
/sf {scalefont setfont} bdef
/ef {eofill}bdef
/pc {closepath stroke}bdef
/ps {stroke}bdef
/pum {matrix currentmatrix}bdef
/pom {setmatrix}bdef
/bs {/aString exch def /nXOfs exch def /nWidth exch def currentpoint nXOfs 0 rmoveto pum nWidth aString stringwidth pop div 1 scale aString show pom moveto} bdef
%%EndResource
%%EndProlog
%%BeginSetup
%%EndSetup
%%Page: 1 1
%%BeginPageSetup
%%EndPageSetup
pum
0.02836 0.02831 s 
0 -8687 t
/tm matrix currentmatrix def
gs
0 0 m 28701 0 l 28701 8686 l 0 8686 l 0 0 l eoclip newpath
gs
0 0 m 28701 0 l 28701 8686 l 0 8686 l 0 0 l eoclip newpath
gs
1.000 0.203 0.203 c 1820 1495 m  3840 1495 l  3840 2353 l  1820 2353 l 
1820 1495 l  p ef
gr
pum
2073 2087 t
0.003 0.003 0.003 c 428 -223 m  428 -178 419 -139 402 -105 ct 384 -71 359 -45 327 -27 ct 
295 -9 258 0 215 0 ct 52 0 l  52 -437 l  197 -437 l  271 -437 328 -419 368 -382 ct 
408 -345 428 -292 428 -223 ct p
369 -223 m  369 -277 354 -319 324 -347 ct 295 -376 252 -390 195 -390 ct 111 -390 l 
111 -47 l  209 -47 l  241 -47 269 -55 293 -69 ct 317 -83 336 -103 349 -129 ct 
362 -156 369 -187 369 -223 ct p ef
pom
pum
2530 2087 t
436 -119 m  425 -133 412 -153 400 -180 ct 422 -180 l  448 -149 476 -126 506 -111 ct 
506 -100 l  476 -85 448 -62 422 -31 ct 400 -31 l  412 -58 425 -78 436 -92 ct 
130 -92 l  130 -119 l  436 -119 l  p ef
1025 -123 m  1025 -84 1011 -54 983 -32 ct 954 -11 915 0 864 0 ct 687 0 l  687 -437 l 
846 -437 l  948 -437 1000 -402 1000 -331 ct 1000 -305 992 -284 978 -266 ct 963 -248 943 -236 917 -230 ct 
951 -226 978 -215 997 -196 ct 1016 -176 1025 -152 1025 -123 ct p
940 -324 m  940 -348 932 -365 916 -375 ct 900 -385 876 -390 846 -390 ct 746 -390 l 
746 -251 l  846 -251 l  877 -251 901 -257 917 -269 ct 932 -281 940 -299 940 -324 ct 
p
965 -128 m  965 -179 929 -205 857 -205 ct 746 -205 l  746 -47 l  861 -47 l 
898 -47 924 -54 940 -68 ct 957 -81 965 -101 965 -128 ct p ef
pom
gs
0.003 0.800 0.203 c 3840 1495 m  5860 1495 l  5860 2353 l  3840 2353 l  3840 1495 l 
p ef
gr
pum
4110 2087 t
390 -123 m  390 -84 376 -54 348 -32 ct 319 -11 280 0 229 0 ct 52 0 l  52 -437 l 
211 -437 l  313 -437 365 -402 365 -331 ct 365 -305 357 -284 343 -266 ct 328 -248 308 -236 282 -230 ct 
316 -226 343 -215 362 -196 ct 381 -176 390 -152 390 -123 ct p
305 -324 m  305 -348 297 -365 281 -375 ct 265 -385 241 -390 211 -390 ct 111 -390 l 
111 -251 l  211 -251 l  242 -251 266 -257 282 -269 ct 297 -281 305 -299 305 -324 ct 
p
330 -128 m  330 -179 294 -205 222 -205 ct 111 -205 l  111 -47 l  226 -47 l 
263 -47 289 -54 305 -68 ct 322 -81 330 -101 330 -128 ct p ef
pom
pum
4533 2087 t
436 -119 m  425 -133 412 -153 400 -180 ct 422 -180 l  448 -149 476 -126 506 -111 ct 
506 -100 l  476 -85 448 -62 422 -31 ct 400 -31 l  412 -58 425 -78 436 -92 ct 
130 -92 l  130 -119 l  436 -119 l  p ef
997 0 m  947 -128 l  748 -128 l  698 0 l  636 0 l  815 -438 l  882 -438 l 
1057 0 l  997 0 l  p
847 -393 m  845 -384 l  839 -367 832 -345 822 -318 ct 766 -174 l  929 -174 l 
873 -319 l  867 -333 862 -349 856 -367 ct 847 -393 l  p ef
pom
gs
1.000 0.203 1.000 c 5860 1495 m  7880 1495 l  7880 2353 l  5860 2353 l 
5860 1495 l  p ef
gr
pum
6113 2087 t
428 -223 m  428 -178 419 -139 402 -105 ct 384 -71 359 -45 327 -27 ct 295 -9 258 0 215 0 ct 
52 0 l  52 -437 l  197 -437 l  271 -437 328 -419 368 -382 ct 408 -345 428 -292 428 -223 ct 
p
369 -223 m  369 -277 354 -319 324 -347 ct 295 -376 252 -390 195 -390 ct 111 -390 l 
111 -47 l  209 -47 l  241 -47 269 -55 293 -69 ct 317 -83 336 -103 349 -129 ct 
362 -156 369 -187 369 -223 ct p ef
pom
pum
6570 2087 t
436 -119 m  425 -133 412 -153 400 -180 ct 422 -180 l  448 -149 476 -126 506 -111 ct 
506 -100 l  476 -85 448 -62 422 -31 ct 400 -31 l  412 -58 425 -78 436 -92 ct 
130 -92 l  130 -119 l  436 -119 l  p ef
997 0 m  947 -128 l  748 -128 l  698 0 l  636 0 l  815 -438 l  882 -438 l 
1057 0 l  997 0 l  p
847 -393 m  845 -384 l  839 -367 832 -345 822 -318 ct 766 -174 l  929 -174 l 
873 -319 l  867 -333 862 -349 856 -367 ct 847 -393 l  p ef
pom
gs
1.000 1.000 1.000 c 7880 1495 m  9900 1495 l  9900 2353 l  7880 2353 l 
7880 1495 l  p ef
gr
gs
1.000 1.000 1.000 c 9900 1495 m  11920 1495 l  11920 2353 l  9900 2353 l 
9900 1495 l  p ef
gr
gs
0.003 0.800 1.000 c 1820 2353 m  3840 2353 l  3840 3211 l  1820 3211 l  1820 2353 l 
p ef
gr
pum
2073 2945 t
246 -396 m  197 -396 160 -380 133 -349 ct 106 -318 92 -275 92 -221 ct 92 -167 106 -124 134 -92 ct 
162 -59 200 -43 248 -43 ct 309 -43 355 -73 386 -134 ct 434 -109 l  416 -72 391 -43 359 -23 ct 
326 -4 288 6 245 6 ct 201 6 163 -3 131 -21 ct 99 -40 74 -66 58 -100 ct 41 -134 32 -174 32 -221 ct 
32 -291 51 -345 89 -385 ct 126 -424 178 -444 245 -444 ct 291 -444 330 -435 362 -417 ct 
393 -398 416 -371 430 -336 ct 374 -317 l  364 -343 348 -362 325 -375 ct 303 -389 276 -396 246 -396 ct 
p ef
pom
pum
2530 2945 t
436 -119 m  425 -133 412 -153 400 -180 ct 422 -180 l  448 -149 476 -126 506 -111 ct 
506 -100 l  476 -85 448 -62 422 -31 ct 400 -31 l  412 -58 425 -78 436 -92 ct 
130 -92 l  130 -119 l  436 -119 l  p ef
997 0 m  947 -128 l  748 -128 l  698 0 l  636 0 l  815 -438 l  882 -438 l 
1057 0 l  997 0 l  p
847 -393 m  845 -384 l  839 -367 832 -345 822 -318 ct 766 -174 l  929 -174 l 
873 -319 l  867 -333 862 -349 856 -367 ct 847 -393 l  p ef
pom
gs
1.000 1.000 1.000 c 3840 2353 m  5860 2353 l  5860 3211 l  3840 3211 l 
3840 2353 l  p ef
gr
gs
1.000 1.000 1.000 c 5860 2353 m  7880 2353 l  7880 3211 l  5860 3211 l 
5860 2353 l  p ef
gr
gs
1.000 1.000 1.000 c 7880 2353 m  9900 2353 l  9900 3211 l  7880 3211 l 
7880 2353 l  p ef
gr
gs
1.000 1.000 1.000 c 9900 2353 m  11920 2353 l  11920 3211 l  9900 3211 l 
9900 2353 l  p ef
gr
gs
1.000 1.000 1.000 c 1820 3211 m  3840 3211 l  3840 4069 l  1820 4069 l 
1820 3211 l  p ef
gr
gs
1.000 1.000 1.000 c 3840 3211 m  5860 3211 l  5860 4069 l  3840 4069 l 
3840 3211 l  p ef
gr
gs
1.000 1.000 1.000 c 5860 3211 m  7880 3211 l  7880 4069 l  5860 4069 l 
5860 3211 l  p ef
gr
gs
1.000 1.000 1.000 c 7880 3211 m  9900 3211 l  9900 4069 l  7880 4069 l 
7880 3211 l  p ef
gr
gs
1.000 1.000 1.000 c 9900 3211 m  11920 3211 l  11920 4069 l  9900 4069 l 
9900 3211 l  p ef
gr
gs
1.000 1.000 1.000 c 1820 4069 m  3840 4069 l  3840 4927 l  1820 4927 l 
1820 4069 l  p ef
gr
gs
1.000 1.000 1.000 c 3840 4069 m  5860 4069 l  5860 4927 l  3840 4927 l 
3840 4069 l  p ef
gr
gs
1.000 1.000 1.000 c 5860 4069 m  7880 4069 l  7880 4927 l  5860 4927 l 
5860 4069 l  p ef
gr
gs
1.000 1.000 1.000 c 7880 4069 m  9900 4069 l  9900 4927 l  7880 4927 l 
7880 4069 l  p ef
gr
gs
1.000 1.000 1.000 c 9900 4069 m  11920 4069 l  11920 4927 l  9900 4927 l 
9900 4069 l  p ef
gr
gs
1.000 1.000 1.000 c 1820 4927 m  3840 4927 l  3840 5785 l  1820 5785 l 
1820 4927 l  p ef
gr
gs
1.000 1.000 1.000 c 3840 4927 m  5860 4927 l  5860 5785 l  3840 5785 l 
3840 4927 l  p ef
gr
gs
1.000 1.000 1.000 c 5860 4927 m  7880 4927 l  7880 5785 l  5860 5785 l 
5860 4927 l  p ef
gr
gs
1.000 1.000 1.000 c 7880 4927 m  9900 4927 l  9900 5785 l  7880 5785 l 
7880 4927 l  p ef
gr
gs
1.000 1.000 1.000 c 9900 4927 m  11920 4927 l  11920 5785 l  9900 5785 l 
9900 4927 l  p ef
gr
gs
1.000 1.000 1.000 c 1820 5785 m  3840 5785 l  3840 6643 l  1820 6643 l 
1820 5785 l  p ef
gr
gs
1.000 1.000 1.000 c 3840 5785 m  5860 5785 l  5860 6643 l  3840 6643 l 
3840 5785 l  p ef
gr
gs
1.000 1.000 1.000 c 5860 5785 m  7880 5785 l  7880 6643 l  5860 6643 l 
5860 5785 l  p ef
gr
gs
1.000 1.000 1.000 c 7880 5785 m  9900 5785 l  9900 6643 l  7880 6643 l 
7880 5785 l  p ef
gr
gs
1.000 1.000 1.000 c 9900 5785 m  11920 5785 l  11920 6643 l  9900 6643 l 
9900 5785 l  p ef
gr
gs
8.82 lw 1 lj 0.328 0.328 0.328 c 1802 1482 m  3858 1482 l  ps
gr
gs
17.64 lw 1 lj 0.167 0.167 0.167 c 1811 1495 m  3849 1495 l  ps
gr
gs
8.82 lw 1 lj 1829 1508 m  3831 1508 l  ps
gr
gs
8.82 lw 1 lj 0.328 0.328 0.328 c 3822 1482 m  5878 1482 l  ps
gr
gs
17.64 lw 1 lj 0.167 0.167 0.167 c 3831 1495 m  5869 1495 l  ps
gr
gs
8.82 lw 1 lj 3849 1508 m  5851 1508 l  ps
gr
gs
8.82 lw 1 lj 0.328 0.328 0.328 c 5842 1482 m  7898 1482 l  ps
gr
gs
17.64 lw 1 lj 0.167 0.167 0.167 c 5851 1495 m  7889 1495 l  ps
gr
gs
8.82 lw 1 lj 5869 1508 m  7871 1508 l  ps
gr
gs
8.82 lw 1 lj 0.328 0.328 0.328 c 7862 1482 m  9918 1482 l  ps
gr
gs
17.64 lw 1 lj 0.167 0.167 0.167 c 7871 1495 m  9909 1495 l  ps
gr
gs
8.82 lw 1 lj 7889 1508 m  9891 1508 l  ps
gr
gs
8.82 lw 1 lj 0.328 0.328 0.328 c 9882 1482 m  11938 1482 l  ps
gr
gs
17.64 lw 1 lj 0.167 0.167 0.167 c 9891 1495 m  11929 1495 l  ps
gr
gs
8.82 lw 1 lj 9909 1508 m  11911 1508 l  ps
gr
gs
8.82 lw 1 lj 0.328 0.328 0.328 c 1829 2340 m  3831 2340 l  ps
gr
gs
17.64 lw 1 lj 0.167 0.167 0.167 c 1811 2353 m  3849 2353 l  ps
gr
gs
8.82 lw 1 lj 1829 2366 m  3831 2366 l  ps
gr
gs
8.82 lw 1 lj 0.328 0.328 0.328 c 3849 2340 m  5851 2340 l  ps
gr
gs
17.64 lw 1 lj 0.167 0.167 0.167 c 3831 2353 m  5869 2353 l  ps
gr
gs
8.82 lw 1 lj 3849 2366 m  5851 2366 l  ps
gr
gs
8.82 lw 1 lj 0.328 0.328 0.328 c 5869 2340 m  7871 2340 l  ps
gr
gs
17.64 lw 1 lj 0.167 0.167 0.167 c 5851 2353 m  7889 2353 l  ps
gr
gs
8.82 lw 1 lj 5869 2366 m  7871 2366 l  ps
gr
gs
8.82 lw 1 lj 0.328 0.328 0.328 c 7889 2340 m  9891 2340 l  ps
gr
gs
17.64 lw 1 lj 0.167 0.167 0.167 c 7871 2353 m  9909 2353 l  ps
gr
gs
8.82 lw 1 lj 7889 2366 m  9891 2366 l  ps
gr
gs
8.82 lw 1 lj 0.328 0.328 0.328 c 9909 2340 m  11911 2340 l  ps
gr
gs
17.64 lw 1 lj 0.167 0.167 0.167 c 9891 2353 m  11929 2353 l  ps
gr
gs
8.82 lw 1 lj 9909 2366 m  11911 2366 l  ps
gr
gs
8.82 lw 1 lj 0.328 0.328 0.328 c 1829 3198 m  3831 3198 l  ps
gr
gs
17.64 lw 1 lj 0.167 0.167 0.167 c 1811 3211 m  3849 3211 l  ps
gr
gs
8.82 lw 1 lj 1829 3224 m  3831 3224 l  ps
gr
gs
8.82 lw 1 lj 0.328 0.328 0.328 c 3849 3198 m  5851 3198 l  ps
gr
gs
17.64 lw 1 lj 0.167 0.167 0.167 c 3831 3211 m  5869 3211 l  ps
gr
gs
8.82 lw 1 lj 3849 3224 m  5851 3224 l  ps
gr
gs
8.82 lw 1 lj 0.328 0.328 0.328 c 5869 3198 m  7871 3198 l  ps
gr
gs
17.64 lw 1 lj 0.167 0.167 0.167 c 5851 3211 m  7889 3211 l  ps
gr
gs
8.82 lw 1 lj 5869 3224 m  7871 3224 l  ps
gr
gs
8.82 lw 1 lj 0.328 0.328 0.328 c 7889 3198 m  9891 3198 l  ps
gr
gs
17.64 lw 1 lj 0.167 0.167 0.167 c 7871 3211 m  9909 3211 l  ps
gr
gs
8.82 lw 1 lj 7889 3224 m  9891 3224 l  ps
gr
gs
8.82 lw 1 lj 0.328 0.328 0.328 c 9909 3198 m  11911 3198 l  ps
gr
gs
17.64 lw 1 lj 0.167 0.167 0.167 c 9891 3211 m  11929 3211 l  ps
gr
gs
8.82 lw 1 lj 9909 3224 m  11911 3224 l  ps
gr
gs
8.82 lw 1 lj 0.328 0.328 0.328 c 1829 4056 m  3831 4056 l  ps
gr
gs
17.64 lw 1 lj 0.167 0.167 0.167 c 1811 4069 m  3849 4069 l  ps
gr
gs
8.82 lw 1 lj 1829 4082 m  3831 4082 l  ps
gr
gs
8.82 lw 1 lj 0.328 0.328 0.328 c 3849 4056 m  5851 4056 l  ps
gr
gs
17.64 lw 1 lj 0.167 0.167 0.167 c 3831 4069 m  5869 4069 l  ps
gr
gs
8.82 lw 1 lj 3849 4082 m  5851 4082 l  ps
gr
gs
8.82 lw 1 lj 5869 4056 m  7871 4056 l  ps
gr
gs
17.64 lw 1 lj 0.167 0.167 0.167 c 5851 4069 m  7889 4069 l  ps
gr
gs
8.82 lw 1 lj 0.328 0.328 0.328 c 5869 4082 m  7871 4082 l  ps
gr
gs
8.82 lw 1 lj 0.328 0.328 0.328 c 7889 4056 m  9891 4056 l  ps
gr
gs
17.64 lw 1 lj 0.167 0.167 0.167 c 7871 4069 m  9909 4069 l  ps
gr
gs
8.82 lw 1 lj 7889 4082 m  9891 4082 l  ps
gr
gs
8.82 lw 1 lj 0.328 0.328 0.328 c 9909 4056 m  11911 4056 l  ps
gr
gs
17.64 lw 1 lj 0.167 0.167 0.167 c 9891 4069 m  11929 4069 l  ps
gr
gs
8.82 lw 1 lj 9909 4082 m  11911 4082 l  ps
gr
gs
8.82 lw 1 lj 0.328 0.328 0.328 c 1829 4914 m  3831 4914 l  ps
gr
gs
17.64 lw 1 lj 0.167 0.167 0.167 c 1811 4927 m  3849 4927 l  ps
gr
gs
8.82 lw 1 lj 1829 4940 m  3831 4940 l  ps
gr
gs
8.82 lw 1 lj 0.328 0.328 0.328 c 3849 4914 m  5851 4914 l  ps
gr
gs
17.64 lw 1 lj 0.167 0.167 0.167 c 3831 4927 m  5869 4927 l  ps
gr
gs
8.82 lw 1 lj 3849 4940 m  5851 4940 l  ps
gr
gs
8.82 lw 1 lj 5869 4914 m  7871 4914 l  ps
gr
gs
17.64 lw 1 lj 0.167 0.167 0.167 c 5851 4927 m  7889 4927 l  ps
gr
gs
8.82 lw 1 lj 0.328 0.328 0.328 c 5869 4940 m  7871 4940 l  ps
gr
gs
8.82 lw 1 lj 0.328 0.328 0.328 c 7889 4914 m  9891 4914 l  ps
gr
gs
17.64 lw 1 lj 0.167 0.167 0.167 c 7871 4927 m  9909 4927 l  ps
gr
gs
8.82 lw 1 lj 7889 4940 m  9891 4940 l  ps
gr
gs
8.82 lw 1 lj 0.328 0.328 0.328 c 9909 4914 m  11911 4914 l  ps
gr
gs
17.64 lw 1 lj 0.167 0.167 0.167 c 9891 4927 m  11929 4927 l  ps
gr
gs
8.82 lw 1 lj 9909 4940 m  11911 4940 l  ps
gr
gs
8.82 lw 1 lj 0.328 0.328 0.328 c 1829 5772 m  3831 5772 l  ps
gr
gs
17.64 lw 1 lj 0.167 0.167 0.167 c 1811 5785 m  3849 5785 l  ps
gr
gs
8.82 lw 1 lj 1829 5798 m  3831 5798 l  ps
gr
gs
8.82 lw 1 lj 0.328 0.328 0.328 c 1829 6630 m  3831 6630 l  ps
gr
gs
17.64 lw 1 lj 0.167 0.167 0.167 c 1811 6643 m  3849 6643 l  ps
gr
gs
8.82 lw 1 lj 1802 6656 m  3858 6656 l  ps
gr
gs
8.82 lw 1 lj 0.328 0.328 0.328 c 3849 5772 m  5851 5772 l  ps
gr
gs
17.64 lw 1 lj 0.167 0.167 0.167 c 3831 5785 m  5869 5785 l  ps
gr
gs
8.82 lw 1 lj 3849 5798 m  5851 5798 l  ps
gr
gs
8.82 lw 1 lj 0.328 0.328 0.328 c 3849 6630 m  5851 6630 l  ps
gr
gs
17.64 lw 1 lj 0.167 0.167 0.167 c 3831 6643 m  5869 6643 l  ps
gr
gs
8.82 lw 1 lj 3822 6656 m  5878 6656 l  ps
gr
gs
8.82 lw 1 lj 0.328 0.328 0.328 c 5869 5772 m  7871 5772 l  ps
gr
gs
17.64 lw 1 lj 0.167 0.167 0.167 c 5851 5785 m  7889 5785 l  ps
gr
gs
8.82 lw 1 lj 5869 5798 m  7871 5798 l  ps
gr
gs
8.82 lw 1 lj 0.328 0.328 0.328 c 5869 6630 m  7871 6630 l  ps
gr
gs
17.64 lw 1 lj 0.167 0.167 0.167 c 5851 6643 m  7889 6643 l  ps
gr
gs
8.82 lw 1 lj 5842 6656 m  7898 6656 l  ps
gr
gs
8.82 lw 1 lj 0.328 0.328 0.328 c 7889 5772 m  9891 5772 l  ps
gr
gs
17.64 lw 1 lj 0.167 0.167 0.167 c 7871 5785 m  9909 5785 l  ps
gr
gs
8.82 lw 1 lj 7889 5798 m  9891 5798 l  ps
gr
gs
8.82 lw 1 lj 0.328 0.328 0.328 c 7889 6630 m  9891 6630 l  ps
gr
gs
17.64 lw 1 lj 0.167 0.167 0.167 c 7871 6643 m  9909 6643 l  ps
gr
gs
8.82 lw 1 lj 7862 6656 m  9918 6656 l  ps
gr
gs
8.82 lw 1 lj 0.328 0.328 0.328 c 9909 5772 m  11911 5772 l  ps
gr
gs
17.64 lw 1 lj 0.167 0.167 0.167 c 9891 5785 m  11929 5785 l  ps
gr
gs
8.82 lw 1 lj 9909 5798 m  11911 5798 l  ps
gr
gs
8.82 lw 1 lj 0.328 0.328 0.328 c 9909 6630 m  11911 6630 l  ps
gr
gs
17.64 lw 1 lj 0.167 0.167 0.167 c 9891 6643 m  11929 6643 l  ps
gr
gs
8.82 lw 1 lj 9882 6656 m  11938 6656 l  ps
gr
gs
8.82 lw 1 lj 0.328 0.328 0.328 c 1833 1504 m  1833 2344 l  ps
gr
gs
17.64 lw 1 lj 0.167 0.167 0.167 c 1820 1486 m  1820 2362 l  ps
gr
gs
8.82 lw 1 lj 1807 1477 m  1807 2371 l  ps
gr
gs
8.82 lw 1 lj 0.328 0.328 0.328 c 1833 2362 m  1833 3202 l  ps
gr
gs
17.64 lw 1 lj 0.167 0.167 0.167 c 1820 2344 m  1820 3220 l  ps
gr
gs
8.82 lw 1 lj 1807 2335 m  1807 3229 l  ps
gr
gs
8.82 lw 1 lj 0.328 0.328 0.328 c 1833 3220 m  1833 4060 l  ps
gr
gs
17.64 lw 1 lj 0.167 0.167 0.167 c 1820 3202 m  1820 4078 l  ps
gr
gs
8.82 lw 1 lj 1807 3193 m  1807 4087 l  ps
gr
gs
8.82 lw 1 lj 0.328 0.328 0.328 c 1833 4078 m  1833 4918 l  ps
gr
gs
17.64 lw 1 lj 0.167 0.167 0.167 c 1820 4060 m  1820 4936 l  ps
gr
gs
8.82 lw 1 lj 1807 4051 m  1807 4945 l  ps
gr
gs
8.82 lw 1 lj 0.328 0.328 0.328 c 1833 4936 m  1833 5776 l  ps
gr
gs
17.64 lw 1 lj 0.167 0.167 0.167 c 1820 4918 m  1820 5794 l  ps
gr
gs
8.82 lw 1 lj 1807 4909 m  1807 5803 l  ps
gr
gs
8.82 lw 1 lj 0.328 0.328 0.328 c 1833 5794 m  1833 6634 l  ps
gr
gs
17.64 lw 1 lj 0.167 0.167 0.167 c 1820 5776 m  1820 6652 l  ps
gr
gs
8.82 lw 1 lj 1807 5767 m  1807 6661 l  ps
gr
gs
8.82 lw 1 lj 0.328 0.328 0.328 c 3853 1504 m  3853 2344 l  ps
gr
gs
17.64 lw 1 lj 0.167 0.167 0.167 c 3840 1486 m  3840 2362 l  ps
gr
gs
8.82 lw 1 lj 3827 1504 m  3827 2344 l  ps
gr
gs
8.82 lw 1 lj 0.328 0.328 0.328 c 3853 2362 m  3853 3202 l  ps
gr
gs
17.64 lw 1 lj 0.167 0.167 0.167 c 3840 2344 m  3840 3220 l  ps
gr
gs
8.82 lw 1 lj 3827 2362 m  3827 3202 l  ps
gr
gs
8.82 lw 1 lj 0.328 0.328 0.328 c 3853 3220 m  3853 4060 l  ps
gr
gs
17.64 lw 1 lj 0.167 0.167 0.167 c 3840 3202 m  3840 4078 l  ps
gr
gs
8.82 lw 1 lj 3827 3220 m  3827 4060 l  ps
gr
gs
8.82 lw 1 lj 0.328 0.328 0.328 c 3853 4078 m  3853 4918 l  ps
gr
gs
17.64 lw 1 lj 0.167 0.167 0.167 c 3840 4060 m  3840 4936 l  ps
gr
gs
8.82 lw 1 lj 3827 4078 m  3827 4918 l  ps
gr
gs
8.82 lw 1 lj 0.328 0.328 0.328 c 3853 4936 m  3853 5776 l  ps
gr
gs
17.64 lw 1 lj 0.167 0.167 0.167 c 3840 4918 m  3840 5794 l  ps
gr
gs
8.82 lw 1 lj 3827 4936 m  3827 5776 l  ps
gr
gs
8.82 lw 1 lj 0.328 0.328 0.328 c 3853 5794 m  3853 6634 l  ps
gr
gs
17.64 lw 1 lj 0.167 0.167 0.167 c 3840 5776 m  3840 6652 l  ps
gr
gs
8.82 lw 1 lj 3827 5794 m  3827 6634 l  ps
gr
gs
8.82 lw 1 lj 0.328 0.328 0.328 c 5873 1504 m  5873 2344 l  ps
gr
gs
17.64 lw 1 lj 0.167 0.167 0.167 c 5860 1486 m  5860 2362 l  ps
gr
gs
8.82 lw 1 lj 5847 1504 m  5847 2344 l  ps
gr
gs
8.82 lw 1 lj 0.328 0.328 0.328 c 5873 2362 m  5873 3202 l  ps
gr
gs
17.64 lw 1 lj 0.167 0.167 0.167 c 5860 2344 m  5860 3220 l  ps
gr
gs
8.82 lw 1 lj 5847 2362 m  5847 3202 l  ps
gr
gs
8.82 lw 1 lj 0.328 0.328 0.328 c 5873 3220 m  5873 4060 l  ps
gr
gs
17.64 lw 1 lj 0.167 0.167 0.167 c 5860 3202 m  5860 4078 l  ps
gr
gs
8.82 lw 1 lj 5847 3220 m  5847 4060 l  ps
gr
gs
8.82 lw 1 lj 5873 4078 m  5873 4918 l  ps
gr
gs
17.64 lw 1 lj 0.167 0.167 0.167 c 5860 4060 m  5860 4936 l  ps
gr
gs
8.82 lw 1 lj 0.328 0.328 0.328 c 5847 4078 m  5847 4918 l  ps
gr
gs
8.82 lw 1 lj 0.328 0.328 0.328 c 5873 4936 m  5873 5776 l  ps
gr
gs
17.64 lw 1 lj 0.167 0.167 0.167 c 5860 4918 m  5860 5794 l  ps
gr
gs
8.82 lw 1 lj 5847 4936 m  5847 5776 l  ps
gr
gs
8.82 lw 1 lj 0.328 0.328 0.328 c 5873 5794 m  5873 6634 l  ps
gr
gs
17.64 lw 1 lj 0.167 0.167 0.167 c 5860 5776 m  5860 6652 l  ps
gr
gs
8.82 lw 1 lj 5847 5794 m  5847 6634 l  ps
gr
gs
8.82 lw 1 lj 0.328 0.328 0.328 c 7893 1504 m  7893 2344 l  ps
gr
gs
17.64 lw 1 lj 0.167 0.167 0.167 c 7880 1486 m  7880 2362 l  ps
gr
gs
8.82 lw 1 lj 7867 1504 m  7867 2344 l  ps
gr
gs
8.82 lw 1 lj 0.328 0.328 0.328 c 7893 2362 m  7893 3202 l  ps
gr
gs
17.64 lw 1 lj 0.167 0.167 0.167 c 7880 2344 m  7880 3220 l  ps
gr
gs
8.82 lw 1 lj 7867 2362 m  7867 3202 l  ps
gr
gs
8.82 lw 1 lj 0.328 0.328 0.328 c 7893 3220 m  7893 4060 l  ps
gr
gs
17.64 lw 1 lj 0.167 0.167 0.167 c 7880 3202 m  7880 4078 l  ps
gr
gs
8.82 lw 1 lj 7867 3220 m  7867 4060 l  ps
gr
gs
8.82 lw 1 lj 7893 4078 m  7893 4918 l  ps
gr
gs
17.64 lw 1 lj 0.167 0.167 0.167 c 7880 4060 m  7880 4936 l  ps
gr
gs
8.82 lw 1 lj 0.328 0.328 0.328 c 7867 4078 m  7867 4918 l  ps
gr
gs
8.82 lw 1 lj 0.328 0.328 0.328 c 7893 4936 m  7893 5776 l  ps
gr
gs
17.64 lw 1 lj 0.167 0.167 0.167 c 7880 4918 m  7880 5794 l  ps
gr
gs
8.82 lw 1 lj 7867 4936 m  7867 5776 l  ps
gr
gs
8.82 lw 1 lj 0.328 0.328 0.328 c 7893 5794 m  7893 6634 l  ps
gr
gs
17.64 lw 1 lj 0.167 0.167 0.167 c 7880 5776 m  7880 6652 l  ps
gr
gs
8.82 lw 1 lj 7867 5794 m  7867 6634 l  ps
gr
gs
8.82 lw 1 lj 0.328 0.328 0.328 c 9913 1504 m  9913 2344 l  ps
gr
gs
17.64 lw 1 lj 0.167 0.167 0.167 c 9900 1486 m  9900 2362 l  ps
gr
gs
8.82 lw 1 lj 9887 1504 m  9887 2344 l  ps
gr
gs
8.82 lw 1 lj 0.328 0.328 0.328 c 11933 1477 m  11933 2371 l  ps
gr
gs
17.64 lw 1 lj 0.167 0.167 0.167 c 11920 1486 m  11920 2362 l  ps
gr
gs
8.82 lw 1 lj 11907 1504 m  11907 2344 l  ps
gr
gs
8.82 lw 1 lj 0.328 0.328 0.328 c 9913 2362 m  9913 3202 l  ps
gr
gs
17.64 lw 1 lj 0.167 0.167 0.167 c 9900 2344 m  9900 3220 l  ps
gr
gs
8.82 lw 1 lj 9887 2362 m  9887 3202 l  ps
gr
gs
8.82 lw 1 lj 0.328 0.328 0.328 c 11933 2335 m  11933 3229 l  ps
gr
gs
17.64 lw 1 lj 0.167 0.167 0.167 c 11920 2344 m  11920 3220 l  ps
gr
gs
8.82 lw 1 lj 11907 2362 m  11907 3202 l  ps
gr
gs
8.82 lw 1 lj 0.328 0.328 0.328 c 9913 3220 m  9913 4060 l  ps
gr
gs
17.64 lw 1 lj 0.167 0.167 0.167 c 9900 3202 m  9900 4078 l  ps
gr
gs
8.82 lw 1 lj 9887 3220 m  9887 4060 l  ps
gr
gs
8.82 lw 1 lj 0.328 0.328 0.328 c 11933 3193 m  11933 4087 l  ps
gr
gs
17.64 lw 1 lj 0.167 0.167 0.167 c 11920 3202 m  11920 4078 l  ps
gr
gs
8.82 lw 1 lj 11907 3220 m  11907 4060 l  ps
gr
gs
8.82 lw 1 lj 0.328 0.328 0.328 c 9913 4078 m  9913 4918 l  ps
gr
gs
17.64 lw 1 lj 0.167 0.167 0.167 c 9900 4060 m  9900 4936 l  ps
gr
gs
8.82 lw 1 lj 9887 4078 m  9887 4918 l  ps
gr
gs
8.82 lw 1 lj 0.328 0.328 0.328 c 11933 4051 m  11933 4945 l  ps
gr
gs
17.64 lw 1 lj 0.167 0.167 0.167 c 11920 4060 m  11920 4936 l  ps
gr
gs
8.82 lw 1 lj 11907 4078 m  11907 4918 l  ps
gr
gs
8.82 lw 1 lj 0.328 0.328 0.328 c 9913 4936 m  9913 5776 l  ps
gr
gs
17.64 lw 1 lj 0.167 0.167 0.167 c 9900 4918 m  9900 5794 l  ps
gr
gs
8.82 lw 1 lj 9887 4936 m  9887 5776 l  ps
gr
gs
8.82 lw 1 lj 0.328 0.328 0.328 c 11933 4909 m  11933 5803 l  ps
gr
gs
17.64 lw 1 lj 0.167 0.167 0.167 c 11920 4918 m  11920 5794 l  ps
gr
gs
8.82 lw 1 lj 11907 4936 m  11907 5776 l  ps
gr
gs
8.82 lw 1 lj 0.328 0.328 0.328 c 9913 5794 m  9913 6634 l  ps
gr
gs
17.64 lw 1 lj 0.167 0.167 0.167 c 9900 5776 m  9900 6652 l  ps
gr
gs
8.82 lw 1 lj 9887 5794 m  9887 6634 l  ps
gr
gs
8.82 lw 1 lj 0.328 0.328 0.328 c 11933 5767 m  11933 6661 l  ps
gr
gs
17.64 lw 1 lj 0.167 0.167 0.167 c 11920 5776 m  11920 6652 l  ps
gr
gs
8.82 lw 1 lj 11907 5794 m  11907 6634 l  ps
gr
gs
82 lw 1 lj 1951 913 m  21422 913 l  ps
gr
gs
22025 913 m  21394 703 l  21394 1124 l  22025 913 l  p ef
gr
pum
11296 777 t
223 -389 m  223 0 l  164 0 l  164 -389 l  14 -389 l  14 -437 l  373 -437 l 
373 -389 l  223 -389 l  p ef
406 -407 m  406 -460 l  462 -460 l  462 -407 l  406 -407 l  p
406 1 m  406 -335 l  462 -335 l  462 1 l  406 1 l  p ef
742 0 m  742 -213 l  742 -245 738 -268 729 -280 ct 720 -293 704 -299 681 -299 ct 
657 -299 638 -290 624 -272 ct 610 -253 604 -228 604 -195 ct 604 0 l  548 0 l 
548 -264 l  548 -303 547 -327 546 -336 ct 599 -336 l  599 -335 599 -332 600 -327 ct 
600 -323 600 -318 600 -312 ct 601 -306 601 -295 601 -278 ct 602 -278 l  614 -302 628 -319 644 -328 ct 
659 -337 678 -342 700 -342 ct 726 -342 746 -337 761 -327 ct 775 -317 786 -301 791 -278 ct 
792 -278 l  804 -301 818 -317 834 -327 ct 851 -337 871 -342 894 -342 ct 928 -342 953 -333 968 -314 ct 
983 -296 991 -266 991 -224 ct 991 0 l  936 0 l  936 -213 l  936 -245 931 -268 923 -280 ct 
914 -293 898 -299 875 -299 ct 850 -299 831 -290 818 -272 ct 804 -254 797 -228 797 -195 ct 
797 0 l  742 0 l  p ef
1119 -156 m  1119 -118 1127 -88 1142 -67 ct 1158 -46 1182 -36 1212 -36 ct 1236 -36 1256 -41 1270 -50 ct 
1285 -60 1295 -72 1300 -87 ct 1349 -73 l  1329 -20 1283 6 1212 6 ct 1163 6 1125 -9 1099 -38 ct 
1073 -68 1060 -112 1060 -170 ct 1060 -226 1073 -268 1099 -298 ct 1125 -327 1162 -342 1210 -342 ct 
1309 -342 1358 -283 1358 -164 ct 1358 -156 l  1119 -156 l  p
1300 -199 m  1297 -234 1288 -260 1273 -277 ct 1258 -293 1237 -301 1209 -301 ct 
1182 -301 1161 -292 1145 -274 ct 1129 -256 1120 -231 1119 -199 ct 1300 -199 l 
p ef
pom
gs
82 lw 1 lj 1264 5947 m  1264 1661 l  ps
gr
gs
1264 6550 m  1475 5919 l  1054 5919 l  1264 6550 l  p ef
gr
pum
830 5442 t
90.0 r 246 -396 m  197 -396 160 -380 133 -349 ct 106 -318 92 -275 92 -221 ct 92 -167 106 -124 134 -92 ct 
162 -59 200 -43 248 -43 ct 309 -43 355 -73 386 -134 ct 434 -109 l  416 -72 391 -43 359 -23 ct 
326 -4 288 6 245 6 ct 201 6 163 -3 131 -21 ct 99 -40 74 -66 58 -100 ct 41 -134 32 -174 32 -221 ct 
32 -291 51 -345 89 -385 ct 126 -424 178 -444 245 -444 ct 291 -444 330 -435 362 -417 ct 
393 -398 416 -371 430 -336 ct 374 -317 l  364 -343 348 -362 325 -375 ct 303 -389 276 -396 246 -396 ct 
p ef
555 -278 m  567 -299 582 -316 599 -326 ct 615 -336 637 -341 663 -341 ct 699 -341 726 -332 743 -314 ct 
760 -296 769 -266 769 -223 ct 769 1 l  713 1 l  713 -212 l  713 -236 711 -253 706 -265 ct 
702 -276 695 -285 685 -290 ct 675 -295 661 -298 644 -298 ct 617 -298 596 -289 581 -271 ct 
565 -253 557 -228 557 -197 ct 557 1 l  501 1 l  501 -460 l  557 -460 l  557 -340 l 
557 -327 556 -314 556 -301 ct 555 -287 555 -280 554 -278 ct 555 -278 l  p ef
937 6 m  904 6 878 -3 861 -21 ct 844 -38 836 -63 836 -94 ct 836 -129 847 -155 870 -174 ct 
893 -192 930 -202 981 -204 ct 1056 -205 l  1056 -223 l  1056 -250 1050 -270 1039 -282 ct 
1027 -294 1009 -299 984 -299 ct 959 -299 941 -295 930 -287 ct 918 -278 911 -265 909 -246 ct 
851 -251 l  860 -312 905 -342 985 -342 ct 1028 -342 1059 -332 1081 -313 ct 1102 -294 1113 -266 1113 -229 ct 
1113 -85 l  1113 -68 1115 -55 1119 -47 ct 1123 -39 1132 -35 1144 -35 ct 1149 -35 1155 -35 1162 -37 ct 
1162 -2 l  1148 1 1134 3 1119 3 ct 1098 3 1083 -2 1074 -13 ct 1065 -24 1059 -41 1058 -64 ct 
1056 -64 l  1042 -39 1025 -21 1006 -10 ct 987 1 964 6 937 6 ct p
950 -36 m  971 -36 989 -41 1005 -50 ct 1021 -59 1033 -72 1042 -88 ct 1052 -104 1056 -121 1056 -138 ct 
1056 -166 l  995 -165 l  969 -164 949 -161 935 -157 ct 922 -152 911 -144 904 -134 ct 
897 -123 893 -110 893 -93 ct 893 -75 898 -61 908 -51 ct 918 -41 932 -36 950 -36 ct 
p ef
1416 0 m  1416 -213 l  1416 -235 1414 -252 1409 -264 ct 1405 -277 1398 -285 1389 -291 ct 
1379 -296 1365 -299 1347 -299 ct 1320 -299 1299 -290 1283 -271 ct 1268 -253 1260 -227 1260 -195 ct 
1260 0 l  1204 0 l  1204 -264 l  1204 -303 1203 -327 1202 -336 ct 1255 -336 l 
1255 -335 1255 -332 1256 -327 ct 1256 -323 1256 -318 1256 -312 ct 1257 -306 1257 -295 1257 -278 ct 
1258 -278 l  1271 -302 1286 -318 1303 -328 ct 1320 -337 1341 -342 1366 -342 ct 
1402 -342 1429 -333 1446 -315 ct 1463 -296 1472 -266 1472 -224 ct 1472 0 l  1416 0 l 
p ef
1767 0 m  1767 -213 l  1767 -235 1765 -252 1760 -264 ct 1756 -277 1749 -285 1740 -291 ct 
1730 -296 1716 -299 1698 -299 ct 1671 -299 1650 -290 1634 -271 ct 1619 -253 1611 -227 1611 -195 ct 
1611 0 l  1555 0 l  1555 -264 l  1555 -303 1554 -327 1553 -336 ct 1606 -336 l 
1606 -335 1606 -332 1607 -327 ct 1607 -323 1607 -318 1607 -312 ct 1608 -306 1608 -295 1608 -278 ct 
1609 -278 l  1622 -302 1637 -318 1654 -328 ct 1671 -337 1692 -342 1717 -342 ct 
1753 -342 1780 -333 1797 -315 ct 1814 -296 1823 -266 1823 -224 ct 1823 0 l  1767 0 l 
p ef
1949 -156 m  1949 -118 1957 -88 1972 -67 ct 1988 -46 2012 -36 2042 -36 ct 2066 -36 2086 -41 2100 -50 ct 
2115 -60 2125 -72 2130 -87 ct 2179 -73 l  2159 -20 2113 6 2042 6 ct 1993 6 1955 -9 1929 -38 ct 
1903 -68 1890 -112 1890 -170 ct 1890 -226 1903 -268 1929 -298 ct 1955 -327 1992 -342 2040 -342 ct 
2139 -342 2188 -283 2188 -164 ct 2188 -156 l  1949 -156 l  p
2130 -199 m  2127 -234 2118 -260 2103 -277 ct 2088 -293 2067 -301 2039 -301 ct 
2012 -301 1991 -292 1975 -274 ct 1959 -256 1950 -231 1949 -199 ct 2130 -199 l 
p ef
2257 1 m  2257 -460 l  2313 -460 l  2313 1 l  2257 1 l  p ef
2649 -93 m  2649 -61 2637 -37 2613 -20 ct 2589 -3 2555 6 2512 6 ct 2471 6 2439 -1 2416 -15 ct 
2393 -28 2379 -50 2372 -79 ct 2421 -89 l  2426 -71 2436 -57 2450 -49 ct 2465 -41 2486 -37 2512 -37 ct 
2541 -37 2561 -41 2575 -50 ct 2588 -58 2594 -71 2594 -89 ct 2594 -102 2590 -113 2581 -121 ct 
2572 -129 2557 -136 2537 -141 ct 2497 -152 l  2465 -160 2442 -168 2428 -176 ct 
2415 -184 2404 -194 2396 -205 ct 2389 -217 2385 -231 2385 -247 ct 2385 -278 2396 -301 2418 -317 ct 
2440 -333 2471 -341 2513 -341 ct 2550 -341 2579 -335 2601 -322 ct 2623 -309 2637 -288 2643 -259 ct 
2592 -253 l  2589 -268 2581 -279 2567 -287 ct 2554 -295 2536 -299 2513 -299 ct 
2488 -299 2469 -295 2457 -288 ct 2445 -280 2439 -268 2439 -253 ct 2439 -243 2442 -235 2447 -229 ct 
2452 -223 2459 -218 2469 -213 ct 2478 -209 2499 -203 2530 -195 ct 2560 -188 2581 -181 2594 -175 ct 
2607 -168 2617 -161 2625 -154 ct 2632 -146 2638 -137 2642 -127 ct 2647 -117 2649 -106 2649 -93 ct 
p ef
pom
gs
1.000 1.000 1.000 c 25265 1289 m  25627 1289 25904 1566 25904 1928 ct 25904 2290 25627 2567 25265 2567 ct 
24903 2567 24626 2290 24626 1928 ct 24626 1566 24903 1289 25265 1289 ct p
24626 1289 m  24626 1289 l  p
25905 2568 m  25905 2568 l  p ef
gr
gs
53 lw 1 lj 25265 1289 m  25627 1289 25904 1566 25904 1928 ct 25904 2290 25627 2567 25265 2567 ct 
24903 2567 24626 2290 24626 1928 ct 24626 1566 24903 1289 25265 1289 ct pc
gr
gs
53 lw 1 lj 24626 1289 m  24626 1289 l  pc
gr
gs
53 lw 1 lj 25905 2568 m  25905 2568 l  pc
gr
pum
25053 2091 t
362 0 m  312 -128 l  113 -128 l  63 0 l  1 0 l  180 -438 l  247 -438 l 
422 0 l  362 0 l  p
212 -393 m  210 -384 l  204 -367 197 -345 187 -318 ct 131 -174 l  294 -174 l 
238 -319 l  232 -333 227 -349 221 -367 ct 212 -393 l  p ef
pom
gs
1.000 1.000 1.000 c 23345 3456 m  23707 3456 23984 3733 23984 4095 ct 23984 4457 23707 4734 23345 4734 ct 
22983 4734 22706 4457 22706 4095 ct 22706 3733 22983 3456 23345 3456 ct p
22706 3456 m  22706 3456 l  p
23985 4735 m  23985 4735 l  p ef
gr
gs
53 lw 1 lj 23345 3456 m  23707 3456 23984 3733 23984 4095 ct 23984 4457 23707 4734 23345 4734 ct 
22983 4734 22706 4457 22706 4095 ct 22706 3733 22983 3456 23345 3456 ct pc
gr
gs
53 lw 1 lj 22706 3456 m  22706 3456 l  pc
gr
gs
53 lw 1 lj 23985 4735 m  23985 4735 l  pc
gr
pum
23133 4258 t
390 -123 m  390 -84 376 -54 348 -32 ct 319 -11 280 0 229 0 ct 52 0 l  52 -437 l 
211 -437 l  313 -437 365 -402 365 -331 ct 365 -305 357 -284 343 -266 ct 328 -248 308 -236 282 -230 ct 
316 -226 343 -215 362 -196 ct 381 -176 390 -152 390 -123 ct p
305 -324 m  305 -348 297 -365 281 -375 ct 265 -385 241 -390 211 -390 ct 111 -390 l 
111 -251 l  211 -251 l  242 -251 266 -257 282 -269 ct 297 -281 305 -299 305 -324 ct 
p
330 -128 m  330 -179 294 -205 222 -205 ct 111 -205 l  111 -47 l  226 -47 l 
263 -47 289 -54 305 -68 ct 322 -81 330 -101 330 -128 ct p ef
pom
gs
1.000 1.000 1.000 c 25467 5491 m  25829 5491 26106 5768 26106 6130 ct 26106 6492 25829 6769 25467 6769 ct 
25105 6769 24828 6492 24828 6130 ct 24828 5768 25105 5491 25467 5491 ct p
24828 5491 m  24828 5491 l  p
26107 6770 m  26107 6770 l  p ef
gr
gs
53 lw 1 lj 25467 5491 m  25829 5491 26106 5768 26106 6130 ct 26106 6492 25829 6769 25467 6769 ct 
25105 6769 24828 6492 24828 6130 ct 24828 5768 25105 5491 25467 5491 ct pc
gr
gs
53 lw 1 lj 24828 5491 m  24828 5491 l  pc
gr
gs
53 lw 1 lj 26107 6770 m  26107 6770 l  pc
gr
pum
25238 6293 t
428 -223 m  428 -178 419 -139 402 -105 ct 384 -71 359 -45 327 -27 ct 295 -9 258 0 215 0 ct 
52 0 l  52 -437 l  197 -437 l  271 -437 328 -419 368 -382 ct 408 -345 428 -292 428 -223 ct 
p
369 -223 m  369 -277 354 -319 324 -347 ct 295 -376 252 -390 195 -390 ct 111 -390 l 
111 -47 l  209 -47 l  241 -47 269 -55 293 -69 ct 317 -83 336 -103 349 -129 ct 
362 -156 369 -187 369 -223 ct p ef
pom
gs
1.000 1.000 1.000 c 27528 3202 m  27890 3202 28167 3479 28167 3841 ct 28167 4203 27890 4480 27528 4480 ct 
27166 4480 26889 4203 26889 3841 ct 26889 3479 27166 3202 27528 3202 ct p
26889 3202 m  26889 3202 l  p
28168 4481 m  28168 4481 l  p ef
gr
gs
53 lw 1 lj 27528 3202 m  27890 3202 28167 3479 28167 3841 ct 28167 4203 27890 4480 27528 4480 ct 
27166 4480 26889 4203 26889 3841 ct 26889 3479 27166 3202 27528 3202 ct pc
gr
gs
53 lw 1 lj 26889 3202 m  26889 3202 l  pc
gr
gs
53 lw 1 lj 28168 4481 m  28168 4481 l  pc
gr
pum
27299 4004 t
246 -396 m  197 -396 160 -380 133 -349 ct 106 -318 92 -275 92 -221 ct 92 -167 106 -124 134 -92 ct 
162 -59 200 -43 248 -43 ct 309 -43 355 -73 386 -134 ct 434 -109 l  416 -72 391 -43 359 -23 ct 
326 -4 288 6 245 6 ct 201 6 163 -3 131 -21 ct 99 -40 74 -66 58 -100 ct 41 -134 32 -174 32 -221 ct 
32 -291 51 -345 89 -385 ct 126 -424 178 -444 245 -444 ct 291 -444 330 -435 362 -417 ct 
393 -398 416 -371 430 -336 ct 374 -317 l  364 -343 348 -362 325 -375 ct 303 -389 276 -396 246 -396 ct 
p ef
pom
gs
54 lw 1 lj 0.003 0.800 0.203 c 23797 3643 m  24564 2690 l  ps
gr
gs
0.003 0.800 0.203 c 24713 2804 m  24819 2405 l  24819 2391 l  24814 2381 l 
24801 2376 l  24789 2379 l  24421 2568 l  24416 2571 l  24414 2573 l  24411 2581 l 
24409 2590 l  24411 2597 l  24416 2604 l  24680 2815 l  24687 2819 l  24696 2820 l 
24703 2816 l  24709 2811 l  24711 2809 l  24713 2804 l  p ef
gr
gs
54 lw 1 lj 0.003 0.800 1.000 c 27076 3389 m  26036 2617 l  ps
gr
gs
0.003 0.800 1.000 c 26144 2463 m  25742 2373 l  25728 2373 l  25718 2379 l 
25714 2392 l  25717 2404 l  25921 2765 l  25923 2769 l  25926 2771 l  25933 2774 l 
25942 2775 l  25950 2773 l  25956 2768 l  26157 2496 l  26161 2489 l  26161 2480 l 
26157 2473 l  26152 2467 l  26149 2465 l  26144 2463 l  p ef
gr
gs
54 lw 1 lj 1.000 0.203 0.203 c 25015 5678 m  24088 4817 l  ps
gr
gs
1.000 0.203 0.203 c 24213 4677 m  23822 4543 l  23808 4541 l  23798 4546 l 
23792 4559 l  23794 4571 l  23957 4952 l  23959 4956 l  23962 4959 l  23969 4962 l 
23978 4965 l  23985 4963 l  23992 4958 l  24222 4711 l  24226 4704 l  24228 4695 l 
24224 4687 l  24220 4681 l  24217 4679 l  24213 4677 l  p ef
gr
gs
54 lw 1 lj 1.000 0.203 1.000 c 25467 5491 m  25292 2964 l  ps
gr
gs
1.000 0.203 1.000 c 25480 2946 m  25286 2581 l  25277 2571 l  25266 2567 l 
25254 2572 l  25246 2583 l  25105 2972 l  25103 2977 l  25104 2980 l  25106 2988 l 
25111 2995 l  25118 2999 l  25126 3000 l  25463 2977 l  25470 2975 l  25478 2970 l 
25481 2962 l  25482 2954 l  25481 2951 l  25480 2946 l  p ef
gr
gs
1.000 0.203 0.203 c 12021 1507 m  14041 1507 l  14041 2365 l  12021 2365 l 
12021 1507 l  p ef
gr
pum
12274 2099 t
428 -223 m  428 -178 419 -139 402 -105 ct 384 -71 359 -45 327 -27 ct 295 -9 258 0 215 0 ct 
52 0 l  52 -437 l  197 -437 l  271 -437 328 -419 368 -382 ct 408 -345 428 -292 428 -223 ct 
p
369 -223 m  369 -277 354 -319 324 -347 ct 295 -376 252 -390 195 -390 ct 111 -390 l 
111 -47 l  209 -47 l  241 -47 269 -55 293 -69 ct 317 -83 336 -103 349 -129 ct 
362 -156 369 -187 369 -223 ct p ef
pom
pum
12731 2099 t
436 -119 m  425 -133 412 -153 400 -180 ct 422 -180 l  448 -149 476 -126 506 -111 ct 
506 -100 l  476 -85 448 -62 422 -31 ct 400 -31 l  412 -58 425 -78 436 -92 ct 
130 -92 l  130 -119 l  436 -119 l  p ef
1025 -123 m  1025 -84 1011 -54 983 -32 ct 954 -11 915 0 864 0 ct 687 0 l  687 -437 l 
846 -437 l  948 -437 1000 -402 1000 -331 ct 1000 -305 992 -284 978 -266 ct 963 -248 943 -236 917 -230 ct 
951 -226 978 -215 997 -196 ct 1016 -176 1025 -152 1025 -123 ct p
940 -324 m  940 -348 932 -365 916 -375 ct 900 -385 876 -390 846 -390 ct 746 -390 l 
746 -251 l  846 -251 l  877 -251 901 -257 917 -269 ct 932 -281 940 -299 940 -324 ct 
p
965 -128 m  965 -179 929 -205 857 -205 ct 746 -205 l  746 -47 l  861 -47 l 
898 -47 924 -54 940 -68 ct 957 -81 965 -101 965 -128 ct p ef
pom
gs
0.003 0.800 0.203 c 14041 1507 m  16061 1507 l  16061 2365 l  14041 2365 l 
14041 1507 l  p ef
gr
pum
14311 2099 t
390 -123 m  390 -84 376 -54 348 -32 ct 319 -11 280 0 229 0 ct 52 0 l  52 -437 l 
211 -437 l  313 -437 365 -402 365 -331 ct 365 -305 357 -284 343 -266 ct 328 -248 308 -236 282 -230 ct 
316 -226 343 -215 362 -196 ct 381 -176 390 -152 390 -123 ct p
305 -324 m  305 -348 297 -365 281 -375 ct 265 -385 241 -390 211 -390 ct 111 -390 l 
111 -251 l  211 -251 l  242 -251 266 -257 282 -269 ct 297 -281 305 -299 305 -324 ct 
p
330 -128 m  330 -179 294 -205 222 -205 ct 111 -205 l  111 -47 l  226 -47 l 
263 -47 289 -54 305 -68 ct 322 -81 330 -101 330 -128 ct p ef
pom
pum
14734 2099 t
436 -119 m  425 -133 412 -153 400 -180 ct 422 -180 l  448 -149 476 -126 506 -111 ct 
506 -100 l  476 -85 448 -62 422 -31 ct 400 -31 l  412 -58 425 -78 436 -92 ct 
130 -92 l  130 -119 l  436 -119 l  p ef
997 0 m  947 -128 l  748 -128 l  698 0 l  636 0 l  815 -438 l  882 -438 l 
1057 0 l  997 0 l  p
847 -393 m  845 -384 l  839 -367 832 -345 822 -318 ct 766 -174 l  929 -174 l 
873 -319 l  867 -333 862 -349 856 -367 ct 847 -393 l  p ef
pom
gs
1.000 0.203 1.000 c 16061 1507 m  18081 1507 l  18081 2365 l  16061 2365 l 
16061 1507 l  p ef
gr
pum
16314 2099 t
428 -223 m  428 -178 419 -139 402 -105 ct 384 -71 359 -45 327 -27 ct 295 -9 258 0 215 0 ct 
52 0 l  52 -437 l  197 -437 l  271 -437 328 -419 368 -382 ct 408 -345 428 -292 428 -223 ct 
p
369 -223 m  369 -277 354 -319 324 -347 ct 295 -376 252 -390 195 -390 ct 111 -390 l 
111 -47 l  209 -47 l  241 -47 269 -55 293 -69 ct 317 -83 336 -103 349 -129 ct 
362 -156 369 -187 369 -223 ct p ef
pom
pum
16771 2099 t
436 -119 m  425 -133 412 -153 400 -180 ct 422 -180 l  448 -149 476 -126 506 -111 ct 
506 -100 l  476 -85 448 -62 422 -31 ct 400 -31 l  412 -58 425 -78 436 -92 ct 
130 -92 l  130 -119 l  436 -119 l  p ef
997 0 m  947 -128 l  748 -128 l  698 0 l  636 0 l  815 -438 l  882 -438 l 
1057 0 l  997 0 l  p
847 -393 m  845 -384 l  839 -367 832 -345 822 -318 ct 766 -174 l  929 -174 l 
873 -319 l  867 -333 862 -349 856 -367 ct 847 -393 l  p ef
pom
gs
1.000 1.000 1.000 c 18081 1507 m  20101 1507 l  20101 2365 l  18081 2365 l 
18081 1507 l  p ef
gr
gs
1.000 1.000 1.000 c 20101 1507 m  22121 1507 l  22121 2365 l  20101 2365 l 
20101 1507 l  p ef
gr
gs
0.003 0.800 1.000 c 12021 2365 m  14041 2365 l  14041 3223 l  12021 3223 l 
12021 2365 l  p ef
gr
pum
12274 2957 t
246 -396 m  197 -396 160 -380 133 -349 ct 106 -318 92 -275 92 -221 ct 92 -167 106 -124 134 -92 ct 
162 -59 200 -43 248 -43 ct 309 -43 355 -73 386 -134 ct 434 -109 l  416 -72 391 -43 359 -23 ct 
326 -4 288 6 245 6 ct 201 6 163 -3 131 -21 ct 99 -40 74 -66 58 -100 ct 41 -134 32 -174 32 -221 ct 
32 -291 51 -345 89 -385 ct 126 -424 178 -444 245 -444 ct 291 -444 330 -435 362 -417 ct 
393 -398 416 -371 430 -336 ct 374 -317 l  364 -343 348 -362 325 -375 ct 303 -389 276 -396 246 -396 ct 
p ef
pom
pum
12731 2957 t
436 -119 m  425 -133 412 -153 400 -180 ct 422 -180 l  448 -149 476 -126 506 -111 ct 
506 -100 l  476 -85 448 -62 422 -31 ct 400 -31 l  412 -58 425 -78 436 -92 ct 
130 -92 l  130 -119 l  436 -119 l  p ef
997 0 m  947 -128 l  748 -128 l  698 0 l  636 0 l  815 -438 l  882 -438 l 
1057 0 l  997 0 l  p
847 -393 m  845 -384 l  839 -367 832 -345 822 -318 ct 766 -174 l  929 -174 l 
873 -319 l  867 -333 862 -349 856 -367 ct 847 -393 l  p ef
pom
gs
1.000 1.000 1.000 c 14041 2365 m  16061 2365 l  16061 3223 l  14041 3223 l 
14041 2365 l  p ef
gr
gs
1.000 1.000 1.000 c 16061 2365 m  18081 2365 l  18081 3223 l  16061 3223 l 
16061 2365 l  p ef
gr
gs
1.000 1.000 1.000 c 18081 2365 m  20101 2365 l  20101 3223 l  18081 3223 l 
18081 2365 l  p ef
gr
gs
1.000 1.000 1.000 c 20101 2365 m  22121 2365 l  22121 3223 l  20101 3223 l 
20101 2365 l  p ef
gr
gs
1.000 1.000 1.000 c 12021 3223 m  14041 3223 l  14041 4081 l  12021 4081 l 
12021 3223 l  p ef
gr
gs
1.000 1.000 1.000 c 14041 3223 m  16061 3223 l  16061 4081 l  14041 4081 l 
14041 3223 l  p ef
gr
gs
1.000 1.000 1.000 c 16061 3223 m  18081 3223 l  18081 4081 l  16061 4081 l 
16061 3223 l  p ef
gr
gs
1.000 1.000 1.000 c 18081 3223 m  20101 3223 l  20101 4081 l  18081 4081 l 
18081 3223 l  p ef
gr
gs
1.000 1.000 1.000 c 20101 3223 m  22121 3223 l  22121 4081 l  20101 4081 l 
20101 3223 l  p ef
gr
gs
1.000 1.000 1.000 c 12021 4081 m  14041 4081 l  14041 4939 l  12021 4939 l 
12021 4081 l  p ef
gr
gs
1.000 1.000 1.000 c 14041 4081 m  16061 4081 l  16061 4939 l  14041 4939 l 
14041 4081 l  p ef
gr
gs
1.000 1.000 1.000 c 16061 4081 m  18081 4081 l  18081 4939 l  16061 4939 l 
16061 4081 l  p ef
gr
gs
1.000 1.000 1.000 c 18081 4081 m  20101 4081 l  20101 4939 l  18081 4939 l 
18081 4081 l  p ef
gr
gs
1.000 1.000 1.000 c 20101 4081 m  22121 4081 l  22121 4939 l  20101 4939 l 
20101 4081 l  p ef
gr
gs
1.000 1.000 1.000 c 12021 4939 m  14041 4939 l  14041 5797 l  12021 5797 l 
12021 4939 l  p ef
gr
gs
1.000 1.000 1.000 c 14041 4939 m  16061 4939 l  16061 5797 l  14041 5797 l 
14041 4939 l  p ef
gr
gs
1.000 1.000 1.000 c 16061 4939 m  18081 4939 l  18081 5797 l  16061 5797 l 
16061 4939 l  p ef
gr
gs
1.000 1.000 1.000 c 18081 4939 m  20101 4939 l  20101 5797 l  18081 5797 l 
18081 4939 l  p ef
gr
gs
1.000 1.000 1.000 c 20101 4939 m  22121 4939 l  22121 5797 l  20101 5797 l 
20101 4939 l  p ef
gr
gs
1.000 1.000 1.000 c 12021 5797 m  14041 5797 l  14041 6655 l  12021 6655 l 
12021 5797 l  p ef
gr
gs
1.000 1.000 1.000 c 14041 5797 m  16061 5797 l  16061 6655 l  14041 6655 l 
14041 5797 l  p ef
gr
gs
1.000 1.000 1.000 c 16061 5797 m  18081 5797 l  18081 6655 l  16061 6655 l 
16061 5797 l  p ef
gr
gs
1.000 1.000 1.000 c 18081 5797 m  20101 5797 l  20101 6655 l  18081 6655 l 
18081 5797 l  p ef
gr
gs
1.000 1.000 1.000 c 20101 5797 m  22121 5797 l  22121 6655 l  20101 6655 l 
20101 5797 l  p ef
gr
gs
8.82 lw 1 lj 0.328 0.328 0.328 c 12003 1494 m  14059 1494 l  ps
gr
gs
17.64 lw 1 lj 0.167 0.167 0.167 c 12012 1507 m  14050 1507 l  ps
gr
gs
8.82 lw 1 lj 12030 1520 m  14032 1520 l  ps
gr
gs
8.82 lw 1 lj 0.328 0.328 0.328 c 14023 1494 m  16079 1494 l  ps
gr
gs
17.64 lw 1 lj 0.167 0.167 0.167 c 14032 1507 m  16070 1507 l  ps
gr
gs
8.82 lw 1 lj 14050 1520 m  16052 1520 l  ps
gr
gs
8.82 lw 1 lj 0.328 0.328 0.328 c 16043 1494 m  18099 1494 l  ps
gr
gs
17.64 lw 1 lj 0.167 0.167 0.167 c 16052 1507 m  18090 1507 l  ps
gr
gs
8.82 lw 1 lj 16070 1520 m  18072 1520 l  ps
gr
gs
8.82 lw 1 lj 0.328 0.328 0.328 c 18063 1494 m  20119 1494 l  ps
gr
gs
17.64 lw 1 lj 0.167 0.167 0.167 c 18072 1507 m  20110 1507 l  ps
gr
gs
8.82 lw 1 lj 18090 1520 m  20092 1520 l  ps
gr
gs
8.82 lw 1 lj 0.328 0.328 0.328 c 20083 1494 m  22139 1494 l  ps
gr
gs
17.64 lw 1 lj 0.167 0.167 0.167 c 20092 1507 m  22130 1507 l  ps
gr
gs
8.82 lw 1 lj 20110 1520 m  22112 1520 l  ps
gr
gs
8.82 lw 1 lj 0.328 0.328 0.328 c 12030 2352 m  14032 2352 l  ps
gr
gs
17.64 lw 1 lj 0.167 0.167 0.167 c 12012 2365 m  14050 2365 l  ps
gr
gs
8.82 lw 1 lj 12030 2378 m  14032 2378 l  ps
gr
gs
8.82 lw 1 lj 0.328 0.328 0.328 c 14050 2352 m  16052 2352 l  ps
gr
gs
17.64 lw 1 lj 0.167 0.167 0.167 c 14032 2365 m  16070 2365 l  ps
gr
gs
8.82 lw 1 lj 14050 2378 m  16052 2378 l  ps
gr
gs
8.82 lw 1 lj 0.328 0.328 0.328 c 16070 2352 m  18072 2352 l  ps
gr
gs
17.64 lw 1 lj 0.167 0.167 0.167 c 16052 2365 m  18090 2365 l  ps
gr
gs
8.82 lw 1 lj 16070 2378 m  18072 2378 l  ps
gr
gs
8.82 lw 1 lj 0.328 0.328 0.328 c 18090 2352 m  20092 2352 l  ps
gr
gs
17.64 lw 1 lj 0.167 0.167 0.167 c 18072 2365 m  20110 2365 l  ps
gr
gs
8.82 lw 1 lj 18090 2378 m  20092 2378 l  ps
gr
gs
8.82 lw 1 lj 0.328 0.328 0.328 c 20110 2352 m  22112 2352 l  ps
gr
gs
17.64 lw 1 lj 0.167 0.167 0.167 c 20092 2365 m  22130 2365 l  ps
gr
gs
8.82 lw 1 lj 20110 2378 m  22112 2378 l  ps
gr
gs
8.82 lw 1 lj 0.328 0.328 0.328 c 12030 3210 m  14032 3210 l  ps
gr
gs
17.64 lw 1 lj 0.167 0.167 0.167 c 12012 3223 m  14050 3223 l  ps
gr
gs
8.82 lw 1 lj 12030 3236 m  14032 3236 l  ps
gr
gs
8.82 lw 1 lj 0.328 0.328 0.328 c 14050 3210 m  16052 3210 l  ps
gr
gs
17.64 lw 1 lj 0.167 0.167 0.167 c 14032 3223 m  16070 3223 l  ps
gr
gs
8.82 lw 1 lj 14050 3236 m  16052 3236 l  ps
gr
gs
8.82 lw 1 lj 0.328 0.328 0.328 c 16070 3210 m  18072 3210 l  ps
gr
gs
17.64 lw 1 lj 0.167 0.167 0.167 c 16052 3223 m  18090 3223 l  ps
gr
gs
8.82 lw 1 lj 16070 3236 m  18072 3236 l  ps
gr
gs
8.82 lw 1 lj 0.328 0.328 0.328 c 18090 3210 m  20092 3210 l  ps
gr
gs
17.64 lw 1 lj 0.167 0.167 0.167 c 18072 3223 m  20110 3223 l  ps
gr
gs
8.82 lw 1 lj 18090 3236 m  20092 3236 l  ps
gr
gs
8.82 lw 1 lj 0.328 0.328 0.328 c 20110 3210 m  22112 3210 l  ps
gr
gs
17.64 lw 1 lj 0.167 0.167 0.167 c 20092 3223 m  22130 3223 l  ps
gr
gs
8.82 lw 1 lj 20110 3236 m  22112 3236 l  ps
gr
gs
8.82 lw 1 lj 0.328 0.328 0.328 c 12030 4068 m  14032 4068 l  ps
gr
gs
17.64 lw 1 lj 0.167 0.167 0.167 c 12012 4081 m  14050 4081 l  ps
gr
gs
8.82 lw 1 lj 12030 4094 m  14032 4094 l  ps
gr
gs
8.82 lw 1 lj 0.328 0.328 0.328 c 14050 4068 m  16052 4068 l  ps
gr
gs
17.64 lw 1 lj 0.167 0.167 0.167 c 14032 4081 m  16070 4081 l  ps
gr
gs
8.82 lw 1 lj 14050 4094 m  16052 4094 l  ps
gr
gs
8.82 lw 1 lj 0.328 0.328 0.328 c 16070 4068 m  18072 4068 l  ps
gr
gs
17.64 lw 1 lj 0.167 0.167 0.167 c 16052 4081 m  18090 4081 l  ps
gr
gs
8.82 lw 1 lj 16070 4094 m  18072 4094 l  ps
gr
gs
8.82 lw 1 lj 0.328 0.328 0.328 c 18090 4068 m  20092 4068 l  ps
gr
gs
17.64 lw 1 lj 0.167 0.167 0.167 c 18072 4081 m  20110 4081 l  ps
gr
gs
8.82 lw 1 lj 18090 4094 m  20092 4094 l  ps
gr
gs
8.82 lw 1 lj 0.328 0.328 0.328 c 20110 4068 m  22112 4068 l  ps
gr
gs
17.64 lw 1 lj 0.167 0.167 0.167 c 20092 4081 m  22130 4081 l  ps
gr
gs
8.82 lw 1 lj 20110 4094 m  22112 4094 l  ps
gr
gs
8.82 lw 1 lj 0.328 0.328 0.328 c 12030 4926 m  14032 4926 l  ps
gr
gs
17.64 lw 1 lj 0.167 0.167 0.167 c 12012 4939 m  14050 4939 l  ps
gr
gs
8.82 lw 1 lj 12030 4952 m  14032 4952 l  ps
gr
gs
8.82 lw 1 lj 0.328 0.328 0.328 c 14050 4926 m  16052 4926 l  ps
gr
gs
17.64 lw 1 lj 0.167 0.167 0.167 c 14032 4939 m  16070 4939 l  ps
gr
gs
8.82 lw 1 lj 14050 4952 m  16052 4952 l  ps
gr
gs
8.82 lw 1 lj 0.328 0.328 0.328 c 16070 4926 m  18072 4926 l  ps
gr
gs
17.64 lw 1 lj 0.167 0.167 0.167 c 16052 4939 m  18090 4939 l  ps
gr
gs
8.82 lw 1 lj 16070 4952 m  18072 4952 l  ps
gr
gs
8.82 lw 1 lj 0.328 0.328 0.328 c 18090 4926 m  20092 4926 l  ps
gr
gs
17.64 lw 1 lj 0.167 0.167 0.167 c 18072 4939 m  20110 4939 l  ps
gr
gs
8.82 lw 1 lj 18090 4952 m  20092 4952 l  ps
gr
gs
8.82 lw 1 lj 0.328 0.328 0.328 c 20110 4926 m  22112 4926 l  ps
gr
gs
17.64 lw 1 lj 0.167 0.167 0.167 c 20092 4939 m  22130 4939 l  ps
gr
gs
8.82 lw 1 lj 20110 4952 m  22112 4952 l  ps
gr
gs
8.82 lw 1 lj 0.328 0.328 0.328 c 12030 5784 m  14032 5784 l  ps
gr
gs
17.64 lw 1 lj 0.167 0.167 0.167 c 12012 5797 m  14050 5797 l  ps
gr
gs
8.82 lw 1 lj 12030 5810 m  14032 5810 l  ps
gr
gs
8.82 lw 1 lj 0.328 0.328 0.328 c 12030 6642 m  14032 6642 l  ps
gr
gs
17.64 lw 1 lj 0.167 0.167 0.167 c 12012 6655 m  14050 6655 l  ps
gr
gs
8.82 lw 1 lj 12003 6668 m  14059 6668 l  ps
gr
gs
8.82 lw 1 lj 0.328 0.328 0.328 c 14050 5784 m  16052 5784 l  ps
gr
gs
17.64 lw 1 lj 0.167 0.167 0.167 c 14032 5797 m  16070 5797 l  ps
gr
gs
8.82 lw 1 lj 14050 5810 m  16052 5810 l  ps
gr
gs
8.82 lw 1 lj 0.328 0.328 0.328 c 14050 6642 m  16052 6642 l  ps
gr
gs
17.64 lw 1 lj 0.167 0.167 0.167 c 14032 6655 m  16070 6655 l  ps
gr
gs
8.82 lw 1 lj 14023 6668 m  16079 6668 l  ps
gr
gs
8.82 lw 1 lj 0.328 0.328 0.328 c 16070 5784 m  18072 5784 l  ps
gr
gs
17.64 lw 1 lj 0.167 0.167 0.167 c 16052 5797 m  18090 5797 l  ps
gr
gs
8.82 lw 1 lj 16070 5810 m  18072 5810 l  ps
gr
gs
8.82 lw 1 lj 0.328 0.328 0.328 c 16070 6642 m  18072 6642 l  ps
gr
gs
17.64 lw 1 lj 0.167 0.167 0.167 c 16052 6655 m  18090 6655 l  ps
gr
gs
8.82 lw 1 lj 16043 6668 m  18099 6668 l  ps
gr
gs
8.82 lw 1 lj 0.328 0.328 0.328 c 18090 5784 m  20092 5784 l  ps
gr
gs
17.64 lw 1 lj 0.167 0.167 0.167 c 18072 5797 m  20110 5797 l  ps
gr
gs
8.82 lw 1 lj 18090 5810 m  20092 5810 l  ps
gr
gs
8.82 lw 1 lj 0.328 0.328 0.328 c 18090 6642 m  20092 6642 l  ps
gr
gs
17.64 lw 1 lj 0.167 0.167 0.167 c 18072 6655 m  20110 6655 l  ps
gr
gs
8.82 lw 1 lj 18063 6668 m  20119 6668 l  ps
gr
gs
8.82 lw 1 lj 0.328 0.328 0.328 c 20110 5784 m  22112 5784 l  ps
gr
gs
17.64 lw 1 lj 0.167 0.167 0.167 c 20092 5797 m  22130 5797 l  ps
gr
gs
8.82 lw 1 lj 20110 5810 m  22112 5810 l  ps
gr
gs
8.82 lw 1 lj 0.328 0.328 0.328 c 20110 6642 m  22112 6642 l  ps
gr
gs
17.64 lw 1 lj 0.167 0.167 0.167 c 20092 6655 m  22130 6655 l  ps
gr
gs
8.82 lw 1 lj 20083 6668 m  22139 6668 l  ps
gr
gs
8.82 lw 1 lj 0.328 0.328 0.328 c 12034 1516 m  12034 2356 l  ps
gr
gs
17.64 lw 1 lj 0.167 0.167 0.167 c 12021 1498 m  12021 2374 l  ps
gr
gs
8.82 lw 1 lj 12008 1489 m  12008 2383 l  ps
gr
gs
8.82 lw 1 lj 0.328 0.328 0.328 c 12034 2374 m  12034 3214 l  ps
gr
gs
17.64 lw 1 lj 0.167 0.167 0.167 c 12021 2356 m  12021 3232 l  ps
gr
gs
8.82 lw 1 lj 12008 2347 m  12008 3241 l  ps
gr
gs
8.82 lw 1 lj 0.328 0.328 0.328 c 12034 3232 m  12034 4072 l  ps
gr
gs
17.64 lw 1 lj 0.167 0.167 0.167 c 12021 3214 m  12021 4090 l  ps
gr
gs
8.82 lw 1 lj 12008 3205 m  12008 4099 l  ps
gr
gs
8.82 lw 1 lj 0.328 0.328 0.328 c 12034 4090 m  12034 4930 l  ps
gr
gs
17.64 lw 1 lj 0.167 0.167 0.167 c 12021 4072 m  12021 4948 l  ps
gr
gs
8.82 lw 1 lj 12008 4063 m  12008 4957 l  ps
gr
gs
8.82 lw 1 lj 0.328 0.328 0.328 c 12034 4948 m  12034 5788 l  ps
gr
gs
17.64 lw 1 lj 0.167 0.167 0.167 c 12021 4930 m  12021 5806 l  ps
gr
gs
8.82 lw 1 lj 12008 4921 m  12008 5815 l  ps
gr
gs
8.82 lw 1 lj 0.328 0.328 0.328 c 12034 5806 m  12034 6646 l  ps
gr
gs
17.64 lw 1 lj 0.167 0.167 0.167 c 12021 5788 m  12021 6664 l  ps
gr
gs
8.82 lw 1 lj 12008 5779 m  12008 6673 l  ps
gr
gs
8.82 lw 1 lj 0.328 0.328 0.328 c 14054 1516 m  14054 2356 l  ps
gr
gs
17.64 lw 1 lj 0.167 0.167 0.167 c 14041 1498 m  14041 2374 l  ps
gr
gs
8.82 lw 1 lj 14028 1516 m  14028 2356 l  ps
gr
gs
8.82 lw 1 lj 0.328 0.328 0.328 c 14054 2374 m  14054 3214 l  ps
gr
gs
17.64 lw 1 lj 0.167 0.167 0.167 c 14041 2356 m  14041 3232 l  ps
gr
gs
8.82 lw 1 lj 14028 2374 m  14028 3214 l  ps
gr
gs
8.82 lw 1 lj 0.328 0.328 0.328 c 14054 3232 m  14054 4072 l  ps
gr
gs
17.64 lw 1 lj 0.167 0.167 0.167 c 14041 3214 m  14041 4090 l  ps
gr
gs
8.82 lw 1 lj 14028 3232 m  14028 4072 l  ps
gr
gs
8.82 lw 1 lj 0.328 0.328 0.328 c 14054 4090 m  14054 4930 l  ps
gr
gs
17.64 lw 1 lj 0.167 0.167 0.167 c 14041 4072 m  14041 4948 l  ps
gr
gs
8.82 lw 1 lj 14028 4090 m  14028 4930 l  ps
gr
gs
8.82 lw 1 lj 0.328 0.328 0.328 c 14054 4948 m  14054 5788 l  ps
gr
gs
17.64 lw 1 lj 0.167 0.167 0.167 c 14041 4930 m  14041 5806 l  ps
gr
gs
8.82 lw 1 lj 14028 4948 m  14028 5788 l  ps
gr
gs
8.82 lw 1 lj 0.328 0.328 0.328 c 14054 5806 m  14054 6646 l  ps
gr
gs
17.64 lw 1 lj 0.167 0.167 0.167 c 14041 5788 m  14041 6664 l  ps
gr
gs
8.82 lw 1 lj 14028 5806 m  14028 6646 l  ps
gr
gs
8.82 lw 1 lj 0.328 0.328 0.328 c 16074 1516 m  16074 2356 l  ps
gr
gs
17.64 lw 1 lj 0.167 0.167 0.167 c 16061 1498 m  16061 2374 l  ps
gr
gs
8.82 lw 1 lj 16048 1516 m  16048 2356 l  ps
gr
gs
8.82 lw 1 lj 0.328 0.328 0.328 c 16074 2374 m  16074 3214 l  ps
gr
gs
17.64 lw 1 lj 0.167 0.167 0.167 c 16061 2356 m  16061 3232 l  ps
gr
gs
8.82 lw 1 lj 16048 2374 m  16048 3214 l  ps
gr
gs
8.82 lw 1 lj 0.328 0.328 0.328 c 16074 3232 m  16074 4072 l  ps
gr
gs
17.64 lw 1 lj 0.167 0.167 0.167 c 16061 3214 m  16061 4090 l  ps
gr
gs
8.82 lw 1 lj 16048 3232 m  16048 4072 l  ps
gr
gs
8.82 lw 1 lj 0.328 0.328 0.328 c 16074 4090 m  16074 4930 l  ps
gr
gs
17.64 lw 1 lj 0.167 0.167 0.167 c 16061 4072 m  16061 4948 l  ps
gr
gs
8.82 lw 1 lj 16048 4090 m  16048 4930 l  ps
gr
gs
8.82 lw 1 lj 0.328 0.328 0.328 c 16074 4948 m  16074 5788 l  ps
gr
gs
17.64 lw 1 lj 0.167 0.167 0.167 c 16061 4930 m  16061 5806 l  ps
gr
gs
8.82 lw 1 lj 16048 4948 m  16048 5788 l  ps
gr
gs
8.82 lw 1 lj 0.328 0.328 0.328 c 16074 5806 m  16074 6646 l  ps
gr
gs
17.64 lw 1 lj 0.167 0.167 0.167 c 16061 5788 m  16061 6664 l  ps
gr
gs
8.82 lw 1 lj 16048 5806 m  16048 6646 l  ps
gr
gs
8.82 lw 1 lj 0.328 0.328 0.328 c 18094 1516 m  18094 2356 l  ps
gr
gs
17.64 lw 1 lj 0.167 0.167 0.167 c 18081 1498 m  18081 2374 l  ps
gr
gs
8.82 lw 1 lj 18068 1516 m  18068 2356 l  ps
gr
gs
8.82 lw 1 lj 0.328 0.328 0.328 c 18094 2374 m  18094 3214 l  ps
gr
gs
17.64 lw 1 lj 0.167 0.167 0.167 c 18081 2356 m  18081 3232 l  ps
gr
gs
8.82 lw 1 lj 18068 2374 m  18068 3214 l  ps
gr
gs
8.82 lw 1 lj 0.328 0.328 0.328 c 18094 3232 m  18094 4072 l  ps
gr
gs
17.64 lw 1 lj 0.167 0.167 0.167 c 18081 3214 m  18081 4090 l  ps
gr
gs
8.82 lw 1 lj 18068 3232 m  18068 4072 l  ps
gr
gs
8.82 lw 1 lj 0.328 0.328 0.328 c 18094 4090 m  18094 4930 l  ps
gr
gs
17.64 lw 1 lj 0.167 0.167 0.167 c 18081 4072 m  18081 4948 l  ps
gr
gs
8.82 lw 1 lj 18068 4090 m  18068 4930 l  ps
gr
gs
8.82 lw 1 lj 0.328 0.328 0.328 c 18094 4948 m  18094 5788 l  ps
gr
gs
17.64 lw 1 lj 0.167 0.167 0.167 c 18081 4930 m  18081 5806 l  ps
gr
gs
8.82 lw 1 lj 18068 4948 m  18068 5788 l  ps
gr
gs
8.82 lw 1 lj 0.328 0.328 0.328 c 18094 5806 m  18094 6646 l  ps
gr
gs
17.64 lw 1 lj 0.167 0.167 0.167 c 18081 5788 m  18081 6664 l  ps
gr
gs
8.82 lw 1 lj 18068 5806 m  18068 6646 l  ps
gr
gs
8.82 lw 1 lj 0.328 0.328 0.328 c 20114 1516 m  20114 2356 l  ps
gr
gs
17.64 lw 1 lj 0.167 0.167 0.167 c 20101 1498 m  20101 2374 l  ps
gr
gs
8.82 lw 1 lj 20088 1516 m  20088 2356 l  ps
gr
gs
8.82 lw 1 lj 0.328 0.328 0.328 c 22134 1489 m  22134 2383 l  ps
gr
gs
17.64 lw 1 lj 0.167 0.167 0.167 c 22121 1498 m  22121 2374 l  ps
gr
gs
8.82 lw 1 lj 22108 1516 m  22108 2356 l  ps
gr
gs
8.82 lw 1 lj 0.328 0.328 0.328 c 20114 2374 m  20114 3214 l  ps
gr
gs
17.64 lw 1 lj 0.167 0.167 0.167 c 20101 2356 m  20101 3232 l  ps
gr
gs
8.82 lw 1 lj 20088 2374 m  20088 3214 l  ps
gr
gs
8.82 lw 1 lj 0.328 0.328 0.328 c 22134 2347 m  22134 3241 l  ps
gr
gs
17.64 lw 1 lj 0.167 0.167 0.167 c 22121 2356 m  22121 3232 l  ps
gr
gs
8.82 lw 1 lj 22108 2374 m  22108 3214 l  ps
gr
gs
8.82 lw 1 lj 0.328 0.328 0.328 c 20114 3232 m  20114 4072 l  ps
gr
gs
17.64 lw 1 lj 0.167 0.167 0.167 c 20101 3214 m  20101 4090 l  ps
gr
gs
8.82 lw 1 lj 20088 3232 m  20088 4072 l  ps
gr
gs
8.82 lw 1 lj 0.328 0.328 0.328 c 22134 3205 m  22134 4099 l  ps
gr
gs
17.64 lw 1 lj 0.167 0.167 0.167 c 22121 3214 m  22121 4090 l  ps
gr
gs
8.82 lw 1 lj 22108 3232 m  22108 4072 l  ps
gr
gs
8.82 lw 1 lj 0.328 0.328 0.328 c 20114 4090 m  20114 4930 l  ps
gr
gs
17.64 lw 1 lj 0.167 0.167 0.167 c 20101 4072 m  20101 4948 l  ps
gr
gs
8.82 lw 1 lj 20088 4090 m  20088 4930 l  ps
gr
gs
8.82 lw 1 lj 0.328 0.328 0.328 c 22134 4063 m  22134 4957 l  ps
gr
gs
17.64 lw 1 lj 0.167 0.167 0.167 c 22121 4072 m  22121 4948 l  ps
gr
gs
8.82 lw 1 lj 22108 4090 m  22108 4930 l  ps
gr
gs
8.82 lw 1 lj 0.328 0.328 0.328 c 20114 4948 m  20114 5788 l  ps
gr
gs
17.64 lw 1 lj 0.167 0.167 0.167 c 20101 4930 m  20101 5806 l  ps
gr
gs
8.82 lw 1 lj 20088 4948 m  20088 5788 l  ps
gr
gs
8.82 lw 1 lj 0.328 0.328 0.328 c 22134 4921 m  22134 5815 l  ps
gr
gs
17.64 lw 1 lj 0.167 0.167 0.167 c 22121 4930 m  22121 5806 l  ps
gr
gs
8.82 lw 1 lj 22108 4948 m  22108 5788 l  ps
gr
gs
8.82 lw 1 lj 0.328 0.328 0.328 c 20114 5806 m  20114 6646 l  ps
gr
gs
17.64 lw 1 lj 0.167 0.167 0.167 c 20101 5788 m  20101 6664 l  ps
gr
gs
8.82 lw 1 lj 20088 5806 m  20088 6646 l  ps
gr
gs
8.82 lw 1 lj 0.328 0.328 0.328 c 22134 5779 m  22134 6673 l  ps
gr
gs
17.64 lw 1 lj 0.167 0.167 0.167 c 22121 5788 m  22121 6664 l  ps
gr
gs
8.82 lw 1 lj 22108 5806 m  22108 6646 l  ps
gr
pum
2582 7398 t
48 0 m  48 -47 l  160 -47 l  160 -384 l  61 -314 l  61 -366 l  164 -438 l 
216 -438 l  216 -47 l  322 -47 l  322 0 l  48 0 l  p ef
pom
pum
4594 7398 t
32 0 m  32 -39 l  42 -64 55 -85 71 -104 ct 86 -122 102 -139 118 -154 ct 135 -169 152 -183 168 -196 ct 
185 -208 199 -221 213 -234 ct 226 -247 237 -260 245 -274 ct 253 -289 257 -304 257 -322 ct 
257 -346 250 -365 236 -378 ct 222 -391 202 -398 177 -398 ct 154 -398 134 -392 119 -379 ct 
103 -366 94 -348 91 -324 ct 34 -329 l  39 -364 53 -392 79 -413 ct 104 -434 137 -444 177 -444 ct 
221 -444 255 -434 279 -413 ct 303 -392 314 -362 314 -324 ct 314 -307 311 -290 303 -274 ct 
295 -257 283 -240 268 -223 ct 253 -206 224 -180 180 -145 ct 157 -126 138 -108 124 -93 ct 
110 -77 100 -62 93 -47 ct 321 -47 l  321 0 l  32 0 l  p ef
pom
pum
6606 7398 t
325 -121 m  325 -81 312 -49 287 -27 ct 261 -5 225 6 177 6 ct 133 6 98 -4 71 -24 ct 
45 -44 29 -73 24 -113 ct 82 -118 l  89 -66 121 -40 177 -40 ct 205 -40 227 -47 243 -61 ct 
259 -75 267 -96 267 -123 ct 267 -147 258 -165 240 -179 ct 222 -192 195 -199 161 -199 ct 
129 -199 l  129 -247 l  159 -247 l  190 -247 214 -254 231 -267 ct 247 -280 256 -299 256 -322 ct 
256 -346 249 -364 235 -378 ct 221 -391 201 -398 174 -398 ct 149 -398 129 -392 114 -379 ct 
99 -367 90 -349 88 -326 ct 32 -330 l  36 -366 51 -394 76 -414 ct 102 -434 134 -444 175 -444 ct 
218 -444 252 -434 277 -413 ct 301 -393 313 -365 313 -328 ct 313 -300 305 -278 290 -260 ct 
274 -243 251 -231 222 -225 ct 222 -223 l  254 -220 280 -209 298 -191 ct 316 -172 325 -149 325 -121 ct 
p ef
pom
pum
8618 7398 t
273 -99 m  273 0 l  220 0 l  220 -99 l  15 -99 l  15 -142 l  215 -438 l 
273 -438 l  273 -143 l  335 -143 l  335 -99 l  273 -99 l  p
220 -374 m  220 -373 217 -368 212 -358 ct 206 -348 202 -341 200 -338 ct 88 -172 l 
71 -149 l  66 -143 l  220 -143 l  220 -374 l  p ef
pom
pum
10630 7398 t
326 -143 m  326 -96 313 -60 285 -34 ct 258 -7 220 6 171 6 ct 131 6 98 -3 73 -21 ct 
48 -38 32 -64 25 -98 ct 82 -104 l  94 -61 124 -40 173 -40 ct 203 -40 226 -49 243 -67 ct 
260 -85 269 -110 269 -141 ct 269 -169 260 -191 243 -208 ct 226 -225 203 -233 174 -233 ct 
159 -233 145 -231 132 -226 ct 119 -221 106 -213 93 -202 ct 38 -202 l  53 -437 l 
301 -437 l  301 -390 l  104 -390 l  95 -251 l  119 -270 149 -279 185 -279 ct 
228 -279 263 -266 288 -241 ct 314 -216 326 -183 326 -143 ct p ef
pom
pum
12843 7398 t
325 -143 m  325 -97 313 -61 288 -34 ct 263 -7 228 6 184 6 ct 135 6 97 -12 71 -49 ct 
45 -86 32 -139 32 -209 ct 32 -284 46 -343 73 -383 ct 100 -424 139 -444 189 -444 ct 
254 -444 296 -414 313 -355 ct 260 -345 l  249 -381 225 -399 188 -399 ct 156 -399 131 -384 114 -354 ct 
96 -324 88 -282 88 -225 ct 98 -244 112 -258 131 -268 ct 149 -278 170 -283 194 -283 ct 
234 -283 266 -270 290 -245 ct 313 -220 325 -186 325 -143 ct p
269 -141 m  269 -173 261 -197 245 -214 ct 230 -231 208 -240 180 -240 ct 154 -240 133 -232 117 -217 ct 
101 -202 93 -181 93 -154 ct 93 -120 102 -93 118 -71 ct 135 -50 156 -39 182 -39 ct 
209 -39 230 -48 246 -66 ct 261 -84 269 -109 269 -141 ct p ef
pom
pum
14855 7398 t
321 -392 m  277 -324 245 -270 227 -232 ct 208 -193 194 -155 185 -117 ct 176 -79 171 -40 171 0 ct 
113 0 l  113 -56 125 -115 149 -177 ct 172 -238 212 -309 267 -390 ct 33 -390 l 
33 -437 l  321 -437 l  321 -392 l  p ef
pom
pum
16867 7398 t
326 -122 m  326 -82 313 -50 287 -28 ct 261 -5 225 6 177 6 ct 130 6 93 -5 67 -27 ct 
41 -49 28 -81 28 -121 ct 28 -150 36 -174 52 -193 ct 68 -213 89 -225 115 -229 ct 
115 -230 l  91 -236 72 -248 58 -266 ct 45 -285 38 -307 38 -332 ct 38 -365 50 -392 75 -413 ct 
100 -434 134 -444 176 -444 ct 218 -444 252 -434 277 -414 ct 302 -393 315 -366 315 -331 ct 
315 -306 308 -284 294 -266 ct 280 -247 261 -235 237 -231 ct 237 -229 l  265 -225 287 -213 302 -194 ct 
318 -175 326 -151 326 -122 ct p
257 -328 m  257 -378 230 -402 176 -402 ct 149 -402 129 -396 115 -384 ct 102 -371 95 -353 95 -328 ct 
95 -303 102 -284 116 -271 ct 130 -258 150 -251 176 -251 ct 202 -251 222 -257 236 -269 ct 
250 -281 257 -301 257 -328 ct p
268 -127 m  268 -154 260 -175 243 -189 ct 227 -202 205 -209 176 -209 ct 147 -209 125 -202 109 -187 ct 
93 -172 85 -152 85 -126 ct 85 -66 116 -36 177 -36 ct 208 -36 230 -43 245 -58 ct 
260 -72 268 -96 268 -127 ct p ef
pom
pum
18879 7398 t
323 -228 m  323 -153 309 -95 282 -55 ct 255 -14 216 6 165 6 ct 131 6 104 -1 83 -16 ct 
62 -30 48 -53 39 -85 ct 92 -94 l  103 -57 128 -39 166 -39 ct 198 -39 223 -54 240 -84 ct 
258 -114 267 -156 268 -212 ct 260 -193 245 -178 225 -167 ct 205 -156 183 -150 159 -150 ct 
120 -150 89 -163 65 -190 ct 42 -217 30 -253 30 -297 ct 30 -343 43 -379 68 -405 ct 
94 -431 130 -444 175 -444 ct 224 -444 261 -426 286 -390 ct 311 -354 323 -300 323 -228 ct 
p
262 -282 m  262 -317 254 -345 238 -367 ct 222 -388 200 -399 173 -399 ct 146 -399 125 -390 110 -371 ct 
94 -353 87 -328 87 -297 ct 87 -265 94 -240 110 -222 ct 125 -203 146 -194 173 -194 ct 
189 -194 204 -198 218 -205 ct 232 -212 242 -223 250 -236 ct 258 -250 262 -265 262 -282 ct 
p ef
pom
pum
20891 7398 t
48 0 m  48 -47 l  160 -47 l  160 -384 l  61 -314 l  61 -366 l  164 -438 l 
216 -438 l  216 -47 l  322 -47 l  322 0 l  48 0 l  p ef
679 -219 m  679 -146 666 -90 641 -52 ct 615 -13 577 6 527 6 ct 477 6 439 -13 414 -51 ct 
388 -90 376 -146 376 -219 ct 376 -294 388 -350 413 -388 ct 437 -425 476 -444 529 -444 ct 
580 -444 618 -425 643 -387 ct 667 -349 679 -293 679 -219 ct p
623 -219 m  623 -282 615 -328 601 -356 ct 586 -385 562 -399 529 -399 ct 494 -399 470 -385 455 -357 ct 
440 -329 432 -283 432 -219 ct 432 -157 440 -112 455 -83 ct 470 -54 494 -40 527 -40 ct 
560 -40 584 -54 600 -84 ct 615 -113 623 -158 623 -219 ct p ef
pom
pum
212 7344 t
362 0 m  312 -128 l  113 -128 l  63 0 l  1 0 l  180 -438 l  247 -438 l 
422 0 l  362 0 l  p
212 -393 m  210 -384 l  204 -367 197 -345 187 -318 ct 131 -174 l  294 -174 l 
238 -319 l  232 -333 227 -349 221 -367 ct 212 -393 l  p ef
817 -121 m  817 -81 802 -49 770 -27 ct 739 -5 694 6 637 6 ct 530 6 469 -31 452 -105 ct 
509 -117 l  516 -90 530 -71 551 -59 ct 573 -46 602 -40 639 -40 ct 677 -40 707 -47 728 -60 ct 
748 -73 759 -92 759 -118 ct 759 -132 756 -144 749 -153 ct 743 -161 733 -169 722 -175 ct 
710 -180 696 -185 679 -189 ct 663 -193 645 -197 625 -202 ct 591 -210 564 -217 547 -225 ct 
529 -233 515 -241 504 -250 ct 494 -260 486 -271 481 -284 ct 475 -296 472 -311 472 -327 ct 
472 -364 487 -393 515 -414 ct 544 -434 585 -444 638 -444 ct 688 -444 726 -436 752 -421 ct 
778 -406 797 -380 807 -343 ct 749 -333 l  742 -356 730 -373 712 -384 ct 694 -394 669 -399 638 -399 ct 
603 -399 576 -394 558 -382 ct 539 -370 530 -353 530 -330 ct 530 -317 534 -306 541 -297 ct 
548 -288 558 -281 572 -274 ct 585 -268 612 -261 652 -252 ct 665 -249 679 -246 692 -242 ct 
705 -239 718 -235 730 -231 ct 742 -226 754 -221 765 -215 ct 775 -209 784 -202 792 -193 ct 
800 -185 806 -174 811 -163 ct 815 -151 817 -137 817 -121 ct p ef
1182 0 m  949 -373 l  950 -343 l  952 -291 l  952 0 l  899 0 l  899 -438 l 
968 -438 l  1204 -62 l  1202 -103 1200 -132 1200 -151 ct 1200 -438 l  1254 -438 l 
1254 0 l  1182 0 l  p ef
1362 -272 m  1362 -336 l  1422 -336 l  1422 -272 l  1362 -272 l  p
1362 0 m  1362 -64 l  1422 -64 l  1422 0 l  1362 0 l  p ef
pom
gr
gs
0 0 m 28701 0 l 28701 8686 l 0 8686 l 0 0 l eoclip newpath
gr
gr
0 8687 t 
pom
count op_count sub {pop} repeat countdictstack dict_count sub {end} repeat b4_inc_state restore
%%PageTrailer
%%Trailer
%%EOF
