%!PS-Adobe-3.0 EPSF-3.0 
%%BoundingBox: 0 0 798 216
%%Pages: 0
%%Creator: LibreOffice 6.0
%%Title: none
%%CreationDate: none
%%LanguageLevel: 2
%%EndComments
%%BeginProlog
%%BeginResource: procset SDRes-Prolog 1.0 0
/b4_inc_state save def
/dict_count countdictstack def
/op_count count 1 sub def
userdict begin
0 setgray 0 setlinecap 1 setlinewidth 0 setlinejoin 10 setmiterlimit[] 0 setdash newpath
/languagelevel where {pop languagelevel 1 ne {false setstrokeadjust false setoverprint} if} if
/bdef {bind def} bind def
/c {setrgbcolor} bdef
/l {neg lineto} bdef
/rl {neg rlineto} bdef
/lc {setlinecap} bdef
/lj {setlinejoin} bdef
/lw {setlinewidth} bdef
/ml {setmiterlimit} bdef
/ld {setdash} bdef
/m {neg moveto} bdef
/ct {6 2 roll neg 6 2 roll neg 6 2 roll neg curveto} bdef
/r {rotate} bdef
/t {neg translate} bdef
/s {scale} bdef
/sw {show} bdef
/gs {gsave} bdef
/gr {grestore} bdef
/f {findfont dup length dict begin
{1 index /FID ne {def} {pop pop} ifelse} forall /Encoding ISOLatin1Encoding def
currentdict end /NFont exch definefont pop /NFont findfont} bdef
/p {closepath} bdef
/sf {scalefont setfont} bdef
/ef {eofill}bdef
/pc {closepath stroke}bdef
/ps {stroke}bdef
/pum {matrix currentmatrix}bdef
/pom {setmatrix}bdef
/bs {/aString exch def /nXOfs exch def /nWidth exch def currentpoint nXOfs 0 rmoveto pum nWidth aString stringwidth pop div 1 scale aString show pom moveto} bdef
%%EndResource
%%EndProlog
%%BeginSetup
%%EndSetup
%%Page: 1 1
%%BeginPageSetup
%%EndPageSetup
pum
0.02835 0.02834 s 
0 -7620 t
/tm matrix currentmatrix def
gs
0 0 m 28142 0 l 28142 7619 l 0 7619 l 0 0 l eoclip newpath
gs
0 0 m 28142 0 l 28142 7619 l 0 7619 l 0 0 l eoclip newpath
gs
1.000 1.000 1.000 c 17346 2176 m  19366 2176 l  19366 3034 l  17346 3034 l 
17346 2176 l  p ef
gr
gs
1.000 1.000 1.000 c 19366 2176 m  21386 2176 l  21386 3034 l  19366 3034 l 
19366 2176 l  p ef
gr
gs
1.000 1.000 1.000 c 21386 2176 m  25426 2176 l  25426 7324 l  21386 7324 l 
21386 2176 l  p ef
gr
pum
23140 4913 t
0.003 0.003 0.003 c 58 0 m  58 -68 l  118 -68 l  118 0 l  58 0 l  p ef
236 0 m  236 -68 l  296 -68 l  296 0 l  236 0 l  p ef
414 0 m  414 -68 l  474 -68 l  474 0 l  414 0 l  p ef
pom
gs
1.000 1.000 1.000 c 25426 2176 m  27446 2176 l  27446 3034 l  25426 3034 l 
25426 2176 l  p ef
gr
gs
1.000 1.000 1.000 c 17346 3034 m  19366 3034 l  19366 3892 l  17346 3892 l 
17346 3034 l  p ef
gr
gs
1.000 1.000 1.000 c 19366 3034 m  21386 3034 l  21386 3892 l  19366 3892 l 
19366 3034 l  p ef
gr
gs
1.000 1.000 1.000 c 25426 3034 m  27446 3034 l  27446 3892 l  25426 3892 l 
25426 3034 l  p ef
gr
gs
1.000 1.000 1.000 c 17346 3892 m  19366 3892 l  19366 4750 l  17346 4750 l 
17346 3892 l  p ef
gr
gs
1.000 1.000 1.000 c 19366 3892 m  21386 3892 l  21386 4750 l  19366 4750 l 
19366 3892 l  p ef
gr
gs
1.000 1.000 1.000 c 25426 3892 m  27446 3892 l  27446 4750 l  25426 4750 l 
25426 3892 l  p ef
gr
gs
1.000 1.000 1.000 c 17346 4750 m  19366 4750 l  19366 5608 l  17346 5608 l 
17346 4750 l  p ef
gr
gs
1.000 1.000 1.000 c 19366 4750 m  21386 4750 l  21386 5608 l  19366 5608 l 
19366 4750 l  p ef
gr
gs
1.000 1.000 1.000 c 25426 4750 m  27446 4750 l  27446 5608 l  25426 5608 l 
25426 4750 l  p ef
gr
gs
1.000 1.000 1.000 c 17346 5608 m  19366 5608 l  19366 6466 l  17346 6466 l 
17346 5608 l  p ef
gr
gs
1.000 1.000 1.000 c 19366 5608 m  21386 5608 l  21386 6466 l  19366 6466 l 
19366 5608 l  p ef
gr
gs
1.000 1.000 1.000 c 25426 5608 m  27446 5608 l  27446 6466 l  25426 6466 l 
25426 5608 l  p ef
gr
gs
1.000 1.000 1.000 c 17346 6466 m  19366 6466 l  19366 7324 l  17346 7324 l 
17346 6466 l  p ef
gr
gs
1.000 1.000 1.000 c 19366 6466 m  21386 6466 l  21386 7324 l  19366 7324 l 
19366 6466 l  p ef
gr
gs
1.000 1.000 1.000 c 25426 6466 m  27446 6466 l  27446 7324 l  25426 7324 l 
25426 6466 l  p ef
gr
gs
8.82 lw 1 lj 0.328 0.328 0.328 c 17328 2163 m  19384 2163 l  ps
gr
gs
17.64 lw 1 lj 0.167 0.167 0.167 c 17337 2176 m  19375 2176 l  ps
gr
gs
8.82 lw 1 lj 17355 2189 m  19357 2189 l  ps
gr
gs
8.82 lw 1 lj 0.328 0.328 0.328 c 19348 2163 m  21404 2163 l  ps
gr
gs
17.64 lw 1 lj 0.167 0.167 0.167 c 19357 2176 m  21395 2176 l  ps
gr
gs
8.82 lw 1 lj 19375 2189 m  21377 2189 l  ps
gr
gs
8.82 lw 1 lj 0.328 0.328 0.328 c 21368 2163 m  25444 2163 l  ps
gr
gs
17.64 lw 1 lj 0.167 0.167 0.167 c 21377 2176 m  25435 2176 l  ps
gr
gs
8.82 lw 1 lj 21395 2189 m  25417 2189 l  ps
gr
gs
8.82 lw 1 lj 0.328 0.328 0.328 c 25408 2163 m  27464 2163 l  ps
gr
gs
17.64 lw 1 lj 0.167 0.167 0.167 c 25417 2176 m  27455 2176 l  ps
gr
gs
8.82 lw 1 lj 25435 2189 m  27437 2189 l  ps
gr
gs
8.82 lw 1 lj 0.328 0.328 0.328 c 17355 3021 m  19357 3021 l  ps
gr
gs
17.64 lw 1 lj 0.167 0.167 0.167 c 17337 3034 m  19375 3034 l  ps
gr
gs
8.82 lw 1 lj 17355 3047 m  19357 3047 l  ps
gr
gs
8.82 lw 1 lj 0.328 0.328 0.328 c 19375 3021 m  21377 3021 l  ps
gr
gs
17.64 lw 1 lj 0.167 0.167 0.167 c 19357 3034 m  21395 3034 l  ps
gr
gs
8.82 lw 1 lj 19375 3047 m  21377 3047 l  ps
gr
gs
8.82 lw 1 lj 0.328 0.328 0.328 c 25435 3021 m  27437 3021 l  ps
gr
gs
17.64 lw 1 lj 0.167 0.167 0.167 c 25417 3034 m  27455 3034 l  ps
gr
gs
8.82 lw 1 lj 25435 3047 m  27437 3047 l  ps
gr
gs
8.82 lw 1 lj 0.328 0.328 0.328 c 17355 3879 m  19357 3879 l  ps
gr
gs
17.64 lw 1 lj 0.167 0.167 0.167 c 17337 3892 m  19375 3892 l  ps
gr
gs
8.82 lw 1 lj 17355 3905 m  19357 3905 l  ps
gr
gs
8.82 lw 1 lj 0.328 0.328 0.328 c 19375 3879 m  21377 3879 l  ps
gr
gs
17.64 lw 1 lj 0.167 0.167 0.167 c 19357 3892 m  21395 3892 l  ps
gr
gs
8.82 lw 1 lj 19375 3905 m  21377 3905 l  ps
gr
gs
8.82 lw 1 lj 0.328 0.328 0.328 c 25435 3879 m  27437 3879 l  ps
gr
gs
17.64 lw 1 lj 0.167 0.167 0.167 c 25417 3892 m  27455 3892 l  ps
gr
gs
8.82 lw 1 lj 25435 3905 m  27437 3905 l  ps
gr
gs
8.82 lw 1 lj 0.328 0.328 0.328 c 17355 4737 m  19357 4737 l  ps
gr
gs
17.64 lw 1 lj 0.167 0.167 0.167 c 17337 4750 m  19375 4750 l  ps
gr
gs
8.82 lw 1 lj 17355 4763 m  19357 4763 l  ps
gr
gs
8.82 lw 1 lj 0.328 0.328 0.328 c 19375 4737 m  21377 4737 l  ps
gr
gs
17.64 lw 1 lj 0.167 0.167 0.167 c 19357 4750 m  21395 4750 l  ps
gr
gs
8.82 lw 1 lj 19375 4763 m  21377 4763 l  ps
gr
gs
8.82 lw 1 lj 0.328 0.328 0.328 c 25435 4737 m  27437 4737 l  ps
gr
gs
17.64 lw 1 lj 0.167 0.167 0.167 c 25417 4750 m  27455 4750 l  ps
gr
gs
8.82 lw 1 lj 25435 4763 m  27437 4763 l  ps
gr
gs
8.82 lw 1 lj 0.328 0.328 0.328 c 17355 5595 m  19357 5595 l  ps
gr
gs
17.64 lw 1 lj 0.167 0.167 0.167 c 17337 5608 m  19375 5608 l  ps
gr
gs
8.82 lw 1 lj 17355 5621 m  19357 5621 l  ps
gr
gs
8.82 lw 1 lj 0.328 0.328 0.328 c 19375 5595 m  21377 5595 l  ps
gr
gs
17.64 lw 1 lj 0.167 0.167 0.167 c 19357 5608 m  21395 5608 l  ps
gr
gs
8.82 lw 1 lj 19375 5621 m  21377 5621 l  ps
gr
gs
8.82 lw 1 lj 0.328 0.328 0.328 c 25435 5595 m  27437 5595 l  ps
gr
gs
17.64 lw 1 lj 0.167 0.167 0.167 c 25417 5608 m  27455 5608 l  ps
gr
gs
8.82 lw 1 lj 25435 5621 m  27437 5621 l  ps
gr
gs
8.82 lw 1 lj 0.328 0.328 0.328 c 17355 6453 m  19357 6453 l  ps
gr
gs
17.64 lw 1 lj 0.167 0.167 0.167 c 17337 6466 m  19375 6466 l  ps
gr
gs
8.82 lw 1 lj 17355 6479 m  19357 6479 l  ps
gr
gs
8.82 lw 1 lj 0.328 0.328 0.328 c 17355 7311 m  19357 7311 l  ps
gr
gs
17.64 lw 1 lj 0.167 0.167 0.167 c 17337 7324 m  19375 7324 l  ps
gr
gs
8.82 lw 1 lj 17328 7337 m  19384 7337 l  ps
gr
gs
8.82 lw 1 lj 0.328 0.328 0.328 c 19375 6453 m  21377 6453 l  ps
gr
gs
17.64 lw 1 lj 0.167 0.167 0.167 c 19357 6466 m  21395 6466 l  ps
gr
gs
8.82 lw 1 lj 19375 6479 m  21377 6479 l  ps
gr
gs
8.82 lw 1 lj 0.328 0.328 0.328 c 19375 7311 m  21377 7311 l  ps
gr
gs
17.64 lw 1 lj 0.167 0.167 0.167 c 19357 7324 m  21395 7324 l  ps
gr
gs
8.82 lw 1 lj 19348 7337 m  21404 7337 l  ps
gr
gs
8.82 lw 1 lj 0.328 0.328 0.328 c 21395 7311 m  25417 7311 l  ps
gr
gs
17.64 lw 1 lj 0.167 0.167 0.167 c 21377 7324 m  25435 7324 l  ps
gr
gs
8.82 lw 1 lj 21368 7337 m  25444 7337 l  ps
gr
gs
8.82 lw 1 lj 0.328 0.328 0.328 c 25435 6453 m  27437 6453 l  ps
gr
gs
17.64 lw 1 lj 0.167 0.167 0.167 c 25417 6466 m  27455 6466 l  ps
gr
gs
8.82 lw 1 lj 25435 6479 m  27437 6479 l  ps
gr
gs
8.82 lw 1 lj 0.328 0.328 0.328 c 25435 7311 m  27437 7311 l  ps
gr
gs
17.64 lw 1 lj 0.167 0.167 0.167 c 25417 7324 m  27455 7324 l  ps
gr
gs
8.82 lw 1 lj 25408 7337 m  27464 7337 l  ps
gr
gs
8.82 lw 1 lj 0.328 0.328 0.328 c 17359 2185 m  17359 3025 l  ps
gr
gs
17.64 lw 1 lj 0.167 0.167 0.167 c 17346 2167 m  17346 3043 l  ps
gr
gs
8.82 lw 1 lj 17333 2158 m  17333 3052 l  ps
gr
gs
8.82 lw 1 lj 0.328 0.328 0.328 c 17359 3043 m  17359 3883 l  ps
gr
gs
17.64 lw 1 lj 0.167 0.167 0.167 c 17346 3025 m  17346 3901 l  ps
gr
gs
8.82 lw 1 lj 17333 3016 m  17333 3910 l  ps
gr
gs
8.82 lw 1 lj 0.328 0.328 0.328 c 17359 3901 m  17359 4741 l  ps
gr
gs
17.64 lw 1 lj 0.167 0.167 0.167 c 17346 3883 m  17346 4759 l  ps
gr
gs
8.82 lw 1 lj 17333 3874 m  17333 4768 l  ps
gr
gs
8.82 lw 1 lj 0.328 0.328 0.328 c 17359 4759 m  17359 5599 l  ps
gr
gs
17.64 lw 1 lj 0.167 0.167 0.167 c 17346 4741 m  17346 5617 l  ps
gr
gs
8.82 lw 1 lj 17333 4732 m  17333 5626 l  ps
gr
gs
8.82 lw 1 lj 0.328 0.328 0.328 c 17359 5617 m  17359 6457 l  ps
gr
gs
17.64 lw 1 lj 0.167 0.167 0.167 c 17346 5599 m  17346 6475 l  ps
gr
gs
8.82 lw 1 lj 17333 5590 m  17333 6484 l  ps
gr
gs
8.82 lw 1 lj 0.328 0.328 0.328 c 17359 6475 m  17359 7315 l  ps
gr
gs
17.64 lw 1 lj 0.167 0.167 0.167 c 17346 6457 m  17346 7333 l  ps
gr
gs
8.82 lw 1 lj 17333 6448 m  17333 7342 l  ps
gr
gs
8.82 lw 1 lj 0.328 0.328 0.328 c 19379 2185 m  19379 3025 l  ps
gr
gs
17.64 lw 1 lj 0.167 0.167 0.167 c 19366 2167 m  19366 3043 l  ps
gr
gs
8.82 lw 1 lj 19353 2185 m  19353 3025 l  ps
gr
gs
8.82 lw 1 lj 0.328 0.328 0.328 c 19379 3043 m  19379 3883 l  ps
gr
gs
17.64 lw 1 lj 0.167 0.167 0.167 c 19366 3025 m  19366 3901 l  ps
gr
gs
8.82 lw 1 lj 19353 3043 m  19353 3883 l  ps
gr
gs
8.82 lw 1 lj 0.328 0.328 0.328 c 19379 3901 m  19379 4741 l  ps
gr
gs
17.64 lw 1 lj 0.167 0.167 0.167 c 19366 3883 m  19366 4759 l  ps
gr
gs
8.82 lw 1 lj 19353 3901 m  19353 4741 l  ps
gr
gs
8.82 lw 1 lj 0.328 0.328 0.328 c 19379 4759 m  19379 5599 l  ps
gr
gs
17.64 lw 1 lj 0.167 0.167 0.167 c 19366 4741 m  19366 5617 l  ps
gr
gs
8.82 lw 1 lj 19353 4759 m  19353 5599 l  ps
gr
gs
8.82 lw 1 lj 0.328 0.328 0.328 c 19379 5617 m  19379 6457 l  ps
gr
gs
17.64 lw 1 lj 0.167 0.167 0.167 c 19366 5599 m  19366 6475 l  ps
gr
gs
8.82 lw 1 lj 19353 5617 m  19353 6457 l  ps
gr
gs
8.82 lw 1 lj 0.328 0.328 0.328 c 19379 6475 m  19379 7315 l  ps
gr
gs
17.64 lw 1 lj 0.167 0.167 0.167 c 19366 6457 m  19366 7333 l  ps
gr
gs
8.82 lw 1 lj 19353 6475 m  19353 7315 l  ps
gr
gs
8.82 lw 1 lj 0.328 0.328 0.328 c 21399 2185 m  21399 3052 l  ps
gr
gs
17.64 lw 1 lj 0.167 0.167 0.167 c 21386 2167 m  21386 3043 l  ps
gr
gs
8.82 lw 1 lj 21373 2185 m  21373 3025 l  ps
gr
gs
8.82 lw 1 lj 0.328 0.328 0.328 c 21399 3016 m  21399 3910 l  ps
gr
gs
17.64 lw 1 lj 0.167 0.167 0.167 c 21386 3025 m  21386 3901 l  ps
gr
gs
8.82 lw 1 lj 21373 3043 m  21373 3883 l  ps
gr
gs
8.82 lw 1 lj 0.328 0.328 0.328 c 21399 3874 m  21399 4768 l  ps
gr
gs
17.64 lw 1 lj 0.167 0.167 0.167 c 21386 3883 m  21386 4759 l  ps
gr
gs
8.82 lw 1 lj 21373 3901 m  21373 4741 l  ps
gr
gs
8.82 lw 1 lj 0.328 0.328 0.328 c 21399 4732 m  21399 5626 l  ps
gr
gs
17.64 lw 1 lj 0.167 0.167 0.167 c 21386 4741 m  21386 5617 l  ps
gr
gs
8.82 lw 1 lj 21373 4759 m  21373 5599 l  ps
gr
gs
8.82 lw 1 lj 0.328 0.328 0.328 c 21399 5590 m  21399 6484 l  ps
gr
gs
17.64 lw 1 lj 0.167 0.167 0.167 c 21386 5599 m  21386 6475 l  ps
gr
gs
8.82 lw 1 lj 21373 5617 m  21373 6457 l  ps
gr
gs
8.82 lw 1 lj 0.328 0.328 0.328 c 21399 6448 m  21399 7315 l  ps
gr
gs
17.64 lw 1 lj 0.167 0.167 0.167 c 21386 6457 m  21386 7333 l  ps
gr
gs
8.82 lw 1 lj 21373 6475 m  21373 7315 l  ps
gr
gs
8.82 lw 1 lj 0.328 0.328 0.328 c 25439 2185 m  25439 3025 l  ps
gr
gs
17.64 lw 1 lj 0.167 0.167 0.167 c 25426 2167 m  25426 3043 l  ps
gr
gs
8.82 lw 1 lj 25413 2185 m  25413 3052 l  ps
gr
gs
8.82 lw 1 lj 0.328 0.328 0.328 c 27459 2158 m  27459 3052 l  ps
gr
gs
17.64 lw 1 lj 0.167 0.167 0.167 c 27446 2167 m  27446 3043 l  ps
gr
gs
8.82 lw 1 lj 27433 2185 m  27433 3025 l  ps
gr
gs
8.82 lw 1 lj 0.328 0.328 0.328 c 25439 3043 m  25439 3883 l  ps
gr
gs
17.64 lw 1 lj 0.167 0.167 0.167 c 25426 3025 m  25426 3901 l  ps
gr
gs
8.82 lw 1 lj 25413 3016 m  25413 3910 l  ps
gr
gs
8.82 lw 1 lj 0.328 0.328 0.328 c 27459 3016 m  27459 3910 l  ps
gr
gs
17.64 lw 1 lj 0.167 0.167 0.167 c 27446 3025 m  27446 3901 l  ps
gr
gs
8.82 lw 1 lj 27433 3043 m  27433 3883 l  ps
gr
gs
8.82 lw 1 lj 0.328 0.328 0.328 c 25439 3901 m  25439 4741 l  ps
gr
gs
17.64 lw 1 lj 0.167 0.167 0.167 c 25426 3883 m  25426 4759 l  ps
gr
gs
8.82 lw 1 lj 25413 3874 m  25413 4768 l  ps
gr
gs
8.82 lw 1 lj 0.328 0.328 0.328 c 27459 3874 m  27459 4768 l  ps
gr
gs
17.64 lw 1 lj 0.167 0.167 0.167 c 27446 3883 m  27446 4759 l  ps
gr
gs
8.82 lw 1 lj 27433 3901 m  27433 4741 l  ps
gr
gs
8.82 lw 1 lj 0.328 0.328 0.328 c 25439 4759 m  25439 5599 l  ps
gr
gs
17.64 lw 1 lj 0.167 0.167 0.167 c 25426 4741 m  25426 5617 l  ps
gr
gs
8.82 lw 1 lj 25413 4732 m  25413 5626 l  ps
gr
gs
8.82 lw 1 lj 0.328 0.328 0.328 c 27459 4732 m  27459 5626 l  ps
gr
gs
17.64 lw 1 lj 0.167 0.167 0.167 c 27446 4741 m  27446 5617 l  ps
gr
gs
8.82 lw 1 lj 27433 4759 m  27433 5599 l  ps
gr
gs
8.82 lw 1 lj 0.328 0.328 0.328 c 25439 5617 m  25439 6457 l  ps
gr
gs
17.64 lw 1 lj 0.167 0.167 0.167 c 25426 5599 m  25426 6475 l  ps
gr
gs
8.82 lw 1 lj 25413 5590 m  25413 6484 l  ps
gr
gs
8.82 lw 1 lj 0.328 0.328 0.328 c 27459 5590 m  27459 6484 l  ps
gr
gs
17.64 lw 1 lj 0.167 0.167 0.167 c 27446 5599 m  27446 6475 l  ps
gr
gs
8.82 lw 1 lj 27433 5617 m  27433 6457 l  ps
gr
gs
8.82 lw 1 lj 0.328 0.328 0.328 c 25439 6475 m  25439 7315 l  ps
gr
gs
17.64 lw 1 lj 0.167 0.167 0.167 c 25426 6457 m  25426 7333 l  ps
gr
gs
8.82 lw 1 lj 25413 6448 m  25413 7315 l  ps
gr
gs
8.82 lw 1 lj 0.328 0.328 0.328 c 27459 6448 m  27459 7342 l  ps
gr
gs
17.64 lw 1 lj 0.167 0.167 0.167 c 27446 6457 m  27446 7333 l  ps
gr
gs
8.82 lw 1 lj 27433 6475 m  27433 7315 l  ps
gr
pum
18141 1971 t
48 0 m  48 -47 l  160 -47 l  160 -384 l  61 -314 l  61 -366 l  164 -438 l 
216 -438 l  216 -47 l  322 -47 l  322 0 l  48 0 l  p ef
pom
pum
20242 1971 t
32 0 m  32 -39 l  42 -64 55 -85 71 -104 ct 86 -122 102 -139 118 -154 ct 135 -169 152 -183 168 -196 ct 
185 -208 199 -221 213 -234 ct 226 -247 237 -260 245 -274 ct 253 -289 257 -304 257 -322 ct 
257 -346 250 -365 236 -378 ct 222 -391 202 -398 177 -398 ct 154 -398 134 -392 119 -379 ct 
103 -366 94 -348 91 -324 ct 34 -329 l  39 -364 53 -392 79 -413 ct 104 -434 137 -444 177 -444 ct 
221 -444 255 -434 279 -413 ct 303 -392 314 -362 314 -324 ct 314 -307 311 -290 303 -274 ct 
295 -257 283 -240 268 -223 ct 253 -206 224 -180 180 -145 ct 157 -126 138 -108 124 -93 ct 
110 -77 100 -62 93 -47 ct 321 -47 l  321 0 l  32 0 l  p ef
pom
pum
26345 1971 t
256 0 m  256 -213 l  256 -235 254 -252 249 -264 ct 245 -277 238 -285 229 -291 ct 
219 -296 205 -299 187 -299 ct 160 -299 139 -290 123 -271 ct 108 -253 100 -227 100 -195 ct 
100 0 l  44 0 l  44 -264 l  44 -303 43 -327 42 -336 ct 95 -336 l  95 -335 95 -332 96 -327 ct 
96 -323 96 -318 96 -312 ct 97 -306 97 -295 97 -278 ct 98 -278 l  111 -302 126 -318 143 -328 ct 
160 -337 181 -342 206 -342 ct 242 -342 269 -333 286 -315 ct 303 -296 312 -266 312 -224 ct 
312 0 l  256 0 l  p ef
pom
pum
16742 2771 t
48 0 m  48 -47 l  160 -47 l  160 -384 l  61 -314 l  61 -366 l  164 -438 l 
216 -438 l  216 -47 l  322 -47 l  322 0 l  48 0 l  p ef
pom
pum
16743 3631 t
32 0 m  32 -39 l  42 -64 55 -85 71 -104 ct 86 -122 102 -139 118 -154 ct 135 -169 152 -183 168 -196 ct 
185 -208 199 -221 213 -234 ct 226 -247 237 -260 245 -274 ct 253 -289 257 -304 257 -322 ct 
257 -346 250 -365 236 -378 ct 222 -391 202 -398 177 -398 ct 154 -398 134 -392 119 -379 ct 
103 -366 94 -348 91 -324 ct 34 -329 l  39 -364 53 -392 79 -413 ct 104 -434 137 -444 177 -444 ct 
221 -444 255 -434 279 -413 ct 303 -392 314 -362 314 -324 ct 314 -307 311 -290 303 -274 ct 
295 -257 283 -240 268 -223 ct 253 -206 224 -180 180 -145 ct 157 -126 138 -108 124 -93 ct 
110 -77 100 -62 93 -47 ct 321 -47 l  321 0 l  32 0 l  p ef
pom
pum
16744 4491 t
325 -121 m  325 -81 312 -49 287 -27 ct 261 -5 225 6 177 6 ct 133 6 98 -4 71 -24 ct 
45 -44 29 -73 24 -113 ct 82 -118 l  89 -66 121 -40 177 -40 ct 205 -40 227 -47 243 -61 ct 
259 -75 267 -96 267 -123 ct 267 -147 258 -165 240 -179 ct 222 -192 195 -199 161 -199 ct 
129 -199 l  129 -247 l  159 -247 l  190 -247 214 -254 231 -267 ct 247 -280 256 -299 256 -322 ct 
256 -346 249 -364 235 -378 ct 221 -391 201 -398 174 -398 ct 149 -398 129 -392 114 -379 ct 
99 -367 90 -349 88 -326 ct 32 -330 l  36 -366 51 -394 76 -414 ct 102 -434 134 -444 175 -444 ct 
218 -444 252 -434 277 -413 ct 301 -393 313 -365 313 -328 ct 313 -300 305 -278 290 -260 ct 
274 -243 251 -231 222 -225 ct 222 -223 l  254 -220 280 -209 298 -191 ct 316 -172 325 -149 325 -121 ct 
p ef
pom
pum
16745 5351 t
273 -99 m  273 0 l  220 0 l  220 -99 l  15 -99 l  15 -142 l  215 -438 l 
273 -438 l  273 -143 l  335 -143 l  335 -99 l  273 -99 l  p
220 -374 m  220 -373 217 -368 212 -358 ct 206 -348 202 -341 200 -338 ct 88 -172 l 
71 -149 l  66 -143 l  220 -143 l  220 -374 l  p ef
pom
pum
16746 6211 t
326 -143 m  326 -96 313 -60 285 -34 ct 258 -7 220 6 171 6 ct 131 6 98 -3 73 -21 ct 
48 -38 32 -64 25 -98 ct 82 -104 l  94 -61 124 -40 173 -40 ct 203 -40 226 -49 243 -67 ct 
260 -85 269 -110 269 -141 ct 269 -169 260 -191 243 -208 ct 226 -225 203 -233 174 -233 ct 
159 -233 145 -231 132 -226 ct 119 -221 106 -213 93 -202 ct 38 -202 l  53 -437 l 
301 -437 l  301 -390 l  104 -390 l  95 -251 l  119 -270 149 -279 185 -279 ct 
228 -279 263 -266 288 -241 ct 314 -216 326 -183 326 -143 ct p ef
pom
pum
16747 7071 t
256 0 m  256 -213 l  256 -235 254 -252 249 -264 ct 245 -277 238 -285 229 -291 ct 
219 -296 205 -299 187 -299 ct 160 -299 139 -290 123 -271 ct 108 -253 100 -227 100 -195 ct 
100 0 l  44 0 l  44 -264 l  44 -303 43 -327 42 -336 ct 95 -336 l  95 -335 95 -332 96 -327 ct 
96 -323 96 -318 96 -312 ct 97 -306 97 -295 97 -278 ct 98 -278 l  111 -302 126 -318 143 -328 ct 
160 -337 181 -342 206 -342 ct 242 -342 269 -333 286 -315 ct 303 -296 312 -266 312 -224 ct 
312 0 l  256 0 l  p ef
pom
gs
1.000 1.000 1.000 c 8953 7203 m  8127 7203 l  8127 1996 l  9778 1996 l 
9778 7203 l  8953 7203 l  p ef
gr
gs
53 lw 1 lj 8953 7203 m  8127 7203 l  8127 1996 l  9778 1996 l  9778 7203 l 
8953 7203 l  pc
gr
pum
8260 4464 t
223 -389 m  223 0 l  164 0 l  164 -389 l  14 -389 l  14 -437 l  373 -437 l 
373 -389 l  223 -389 l  p ef
406 -407 m  406 -460 l  462 -460 l  462 -407 l  406 -407 l  p
406 1 m  406 -335 l  462 -335 l  462 1 l  406 1 l  p ef
742 0 m  742 -213 l  742 -245 738 -268 729 -280 ct 720 -293 704 -299 681 -299 ct 
657 -299 638 -290 624 -272 ct 610 -253 604 -228 604 -195 ct 604 0 l  548 0 l 
548 -264 l  548 -303 547 -327 546 -336 ct 599 -336 l  599 -335 599 -332 600 -327 ct 
600 -323 600 -318 600 -312 ct 601 -306 601 -295 601 -278 ct 602 -278 l  614 -302 628 -319 644 -328 ct 
659 -337 678 -342 700 -342 ct 726 -342 746 -337 761 -327 ct 775 -317 786 -301 791 -278 ct 
792 -278 l  804 -301 818 -317 834 -327 ct 851 -337 871 -342 894 -342 ct 928 -342 953 -333 968 -314 ct 
983 -296 991 -266 991 -224 ct 991 0 l  936 0 l  936 -213 l  936 -245 931 -268 923 -280 ct 
914 -293 898 -299 875 -299 ct 850 -299 831 -290 818 -272 ct 804 -254 797 -228 797 -195 ct 
797 0 l  742 0 l  p ef
1119 -156 m  1119 -118 1127 -88 1142 -67 ct 1158 -46 1182 -36 1212 -36 ct 1236 -36 1256 -41 1270 -50 ct 
1285 -60 1295 -72 1300 -87 ct 1349 -73 l  1329 -20 1283 6 1212 6 ct 1163 6 1125 -9 1099 -38 ct 
1073 -68 1060 -112 1060 -170 ct 1060 -226 1073 -268 1099 -298 ct 1125 -327 1162 -342 1210 -342 ct 
1309 -342 1358 -283 1358 -164 ct 1358 -156 l  1119 -156 l  p
1300 -199 m  1297 -234 1288 -260 1273 -277 ct 1258 -293 1237 -301 1209 -301 ct 
1182 -301 1161 -292 1145 -274 ct 1129 -256 1120 -231 1119 -199 ct 1300 -199 l 
p ef
pom
pum
8459 5061 t
295 -93 m  295 -61 283 -37 259 -20 ct 235 -3 201 6 158 6 ct 117 6 85 -1 62 -15 ct 
39 -28 25 -50 18 -79 ct 67 -89 l  72 -71 82 -57 96 -49 ct 111 -41 132 -37 158 -37 ct 
187 -37 207 -41 221 -50 ct 234 -58 240 -71 240 -89 ct 240 -102 236 -113 227 -121 ct 
218 -129 203 -136 183 -141 ct 143 -152 l  111 -160 88 -168 74 -176 ct 61 -184 50 -194 42 -205 ct 
35 -217 31 -231 31 -247 ct 31 -278 42 -301 64 -317 ct 86 -333 117 -341 159 -341 ct 
196 -341 225 -335 247 -322 ct 269 -309 283 -288 289 -259 ct 238 -253 l  235 -268 227 -279 213 -287 ct 
200 -295 182 -299 159 -299 ct 134 -299 115 -295 103 -288 ct 91 -280 85 -268 85 -253 ct 
85 -243 88 -235 93 -229 ct 98 -223 105 -218 115 -213 ct 124 -209 145 -203 176 -195 ct 
206 -188 227 -181 240 -175 ct 253 -168 263 -161 271 -154 ct 278 -146 284 -137 288 -127 ct 
293 -117 295 -106 295 -93 ct p ef
361 1 m  361 -460 l  417 -460 l  417 1 l  361 1 l  p ef
783 -168 m  783 -110 771 -66 745 -37 ct 719 -8 681 6 632 6 ct 583 6 546 -9 521 -39 ct 
496 -69 484 -112 484 -168 ct 484 -284 534 -342 634 -342 ct 685 -342 723 -328 747 -300 ct 
771 -272 783 -228 783 -168 ct p
725 -168 m  725 -215 718 -248 704 -269 ct 691 -291 667 -301 635 -301 ct 602 -301 579 -290 564 -269 ct 
550 -247 542 -214 542 -168 ct 542 -124 549 -91 564 -69 ct 578 -46 601 -35 632 -35 ct 
665 -35 689 -46 703 -68 ct 718 -89 725 -123 725 -168 ct p ef
981 -2 m  962 3 944 5 924 5 ct 880 5 857 -20 857 -71 ct 857 -295 l  819 -295 l 
819 -336 l  860 -336 l  876 -411 l  913 -411 l  913 -336 l  975 -336 l 
975 -295 l  913 -295 l  913 -83 l  913 -67 916 -56 921 -49 ct 926 -43 936 -39 949 -39 ct 
956 -39 967 -41 981 -44 ct 981 -2 l  p ef
pom
gs
1.000 1.000 1.000 c 4191 7253 m  508 7253 l  508 2046 l  7874 2046 l  7874 7253 l 
4191 7253 l  p ef
gr
gs
53 lw 1 lj 4191 7253 m  508 7253 l  508 2046 l  7874 2046 l  7874 7253 l 
4191 7253 l  pc
gr
pum
2834 4812 t
394 -121 m  394 -81 379 -49 347 -27 ct 316 -5 271 6 214 6 ct 107 6 46 -31 29 -105 ct 
86 -117 l  93 -90 107 -71 128 -59 ct 150 -46 179 -40 216 -40 ct 254 -40 284 -47 305 -60 ct 
325 -73 336 -92 336 -118 ct 336 -132 333 -144 326 -153 ct 320 -161 310 -169 299 -175 ct 
287 -180 273 -185 256 -189 ct 240 -193 222 -197 202 -202 ct 168 -210 141 -217 124 -225 ct 
106 -233 92 -241 81 -250 ct 71 -260 63 -271 58 -284 ct 52 -296 49 -311 49 -327 ct 
49 -364 64 -393 92 -414 ct 121 -434 162 -444 215 -444 ct 265 -444 303 -436 329 -421 ct 
355 -406 374 -380 384 -343 ct 326 -333 l  319 -356 307 -373 289 -384 ct 271 -394 246 -399 215 -399 ct 
180 -399 153 -394 135 -382 ct 116 -370 107 -353 107 -330 ct 107 -317 111 -306 118 -297 ct 
125 -288 135 -281 149 -274 ct 162 -268 189 -261 229 -252 ct 242 -249 256 -246 269 -242 ct 
282 -239 295 -235 307 -231 ct 319 -226 331 -221 342 -215 ct 352 -209 361 -202 369 -193 ct 
377 -185 383 -174 388 -163 ct 392 -151 394 -137 394 -121 ct p ef
466 1 m  466 -460 l  522 -460 l  522 1 l  466 1 l  p ef
889 -168 m  889 -110 877 -66 851 -37 ct 825 -8 787 6 738 6 ct 689 6 652 -9 627 -39 ct 
602 -69 590 -112 590 -168 ct 590 -284 640 -342 740 -342 ct 791 -342 829 -328 853 -300 ct 
877 -272 889 -228 889 -168 ct p
831 -168 m  831 -215 824 -248 810 -269 ct 797 -291 773 -301 741 -301 ct 708 -301 685 -290 670 -269 ct 
656 -247 648 -214 648 -168 ct 648 -124 655 -91 670 -69 ct 684 -46 707 -35 738 -35 ct 
771 -35 795 -46 809 -68 ct 824 -89 831 -123 831 -168 ct p ef
1086 -2 m  1067 3 1049 5 1029 5 ct 985 5 962 -20 962 -71 ct 962 -295 l  924 -295 l 
924 -336 l  965 -336 l  981 -411 l  1018 -411 l  1018 -336 l  1080 -336 l 
1080 -295 l  1018 -295 l  1018 -83 l  1018 -67 1021 -56 1026 -49 ct 1031 -43 1041 -39 1054 -39 ct 
1061 -39 1072 -41 1086 -44 ct 1086 -2 l  p ef
1204 -295 m  1204 0 l  1148 0 l  1148 -295 l  1101 -295 l  1101 -336 l 
1148 -336 l  1148 -374 l  1148 -404 1155 -426 1168 -440 ct 1182 -453 1202 -460 1230 -460 ct 
1245 -460 1259 -459 1269 -456 ct 1269 -414 l  1260 -415 1252 -416 1245 -416 ct 
1230 -416 1220 -413 1214 -405 ct 1207 -398 1204 -385 1204 -366 ct 1204 -336 l 
1269 -336 l  1269 -295 l  1204 -295 l  p ef
1314 0 m  1314 -258 l  1314 -281 1313 -307 1312 -336 ct 1365 -336 l  1367 -298 1367 -275 1367 -267 ct 
1369 -267 l  1377 -296 1388 -316 1399 -326 ct 1411 -337 1427 -342 1448 -342 ct 
1456 -342 1463 -341 1471 -339 ct 1471 -288 l  1463 -290 1454 -291 1441 -291 ct 
1418 -291 1400 -281 1388 -261 ct 1376 -241 1370 -212 1370 -175 ct 1370 0 l  1314 0 l 
p ef
1610 6 m  1577 6 1551 -3 1534 -21 ct 1517 -38 1509 -63 1509 -94 ct 1509 -129 1520 -155 1543 -174 ct 
1566 -192 1603 -202 1654 -204 ct 1729 -205 l  1729 -223 l  1729 -250 1723 -270 1712 -282 ct 
1700 -294 1682 -299 1657 -299 ct 1632 -299 1614 -295 1603 -287 ct 1591 -278 1584 -265 1582 -246 ct 
1524 -251 l  1533 -312 1578 -342 1658 -342 ct 1701 -342 1732 -332 1754 -313 ct 
1775 -294 1786 -266 1786 -229 ct 1786 -85 l  1786 -68 1788 -55 1792 -47 ct 1796 -39 1805 -35 1817 -35 ct 
1822 -35 1828 -35 1835 -37 ct 1835 -2 l  1821 1 1807 3 1792 3 ct 1771 3 1756 -2 1747 -13 ct 
1738 -24 1732 -41 1731 -64 ct 1729 -64 l  1715 -39 1698 -21 1679 -10 ct 1660 1 1637 6 1610 6 ct 
p
1623 -36 m  1644 -36 1662 -41 1678 -50 ct 1694 -59 1706 -72 1715 -88 ct 1725 -104 1729 -121 1729 -138 ct 
1729 -166 l  1668 -165 l  1642 -164 1622 -161 1608 -157 ct 1595 -152 1584 -144 1577 -134 ct 
1570 -123 1566 -110 1566 -93 ct 1566 -75 1571 -61 1581 -51 ct 1591 -41 1605 -36 1623 -36 ct 
p ef
2071 0 m  2071 -213 l  2071 -245 2067 -268 2058 -280 ct 2049 -293 2033 -299 2010 -299 ct 
1986 -299 1967 -290 1953 -272 ct 1939 -253 1933 -228 1933 -195 ct 1933 0 l  1877 0 l 
1877 -264 l  1877 -303 1876 -327 1875 -336 ct 1928 -336 l  1928 -335 1928 -332 1929 -327 ct 
1929 -323 1929 -318 1929 -312 ct 1930 -306 1930 -295 1930 -278 ct 1931 -278 l 
1943 -302 1957 -319 1973 -328 ct 1988 -337 2007 -342 2029 -342 ct 2055 -342 2075 -337 2090 -327 ct 
2104 -317 2115 -301 2120 -278 ct 2121 -278 l  2133 -301 2147 -317 2163 -327 ct 
2180 -337 2200 -342 2223 -342 ct 2257 -342 2282 -333 2297 -314 ct 2312 -296 2320 -266 2320 -224 ct 
2320 0 l  2265 0 l  2265 -213 l  2265 -245 2260 -268 2252 -280 ct 2243 -293 2227 -299 2204 -299 ct 
2179 -299 2160 -290 2147 -272 ct 2133 -254 2126 -228 2126 -195 ct 2126 0 l  2071 0 l 
p ef
2448 -156 m  2448 -118 2456 -88 2471 -67 ct 2487 -46 2511 -36 2541 -36 ct 2565 -36 2585 -41 2599 -50 ct 
2614 -60 2624 -72 2629 -87 ct 2678 -73 l  2658 -20 2612 6 2541 6 ct 2492 6 2454 -9 2428 -38 ct 
2402 -68 2389 -112 2389 -170 ct 2389 -226 2402 -268 2428 -298 ct 2454 -327 2491 -342 2539 -342 ct 
2638 -342 2687 -283 2687 -164 ct 2687 -156 l  2448 -156 l  p
2629 -199 m  2626 -234 2617 -260 2602 -277 ct 2587 -293 2566 -301 2538 -301 ct 
2511 -301 2490 -292 2474 -274 ct 2458 -256 2449 -231 2448 -199 ct 2629 -199 l 
p ef
pom
gs
1.000 1.000 1.000 c 10916 7203 m  10140 7203 l  10140 1996 l  11691 1996 l 
11691 7203 l  10916 7203 l  p ef
gr
gs
53 lw 1 lj 10916 7203 m  10140 7203 l  10140 1996 l  11691 1996 l  11691 7203 l 
10916 7203 l  pc
gr
gs
1.000 1.000 1.000 c 10916 2759 m  10140 2759 l  10140 1997 l  11691 1997 l 
11691 2759 l  10916 2759 l  p ef
gr
gs
53 lw 1 lj 10916 2759 m  10140 2759 l  10140 1997 l  11691 1997 l  11691 2759 l 
10916 2759 l  pc
gr
pum
10442 2541 t
85 -170 m  85 -125 92 -92 106 -70 ct 120 -49 142 -38 170 -38 ct 190 -38 206 -43 220 -54 ct 
233 -65 241 -81 244 -104 ct 301 -100 l  296 -68 283 -42 260 -23 ct 236 -4 207 6 171 6 ct 
125 6 89 -9 64 -39 ct 39 -68 27 -111 27 -168 ct 27 -225 39 -268 64 -297 ct 89 -327 125 -342 171 -342 ct 
205 -342 234 -333 256 -315 ct 279 -298 293 -273 299 -242 ct 242 -237 l  239 -256 231 -271 220 -282 ct 
208 -293 191 -298 169 -298 ct 140 -298 118 -288 105 -269 ct 92 -249 85 -216 85 -170 ct 
p ef
404 -156 m  404 -118 412 -88 427 -67 ct 443 -46 467 -36 497 -36 ct 521 -36 541 -41 555 -50 ct 
570 -60 580 -72 585 -87 ct 634 -73 l  614 -20 568 6 497 6 ct 448 6 410 -9 384 -38 ct 
358 -68 345 -112 345 -170 ct 345 -226 358 -268 384 -298 ct 410 -327 447 -342 495 -342 ct 
594 -342 643 -283 643 -164 ct 643 -156 l  404 -156 l  p
585 -199 m  582 -234 573 -260 558 -277 ct 543 -293 522 -301 494 -301 ct 467 -301 446 -292 430 -274 ct 
414 -256 405 -231 404 -199 ct 585 -199 l  p ef
712 1 m  712 -460 l  768 -460 l  768 1 l  712 1 l  p ef
852 1 m  852 -460 l  908 -460 l  908 1 l  852 1 l  p ef
pom
gs
1.000 1.000 1.000 c 10916 3496 m  10140 3496 l  10140 2734 l  11691 2734 l 
11691 3496 l  10916 3496 l  p ef
gr
gs
53 lw 1 lj 10916 3496 m  10140 3496 l  10140 2734 l  11691 2734 l  11691 3496 l 
10916 3496 l  pc
gr
pum
10442 3278 t
85 -170 m  85 -125 92 -92 106 -70 ct 120 -49 142 -38 170 -38 ct 190 -38 206 -43 220 -54 ct 
233 -65 241 -81 244 -104 ct 301 -100 l  296 -68 283 -42 260 -23 ct 236 -4 207 6 171 6 ct 
125 6 89 -9 64 -39 ct 39 -68 27 -111 27 -168 ct 27 -225 39 -268 64 -297 ct 89 -327 125 -342 171 -342 ct 
205 -342 234 -333 256 -315 ct 279 -298 293 -273 299 -242 ct 242 -237 l  239 -256 231 -271 220 -282 ct 
208 -293 191 -298 169 -298 ct 140 -298 118 -288 105 -269 ct 92 -249 85 -216 85 -170 ct 
p ef
404 -156 m  404 -118 412 -88 427 -67 ct 443 -46 467 -36 497 -36 ct 521 -36 541 -41 555 -50 ct 
570 -60 580 -72 585 -87 ct 634 -73 l  614 -20 568 6 497 6 ct 448 6 410 -9 384 -38 ct 
358 -68 345 -112 345 -170 ct 345 -226 358 -268 384 -298 ct 410 -327 447 -342 495 -342 ct 
594 -342 643 -283 643 -164 ct 643 -156 l  404 -156 l  p
585 -199 m  582 -234 573 -260 558 -277 ct 543 -293 522 -301 494 -301 ct 467 -301 446 -292 430 -274 ct 
414 -256 405 -231 404 -199 ct 585 -199 l  p ef
712 1 m  712 -460 l  768 -460 l  768 1 l  712 1 l  p ef
852 1 m  852 -460 l  908 -460 l  908 1 l  852 1 l  p ef
pom
gs
1.000 1.000 1.000 c 10916 7196 m  10140 7196 l  10140 6434 l  11691 6434 l 
11691 7196 l  10916 7196 l  p ef
gr
gs
53 lw 1 lj 10916 7196 m  10140 7196 l  10140 6434 l  11691 6434 l  11691 7196 l 
10916 7196 l  pc
gr
pum
10442 6978 t
85 -170 m  85 -125 92 -92 106 -70 ct 120 -49 142 -38 170 -38 ct 190 -38 206 -43 220 -54 ct 
233 -65 241 -81 244 -104 ct 301 -100 l  296 -68 283 -42 260 -23 ct 236 -4 207 6 171 6 ct 
125 6 89 -9 64 -39 ct 39 -68 27 -111 27 -168 ct 27 -225 39 -268 64 -297 ct 89 -327 125 -342 171 -342 ct 
205 -342 234 -333 256 -315 ct 279 -298 293 -273 299 -242 ct 242 -237 l  239 -256 231 -271 220 -282 ct 
208 -293 191 -298 169 -298 ct 140 -298 118 -288 105 -269 ct 92 -249 85 -216 85 -170 ct 
p ef
404 -156 m  404 -118 412 -88 427 -67 ct 443 -46 467 -36 497 -36 ct 521 -36 541 -41 555 -50 ct 
570 -60 580 -72 585 -87 ct 634 -73 l  614 -20 568 6 497 6 ct 448 6 410 -9 384 -38 ct 
358 -68 345 -112 345 -170 ct 345 -226 358 -268 384 -298 ct 410 -327 447 -342 495 -342 ct 
594 -342 643 -283 643 -164 ct 643 -156 l  404 -156 l  p
585 -199 m  582 -234 573 -260 558 -277 ct 543 -293 522 -301 494 -301 ct 467 -301 446 -292 430 -274 ct 
414 -256 405 -231 404 -199 ct 585 -199 l  p ef
712 1 m  712 -460 l  768 -460 l  768 1 l  712 1 l  p ef
852 1 m  852 -460 l  908 -460 l  908 1 l  852 1 l  p ef
pom
pum
9694 1735 t
223 -389 m  223 0 l  164 0 l  164 -389 l  14 -389 l  14 -437 l  373 -437 l 
373 -389 l  223 -389 l  p ef
406 -407 m  406 -460 l  462 -460 l  462 -407 l  406 -407 l  p
406 1 m  406 -335 l  462 -335 l  462 1 l  406 1 l  p ef
742 0 m  742 -213 l  742 -245 738 -268 729 -280 ct 720 -293 704 -299 681 -299 ct 
657 -299 638 -290 624 -272 ct 610 -253 604 -228 604 -195 ct 604 0 l  548 0 l 
548 -264 l  548 -303 547 -327 546 -336 ct 599 -336 l  599 -335 599 -332 600 -327 ct 
600 -323 600 -318 600 -312 ct 601 -306 601 -295 601 -278 ct 602 -278 l  614 -302 628 -319 644 -328 ct 
659 -337 678 -342 700 -342 ct 726 -342 746 -337 761 -327 ct 775 -317 786 -301 791 -278 ct 
792 -278 l  804 -301 818 -317 834 -327 ct 851 -337 871 -342 894 -342 ct 928 -342 953 -333 968 -314 ct 
983 -296 991 -266 991 -224 ct 991 0 l  936 0 l  936 -213 l  936 -245 931 -268 923 -280 ct 
914 -293 898 -299 875 -299 ct 850 -299 831 -290 818 -272 ct 804 -254 797 -228 797 -195 ct 
797 0 l  742 0 l  p ef
1119 -156 m  1119 -118 1127 -88 1142 -67 ct 1158 -46 1182 -36 1212 -36 ct 1236 -36 1256 -41 1270 -50 ct 
1285 -60 1295 -72 1300 -87 ct 1349 -73 l  1329 -20 1283 6 1212 6 ct 1163 6 1125 -9 1099 -38 ct 
1073 -68 1060 -112 1060 -170 ct 1060 -226 1073 -268 1099 -298 ct 1125 -327 1162 -342 1210 -342 ct 
1309 -342 1358 -283 1358 -164 ct 1358 -156 l  1119 -156 l  p
1300 -199 m  1297 -234 1288 -260 1273 -277 ct 1258 -293 1237 -301 1209 -301 ct 
1182 -301 1161 -292 1145 -274 ct 1129 -256 1120 -231 1119 -199 ct 1300 -199 l 
p ef
1857 -93 m  1857 -61 1845 -37 1821 -20 ct 1797 -3 1763 6 1720 6 ct 1679 6 1647 -1 1624 -15 ct 
1601 -28 1587 -50 1580 -79 ct 1629 -89 l  1634 -71 1644 -57 1658 -49 ct 1673 -41 1694 -37 1720 -37 ct 
1749 -37 1769 -41 1783 -50 ct 1796 -58 1802 -71 1802 -89 ct 1802 -102 1798 -113 1789 -121 ct 
1780 -129 1765 -136 1745 -141 ct 1705 -152 l  1673 -160 1650 -168 1636 -176 ct 
1623 -184 1612 -194 1604 -205 ct 1597 -217 1593 -231 1593 -247 ct 1593 -278 1604 -301 1626 -317 ct 
1648 -333 1679 -341 1721 -341 ct 1758 -341 1787 -335 1809 -322 ct 1831 -309 1845 -288 1851 -259 ct 
1800 -253 l  1797 -268 1789 -279 1775 -287 ct 1762 -295 1744 -299 1721 -299 ct 
1696 -299 1677 -295 1665 -288 ct 1653 -280 1647 -268 1647 -253 ct 1647 -243 1650 -235 1655 -229 ct 
1660 -223 1667 -218 1677 -213 ct 1686 -209 1707 -203 1738 -195 ct 1768 -188 1789 -181 1802 -175 ct 
1815 -168 1825 -161 1833 -154 ct 1840 -146 1846 -137 1850 -127 ct 1855 -117 1857 -106 1857 -93 ct 
p ef
1923 1 m  1923 -460 l  1979 -460 l  1979 1 l  1923 1 l  p ef
2345 -168 m  2345 -110 2333 -66 2307 -37 ct 2281 -8 2243 6 2194 6 ct 2145 6 2108 -9 2083 -39 ct 
2058 -69 2046 -112 2046 -168 ct 2046 -284 2096 -342 2196 -342 ct 2247 -342 2285 -328 2309 -300 ct 
2333 -272 2345 -228 2345 -168 ct p
2287 -168 m  2287 -215 2280 -248 2266 -269 ct 2253 -291 2229 -301 2197 -301 ct 
2164 -301 2141 -290 2126 -269 ct 2112 -247 2104 -214 2104 -168 ct 2104 -124 2111 -91 2126 -69 ct 
2140 -46 2163 -35 2194 -35 ct 2227 -35 2251 -46 2265 -68 ct 2280 -89 2287 -123 2287 -168 ct 
p ef
2543 -2 m  2524 3 2506 5 2486 5 ct 2442 5 2419 -20 2419 -71 ct 2419 -295 l  2381 -295 l 
2381 -336 l  2422 -336 l  2438 -411 l  2475 -411 l  2475 -336 l  2537 -336 l 
2537 -295 l  2475 -295 l  2475 -83 l  2475 -67 2478 -56 2483 -49 ct 2488 -43 2498 -39 2511 -39 ct 
2518 -39 2529 -41 2543 -44 ct 2543 -2 l  p ef
pom
pum
13347 4286 t
205 -330 m  164 -330 133 -317 111 -291 ct 88 -265 77 -229 77 -184 ct 77 -139 89 -104 112 -76 ct 
135 -49 167 -36 207 -36 ct 258 -36 296 -61 322 -111 ct 362 -91 l  347 -60 326 -36 299 -20 ct 
272 -3 240 5 204 5 ct 168 5 136 -3 109 -18 ct 82 -33 62 -55 48 -83 ct 34 -112 27 -145 27 -184 ct 
27 -242 43 -288 74 -321 ct 105 -354 149 -370 204 -370 ct 243 -370 275 -362 301 -347 ct 
327 -332 346 -310 359 -280 ct 312 -264 l  303 -285 290 -302 271 -313 ct 252 -324 230 -330 205 -330 ct 
p ef
463 -232 m  473 -250 485 -264 499 -272 ct 513 -281 531 -285 552 -285 ct 583 -285 605 -277 619 -262 ct 
634 -247 641 -222 641 -186 ct 641 0 l  594 0 l  594 -177 l  594 -197 592 -212 589 -221 ct 
585 -231 579 -238 571 -242 ct 563 -247 551 -249 537 -249 ct 515 -249 497 -241 484 -226 ct 
471 -211 464 -191 464 -165 ct 464 0 l  418 0 l  418 -384 l  464 -384 l  464 -284 l 
464 -273 464 -263 463 -251 ct 463 -240 462 -234 462 -232 ct 463 -232 l  p ef
784 5 m  756 5 735 -2 721 -17 ct 707 -32 699 -52 699 -78 ct 699 -107 709 -129 728 -145 ct 
747 -160 778 -169 820 -170 ct 883 -171 l  883 -186 l  883 -209 878 -225 868 -235 ct 
859 -245 844 -250 823 -250 ct 802 -250 787 -246 777 -239 ct 768 -232 762 -221 760 -205 ct 
712 -210 l  720 -260 757 -285 824 -285 ct 859 -285 886 -277 903 -261 ct 921 -245 930 -221 930 -191 ct 
930 -71 l  930 -57 932 -46 935 -39 ct 939 -32 946 -29 956 -29 ct 960 -29 966 -30 971 -31 ct 
971 -2 l  960 1 948 2 935 2 ct 918 2 906 -2 898 -11 ct 890 -20 885 -34 884 -54 ct 
883 -54 l  871 -32 857 -17 841 -8 ct 826 1 807 5 784 5 ct p
795 -30 m  812 -30 827 -34 840 -42 ct 853 -49 864 -60 871 -73 ct 879 -87 883 -101 883 -115 ct 
883 -138 l  832 -137 l  810 -137 794 -135 782 -130 ct 771 -126 762 -120 756 -111 ct 
750 -103 747 -91 747 -77 ct 747 -62 751 -51 760 -42 ct 768 -34 779 -30 795 -30 ct 
p ef
1187 0 m  1187 -177 l  1187 -196 1185 -210 1182 -220 ct 1178 -231 1172 -238 1164 -242 ct 
1156 -247 1145 -249 1130 -249 ct 1107 -249 1089 -241 1077 -226 ct 1064 -211 1057 -189 1057 -162 ct 
1057 0 l  1011 0 l  1011 -220 l  1011 -253 1010 -273 1009 -280 ct 1053 -280 l 
1053 -279 1053 -277 1054 -273 ct 1054 -269 1054 -265 1054 -260 ct 1054 -255 1055 -246 1055 -232 ct 
1056 -232 l  1067 -251 1079 -265 1093 -273 ct 1107 -281 1124 -285 1145 -285 ct 
1176 -285 1198 -277 1213 -262 ct 1227 -247 1234 -222 1234 -186 ct 1234 0 l  1187 0 l 
p ef
1483 0 m  1483 -177 l  1483 -196 1481 -210 1478 -220 ct 1474 -231 1468 -238 1460 -242 ct 
1452 -247 1441 -249 1426 -249 ct 1403 -249 1385 -241 1373 -226 ct 1360 -211 1353 -189 1353 -162 ct 
1353 0 l  1307 0 l  1307 -220 l  1307 -253 1306 -273 1305 -280 ct 1349 -280 l 
1349 -279 1349 -277 1350 -273 ct 1350 -269 1350 -265 1350 -260 ct 1350 -255 1351 -246 1351 -232 ct 
1352 -232 l  1363 -251 1375 -265 1389 -273 ct 1403 -281 1420 -285 1441 -285 ct 
1472 -285 1494 -277 1509 -262 ct 1523 -247 1530 -222 1530 -186 ct 1530 0 l  1483 0 l 
p ef
1637 -130 m  1637 -98 1644 -73 1657 -56 ct 1670 -39 1690 -30 1715 -30 ct 1735 -30 1752 -34 1764 -42 ct 
1776 -50 1784 -60 1788 -73 ct 1829 -61 l  1813 -17 1775 5 1715 5 ct 1674 5 1643 -7 1621 -32 ct 
1599 -57 1588 -93 1588 -142 ct 1588 -188 1599 -223 1621 -248 ct 1643 -273 1673 -285 1713 -285 ct 
1796 -285 1837 -236 1837 -137 ct 1837 -130 l  1637 -130 l  p
1789 -166 m  1786 -195 1779 -217 1766 -230 ct 1754 -244 1736 -251 1713 -251 ct 
1690 -251 1672 -243 1659 -228 ct 1646 -213 1639 -192 1638 -166 ct 1789 -166 l 
p ef
1899 0 m  1899 -384 l  1945 -384 l  1945 0 l  1899 0 l  p ef
pom
pum
13502 4781 t
386 -184 m  386 -146 379 -113 364 -84 ct 350 -55 329 -33 302 -18 ct 274 -3 242 5 205 5 ct 
168 5 136 -3 109 -18 ct 82 -33 61 -55 47 -84 ct 32 -112 25 -146 25 -184 ct 25 -242 41 -288 73 -321 ct 
105 -354 149 -370 206 -370 ct 243 -370 275 -363 302 -348 ct 329 -333 350 -312 365 -284 ct 
379 -256 386 -222 386 -184 ct p
336 -184 m  336 -229 324 -265 302 -291 ct 279 -317 247 -330 206 -330 ct 164 -330 132 -317 109 -291 ct 
87 -266 75 -230 75 -184 ct 75 -138 87 -102 110 -75 ct 133 -49 165 -35 205 -35 ct 
247 -35 280 -48 302 -74 ct 325 -100 336 -137 336 -184 ct p ef
504 -247 m  504 -1 l  458 -1 l  458 -247 l  418 -247 l  418 -281 l  458 -281 l 
458 -312 l  458 -338 463 -356 475 -367 ct 486 -378 503 -384 526 -384 ct 539 -384 550 -383 559 -381 ct 
559 -345 l  551 -347 544 -348 538 -348 ct 526 -348 518 -345 512 -339 ct 507 -333 504 -322 504 -306 ct 
504 -281 l  559 -281 l  559 -247 l  504 -247 l  p ef
639 -247 m  639 -1 l  593 -1 l  593 -247 l  553 -247 l  553 -281 l  593 -281 l 
593 -312 l  593 -338 598 -356 610 -367 ct 621 -378 638 -384 661 -384 ct 674 -384 685 -383 694 -381 ct 
694 -345 l  686 -347 679 -348 673 -348 ct 661 -348 653 -345 647 -339 ct 642 -333 639 -322 639 -306 ct 
639 -281 l  694 -281 l  694 -247 l  639 -247 l  p ef
939 -77 m  939 -51 929 -31 910 -16 ct 890 -2 862 5 826 5 ct 791 5 764 -1 746 -12 ct 
727 -24 714 -42 709 -66 ct 750 -74 l  754 -59 762 -48 774 -41 ct 787 -34 804 -30 826 -30 ct 
850 -30 867 -34 878 -41 ct 889 -49 894 -59 894 -74 ct 894 -85 890 -94 883 -101 ct 
875 -108 863 -113 846 -118 ct 813 -127 l  786 -133 767 -140 756 -147 ct 745 -153 736 -162 729 -171 ct 
723 -180 720 -192 720 -206 ct 720 -231 729 -251 747 -264 ct 765 -278 792 -284 827 -284 ct 
857 -284 882 -279 900 -268 ct 918 -257 930 -240 934 -216 ct 893 -211 l  890 -223 883 -232 872 -239 ct 
861 -246 845 -249 827 -249 ct 806 -249 790 -246 780 -239 ct 770 -233 765 -223 765 -210 ct 
765 -203 767 -196 771 -191 ct 775 -186 781 -181 790 -178 ct 798 -174 815 -169 841 -163 ct 
865 -156 883 -151 894 -146 ct 905 -140 913 -134 920 -128 ct 926 -122 931 -114 934 -106 ct 
938 -98 939 -88 939 -77 ct p ef
1032 -130 m  1032 -98 1039 -73 1052 -56 ct 1065 -39 1085 -30 1110 -30 ct 1130 -30 1147 -34 1159 -42 ct 
1171 -50 1179 -60 1183 -73 ct 1224 -61 l  1208 -17 1170 5 1110 5 ct 1069 5 1038 -7 1016 -32 ct 
994 -57 983 -93 983 -142 ct 983 -188 994 -223 1016 -248 ct 1038 -273 1068 -285 1108 -285 ct 
1191 -285 1232 -236 1232 -137 ct 1232 -130 l  1032 -130 l  p
1184 -166 m  1181 -195 1174 -217 1161 -230 ct 1149 -244 1131 -251 1108 -251 ct 
1085 -251 1067 -243 1054 -228 ct 1041 -213 1034 -192 1033 -166 ct 1184 -166 l 
p ef
1400 -2 m  1385 2 1369 4 1353 4 ct 1316 4 1297 -17 1297 -59 ct 1297 -246 l  1265 -246 l 
1265 -280 l  1299 -280 l  1313 -343 l  1344 -343 l  1344 -280 l  1395 -280 l 
1395 -246 l  1344 -246 l  1344 -69 l  1344 -56 1346 -47 1350 -41 ct 1355 -36 1362 -33 1373 -33 ct 
1379 -33 1388 -34 1400 -37 ct 1400 -2 l  p ef
1650 -77 m  1650 -51 1640 -31 1621 -16 ct 1601 -2 1573 5 1537 5 ct 1502 5 1475 -1 1457 -12 ct 
1438 -24 1425 -42 1420 -66 ct 1461 -74 l  1465 -59 1473 -48 1485 -41 ct 1498 -34 1515 -30 1537 -30 ct 
1561 -30 1578 -34 1589 -41 ct 1600 -49 1605 -59 1605 -74 ct 1605 -85 1601 -94 1594 -101 ct 
1586 -108 1574 -113 1557 -118 ct 1524 -127 l  1497 -133 1478 -140 1467 -147 ct 
1456 -153 1447 -162 1440 -171 ct 1434 -180 1431 -192 1431 -206 ct 1431 -231 1440 -251 1458 -264 ct 
1476 -278 1503 -284 1538 -284 ct 1568 -284 1593 -279 1611 -268 ct 1629 -257 1641 -240 1645 -216 ct 
1604 -211 l  1601 -223 1594 -232 1583 -239 ct 1572 -246 1556 -249 1538 -249 ct 
1517 -249 1501 -246 1491 -239 ct 1481 -233 1476 -223 1476 -210 ct 1476 -203 1478 -196 1482 -191 ct 
1486 -186 1492 -181 1501 -178 ct 1509 -174 1526 -169 1552 -163 ct 1576 -156 1594 -151 1605 -146 ct 
1616 -140 1624 -134 1631 -128 ct 1637 -122 1642 -114 1645 -106 ct 1649 -98 1650 -88 1650 -77 ct 
p ef
pom
gs
1 lj 12511 2763 m  13208 4156 l  ps
gr
gs
12319 2378 m  12386 2848 l  12654 2713 l  12319 2378 l  p ef
gr
gs
1 lj 12623 3571 m  13209 4157 l  ps
gr
gs
12319 3267 m  12531 3691 l  12743 3479 l  12319 3267 l  p ef
gr
gs
1 lj 12461 6290 m  13210 4158 l  ps
gr
gs
12319 6696 m  12610 6321 l  12327 6222 l  12319 6696 l  p ef
gr
pum
11842 2771 t
48 0 m  48 -47 l  160 -47 l  160 -384 l  61 -314 l  61 -366 l  164 -438 l 
216 -438 l  216 -47 l  322 -47 l  322 0 l  48 0 l  p ef
pom
pum
11843 3631 t
32 0 m  32 -39 l  42 -64 55 -85 71 -104 ct 86 -122 102 -139 118 -154 ct 135 -169 152 -183 168 -196 ct 
185 -208 199 -221 213 -234 ct 226 -247 237 -260 245 -274 ct 253 -289 257 -304 257 -322 ct 
257 -346 250 -365 236 -378 ct 222 -391 202 -398 177 -398 ct 154 -398 134 -392 119 -379 ct 
103 -366 94 -348 91 -324 ct 34 -329 l  39 -364 53 -392 79 -413 ct 104 -434 137 -444 177 -444 ct 
221 -444 255 -434 279 -413 ct 303 -392 314 -362 314 -324 ct 314 -307 311 -290 303 -274 ct 
295 -257 283 -240 268 -223 ct 253 -206 224 -180 180 -145 ct 157 -126 138 -108 124 -93 ct 
110 -77 100 -62 93 -47 ct 321 -47 l  321 0 l  32 0 l  p ef
pom
pum
11844 4491 t
325 -121 m  325 -81 312 -49 287 -27 ct 261 -5 225 6 177 6 ct 133 6 98 -4 71 -24 ct 
45 -44 29 -73 24 -113 ct 82 -118 l  89 -66 121 -40 177 -40 ct 205 -40 227 -47 243 -61 ct 
259 -75 267 -96 267 -123 ct 267 -147 258 -165 240 -179 ct 222 -192 195 -199 161 -199 ct 
129 -199 l  129 -247 l  159 -247 l  190 -247 214 -254 231 -267 ct 247 -280 256 -299 256 -322 ct 
256 -346 249 -364 235 -378 ct 221 -391 201 -398 174 -398 ct 149 -398 129 -392 114 -379 ct 
99 -367 90 -349 88 -326 ct 32 -330 l  36 -366 51 -394 76 -414 ct 102 -434 134 -444 175 -444 ct 
218 -444 252 -434 277 -413 ct 301 -393 313 -365 313 -328 ct 313 -300 305 -278 290 -260 ct 
274 -243 251 -231 222 -225 ct 222 -223 l  254 -220 280 -209 298 -191 ct 316 -172 325 -149 325 -121 ct 
p ef
pom
pum
11845 5351 t
273 -99 m  273 0 l  220 0 l  220 -99 l  15 -99 l  15 -142 l  215 -438 l 
273 -438 l  273 -143 l  335 -143 l  335 -99 l  273 -99 l  p
220 -374 m  220 -373 217 -368 212 -358 ct 206 -348 202 -341 200 -338 ct 88 -172 l 
71 -149 l  66 -143 l  220 -143 l  220 -374 l  p ef
pom
pum
11846 6211 t
326 -143 m  326 -96 313 -60 285 -34 ct 258 -7 220 6 171 6 ct 131 6 98 -3 73 -21 ct 
48 -38 32 -64 25 -98 ct 82 -104 l  94 -61 124 -40 173 -40 ct 203 -40 226 -49 243 -67 ct 
260 -85 269 -110 269 -141 ct 269 -169 260 -191 243 -208 ct 226 -225 203 -233 174 -233 ct 
159 -233 145 -231 132 -226 ct 119 -221 106 -213 93 -202 ct 38 -202 l  53 -437 l 
301 -437 l  301 -390 l  104 -390 l  95 -251 l  119 -270 149 -279 185 -279 ct 
228 -279 263 -266 288 -241 ct 314 -216 326 -183 326 -143 ct p ef
pom
pum
11847 7071 t
256 0 m  256 -213 l  256 -235 254 -252 249 -264 ct 245 -277 238 -285 229 -291 ct 
219 -296 205 -299 187 -299 ct 160 -299 139 -290 123 -271 ct 108 -253 100 -227 100 -195 ct 
100 0 l  44 0 l  44 -264 l  44 -303 43 -327 42 -336 ct 95 -336 l  95 -335 95 -332 96 -327 ct 
96 -323 96 -318 96 -312 ct 97 -306 97 -295 97 -278 ct 98 -278 l  111 -302 126 -318 143 -328 ct 
160 -337 181 -342 206 -342 ct 242 -342 269 -333 286 -315 ct 303 -296 312 -266 312 -224 ct 
312 0 l  256 0 l  p ef
pom
gs
1 lj 16210 2761 m  15513 4156 l  ps
gr
gs
16402 2376 m  16067 2712 l  16335 2846 l  16402 2376 l  p ef
gr
gs
1 lj 16098 3570 m  15512 4157 l  ps
gr
gs
16402 3265 m  15978 3478 l  16190 3690 l  16402 3265 l  p ef
gr
gs
1 lj 16259 6288 m  15511 4158 l  ps
gr
gs
16402 6694 m  16394 6220 l  16111 6319 l  16402 6694 l  p ef
gr
pum
21302 614 t
329 -101 m  329 -67 315 -41 289 -23 ct 263 -4 226 5 178 5 ct 90 5 38 -26 24 -88 ct 
72 -97 l  77 -75 89 -59 107 -49 ct 125 -39 149 -34 180 -34 ct 212 -34 236 -39 254 -50 ct 
271 -61 280 -77 280 -98 ct 280 -110 277 -120 272 -127 ct 266 -135 259 -141 249 -146 ct 
239 -150 227 -154 214 -158 ct 200 -161 185 -164 168 -168 ct 140 -175 118 -181 103 -187 ct 
88 -194 76 -201 68 -209 ct 59 -217 52 -226 48 -236 ct 43 -247 41 -259 41 -272 ct 
41 -304 53 -328 77 -345 ct 101 -362 135 -370 179 -370 ct 221 -370 252 -364 274 -351 ct 
296 -338 311 -317 320 -286 ct 271 -278 l  266 -297 256 -311 241 -320 ct 226 -328 205 -333 179 -333 ct 
150 -333 127 -328 112 -318 ct 97 -309 89 -294 89 -275 ct 89 -264 92 -255 98 -247 ct 
104 -240 113 -234 124 -229 ct 135 -224 157 -217 191 -210 ct 202 -207 213 -205 224 -202 ct 
235 -199 246 -196 256 -192 ct 266 -189 276 -184 285 -179 ct 293 -174 301 -168 308 -161 ct 
314 -154 319 -145 323 -135 ct 327 -126 329 -114 329 -101 ct p ef
387 0 m  387 -384 l  433 -384 l  433 0 l  387 0 l  p ef
742 -140 m  742 -91 731 -55 710 -31 ct 688 -7 657 5 616 5 ct 575 5 544 -7 523 -32 ct 
503 -57 492 -93 492 -140 ct 492 -237 534 -285 617 -285 ct 660 -285 692 -273 712 -250 ct 
732 -226 742 -190 742 -140 ct p
693 -140 m  693 -179 687 -207 676 -224 ct 665 -242 645 -251 618 -251 ct 591 -251 571 -242 559 -224 ct 
547 -206 541 -178 541 -140 ct 541 -103 547 -76 559 -57 ct 571 -39 590 -29 615 -29 ct 
643 -29 663 -38 675 -56 ct 687 -74 693 -102 693 -140 ct p ef
909 -2 m  894 2 878 4 862 4 ct 825 4 806 -17 806 -59 ct 806 -246 l  774 -246 l 
774 -280 l  808 -280 l  822 -343 l  853 -343 l  853 -280 l  904 -280 l 
904 -246 l  853 -246 l  853 -69 l  853 -56 855 -47 859 -41 ct 864 -36 871 -33 882 -33 ct 
888 -33 897 -34 909 -37 ct 909 -2 l  p ef
1449 -184 m  1449 -146 1442 -113 1427 -84 ct 1413 -55 1392 -33 1365 -18 ct 1337 -3 1305 5 1268 5 ct 
1231 5 1199 -3 1172 -18 ct 1145 -33 1124 -55 1110 -84 ct 1095 -112 1088 -146 1088 -184 ct 
1088 -242 1104 -288 1136 -321 ct 1168 -354 1212 -370 1269 -370 ct 1306 -370 1338 -363 1365 -348 ct 
1392 -333 1413 -312 1428 -284 ct 1442 -256 1449 -222 1449 -184 ct p
1399 -184 m  1399 -229 1387 -265 1365 -291 ct 1342 -317 1310 -330 1269 -330 ct 
1227 -330 1195 -317 1172 -291 ct 1150 -266 1138 -230 1138 -184 ct 1138 -138 1150 -102 1173 -75 ct 
1196 -49 1228 -35 1268 -35 ct 1310 -35 1343 -48 1365 -74 ct 1388 -100 1399 -137 1399 -184 ct 
p ef
1566 -247 m  1566 -1 l  1520 -1 l  1520 -247 l  1480 -247 l  1480 -281 l 
1520 -281 l  1520 -312 l  1520 -338 1525 -356 1537 -367 ct 1548 -378 1565 -384 1588 -384 ct 
1601 -384 1612 -383 1621 -381 ct 1621 -345 l  1613 -347 1606 -348 1600 -348 ct 
1588 -348 1580 -345 1574 -339 ct 1569 -333 1566 -322 1566 -306 ct 1566 -281 l 
1621 -281 l  1621 -247 l  1566 -247 l  p ef
1702 -247 m  1702 -1 l  1656 -1 l  1656 -247 l  1616 -247 l  1616 -281 l 
1656 -281 l  1656 -312 l  1656 -338 1661 -356 1673 -367 ct 1684 -378 1701 -384 1724 -384 ct 
1737 -384 1748 -383 1757 -381 ct 1757 -345 l  1749 -347 1742 -348 1736 -348 ct 
1724 -348 1716 -345 1710 -339 ct 1705 -333 1702 -322 1702 -306 ct 1702 -281 l 
1757 -281 l  1757 -247 l  1702 -247 l  p ef
2002 -77 m  2002 -51 1992 -31 1973 -16 ct 1953 -2 1925 5 1889 5 ct 1854 5 1827 -1 1809 -12 ct 
1790 -24 1777 -42 1772 -66 ct 1813 -74 l  1817 -59 1825 -48 1837 -41 ct 1850 -34 1867 -30 1889 -30 ct 
1913 -30 1930 -34 1941 -41 ct 1952 -49 1957 -59 1957 -74 ct 1957 -85 1953 -94 1946 -101 ct 
1938 -108 1926 -113 1909 -118 ct 1876 -127 l  1849 -133 1830 -140 1819 -147 ct 
1808 -153 1799 -162 1792 -171 ct 1786 -180 1783 -192 1783 -206 ct 1783 -231 1792 -251 1810 -264 ct 
1828 -278 1855 -284 1890 -284 ct 1920 -284 1945 -279 1963 -268 ct 1981 -257 1993 -240 1997 -216 ct 
1956 -211 l  1953 -223 1946 -232 1935 -239 ct 1924 -246 1908 -249 1890 -249 ct 
1869 -249 1853 -246 1843 -239 ct 1833 -233 1828 -223 1828 -210 ct 1828 -203 1830 -196 1834 -191 ct 
1838 -186 1844 -181 1853 -178 ct 1861 -174 1878 -169 1904 -163 ct 1928 -156 1946 -151 1957 -146 ct 
1968 -140 1976 -134 1983 -128 ct 1989 -122 1994 -114 1997 -106 ct 2001 -98 2002 -88 2002 -77 ct 
p ef
2095 -130 m  2095 -98 2102 -73 2115 -56 ct 2128 -39 2148 -30 2173 -30 ct 2193 -30 2210 -34 2222 -42 ct 
2234 -50 2242 -60 2246 -73 ct 2287 -61 l  2271 -17 2233 5 2173 5 ct 2132 5 2101 -7 2079 -32 ct 
2057 -57 2046 -93 2046 -142 ct 2046 -188 2057 -223 2079 -248 ct 2101 -273 2131 -285 2171 -285 ct 
2254 -285 2295 -236 2295 -137 ct 2295 -130 l  2095 -130 l  p
2247 -166 m  2244 -195 2237 -217 2224 -230 ct 2212 -244 2194 -251 2171 -251 ct 
2148 -251 2130 -243 2117 -228 ct 2104 -213 2097 -192 2096 -166 ct 2247 -166 l 
p ef
2463 -2 m  2448 2 2432 4 2416 4 ct 2379 4 2360 -17 2360 -59 ct 2360 -246 l  2328 -246 l 
2328 -280 l  2362 -280 l  2376 -343 l  2407 -343 l  2407 -280 l  2458 -280 l 
2458 -246 l  2407 -246 l  2407 -69 l  2407 -56 2409 -47 2413 -41 ct 2418 -36 2425 -33 2436 -33 ct 
2442 -33 2451 -34 2463 -37 ct 2463 -2 l  p ef
2713 -77 m  2713 -51 2703 -31 2684 -16 ct 2664 -2 2636 5 2600 5 ct 2565 5 2538 -1 2520 -12 ct 
2501 -24 2488 -42 2483 -66 ct 2524 -74 l  2528 -59 2536 -48 2548 -41 ct 2561 -34 2578 -30 2600 -30 ct 
2624 -30 2641 -34 2652 -41 ct 2663 -49 2668 -59 2668 -74 ct 2668 -85 2664 -94 2657 -101 ct 
2649 -108 2637 -113 2620 -118 ct 2587 -127 l  2560 -133 2541 -140 2530 -147 ct 
2519 -153 2510 -162 2503 -171 ct 2497 -180 2494 -192 2494 -206 ct 2494 -231 2503 -251 2521 -264 ct 
2539 -278 2566 -284 2601 -284 ct 2631 -284 2656 -279 2674 -268 ct 2692 -257 2704 -240 2708 -216 ct 
2667 -211 l  2664 -223 2657 -232 2646 -239 ct 2635 -246 2619 -249 2601 -249 ct 
2580 -249 2564 -246 2554 -239 ct 2544 -233 2539 -223 2539 -210 ct 2539 -203 2541 -196 2545 -191 ct 
2549 -186 2555 -181 2564 -178 ct 2572 -174 2589 -169 2615 -163 ct 2639 -156 2657 -151 2668 -146 ct 
2679 -140 2687 -134 2694 -128 ct 2700 -122 2705 -114 2708 -106 ct 2712 -98 2713 -88 2713 -77 ct 
p ef
pom
gs
1 lj 22352 794 m  19213 1579 l  ps
gr
gs
18796 1683 m  19269 1719 l  19196 1428 l  18796 1683 l  p ef
gr
gs
1 lj 22353 813 m  21093 1380 l  ps
gr
gs
20701 1556 m  21173 1508 l  21050 1235 l  20701 1556 l  p ef
gr
gs
1 lj 22354 813 m  25617 1584 l  ps
gr
gs
26035 1683 m  25632 1434 l  25563 1725 l  26035 1683 l  p ef
gr
gr
gs
0 0 m 28142 0 l 28142 7619 l 0 7619 l 0 0 l eoclip newpath
gr
gr
0 7620 t 
pom
count op_count sub {pop} repeat countdictstack dict_count sub {end} repeat b4_inc_state restore
%%PageTrailer
%%Trailer
%%EOF
