%!PS-Adobe-3.0 EPSF-3.0 
%%BoundingBox: 0 0 130 72
%%Pages: 0
%%Creator: LibreOffice 6.0
%%Title: none
%%CreationDate: none
%%LanguageLevel: 2
%%EndComments
%%BeginProlog
%%BeginResource: procset SDRes-Prolog 1.0 0
/b4_inc_state save def
/dict_count countdictstack def
/op_count count 1 sub def
userdict begin
0 setgray 0 setlinecap 1 setlinewidth 0 setlinejoin 10 setmiterlimit[] 0 setdash newpath
/languagelevel where {pop languagelevel 1 ne {false setstrokeadjust false setoverprint} if} if
/bdef {bind def} bind def
/c {setrgbcolor} bdef
/l {neg lineto} bdef
/rl {neg rlineto} bdef
/lc {setlinecap} bdef
/lj {setlinejoin} bdef
/lw {setlinewidth} bdef
/ml {setmiterlimit} bdef
/ld {setdash} bdef
/m {neg moveto} bdef
/ct {6 2 roll neg 6 2 roll neg 6 2 roll neg curveto} bdef
/r {rotate} bdef
/t {neg translate} bdef
/s {scale} bdef
/sw {show} bdef
/gs {gsave} bdef
/gr {grestore} bdef
/f {findfont dup length dict begin
{1 index /FID ne {def} {pop pop} ifelse} forall /Encoding ISOLatin1Encoding def
currentdict end /NFont exch definefont pop /NFont findfont} bdef
/p {closepath} bdef
/sf {scalefont setfont} bdef
/ef {eofill}bdef
/pc {closepath stroke}bdef
/ps {stroke}bdef
/pum {matrix currentmatrix}bdef
/pom {setmatrix}bdef
/bs {/aString exch def /nXOfs exch def /nWidth exch def currentpoint nXOfs 0 rmoveto pum nWidth aString stringwidth pop div 1 scale aString show pom moveto} bdef
%%EndResource
%%EndProlog
%%BeginSetup
%%EndSetup
%%Page: 1 1
%%BeginPageSetup
%%EndPageSetup
pum
0.02843 0.02834 s 
0 -2540 t
/tm matrix currentmatrix def
gs
0 0 m 4571 0 l 4571 2539 l 0 2539 l 0 0 l eoclip newpath
gs
0 0 m 4571 0 l 4571 2539 l 0 2539 l 0 0 l eoclip newpath
gs
0.003 0.003 1.000 c 543 1171 m  774 1171 951 1348 951 1579 ct 951 1810 774 1987 543 1987 ct 
312 1987 136 1810 136 1579 ct 136 1348 312 1171 543 1171 ct p
136 1171 m  136 1171 l  p
952 1988 m  952 1988 l  p ef
gr
gs
102 lw 1 lj 0.003 0.003 0.003 c 543 1171 m  774 1171 951 1348 951 1579 ct 951 1810 774 1987 543 1987 ct 
312 1987 136 1810 136 1579 ct 136 1348 312 1171 543 1171 ct pc
gr
gs
102 lw 1 lj 0.003 0.003 0.003 c 136 1171 m  136 1171 l  pc
gr
gs
102 lw 1 lj 0.003 0.003 0.003 c 952 1988 m  952 1988 l  pc
gr
gs
0.003 0.003 1.000 c 4029 1171 m  4260 1171 4436 1348 4436 1579 ct 4436 1810 4260 1987 4029 1987 ct 
3798 1987 3622 1810 3622 1579 ct 3622 1348 3798 1171 4029 1171 ct p
3622 1171 m  3622 1171 l  p
4437 1988 m  4437 1988 l  p ef
gr
gs
102 lw 1 lj 0.003 0.003 0.003 c 4029 1171 m  4260 1171 4436 1348 4436 1579 ct 
4436 1810 4260 1987 4029 1987 ct 3798 1987 3622 1810 3622 1579 ct 3622 1348 3798 1171 4029 1171 ct 
pc
gr
gs
102 lw 1 lj 0.003 0.003 0.003 c 3622 1171 m  3622 1171 l  pc
gr
gs
102 lw 1 lj 0.003 0.003 0.003 c 4437 1988 m  4437 1988 l  pc
gr
gs
103 lw 1 lj 0.003 0.003 0.003 c 952 1579 m  1153 1578 l  ps
1282 1578 m  1483 1577 l  ps
1613 1576 m  1814 1575 l  ps
1943 1575 m  2144 1574 l  ps
gr
gs
159 lw 1 lj 0.003 0.003 0.003 c 2178 862 m  2178 2286 l  ps
gr
gs
54 lw 1 lj 0.003 0.003 0.003 c 2178 1574 m  2282 1574 l  ps
2350 1575 m  2454 1575 l  ps
2521 1575 m  2626 1576 l  ps
2693 1576 m  2798 1576 l  ps
2865 1576 m  2969 1577 l  ps
3037 1577 m  3141 1577 l  ps
3208 1578 m  3304 1578 l  ps
gr
gs
0.003 0.003 0.003 c 3622 1578 m  3276 1360 l  3274 1795 l  3622 1578 l  p ef
gr
gr
gs
0 0 m 4571 0 l 4571 2539 l 0 2539 l 0 0 l eoclip newpath
gr
gr
0 2540 t 
pom
count op_count sub {pop} repeat countdictstack dict_count sub {end} repeat b4_inc_state restore
%%PageTrailer
%%Trailer
%%EOF
