%!PS-Adobe-3.0 EPSF-3.0 
%%BoundingBox: 0 0 130 72
%%Pages: 0
%%Creator: LibreOffice 6.0
%%Title: none
%%CreationDate: none
%%LanguageLevel: 2
%%EndComments
%%BeginProlog
%%BeginResource: procset SDRes-Prolog 1.0 0
/b4_inc_state save def
/dict_count countdictstack def
/op_count count 1 sub def
userdict begin
0 setgray 0 setlinecap 1 setlinewidth 0 setlinejoin 10 setmiterlimit[] 0 setdash newpath
/languagelevel where {pop languagelevel 1 ne {false setstrokeadjust false setoverprint} if} if
/bdef {bind def} bind def
/c {setrgbcolor} bdef
/l {neg lineto} bdef
/rl {neg rlineto} bdef
/lc {setlinecap} bdef
/lj {setlinejoin} bdef
/lw {setlinewidth} bdef
/ml {setmiterlimit} bdef
/ld {setdash} bdef
/m {neg moveto} bdef
/ct {6 2 roll neg 6 2 roll neg 6 2 roll neg curveto} bdef
/r {rotate} bdef
/t {neg translate} bdef
/s {scale} bdef
/sw {show} bdef
/gs {gsave} bdef
/gr {grestore} bdef
/f {findfont dup length dict begin
{1 index /FID ne {def} {pop pop} ifelse} forall /Encoding ISOLatin1Encoding def
currentdict end /NFont exch definefont pop /NFont findfont} bdef
/p {closepath} bdef
/sf {scalefont setfont} bdef
/ef {eofill}bdef
/pc {closepath stroke}bdef
/ps {stroke}bdef
/pum {matrix currentmatrix}bdef
/pom {setmatrix}bdef
/bs {/aString exch def /nXOfs exch def /nWidth exch def currentpoint nXOfs 0 rmoveto pum nWidth aString stringwidth pop div 1 scale aString show pom moveto} bdef
%%EndResource
%%EndProlog
%%BeginSetup
%%EndSetup
%%Page: 1 1
%%BeginPageSetup
%%EndPageSetup
pum
0.02843 0.02834 s 
0 -2540 t
/tm matrix currentmatrix def
gs
0 0 m 4571 0 l 4571 2539 l 0 2539 l 0 0 l eoclip newpath
gs
0 0 m 4571 0 l 4571 2539 l 0 2539 l 0 0 l eoclip newpath
gs
0.003 0.003 1.000 c 544 1324 m  775 1324 951 1501 951 1732 ct 951 1963 775 2140 544 2140 ct 
313 2140 137 1963 137 1732 ct 137 1501 313 1324 544 1324 ct p
137 1324 m  137 1324 l  p
952 2141 m  952 2141 l  p ef
gr
gs
102 lw 1 lj 0.003 0.003 0.003 c 544 1324 m  775 1324 951 1501 951 1732 ct 951 1963 775 2140 544 2140 ct 
313 2140 137 1963 137 1732 ct 137 1501 313 1324 544 1324 ct pc
gr
gs
102 lw 1 lj 0.003 0.003 0.003 c 137 1324 m  137 1324 l  pc
gr
gs
102 lw 1 lj 0.003 0.003 0.003 c 952 2141 m  952 2141 l  pc
gr
gs
0.003 0.003 1.000 c 4028 1324 m  4259 1324 4436 1501 4436 1732 ct 4436 1963 4259 2140 4028 2140 ct 
3797 2140 3620 1963 3620 1732 ct 3620 1501 3797 1324 4028 1324 ct p
3620 1324 m  3620 1324 l  p
4437 2141 m  4437 2141 l  p ef
gr
gs
102 lw 1 lj 0.003 0.003 0.003 c 4028 1324 m  4259 1324 4436 1501 4436 1732 ct 
4436 1963 4259 2140 4028 2140 ct 3797 2140 3620 1963 3620 1732 ct 3620 1501 3797 1324 4028 1324 ct 
pc
gr
gs
102 lw 1 lj 0.003 0.003 0.003 c 3620 1324 m  3620 1324 l  pc
gr
gs
102 lw 1 lj 0.003 0.003 0.003 c 4437 2141 m  4437 2141 l  pc
gr
gs
82 lw 1 lj 0.003 0.003 0.003 c 951 1732 m  1111 1732 l  ps
1213 1732 m  1373 1732 l  ps
1476 1732 m  1635 1732 l  ps
1738 1732 m  1898 1732 l  ps
2001 1732 m  2160 1732 l  ps
2263 1732 m  2423 1732 l  ps
2526 1732 m  2685 1732 l  ps
2788 1732 m  2948 1732 l  ps
3051 1732 m  3210 1732 l  ps
gr
gs
0.003 0.003 0.003 c 3620 1731 m  3240 1494 l  3240 1971 l  3620 1731 l  p ef
gr
gs
159 lw 1 lj 0.003 0.003 0.003 c 1172 400 m  3786 400 l  ps
gr
gs
82 lw 1 lj 0.003 0.003 0.003 c 832 1443 m  967 1358 l  ps
1054 1303 m  1189 1217 l  ps
1275 1162 m  1410 1077 l  ps
1497 1022 m  1632 936 l  ps
1719 881 m  1854 796 l  ps
1941 741 m  2075 656 l  ps
2162 601 m  2297 515 l  ps
2384 460 m  2479 400 l  ps
gr
gs
82 lw 1 lj 0.003 0.003 0.003 c 3470 1221 m  3348 1119 l  ps
3268 1053 m  3145 952 l  ps
3066 886 m  2943 784 l  ps
2864 719 m  2741 617 l  ps
2662 551 m  2539 450 l  ps
gr
gs
0.003 0.003 0.003 c 3739 1443 m  3598 1017 l  3294 1384 l  3739 1443 l  p ef
gr
gr
gs
0 0 m 4571 0 l 4571 2539 l 0 2539 l 0 0 l eoclip newpath
gr
gr
0 2540 t 
pom
count op_count sub {pop} repeat countdictstack dict_count sub {end} repeat b4_inc_state restore
%%PageTrailer
%%Trailer
%%EOF
