%!PS-Adobe-3.0 EPSF-3.0 
%%BoundingBox: 0 0 130 72
%%Pages: 0
%%Creator: LibreOffice 6.0
%%Title: none
%%CreationDate: none
%%LanguageLevel: 2
%%EndComments
%%BeginProlog
%%BeginResource: procset SDRes-Prolog 1.0 0
/b4_inc_state save def
/dict_count countdictstack def
/op_count count 1 sub def
userdict begin
0 setgray 0 setlinecap 1 setlinewidth 0 setlinejoin 10 setmiterlimit[] 0 setdash newpath
/languagelevel where {pop languagelevel 1 ne {false setstrokeadjust false setoverprint} if} if
/bdef {bind def} bind def
/c {setrgbcolor} bdef
/l {neg lineto} bdef
/rl {neg rlineto} bdef
/lc {setlinecap} bdef
/lj {setlinejoin} bdef
/lw {setlinewidth} bdef
/ml {setmiterlimit} bdef
/ld {setdash} bdef
/m {neg moveto} bdef
/ct {6 2 roll neg 6 2 roll neg 6 2 roll neg curveto} bdef
/r {rotate} bdef
/t {neg translate} bdef
/s {scale} bdef
/sw {show} bdef
/gs {gsave} bdef
/gr {grestore} bdef
/f {findfont dup length dict begin
{1 index /FID ne {def} {pop pop} ifelse} forall /Encoding ISOLatin1Encoding def
currentdict end /NFont exch definefont pop /NFont findfont} bdef
/p {closepath} bdef
/sf {scalefont setfont} bdef
/ef {eofill}bdef
/pc {closepath stroke}bdef
/ps {stroke}bdef
/pum {matrix currentmatrix}bdef
/pom {setmatrix}bdef
/bs {/aString exch def /nXOfs exch def /nWidth exch def currentpoint nXOfs 0 rmoveto pum nWidth aString stringwidth pop div 1 scale aString show pom moveto} bdef
%%EndResource
%%EndProlog
%%BeginSetup
%%EndSetup
%%Page: 1 1
%%BeginPageSetup
%%EndPageSetup
pum
0.02843 0.02834 s 
0 -2540 t
/tm matrix currentmatrix def
gs
0 0 m 4571 0 l 4571 2539 l 0 2539 l 0 0 l eoclip newpath
gs
0 0 m 4571 0 l 4571 2539 l 0 2539 l 0 0 l eoclip newpath
gs
0.003 0.003 1.000 c 561 1497 m  792 1497 968 1674 968 1905 ct 968 2136 792 2313 561 2313 ct 
330 2313 154 2136 154 1905 ct 154 1674 330 1497 561 1497 ct p
154 1497 m  154 1497 l  p
969 2314 m  969 2314 l  p ef
gr
gs
102 lw 1 lj 0.003 0.003 0.003 c 561 1497 m  792 1497 968 1674 968 1905 ct 968 2136 792 2313 561 2313 ct 
330 2313 154 2136 154 1905 ct 154 1674 330 1497 561 1497 ct pc
gr
gs
102 lw 1 lj 0.003 0.003 0.003 c 154 1497 m  154 1497 l  pc
gr
gs
102 lw 1 lj 0.003 0.003 0.003 c 969 2314 m  969 2314 l  pc
gr
gs
0.003 0.003 1.000 c 4044 1497 m  4275 1497 4452 1674 4452 1905 ct 4452 2136 4275 2313 4044 2313 ct 
3813 2313 3637 2136 3637 1905 ct 3637 1674 3813 1497 4044 1497 ct p
3637 1497 m  3637 1497 l  p
4453 2314 m  4453 2314 l  p ef
gr
gs
102 lw 1 lj 0.003 0.003 0.003 c 4044 1497 m  4275 1497 4452 1674 4452 1905 ct 
4452 2136 4275 2313 4044 2313 ct 3813 2313 3637 2136 3637 1905 ct 3637 1674 3813 1497 4044 1497 ct 
pc
gr
gs
102 lw 1 lj 0.003 0.003 0.003 c 3637 1497 m  3637 1497 l  pc
gr
gs
102 lw 1 lj 0.003 0.003 0.003 c 4453 2314 m  4453 2314 l  pc
gr
gs
82 lw 1 lj 0.003 0.003 0.003 c 968 1905 m  1128 1905 l  ps
1230 1905 m  1390 1905 l  ps
1493 1905 m  1652 1905 l  ps
1755 1905 m  1915 1905 l  ps
2018 1905 m  2177 1905 l  ps
2280 1905 m  2440 1905 l  ps
2543 1905 m  2702 1905 l  ps
2805 1905 m  2965 1905 l  ps
3068 1905 m  3227 1905 l  ps
gr
gs
0.003 0.003 0.003 c 3638 1904 m  3258 1667 l  3258 2144 l  3638 1904 l  p ef
gr
gs
1.000 0.203 0.203 c 1531 166 m  1762 166 1938 343 1938 574 ct 1938 805 1762 982 1531 982 ct 
1300 982 1124 805 1124 574 ct 1124 343 1300 166 1531 166 ct p
1124 166 m  1124 166 l  p
1939 983 m  1939 983 l  p ef
gr
gs
102 lw 1 lj 0.003 0.003 0.003 c 1531 166 m  1762 166 1938 343 1938 574 ct 1938 805 1762 982 1531 982 ct 
1300 982 1124 805 1124 574 ct 1124 343 1300 166 1531 166 ct pc
gr
gs
102 lw 1 lj 0.003 0.003 0.003 c 1124 166 m  1124 166 l  pc
gr
gs
102 lw 1 lj 0.003 0.003 0.003 c 1939 983 m  1939 983 l  pc
gr
gs
82 lw 1 lj 0.003 0.003 0.003 c 1938 574 m  2076 653 l  ps
2166 704 m  2304 784 l  ps
2393 835 m  2532 914 l  ps
2621 965 m  2760 1045 l  ps
2849 1096 m  2987 1175 l  ps
3077 1226 m  3215 1306 l  ps
3304 1357 m  3443 1436 l  ps
gr
gs
0.003 0.003 0.003 c 3757 1615 m  3545 1220 l  3308 1634 l  3757 1615 l  p ef
gr
gr
gs
0 0 m 4571 0 l 4571 2539 l 0 2539 l 0 0 l eoclip newpath
gr
gr
0 2540 t 
pom
count op_count sub {pop} repeat countdictstack dict_count sub {end} repeat b4_inc_state restore
%%PageTrailer
%%Trailer
%%EOF
