%!PS-Adobe-3.0 EPSF-3.0 
%%BoundingBox: 0 0 130 72
%%Pages: 0
%%Creator: LibreOffice 6.0
%%Title: none
%%CreationDate: none
%%LanguageLevel: 2
%%EndComments
%%BeginProlog
%%BeginResource: procset SDRes-Prolog 1.0 0
/b4_inc_state save def
/dict_count countdictstack def
/op_count count 1 sub def
userdict begin
0 setgray 0 setlinecap 1 setlinewidth 0 setlinejoin 10 setmiterlimit[] 0 setdash newpath
/languagelevel where {pop languagelevel 1 ne {false setstrokeadjust false setoverprint} if} if
/bdef {bind def} bind def
/c {setrgbcolor} bdef
/l {neg lineto} bdef
/rl {neg rlineto} bdef
/lc {setlinecap} bdef
/lj {setlinejoin} bdef
/lw {setlinewidth} bdef
/ml {setmiterlimit} bdef
/ld {setdash} bdef
/m {neg moveto} bdef
/ct {6 2 roll neg 6 2 roll neg 6 2 roll neg curveto} bdef
/r {rotate} bdef
/t {neg translate} bdef
/s {scale} bdef
/sw {show} bdef
/gs {gsave} bdef
/gr {grestore} bdef
/f {findfont dup length dict begin
{1 index /FID ne {def} {pop pop} ifelse} forall /Encoding ISOLatin1Encoding def
currentdict end /NFont exch definefont pop /NFont findfont} bdef
/p {closepath} bdef
/sf {scalefont setfont} bdef
/ef {eofill}bdef
/pc {closepath stroke}bdef
/ps {stroke}bdef
/pum {matrix currentmatrix}bdef
/pom {setmatrix}bdef
/bs {/aString exch def /nXOfs exch def /nWidth exch def currentpoint nXOfs 0 rmoveto pum nWidth aString stringwidth pop div 1 scale aString show pom moveto} bdef
%%EndResource
%%EndProlog
%%BeginSetup
%%EndSetup
%%Page: 1 1
%%BeginPageSetup
%%EndPageSetup
pum
0.02843 0.02834 s 
0 -2540 t
/tm matrix currentmatrix def
gs
0 0 m 4571 0 l 4571 2539 l 0 2539 l 0 0 l eoclip newpath
gs
0 0 m 4571 0 l 4571 2539 l 0 2539 l 0 0 l eoclip newpath
gs
0.003 0.003 1.000 c 543 1126 m  774 1126 951 1303 951 1534 ct 951 1765 774 1942 543 1942 ct 
312 1942 136 1765 136 1534 ct 136 1303 312 1126 543 1126 ct p
136 1126 m  136 1126 l  p
952 1943 m  952 1943 l  p ef
gr
gs
102 lw 1 lj 0.003 0.003 0.003 c 543 1126 m  774 1126 951 1303 951 1534 ct 951 1765 774 1942 543 1942 ct 
312 1942 136 1765 136 1534 ct 136 1303 312 1126 543 1126 ct pc
gr
gs
102 lw 1 lj 0.003 0.003 0.003 c 136 1126 m  136 1126 l  pc
gr
gs
102 lw 1 lj 0.003 0.003 0.003 c 952 1943 m  952 1943 l  pc
gr
gs
0.003 0.003 1.000 c 4029 1126 m  4260 1126 4436 1303 4436 1534 ct 4436 1765 4260 1942 4029 1942 ct 
3798 1942 3622 1765 3622 1534 ct 3622 1303 3798 1126 4029 1126 ct p
3622 1126 m  3622 1126 l  p
4437 1943 m  4437 1943 l  p ef
gr
gs
102 lw 1 lj 0.003 0.003 0.003 c 4029 1126 m  4260 1126 4436 1303 4436 1534 ct 
4436 1765 4260 1942 4029 1942 ct 3798 1942 3622 1765 3622 1534 ct 3622 1303 3798 1126 4029 1126 ct 
pc
gr
gs
102 lw 1 lj 0.003 0.003 0.003 c 3622 1126 m  3622 1126 l  pc
gr
gs
102 lw 1 lj 0.003 0.003 0.003 c 4437 1943 m  4437 1943 l  pc
gr
gs
82 lw 1 lj 0.003 0.003 0.003 c 952 1534 m  1112 1534 l  ps
1214 1534 m  1374 1534 l  ps
1477 1534 m  1636 1534 l  ps
1739 1534 m  1899 1534 l  ps
2002 1534 m  2161 1534 l  ps
2264 1534 m  2424 1534 l  ps
2527 1534 m  2686 1534 l  ps
2789 1534 m  2949 1534 l  ps
3052 1534 m  3211 1534 l  ps
gr
gs
0.003 0.003 0.003 c 3622 1533 m  3242 1296 l  3242 1773 l  3622 1533 l  p ef
gr
gs
36 lw 1 lj 0.003 0.003 0.003 c 814 599 m  3767 599 l  ps
gr
gs
0.003 0.003 0.003 c 810 424 m  460 580 l  449 588 l  445 598 l  449 610 l 
458 617 l  810 773 l  814 775 l  817 775 l  824 773 l  832 769 l  836 763 l 
838 756 l  838 442 l  836 435 l  832 428 l  824 424 l  817 423 l  814 423 l 
810 424 l  p ef
gr
gs
0.003 0.003 0.003 c 3771 774 m  4121 618 l  4132 610 l  4136 600 l  4132 588 l 
4123 581 l  3771 425 l  3767 423 l  3764 423 l  3757 425 l  3749 429 l 
3745 435 l  3743 442 l  3743 756 l  3745 763 l  3749 770 l  3757 774 l 
3764 775 l  3767 775 l  3771 774 l  p ef
gr
gr
gs
0 0 m 4571 0 l 4571 2539 l 0 2539 l 0 0 l eoclip newpath
gr
gr
0 2540 t 
pom
count op_count sub {pop} repeat countdictstack dict_count sub {end} repeat b4_inc_state restore
%%PageTrailer
%%Trailer
%%EOF
