%!PS-Adobe-3.0 EPSF-3.0 
%%BoundingBox: 0 0 468 252
%%Pages: 0
%%Creator: LibreOffice 6.0
%%Title: none
%%CreationDate: none
%%LanguageLevel: 2
%%EndComments
%%BeginProlog
%%BeginResource: procset SDRes-Prolog 1.0 0
/b4_inc_state save def
/dict_count countdictstack def
/op_count count 1 sub def
userdict begin
0 setgray 0 setlinecap 1 setlinewidth 0 setlinejoin 10 setmiterlimit[] 0 setdash newpath
/languagelevel where {pop languagelevel 1 ne {false setstrokeadjust false setoverprint} if} if
/bdef {bind def} bind def
/c {setrgbcolor} bdef
/l {neg lineto} bdef
/rl {neg rlineto} bdef
/lc {setlinecap} bdef
/lj {setlinejoin} bdef
/lw {setlinewidth} bdef
/ml {setmiterlimit} bdef
/ld {setdash} bdef
/m {neg moveto} bdef
/ct {6 2 roll neg 6 2 roll neg 6 2 roll neg curveto} bdef
/r {rotate} bdef
/t {neg translate} bdef
/s {scale} bdef
/sw {show} bdef
/gs {gsave} bdef
/gr {grestore} bdef
/f {findfont dup length dict begin
{1 index /FID ne {def} {pop pop} ifelse} forall /Encoding ISOLatin1Encoding def
currentdict end /NFont exch definefont pop /NFont findfont} bdef
/p {closepath} bdef
/sf {scalefont setfont} bdef
/ef {eofill}bdef
/pc {closepath stroke}bdef
/ps {stroke}bdef
/pum {matrix currentmatrix}bdef
/pom {setmatrix}bdef
/bs {/aString exch def /nXOfs exch def /nWidth exch def currentpoint nXOfs 0 rmoveto pum nWidth aString stringwidth pop div 1 scale aString show pom moveto} bdef
%%EndResource
%%EndProlog
%%BeginSetup
%%EndSetup
%%Page: 1 1
%%BeginPageSetup
%%EndPageSetup
pum
0.02834 0.02834 s 
0 -8890 t
/tm matrix currentmatrix def
gs
0 0 m 16509 0 l 16509 8889 l 0 8889 l 0 0 l eoclip newpath
gs
0 0 m 16509 0 l 16509 8889 l 0 8889 l 0 0 l eoclip newpath
gs
1.000 1.000 1.000 c 4816 4792 m  5222 4792 5533 5105 5533 5515 ct 5533 5925 5222 6238 4816 6238 ct 
4410 6238 4100 5925 4100 5515 ct 4100 5105 4410 4792 4816 4792 ct p
4100 4792 m  4100 4792 l  p
5534 6239 m  5534 6239 l  p ef
gr
gs
102 lw 1 lj 0.003 0.003 0.003 c 4816 4792 m  5222 4792 5533 5105 5533 5515 ct 
5533 5925 5222 6238 4816 6238 ct 4410 6238 4100 5925 4100 5515 ct 4100 5105 4410 4792 4816 4792 ct 
pc
gr
gs
102 lw 1 lj 0.003 0.003 0.003 c 4100 4792 m  4100 4792 l  pc
gr
gs
102 lw 1 lj 0.003 0.003 0.003 c 5534 6239 m  5534 6239 l  pc
gr
gs
0.003 0.003 1.000 c 6477 2759 m  6702 2759 6874 2931 6874 3156 ct 6874 3381 6702 3554 6477 3554 ct 
6252 3554 6080 3381 6080 3156 ct 6080 2931 6252 2759 6477 2759 ct p
6080 2759 m  6080 2759 l  p
6875 3556 m  6875 3556 l  p ef
gr
gs
102 lw 1 lj 0.003 0.003 0.003 c 6477 2759 m  6702 2759 6874 2931 6874 3156 ct 
6874 3381 6702 3554 6477 3554 ct 6252 3554 6080 3381 6080 3156 ct 6080 2931 6252 2759 6477 2759 ct 
pc
gr
gs
102 lw 1 lj 0.003 0.003 0.003 c 6080 2759 m  6080 2759 l  pc
gr
gs
102 lw 1 lj 0.003 0.003 0.003 c 6875 3556 m  6875 3556 l  pc
gr
gs
0.003 0.003 1.000 c 7623 7454 m  7848 7454 8020 7626 8020 7851 ct 8020 8076 7848 8249 7623 8249 ct 
7398 8249 7226 8076 7226 7851 ct 7226 7626 7398 7454 7623 7454 ct p
7226 7454 m  7226 7454 l  p
8021 8250 m  8021 8250 l  p ef
gr
gs
102 lw 1 lj 0.003 0.003 0.003 c 7623 7454 m  7848 7454 8020 7626 8020 7851 ct 
8020 8076 7848 8249 7623 8249 ct 7398 8249 7226 8076 7226 7851 ct 7226 7626 7398 7454 7623 7454 ct 
pc
gr
gs
102 lw 1 lj 0.003 0.003 0.003 c 7226 7454 m  7226 7454 l  pc
gr
gs
102 lw 1 lj 0.003 0.003 0.003 c 8021 8250 m  8021 8250 l  pc
gr
gs
103 lw 1 lj 0.003 0.003 0.003 c 5325 5003 m  5423 4827 l  ps
5486 4714 m  5584 4539 l  ps
5647 4426 m  5744 4250 l  ps
5807 4137 m  5905 3961 l  ps
5968 3848 m  6066 3673 l  ps
6129 3559 m  6196 3439 l  ps
gr
gs
103 lw 1 lj 0.003 0.003 0.003 c 5325 6027 m  5485 6149 l  ps
5587 6228 m  5747 6350 l  ps
5850 6429 m  6009 6551 l  ps
6112 6630 m  6272 6752 l  ps
6375 6831 m  6534 6953 l  ps
6637 7031 m  6797 7154 l  ps
6900 7232 m  7059 7354 l  ps
7162 7433 m  7321 7555 l  ps
gr
gs
0.003 0.003 1.000 c 9179 1519 m  9404 1519 9576 1691 9576 1916 ct 9576 2141 9404 2314 9179 2314 ct 
8954 2314 8782 2141 8782 1916 ct 8782 1691 8954 1519 9179 1519 ct p
8782 1519 m  8782 1519 l  p
9577 2316 m  9577 2316 l  p ef
gr
gs
102 lw 1 lj 0.003 0.003 0.003 c 9179 1519 m  9404 1519 9576 1691 9576 1916 ct 
9576 2141 9404 2314 9179 2314 ct 8954 2314 8782 2141 8782 1916 ct 8782 1691 8954 1519 9179 1519 ct 
pc
gr
gs
102 lw 1 lj 0.003 0.003 0.003 c 8782 1519 m  8782 1519 l  pc
gr
gs
102 lw 1 lj 0.003 0.003 0.003 c 9577 2316 m  9577 2316 l  pc
gr
gs
103 lw 1 lj 0.003 0.003 0.003 c 6874 3157 m  7056 3071 l  ps
7173 3016 m  7354 2930 l  ps
7471 2874 m  7653 2788 l  ps
7770 2733 m  7952 2647 l  ps
8069 2591 m  8250 2505 l  ps
8368 2450 m  8549 2364 l  ps
8666 2309 m  8848 2223 l  ps
gr
gs
0.003 0.003 1.000 c 9179 4821 m  9404 4821 9576 4993 9576 5218 ct 9576 5443 9404 5616 9179 5616 ct 
8954 5616 8782 5443 8782 5218 ct 8782 4993 8954 4821 9179 4821 ct p
8782 4821 m  8782 4821 l  p
9577 5618 m  9577 5618 l  p ef
gr
gs
102 lw 1 lj 0.003 0.003 0.003 c 9179 4821 m  9404 4821 9576 4993 9576 5218 ct 
9576 5443 9404 5616 9179 5616 ct 8954 5616 8782 5443 8782 5218 ct 8782 4993 8954 4821 9179 4821 ct 
pc
gr
gs
102 lw 1 lj 0.003 0.003 0.003 c 8782 4821 m  8782 4821 l  pc
gr
gs
102 lw 1 lj 0.003 0.003 0.003 c 9577 5618 m  9577 5618 l  pc
gr
gs
103 lw 1 lj 0.003 0.003 0.003 c 6758 3439 m  6923 3554 l  ps
7029 3629 m  7193 3744 l  ps
7299 3818 m  7464 3933 l  ps
7570 4008 m  7735 4123 l  ps
7841 4197 m  8006 4312 l  ps
8112 4387 m  8276 4502 l  ps
8382 4576 m  8547 4691 l  ps
8653 4766 m  8818 4881 l  ps
gr
gs
102 lw 1 lj 0.003 0.003 0.003 c 3194 5583 m  4101 5515 l  ps
gr
gs
0.003 0.003 0.003 c 3180 4715 m  3179 4715 l  3169 4664 3124 4626 3071 4626 ct 
910 4626 l  856 4626 812 4665 802 4715 ct 801 4715 l  801 4718 800 4721 800 4724 ct 
800 4736 l  800 5697 l  800 6160 l  800 6221 849 6270 910 6270 ct 1729 6270 l 
1729 6428 l  1379 6428 l  1379 6516 l  2602 6516 l  2602 6428 l  2252 6428 l 
2252 6270 l  3071 6270 l  3132 6270 3181 6221 3181 6160 ct 3181 5697 l  3181 4736 l 
3181 4724 l  3181 4721 3180 4718 3180 4715 ct 3180 4715 l  p
3078 6120 m  903 6120 l  902 6120 l  902 5731 l  903 5731 l  903 4781 l 
3078 4781 l  3078 6120 l  3078 6120 l  p ef
gr
gs
0.003 0.003 1.000 c 12354 4694 m  12579 4694 12751 4866 12751 5091 ct 12751 5316 12579 5489 12354 5489 ct 
12129 5489 11957 5316 11957 5091 ct 11957 4866 12129 4694 12354 4694 ct p
11957 4694 m  11957 4694 l  p
12752 5491 m  12752 5491 l  p ef
gr
gs
102 lw 1 lj 0.003 0.003 0.003 c 12354 4694 m  12579 4694 12751 4866 12751 5091 ct 
12751 5316 12579 5489 12354 5489 ct 12129 5489 11957 5316 11957 5091 ct 11957 4866 12129 4694 12354 4694 ct 
pc
gr
gs
102 lw 1 lj 0.003 0.003 0.003 c 11957 4694 m  11957 4694 l  pc
gr
gs
102 lw 1 lj 0.003 0.003 0.003 c 12752 5491 m  12752 5491 l  pc
gr
gs
103 lw 1 lj 0.003 0.003 0.003 c 9576 5219 m  9777 5208 l  ps
9906 5201 m  10107 5191 l  ps
10236 5184 m  10437 5173 l  ps
10566 5166 m  10767 5155 l  ps
10896 5149 m  11097 5138 l  ps
11226 5131 m  11427 5120 l  ps
11556 5113 m  11757 5103 l  ps
11886 5096 m  11957 5092 l  ps
gr
gs
0.003 0.003 1.000 c 10798 6853 m  11023 6853 11195 7025 11195 7250 ct 11195 7475 11023 7648 10798 7648 ct 
10573 7648 10401 7475 10401 7250 ct 10401 7025 10573 6853 10798 6853 ct p
10401 6853 m  10401 6853 l  p
11196 7650 m  11196 7650 l  p ef
gr
gs
102 lw 1 lj 0.003 0.003 0.003 c 10798 6853 m  11023 6853 11195 7025 11195 7250 ct 
11195 7475 11023 7648 10798 7648 ct 10573 7648 10401 7475 10401 7250 ct 10401 7025 10573 6853 10798 6853 ct 
pc
gr
gs
102 lw 1 lj 0.003 0.003 0.003 c 10401 6853 m  10401 6853 l  pc
gr
gs
102 lw 1 lj 0.003 0.003 0.003 c 11196 7650 m  11196 7650 l  pc
gr
gs
103 lw 1 lj 0.003 0.003 0.003 c 8020 7853 m  8215 7804 l  ps
8340 7772 m  8535 7723 l  ps
8661 7691 m  8856 7642 l  ps
8981 7610 m  9176 7561 l  ps
9302 7529 m  9496 7480 l  ps
9622 7448 m  9817 7399 l  ps
9942 7367 m  10137 7318 l  ps
10263 7286 m  10401 7251 l  ps
gr
gs
0.003 0.003 1.000 c 1478 554 m  1703 554 1875 726 1875 951 ct 1875 1176 1703 1349 1478 1349 ct 
1253 1349 1081 1176 1081 951 ct 1081 726 1253 554 1478 554 ct p
1081 554 m  1081 554 l  p
1876 1351 m  1876 1351 l  p ef
gr
gs
102 lw 1 lj 0.003 0.003 0.003 c 1478 554 m  1703 554 1875 726 1875 951 ct 1875 1176 1703 1349 1478 1349 ct 
1253 1349 1081 1176 1081 951 ct 1081 726 1253 554 1478 554 ct pc
gr
gs
102 lw 1 lj 0.003 0.003 0.003 c 1081 554 m  1081 554 l  pc
gr
gs
102 lw 1 lj 0.003 0.003 0.003 c 1876 1351 m  1876 1351 l  pc
gr
gs
1.000 1.000 1.000 c 1477 1602 m  1883 1602 2194 1915 2194 2325 ct 2194 2735 1883 3048 1477 3048 ct 
1071 3048 761 2735 761 2325 ct 761 1915 1071 1602 1477 1602 ct p
761 1602 m  761 1602 l  p
2195 3049 m  2195 3049 l  p ef
gr
gs
102 lw 1 lj 0.003 0.003 0.003 c 1477 1602 m  1883 1602 2194 1915 2194 2325 ct 
2194 2735 1883 3048 1477 3048 ct 1071 3048 761 2735 761 2325 ct 761 1915 1071 1602 1477 1602 ct 
pc
gr
gs
102 lw 1 lj 0.003 0.003 0.003 c 761 1602 m  761 1602 l  pc
gr
gs
102 lw 1 lj 0.003 0.003 0.003 c 2195 3049 m  2195 3049 l  pc
gr
pum
2622 1282 t
0.003 0.003 0.003 c 394 -121 m  394 -81 379 -49 347 -27 ct 316 -5 271 6 214 6 ct 
107 6 46 -31 29 -105 ct 86 -117 l  93 -90 107 -71 128 -59 ct 150 -46 179 -40 216 -40 ct 
254 -40 284 -47 305 -60 ct 325 -73 336 -92 336 -118 ct 336 -132 333 -144 326 -153 ct 
320 -161 310 -169 299 -175 ct 287 -180 273 -185 256 -189 ct 240 -193 222 -197 202 -202 ct 
168 -210 141 -217 124 -225 ct 106 -233 92 -241 81 -250 ct 71 -260 63 -271 58 -284 ct 
52 -296 49 -311 49 -327 ct 49 -364 64 -393 92 -414 ct 121 -434 162 -444 215 -444 ct 
265 -444 303 -436 329 -421 ct 355 -406 374 -380 384 -343 ct 326 -333 l  319 -356 307 -373 289 -384 ct 
271 -394 246 -399 215 -399 ct 180 -399 153 -394 135 -382 ct 116 -370 107 -353 107 -330 ct 
107 -317 111 -306 118 -297 ct 125 -288 135 -281 149 -274 ct 162 -268 189 -261 229 -252 ct 
242 -249 256 -246 269 -242 ct 282 -239 295 -235 307 -231 ct 319 -226 331 -221 342 -215 ct 
352 -209 361 -202 369 -193 ct 377 -185 383 -174 388 -163 ct 392 -151 394 -137 394 -121 ct 
p ef
509 -156 m  509 -118 517 -88 532 -67 ct 548 -46 572 -36 602 -36 ct 626 -36 646 -41 660 -50 ct 
675 -60 685 -72 690 -87 ct 739 -73 l  719 -20 673 6 602 6 ct 553 6 515 -9 489 -38 ct 
463 -68 450 -112 450 -170 ct 450 -226 463 -268 489 -298 ct 515 -327 552 -342 600 -342 ct 
699 -342 748 -283 748 -164 ct 748 -156 l  509 -156 l  p
690 -199 m  687 -234 678 -260 663 -277 ct 648 -293 627 -301 599 -301 ct 572 -301 551 -292 535 -274 ct 
519 -256 510 -231 509 -199 ct 690 -199 l  p ef
1031 0 m  1031 -213 l  1031 -235 1029 -252 1024 -264 ct 1020 -277 1013 -285 1004 -291 ct 
994 -296 980 -299 962 -299 ct 935 -299 914 -290 898 -271 ct 883 -253 875 -227 875 -195 ct 
875 0 l  819 0 l  819 -264 l  819 -303 818 -327 817 -336 ct 870 -336 l  870 -335 870 -332 871 -327 ct 
871 -323 871 -318 871 -312 ct 872 -306 872 -295 872 -278 ct 873 -278 l  886 -302 901 -318 918 -328 ct 
935 -337 956 -342 981 -342 ct 1017 -342 1044 -333 1061 -315 ct 1078 -296 1087 -266 1087 -224 ct 
1087 0 l  1031 0 l  p ef
1421 -93 m  1421 -61 1409 -37 1385 -20 ct 1361 -3 1327 6 1284 6 ct 1243 6 1211 -1 1188 -15 ct 
1165 -28 1151 -50 1144 -79 ct 1193 -89 l  1198 -71 1208 -57 1222 -49 ct 1237 -41 1258 -37 1284 -37 ct 
1313 -37 1333 -41 1347 -50 ct 1360 -58 1366 -71 1366 -89 ct 1366 -102 1362 -113 1353 -121 ct 
1344 -129 1329 -136 1309 -141 ct 1269 -152 l  1237 -160 1214 -168 1200 -176 ct 
1187 -184 1176 -194 1168 -205 ct 1161 -217 1157 -231 1157 -247 ct 1157 -278 1168 -301 1190 -317 ct 
1212 -333 1243 -341 1285 -341 ct 1322 -341 1351 -335 1373 -322 ct 1395 -309 1409 -288 1415 -259 ct 
1364 -253 l  1361 -268 1353 -279 1339 -287 ct 1326 -295 1308 -299 1285 -299 ct 
1260 -299 1241 -295 1229 -288 ct 1217 -280 1211 -268 1211 -253 ct 1211 -243 1214 -235 1219 -229 ct 
1224 -223 1231 -218 1241 -213 ct 1250 -209 1271 -203 1302 -195 ct 1332 -188 1353 -181 1366 -175 ct 
1379 -168 1389 -161 1397 -154 ct 1404 -146 1410 -137 1414 -127 ct 1419 -117 1421 -106 1421 -93 ct 
p ef
1770 -168 m  1770 -110 1758 -66 1732 -37 ct 1706 -8 1668 6 1619 6 ct 1570 6 1533 -9 1508 -39 ct 
1483 -69 1471 -112 1471 -168 ct 1471 -284 1521 -342 1621 -342 ct 1672 -342 1710 -328 1734 -300 ct 
1758 -272 1770 -228 1770 -168 ct p
1712 -168 m  1712 -215 1705 -248 1691 -269 ct 1678 -291 1654 -301 1622 -301 ct 
1589 -301 1566 -290 1551 -269 ct 1537 -247 1529 -214 1529 -168 ct 1529 -124 1536 -91 1551 -69 ct 
1565 -46 1588 -35 1619 -35 ct 1652 -35 1676 -46 1690 -68 ct 1705 -89 1712 -123 1712 -168 ct 
p ef
1839 0 m  1839 -258 l  1839 -281 1838 -307 1837 -336 ct 1890 -336 l  1892 -298 1892 -275 1892 -267 ct 
1894 -267 l  1902 -296 1913 -316 1924 -326 ct 1936 -337 1952 -342 1973 -342 ct 
1981 -342 1988 -341 1996 -339 ct 1996 -288 l  1988 -290 1979 -291 1966 -291 ct 
1943 -291 1925 -281 1913 -261 ct 1901 -241 1895 -212 1895 -175 ct 1895 0 l  1839 0 l 
p ef
2519 0 m  2286 -373 l  2287 -343 l  2289 -291 l  2289 0 l  2236 0 l  2236 -438 l 
2305 -438 l  2541 -62 l  2539 -103 2537 -132 2537 -151 ct 2537 -438 l  2591 -438 l 
2591 0 l  2519 0 l  p ef
2968 -168 m  2968 -110 2956 -66 2930 -37 ct 2904 -8 2866 6 2817 6 ct 2768 6 2731 -9 2706 -39 ct 
2681 -69 2669 -112 2669 -168 ct 2669 -284 2719 -342 2819 -342 ct 2870 -342 2908 -328 2932 -300 ct 
2956 -272 2968 -228 2968 -168 ct p
2910 -168 m  2910 -215 2903 -248 2889 -269 ct 2876 -291 2852 -301 2820 -301 ct 
2787 -301 2764 -290 2749 -269 ct 2735 -247 2727 -214 2727 -168 ct 2727 -124 2734 -91 2749 -69 ct 
2763 -46 2786 -35 2817 -35 ct 2850 -35 2874 -46 2888 -68 ct 2903 -89 2910 -123 2910 -168 ct 
p ef
3248 -53 m  3237 -32 3224 -16 3206 -7 ct 3189 2 3168 7 3143 7 ct 3101 7 3070 -7 3050 -36 ct 
3030 -64 3020 -108 3020 -166 ct 3020 -283 3061 -341 3143 -341 ct 3168 -341 3190 -337 3207 -327 ct 
3224 -318 3237 -303 3248 -283 ct 3248 -283 l  3248 -321 l  3248 -460 l  3303 -460 l 
3303 -68 l  3303 -33 3304 -10 3305 1 ct 3252 1 l  3251 -3 3251 -10 3250 -22 ct 
3249 -34 3249 -45 3249 -53 ct 3248 -53 l  p
3078 -167 m  3078 -120 3084 -87 3097 -67 ct 3109 -46 3129 -36 3157 -36 ct 3189 -36 3212 -47 3226 -69 ct 
3240 -91 3248 -125 3248 -171 ct 3248 -216 3240 -248 3226 -269 ct 3212 -290 3189 -300 3158 -300 ct 
3130 -300 3110 -290 3097 -269 ct 3085 -248 3078 -214 3078 -167 ct p ef
3430 -156 m  3430 -118 3438 -88 3453 -67 ct 3469 -46 3493 -36 3523 -36 ct 3547 -36 3567 -41 3581 -50 ct 
3596 -60 3606 -72 3611 -87 ct 3660 -73 l  3640 -20 3594 6 3523 6 ct 3474 6 3436 -9 3410 -38 ct 
3384 -68 3371 -112 3371 -170 ct 3371 -226 3384 -268 3410 -298 ct 3436 -327 3473 -342 3521 -342 ct 
3620 -342 3669 -283 3669 -164 ct 3669 -156 l  3430 -156 l  p
3611 -199 m  3608 -234 3599 -260 3584 -277 ct 3569 -293 3548 -301 3520 -301 ct 
3493 -301 3472 -292 3456 -274 ct 3440 -256 3431 -231 3430 -199 ct 3611 -199 l 
p ef
pom
pum
2622 2476 t
394 -121 m  394 -81 379 -49 347 -27 ct 316 -5 271 6 214 6 ct 107 6 46 -31 29 -105 ct 
86 -117 l  93 -90 107 -71 128 -59 ct 150 -46 179 -40 216 -40 ct 254 -40 284 -47 305 -60 ct 
325 -73 336 -92 336 -118 ct 336 -132 333 -144 326 -153 ct 320 -161 310 -169 299 -175 ct 
287 -180 273 -185 256 -189 ct 240 -193 222 -197 202 -202 ct 168 -210 141 -217 124 -225 ct 
106 -233 92 -241 81 -250 ct 71 -260 63 -271 58 -284 ct 52 -296 49 -311 49 -327 ct 
49 -364 64 -393 92 -414 ct 121 -434 162 -444 215 -444 ct 265 -444 303 -436 329 -421 ct 
355 -406 374 -380 384 -343 ct 326 -333 l  319 -356 307 -373 289 -384 ct 271 -394 246 -399 215 -399 ct 
180 -399 153 -394 135 -382 ct 116 -370 107 -353 107 -330 ct 107 -317 111 -306 118 -297 ct 
125 -288 135 -281 149 -274 ct 162 -268 189 -261 229 -252 ct 242 -249 256 -246 269 -242 ct 
282 -239 295 -235 307 -231 ct 319 -226 331 -221 342 -215 ct 352 -209 361 -202 369 -193 ct 
377 -185 383 -174 388 -163 ct 392 -151 394 -137 394 -121 ct p ef
465 -407 m  465 -460 l  521 -460 l  521 -407 l  465 -407 l  p
465 1 m  465 -335 l  521 -335 l  521 1 l  465 1 l  p ef
819 0 m  819 -213 l  819 -235 817 -252 812 -264 ct 808 -277 801 -285 792 -291 ct 
782 -296 768 -299 750 -299 ct 723 -299 702 -290 686 -271 ct 671 -253 663 -227 663 -195 ct 
663 0 l  607 0 l  607 -264 l  607 -303 606 -327 605 -336 ct 658 -336 l  658 -335 658 -332 659 -327 ct 
659 -323 659 -318 659 -312 ct 660 -306 660 -295 660 -278 ct 661 -278 l  674 -302 689 -318 706 -328 ct 
723 -337 744 -342 769 -342 ct 805 -342 832 -333 849 -315 ct 866 -296 875 -266 875 -224 ct 
875 0 l  819 0 l  p ef
1167 1 m  1054 -153 l  1013 -119 l  1013 1 l  957 1 l  957 -460 l  1013 -460 l 
1013 -172 l  1160 -335 l  1225 -335 l  1089 -191 l  1232 1 l  1167 1 l 
p ef
1745 0 m  1512 -373 l  1513 -343 l  1515 -291 l  1515 0 l  1462 0 l  1462 -438 l 
1531 -438 l  1767 -62 l  1765 -103 1763 -132 1763 -151 ct 1763 -438 l  1817 -438 l 
1817 0 l  1745 0 l  p ef
2193 -168 m  2193 -110 2181 -66 2155 -37 ct 2129 -8 2091 6 2042 6 ct 1993 6 1956 -9 1931 -39 ct 
1906 -69 1894 -112 1894 -168 ct 1894 -284 1944 -342 2044 -342 ct 2095 -342 2133 -328 2157 -300 ct 
2181 -272 2193 -228 2193 -168 ct p
2135 -168 m  2135 -215 2128 -248 2114 -269 ct 2101 -291 2077 -301 2045 -301 ct 
2012 -301 1989 -290 1974 -269 ct 1960 -247 1952 -214 1952 -168 ct 1952 -124 1959 -91 1974 -69 ct 
1988 -46 2011 -35 2042 -35 ct 2075 -35 2099 -46 2113 -68 ct 2128 -89 2135 -123 2135 -168 ct 
p ef
2473 -53 m  2462 -32 2449 -16 2431 -7 ct 2414 2 2393 7 2368 7 ct 2326 7 2295 -7 2275 -36 ct 
2255 -64 2245 -108 2245 -166 ct 2245 -283 2286 -341 2368 -341 ct 2393 -341 2415 -337 2432 -327 ct 
2449 -318 2462 -303 2473 -283 ct 2473 -283 l  2473 -321 l  2473 -460 l  2528 -460 l 
2528 -68 l  2528 -33 2529 -10 2530 1 ct 2477 1 l  2476 -3 2476 -10 2475 -22 ct 
2474 -34 2474 -45 2474 -53 ct 2473 -53 l  p
2303 -167 m  2303 -120 2309 -87 2322 -67 ct 2334 -46 2354 -36 2382 -36 ct 2414 -36 2437 -47 2451 -69 ct 
2465 -91 2473 -125 2473 -171 ct 2473 -216 2465 -248 2451 -269 ct 2437 -290 2414 -300 2383 -300 ct 
2355 -300 2335 -290 2322 -269 ct 2310 -248 2303 -214 2303 -167 ct p ef
2656 -156 m  2656 -118 2664 -88 2679 -67 ct 2695 -46 2719 -36 2749 -36 ct 2773 -36 2793 -41 2807 -50 ct 
2822 -60 2832 -72 2837 -87 ct 2886 -73 l  2866 -20 2820 6 2749 6 ct 2700 6 2662 -9 2636 -38 ct 
2610 -68 2597 -112 2597 -170 ct 2597 -226 2610 -268 2636 -298 ct 2662 -327 2699 -342 2747 -342 ct 
2846 -342 2895 -283 2895 -164 ct 2895 -156 l  2656 -156 l  p
2837 -199 m  2834 -234 2825 -260 2810 -277 ct 2795 -293 2774 -301 2746 -301 ct 
2719 -301 2698 -292 2682 -274 ct 2666 -256 2657 -231 2656 -199 ct 2837 -199 l 
p ef
pom
gs
0.003 0.003 1.000 c 12354 1485 m  12579 1485 12751 1657 12751 1882 ct 12751 2107 12579 2280 12354 2280 ct 
12129 2280 11957 2107 11957 1882 ct 11957 1657 12129 1485 12354 1485 ct p
11957 1485 m  11957 1485 l  p
12752 2282 m  12752 2282 l  p ef
gr
gs
102 lw 1 lj 12354 1485 m  12579 1485 12751 1657 12751 1882 ct 12751 2107 12579 2280 12354 2280 ct 
12129 2280 11957 2107 11957 1882 ct 11957 1657 12129 1485 12354 1485 ct pc
gr
gs
102 lw 1 lj 11957 1485 m  11957 1485 l  pc
gr
gs
102 lw 1 lj 12752 2282 m  12752 2282 l  pc
gr
gs
103 lw 1 lj 9460 4937 m  9598 4791 l  ps
9687 4697 m  9825 4550 l  ps
9913 4456 m  10051 4310 l  ps
10140 4216 m  10278 4069 l  ps
10367 3975 m  10505 3829 l  ps
10593 3735 m  10731 3588 l  ps
10820 3494 m  10958 3348 l  ps
11047 3254 m  11185 3107 l  ps
11273 3013 m  11411 2867 l  ps
11500 2773 m  11638 2626 l  ps
11727 2532 m  11865 2386 l  ps
11954 2292 m  12073 2165 l  ps
gr
gs
0.003 0.003 1.000 c 15243 6819 m  15468 6819 15640 6991 15640 7216 ct 15640 7441 15468 7614 15243 7614 ct 
15018 7614 14846 7441 14846 7216 ct 14846 6991 15018 6819 15243 6819 ct p
14846 6819 m  14846 6819 l  p
15641 7616 m  15641 7616 l  p ef
gr
gs
102 lw 1 lj 15243 6819 m  15468 6819 15640 6991 15640 7216 ct 15640 7441 15468 7614 15243 7614 ct 
15018 7614 14846 7441 14846 7216 ct 14846 6991 15018 6819 15243 6819 ct pc
gr
gs
102 lw 1 lj 14846 6819 m  14846 6819 l  pc
gr
gs
102 lw 1 lj 15641 7616 m  15641 7616 l  pc
gr
gs
103 lw 1 lj 12635 5374 m  12802 5486 l  ps
12909 5558 m  13076 5670 l  ps
13184 5742 m  13351 5854 l  ps
13458 5926 m  13625 6038 l  ps
13733 6110 m  13900 6222 l  ps
14007 6295 m  14174 6406 l  ps
14282 6479 m  14449 6591 l  ps
14556 6663 m  14723 6775 l  ps
14831 6847 m  14962 6935 l  ps
gr
gs
0.003 0.003 1.000 c 15751 4025 m  15976 4025 16148 4197 16148 4422 ct 16148 4647 15976 4820 15751 4820 ct 
15526 4820 15354 4647 15354 4422 ct 15354 4197 15526 4025 15751 4025 ct p
15354 4025 m  15354 4025 l  p
16149 4822 m  16149 4822 l  p ef
gr
gs
102 lw 1 lj 15751 4025 m  15976 4025 16148 4197 16148 4422 ct 16148 4647 15976 4820 15751 4820 ct 
15526 4820 15354 4647 15354 4422 ct 15354 4197 15526 4025 15751 4025 ct pc
gr
gs
102 lw 1 lj 15354 4025 m  15354 4025 l  pc
gr
gs
102 lw 1 lj 16149 4822 m  16149 4822 l  pc
gr
gs
103 lw 1 lj 12635 2165 m  12800 2280 l  ps
12906 2354 m  13071 2469 l  ps
13177 2543 m  13342 2658 l  ps
13448 2732 m  13613 2847 l  ps
13719 2921 m  13884 3036 l  ps
13991 3110 m  14155 3225 l  ps
14262 3299 m  14427 3414 l  ps
14533 3488 m  14698 3603 l  ps
14804 3677 m  14969 3792 l  ps
15075 3866 m  15240 3981 l  ps
15346 4055 m  15470 4141 l  ps
gr
gr
gs
0 0 m 16509 0 l 16509 8889 l 0 8889 l 0 0 l eoclip newpath
gr
gr
0 8890 t 
pom
count op_count sub {pop} repeat countdictstack dict_count sub {end} repeat b4_inc_state restore
%%PageTrailer
%%Trailer
%%EOF
